%time,field.header.seq,field.header.frame_id,field.point_id,field.x,field.y,field.z,field.velocity,field.intensity,normalized_x,normalized_y,normalized_z,normalized_intensity,normalized_velocity,normalized_range,range
1648639747270934613,149361,0,0,0.0272253192961,0.081803791225,0.0134451398626,0.0,24.8999996185,0.009105457958561873,0.0273591275,0.004496702295183946,24.8999996185,0.0,0.030238065196561963,0.08725737822948187
1648639747270946162,149362,0,1,0.0697175487876,0.0272679310292,-0.0448305010796,0.0,24.8999996185,0.0233169059490301,0.00911970937431438,-0.0149934786219398,24.8999996185,0.0,0.03421294060942128,0.08725738076869263
1648639747270952459,149363,0,2,0.211040616035,-0.081803791225,-0.131509110332,0.0,24.8999996185,0.07058214583110367,-0.0273591275,-0.04398298004414715,24.8999996185,0.0,0.10349976076207919,0.2617721298678105
1648639747270967698,149364,0,3,0.948316812515,0.899841725826,-0.0640015825629,0.0,24.8999996185,0.3171628135501672,0.3009504099752508,-0.021405211559498327,24.8999996185,0.0,0.5401441010160046,1.308860615576265
1648639747271028224,149365,0,4,2.33737230301,1.8133174181,0.758641064167,0.0,24.8999996185,0.7817298672274247,0.6064606749498327,0.25372610841705684,24.8999996185,0.0,1.260951117566189,3.0540081214534385
1648639747271044311,149366,0,5,3.8289270401,-1.00345981121,0.665801584721,0.0,24.8999996185,1.2805776053846152,-0.3356052880301003,0.22267611529130435,24.8999996185,0.0,1.8418438902846672,4.013839262020784
1648639747271048884,149367,0,6,4.93581056595,1.47246825695,0.937800526619,0.243430063128,24.8999996185,1.6507727645317725,0.49246429998327756,0.31364566107658864,24.8999996185,0.03289595447675676,2.3859217353043585,5.235442535105881
1648639747271051552,149368,0,7,5.26255226135,1.0307277441,1.20934402943,0.243430063128,24.8999996185,1.7600509235284278,0.3447249980267558,0.40446288609698994,24.8999996185,0.03289595447675676,2.5128457634902883,5.49721465538826
1648639747271092748,149369,0,8,0.847569942474,-1.09071719646,0.202747985721,-0.486860126257,24.8999996185,0.28346820818528423,-0.36478836002006687,0.06780869087658863,24.8999996185,-0.06579190895364864,0.5420138353489523,1.3961180307383987
1648639747271097176,149370,0,9,0.617578864098,-1.31158745289,0.710052728653,-0.486860126257,24.8999996185,0.20654811508294313,-0.43865801099999996,0.23747582898093642,24.8999996185,-0.06579190895364864,0.5270152733110394,1.6142614959871355
1648639747271103637,149371,0,10,1.25188243389,-0.706239402294,-0.734749436378,-0.486860126257,24.8999996185,0.4186897772207358,-0.2362004689946488,-0.24573559745083612,24.8999996185,-0.06579190895364864,0.6374895455233683,1.6142615822389894
1648639747271110989,149372,0,11,1.19201350212,-0.95437759161,0.00298570655286,-0.365145087242,24.8999996185,0.3986667231170568,-0.31918982996989964,0.0009985640645016722,24.8999996185,-0.04934393070837838,0.6478830602801693,1.5270041555435634
1648639747271147380,149373,0,12,0.922059178352,-1.47246825695,0.164876207709,-0.365145087242,24.8999996185,0.3083809961043478,-0.49246429998327756,0.05514254438428093,24.8999996185,-0.04934393070837838,0.6578136242695488,1.7451475754150532
1648639747370854296,149374,1,0,0.0271956119686,0.081803791225,0.013505127281,0.0,21.2999992371,0.009095522397525082,0.0273591275,0.004516764976923077,21.2999992371,0.0,0.030232084164493477,0.08725737809495572
1648639747370859973,149375,1,1,0.0696996450424,0.0272679310292,-0.0448583215475,0.0,21.2999992371,0.023310918074381272,0.00911970937431438,-0.015002783126254181,21.2999992371,0.0,0.0342047789353036,0.08725737558343516
1648639747370863769,149376,1,2,0.207340866327,-0.0899841710925,-0.132050216198,0.0,21.2999992371,0.06934477134682274,-0.030095040499163877,-0.04416395190568562,21.2999992371,0.0,0.10258219187038542,0.2617721251286579
1648639747370882694,149377,1,3,0.948285877705,0.899841725826,-0.0644584298134,0.0,21.2999992371,0.3171524674598662,0.3009504099752508,-0.021558003282073575,21.2999992371,0.0,0.540131951004599,1.3088606215202079
1648639747370891288,149378,1,4,2.33876109123,1.8133174181,0.754349052906,0.0,21.2999992371,0.7821943448929765,0.6064606749498327,0.2522906531458194,21.2999992371,0.0,1.2615270653559962,3.0540081850342786
1648639747370925135,149379,1,5,3.82887482643,-1.00345981121,0.666100859642,0.0,21.2999992371,1.280560142618729,-0.3356052880301003,0.2227762072381271,21.2999992371,0.0,1.8418196076383717,4.013839107936289
1648639747370938303,149380,1,6,5.22903299332,1.3852108717,1.19972884655,0.365145087242,21.2999992371,1.7488404659933108,0.463281227993311,0.4012471058695652,21.2999992371,0.04934393070837838,2.5162502751519753,5.540843303103705
1648639747370943340,149381,1,7,0.831919252872,-1.05663228035,0.143756881356,-0.608575165272,21.2999992371,0.2782338638367893,-0.3533887225250836,0.04807922453377927,21.2999992371,-0.0822398871989189,0.5288778263257106,1.3524893567470135
1648639747370949814,149382,1,8,0.900758802891,-1.43565654755,0.15063354373,-0.486860126257,21.2999992371,0.301257124712709,-0.4801526914882943,0.050379111615384616,21.2999992371,-0.06579190895364864,0.6419176874987872,1.701518912032855
1648639747370952715,149383,1,9,0.751350939274,-1.22705686092,0.629833877087,-0.365145087242,21.2999992371,0.25128793955652173,-0.410386910006689,0.21064678163444814,21.2999992371,-0.04934393070837838,0.5428707701082851,1.5706328299781616
1648639747370960650,149384,1,10,1.17794883251,-0.68715184927,-0.779195904732,-0.365145087242,21.2999992371,0.39396282023745816,-0.22981667199665548,-0.2606006370341137,21.2999992371,-0.04934393070837838,0.6026849178356148,1.570632794104966
1648639747371070611,149385,1,11,1.10905015469,-0.973465144634,0.150917381048,-0.243430063128,21.2999992371,0.3709197841772575,-0.32557362696789294,0.05047404048428094,21.2999992371,-0.03289595447675676,0.6173825063647619,1.4833754377559292
1648639747470997596,149386,2,0,0.0272318385541,0.081803791225,0.0134319290519,0.0,29.8999996185,0.009107638312408026,0.0273591275,0.004492283963846154,29.8999996185,0.0,0.030239378446332878,0.08725737795668187
1648639747471002354,149387,2,1,0.0698078945279,0.0272679310292,-0.0446896776557,0.0,29.8999996185,0.023347121915685616,0.00911970937431438,-0.014946380486856186,29.8999996185,0.0,0.034254128255784486,0.0872573749891778
1648639747471010488,149388,2,2,0.212641552091,-0.081803791225,-0.128904446959,0.0,29.8999996185,0.07111757595016721,-0.0273591275,-0.04311185517023411,29.8999996185,0.0,0.10423023110219444,0.2617721268207494
1648639747471033500,149389,2,3,0.94797950983,0.899841725826,-0.0688178613782,0.0,29.8999996185,0.3170500032876254,0.3009504099752508,-0.02301600714989966,29.8999996185,0.0,0.5400116280540985,1.3088606421768936
1648639747471040935,149390,2,4,2.33777236938,1.8133174181,0.757407963276,0.0,29.8999996185,0.7818636686889632,0.6064606749498327,0.2533137000923077,29.8999996185,0.0,1.2611170219658985,3.0540082731805636
1648639747471045932,149391,2,5,3.82978343964,-1.00345981121,0.660856723785,0.0,29.8999996185,1.2808640266354514,-0.3356052880301003,0.22102231564715719,29.8999996185,0.0,1.8422421715972446,4.013839109459451
1648639747471051024,149392,2,6,0.734279811382,-1.02800095081,0.0697079002857,-0.486860126257,29.8999996185,0.2455785322347826,-0.34381302702675587,0.023313679025317724,29.8999996185,-0.06579190895364864,0.48869727699515686,1.265231989649207
1648639747471062368,149393,2,7,0.972483098507,-0.989825904369,0.383916646242,-0.243430063128,29.8999996185,0.32524518344715714,-0.3310454529662207,0.12840021613444816,29.8999996185,-0.03289595447675676,0.566709758730834,1.439746744779577
1648639747471070081,149394,2,8,0.73130351305,-1.17797458172,0.73787432909,-0.243430063128,29.8999996185,0.24458311473244143,-0.3939714320133779,0.24678071207023408,29.8999996185,-0.03289595447675676,0.5242664296587346,1.5706328243442824
1648639747471073989,149395,2,9,2.90056562424,-3.43575906754,0.876328706741,-0.243430063128,29.8999996185,0.9700888375384614,-1.1490833001806018,0.2930865239936455,29.8999996185,-0.03289595447675676,1.7895633926149108,4.581012258547718
1648639747570981969,149396,3,0,0.0272766966373,0.081803791225,0.0133406007662,0.0,13.0,0.009122641015819397,0.0273591275,0.004461739386688963,13.0,0.0,0.030248421707062288,0.08725737829564797
1648639747571120366,149397,3,1,0.0697249174118,0.0272679310292,-0.0448190309107,0.0,13.0,0.02331937037183946,0.00911970937431438,-0.014989642445050166,13.0,0.0,0.0342162997436895,0.08725737620665557
1648639747571124196,149398,3,2,0.206573531032,-0.0899841710925,-0.133247390389,0.0,13.0,0.06908813746889632,-0.030095040499163877,-0.04456434461170568,13.0,0.0,0.1022352822683468,0.26177211810219886
1648639747571130859,149399,3,3,0.948203742504,0.899841725826,-0.0656557902694,0.0,13.0,0.31712499749297657,0.3009504099752508,-0.021958458284080263,13.0,0.0,0.540099692032973,1.3088606310956126
1648639747571197165,149400,3,4,2.34676194191,1.8133174181,0.72907781601,0.0,13.0,0.7848702146856187,0.6064606749498327,0.243838734451505,13.0,0.0,1.264846653971107,3.054008207680516
1648639747571214997,149401,3,5,3.82540726662,-1.00345981121,0.685735464096,0.0,13.0,1.279400423618729,-0.3356052880301003,0.22934296458060197,13.0,0.0,1.84020699848287,4.013839243784143
1648639747571220474,149402,3,6,0.843607723713,-1.05663228035,-0.0328891649842,-0.486860126257,13.0,0.28214305140903007,-0.3533887225250836,-0.01099972073050167,13.0,-0.06579190895364864,0.5330037449443557,1.3524893583903823
1648639747571226676,149403,3,7,0.969146430492,-1.03481793404,0.250555098057,-0.365145087242,13.0,0.32412924096722406,-0.3460929545284281,0.08379769165785952,13.0,-0.04934393070837838,0.5743690998601807,1.439746789372545
1648639747671060327,149404,4,0,0.0272809471935,0.081803791225,0.0133319050074,0.0,24.7000007629,0.009124062606521738,0.0273591275,0.004458831106153846,24.7000007629,0.0,0.030249279238631667,0.08725737808165142
1648639747671068282,149405,4,1,0.0697813034058,0.0272679310292,-0.0447311960161,0.0,24.7000007629,0.023338228563812704,0.00911970937431438,-0.0149602662261204,24.7000007629,0.0,0.03424200525765809,0.08725737942808208
1648639747671075772,149406,4,2,0.212182357907,-0.081803791225,-0.129658892751,0.0,24.7000007629,0.0709639993,-0.0273591275,-0.04336417817759197,24.7000007629,0.0,0.10402067222846648,0.2617721179483654
1648639747671079644,149407,4,3,0.948297977448,0.899841725826,-0.0642802491784,0.0,24.7000007629,0.3171565141966555,0.3009504099752508,-0.02149841109645485,24.7000007629,0.0,0.5401367033066891,1.3088606251255017
1648639747671115122,149408,4,4,2.42298460007,1.71787965298,0.710633814335,0.0,24.7000007629,0.8103627424983276,0.5745416899598662,0.2376701720183946,24.7000007629,0.0,1.2819803829859335,3.0540080701228303
1648639747671176299,149409,4,5,3.82571196556,-1.00345981121,0.684033036232,0.0,24.7000007629,1.2795023296187291,-0.3356052880301003,0.22877359071304346,24.7000007629,0.0,1.8403486985767878,4.013839163543968
1648639747671180479,149410,4,6,4.98251724243,1.49700939655,1.12455236912,0.243430063128,24.7000007629,1.6663937265652173,0.5006720389799331,0.3761044712775919,24.7000007629,0.03289595447675676,2.409234026508871,5.322699806993126
1648639747671206658,149411,4,7,5.35239362717,1.23114705086,1.22950518131,0.243430063128,24.7000007629,1.7900982030668895,0.4117548665083612,0.41120574625752504,24.7000007629,0.03289595447675676,2.5648479922482603,5.628101242149028
1648639747671290013,149412,4,8,0.858295202255,-1.04708850384,0.340705990791,-0.365145087242,24.7000007629,0.287055251590301,-0.35019682402675584,0.11394849190334447,24.7000007629,-0.04934393070837838,0.5361336125347567,1.3961180327066611
1648639747671298665,149413,4,9,0.65352678299,-1.0307277441,0.0530820079148,-0.243430063128,24.7000007629,0.2185708304314381,-0.3447249980267558,0.017753179904615383,24.7000007629,-0.03289595447675676,0.4630137579981007,1.2216033063589016
1648639747671301933,149414,4,10,1.23439586163,-0.648976743221,-0.505468785763,-0.243430063128,24.7000007629,0.41284142529431433,-0.21704907800033443,-0.1690531056063545,24.7000007629,-0.03289595447675676,0.6228855329343242,1.4833754244397228
1648639747770966532,149415,5,0,0.0272398274392,0.081803791225,0.0134157231078,0.0,15.0,0.009110310180334447,0.0273591275,0.004486863915652174,15.0,0.0,0.030240988091083717,0.08725737839407015
1648639747770977682,149416,5,1,0.0697917491198,0.0272679310292,-0.0447148941457,0.0,15.0,0.023341722113645484,0.00911970937431438,-0.014954814095551838,15.0,0.0,0.03424676746107946,0.08725737829132542
1648639747770987419,149417,5,2,0.212562412024,-0.081803791225,-0.129034906626,0.0,15.0,0.07109110770033444,-0.0273591275,-0.04315548716588629,15.0,0.0,0.10419411233693754,0.26177212684360546
1648639747770993576,149418,5,3,0.948236465454,0.899841725826,-0.0651820898056,0.0,15.0,0.31713594162341135,0.3009504099752508,-0.021800030035317726,15.0,0.0,0.5401125440156034,1.30886066133322
1648639747771011521,149419,5,4,2.42487430573,1.71787965298,0.704159259796,0.0,15.0,0.8109947510802675,0.5745416899598662,0.2355047691625418,15.0,0.0,1.282779453398529,3.0540082128030837
1648639747771053139,149420,5,5,3.82069134712,-1.00345981121,0.711541712284,0.0,15.0,1.2778231930167223,-0.3356052880301003,0.23797381681739127,15.0,0.0,1.8380139103327453,4.013839255748952
1648639747771072900,149421,5,6,0.709589719772,-0.992552638054,0.0603012964129,-0.365145087242,15.0,0.23732097651237458,-0.3319574040314381,0.020167657663177258,15.0,-0.04934393070837838,0.4720574222241035,1.2216032727784978
1648639747771080675,149422,5,7,0.804150521755,-1.05663228035,0.257094621658,-0.365145087242,15.0,0.26894666279431434,-0.3533887225250836,0.08598482329698996,15.0,-0.04934393070837838,0.5191803194115776,1.352489364838759
1648639747871002347,149423,6,0,0.0271956119686,0.081803791225,0.013505127281,0.0,25.0,0.009095522397525082,0.0273591275,0.004516764976923077,25.0,0.0,0.030232084164493477,0.08725737809495572
1648639747871011412,149424,6,1,0.0697280466557,0.0272679310292,-0.0448141656816,0.0,25.0,0.023320416941705682,0.00911970937431438,-0.01498801527812709,25.0,0.0,0.03421772627954617,0.08725737790451062
1648639747871015331,149425,6,2,0.213219344616,-0.081803791225,-0.127946451306,0.0,25.0,0.07131081759732441,-0.0273591275,-0.04279145528628762,25.0,0.0,0.10449395805671734,0.26177212147029444
1648639747871021907,149426,6,3,0.949033915997,0.899841725826,-0.0523038245738,0.0,25.0,0.31740264749063546,0.3009504099752508,-0.017492917917658862,25.0,0.0,0.5404257863318521,1.3088606477830869
1648639747871024055,149427,6,4,2.42395830154,1.71787965298,0.707305908203,0.0,25.0,0.8106883951638795,0.5745416899598662,0.2365571599341137,25.0,0.0,1.2823921013514985,3.0540081855663446
1648639747871051122,149428,6,5,3.82459449768,-1.00345981121,0.690253436565,0.0,25.0,1.279128594541806,-0.3356052880301003,0.23085399216220737,25.0,0.0,1.8398290225188747,4.013839118735022
1648639747871146114,149429,6,6,0.781853735447,-1.02254736423,0.237102866173,-0.486860126257,25.0,0.26148954362775917,-0.34198908502675585,0.07929861744916387,25.0,-0.06579190895364864,0.5036964335100509,1.308860628513823
1648639747871148589,149430,6,7,0.711005628109,-1.02800095081,0.196206539869,-0.365145087242,25.0,0.23779452445117055,-0.34381302702675587,0.06562091634414716,25.0,-0.04934393070837838,0.4809364503457993,1.2652319804511358
1648639747871152445,149431,6,8,0.626410007477,-0.993916034698,0.0858227387071,-0.243430063128,25.0,0.20950167474147158,-0.33241338953110366,0.028703257092675582,25.0,-0.03289595447675676,0.445287059073717,1.1779745854543375
1648639747871156023,149432,6,9,0.397577673197,-1.16979420185,0.73917812109,-0.243430063128,25.0,0.13296912147056855,-0.39123551901337794,0.2472167629063545,25.0,-0.03289595447675676,0.4340815659147217,1.439746774820059
1648639747971062482,149433,7,0,0.0271869786084,0.081803791225,0.0135224983096,0.0,17.7000007629,0.009092634986086956,0.0273591275,0.004522574685484949,17.7000007629,0.0,0.03023034699671311,0.08725737805578461
1648639747971075637,149434,7,1,0.0698273032904,0.0272679310292,-0.0446593500674,0.0,17.7000007629,0.023353613140602004,0.00911970937431438,-0.014936237480735786,17.7000007629,0.0,0.034262976994326615,0.0872573773148454
1648639747971080024,149435,7,2,0.211373344064,-0.081803791225,-0.130973652005,0.0,17.7000007629,0.0706934261083612,-0.0273591275,-0.043803896991638794,17.7000007629,0.0,0.10365154532103178,0.2617721306004678
1648639747971172886,149436,7,3,0.948409259319,0.899841725826,-0.0626166760921,0.0,17.7000007629,0.31719373221371233,0.3009504099752508,-0.020942032137826087,17.7000007629,0.0,0.5401804113216251,1.3088606124505204
1648639747971181624,149437,7,4,0.995121836662,1.52427732944,0.453666657209,0.0,17.7000007629,0.33281666777993313,0.5097917489765886,0.15172797899966556,17.7000007629,0.0,0.6938454410233491,1.8760336571366407
1648639747971184821,149438,7,5,2.42367100716,1.71787965298,0.70828962326,0.0,17.7000007629,0.8105923100869564,0.5745416899598662,0.23688616162541803,17.7000007629,0.0,1.2822706188032837,3.054008160350664
1648639747971188950,149439,7,6,3.8262526989,-1.00345981121,0.681001782417,0.0,17.7000007629,1.279683176889632,-0.3356052880301003,0.22775979345050168,17.7000007629,0.0,1.8406001672776324,4.013839151760852
1648639747971293592,149440,7,7,0.706380426884,-0.992552638054,0.0904462635517,-0.486860126257,17.7000007629,0.23624763440936455,-0.3319574040314381,0.030249586472140468,17.7000007629,-0.06579190895364864,0.47097941315872077,1.2216032798675847
1648639747971301749,149441,7,8,0.448396146297,-1.17797458172,0.600385129452,-0.365145087242,17.7000007629,0.14996526632006688,-0.3939714320133779,0.2007977021578595,17.7000007629,-0.04934393070837838,0.4474289345220857,1.3961180189581053
1648639747971306256,149442,7,9,0.955061793327,-0.6544303298,-0.780207335949,-0.365145087242,17.7000007629,0.3194186599755853,-0.21887302,-0.2609389083441472,17.7000007629,-0.04934393070837838,0.5019581253103863,1.3961180368091224
1648639747971323982,149443,7,10,0.601802885532,-0.957104325294,0.0923316031694,-0.243430063128,17.7000007629,0.201271868070903,-0.3201017810347826,0.030880134839264214,17.7000007629,-0.03289595447675676,0.4283525183480796,1.1343458588433053
1648639748071085370,149444,8,0,0.0272253192961,0.081803791225,0.0134451398626,0.0,32.7000007629,0.009105457958561873,0.0273591275,0.004496702295183946,32.7000007629,0.0,0.030238065196561963,0.08725737822948187
1648639748071099602,149445,8,1,0.0696903839707,0.0272679310292,-0.0448727123439,0.0,32.7000007629,0.02330782072598662,0.00911970937431438,-0.015007596101638794,32.7000007629,0.0,0.034200557203961174,0.08725737787542784
1648639748071105803,149446,8,2,0.212641552091,-0.081803791225,-0.128904446959,0.0,32.7000007629,0.07111757595016721,-0.0273591275,-0.04311185517023411,32.7000007629,0.0,0.10423023110219444,0.2617721268207494
1648639748071112163,149447,8,3,0.948257863522,0.899841725826,-0.0648697242141,0.0,32.7000007629,0.317143098167893,0.3009504099752508,-0.021695559937826087,32.7000007629,0.0,0.5401209482100571,1.3088606451369968
1648639748071120576,149448,8,4,0.994869410992,1.52427732944,0.454219967127,0.0,32.7000007629,0.33273224447892974,0.5097917489765886,0.1519130324839465,32.7000007629,0.0,0.6937644559622392,1.876033661880607
1648639748071124727,149449,8,5,2.42385458946,1.71787965298,0.707661569118,0.0,32.7000007629,0.8106537088494983,0.5745416899598662,0.2366761100729097,32.7000007629,0.0,1.2823482463218925,3.054008262820443
1648639748071175305,149450,8,6,3.82706952095,-1.00345981121,0.676396787167,0.0,32.7000007629,1.279956361521739,-0.3356052880301003,0.2262196612598662,32.7000007629,0.0,1.8409800336108224,4.013839225054724
1648639748071232210,149451,8,7,0.717899680138,-0.818037867546,0.0714011713862,-0.730290174484,32.7000007629,0.24010022747090298,-0.27359126004882944,0.02387999043016722,32.7000007629,-0.09868786141675676,0.43606010599258554,1.0907172093429034
1648639748071252606,149452,8,8,0.52632689476,-0.954377532005,0.042515642941,-0.365145087242,32.7000007629,0.17602906179264213,-0.31918981003511704,0.014219278575585283,32.7000007629,-0.04934393070837838,0.40478957005022964,1.0907172198321367
1648639748171079137,149453,9,0,0.0272347982973,0.081803791225,0.0134259276092,0.0,41.9000015259,0.009108628193076923,0.0273591275,0.004490276792374581,41.9000015259,0.0,0.03023997474669395,0.08725737807913714
1648639748171089343,149454,9,1,0.0696903839707,0.0272679310292,-0.0448727123439,0.0,41.9000015259,0.02330782072598662,0.00911970937431438,-0.015007596101638794,41.9000015259,0.0,0.034200557203961174,0.08725737787542784
1648639748171093471,149455,9,2,0.212225466967,-0.081803791225,-0.129588350654,0.0,41.9000015259,0.07097841704581939,-0.0273591275,-0.04334058550301004,41.9000015259,0.0,0.10404034424309536,0.26177213318718373
1648639748171095830,149456,9,3,0.94801068306,0.899841725826,-0.0683869123459,0.0,41.9000015259,0.31706042911705684,0.3009504099752508,-0.02287187703876254,41.9000015259,0.0,0.5400238704798669,1.3088606329604415
1648639748171099334,149457,9,4,0.997380197048,1.52427732944,0.448679924011,0.0,41.9000015259,0.33357197225685614,0.5097917489765886,0.15006017525451504,41.9000015259,0.0,0.6945704778316357,1.8760336640686281
1648639748171216638,149458,9,5,2.34165930748,1.8133174181,0.745303869247,0.0,41.9000015259,0.7831636479866221,0.6064606749498327,0.24926550810936451,41.9000015259,0.0,1.262729246242453,3.054008223402012
1648639748171220803,149459,9,6,3.82923913002,-1.00345981121,0.664003551006,0.0,41.9000015259,1.2806819832842808,-0.3356052880301003,0.22207476622274244,41.9000015259,0.0,1.8419890319900618,4.013839137700776
1648639748171223035,149460,9,7,0.684908330441,-0.659883916378,-0.129343435168,-0.973720252514,41.9000015259,0.22906633125117054,-0.2206969619993311,-0.04325867396923077,41.9000015259,-0.13158381790729728,0.3919820369117393,0.9598311978795563
1648639748171225019,149461,9,8,0.557944476604,-0.883480906487,0.067481637001,-0.608575165272,41.9000015259,0.18660350388093647,-0.29547856404247486,0.022569109364882944,41.9000015259,-0.0822398871989189,0.3961682939482768,1.0470884978989776
1648639748271029016,149462,10,0,0.0271676145494,0.081803791225,0.013561360538,0.0,43.2999992371,0.009086158712173912,0.0273591275,0.004535572086287625,43.2999992371,0.0,0.030226452286811367,0.08725737813348383
1648639748271058517,149463,10,1,0.0697187483311,0.0272679310292,-0.0448286235332,0.0,43.2999992371,0.023317307134147158,0.00911970937431438,-0.01499285068,43.2999992371,0.0,0.03421348744352522,0.08725737458432863
1648639748271063573,149464,10,2,0.211373344064,-0.081803791225,-0.130973652005,0.0,43.2999992371,0.0706934261083612,-0.0273591275,-0.043803896991638794,43.2999992371,0.0,0.10365154532103178,0.2617721306004678
1648639748271066314,149465,10,3,0.94727730751,0.899841725826,-0.0778890401125,0.0,43.2999992371,0.3168151530133779,0.3009504099752508,-0.02604984619147157,43.2999992371,0.0,0.5397358906187837,1.3088606233784237
1648639748271154640,149466,10,4,2.34170484543,1.8133174181,0.745161116123,0.0,43.2999992371,0.783178878070234,0.6064606749498327,0.24921776458963207,43.2999992371,0.0,1.2627481381381276,3.0540083056332485
1648639748271160310,149467,10,5,3.82323288918,-1.00345981121,0.697755873203,0.0,43.2999992371,1.278673207083612,-0.3356052880301003,0.23336316829531772,43.2999992371,0.0,1.8391958162144524,4.013839131830091
1648639748271165562,149468,10,6,0.208679258823,-0.845305860043,0.0574109442532,0.852005243301,43.2999992371,0.06979239425518395,-0.2827109899809364,0.019200984700066887,43.2999992371,0.11513584368932432,0.29944525450863835,0.872573805821603
1648639748271170077,149469,10,7,0.273114800453,-1.02800095081,0.685152769089,-0.608575165272,43.2999992371,0.0913427426264214,-0.34381302702675587,0.22914808330735786,43.2999992371,-0.0822398871989189,0.36727971740123916,1.2652319811335273
1648639748370932307,149470,11,0,0.0272029004991,0.081803791225,0.0134904403239,0.0,21.8999996185,0.009097960033143811,0.0273591275,0.004511852951137123,21.8999996185,0.0,0.030233551083037213,0.087257378109132
1648639748370945268,149471,11,1,0.0698095485568,0.0272679310292,-0.0446871072054,0.0,21.8999996185,0.02334767510260869,0.00911970937431438,-0.014945520804481603,21.8999996185,0.0,0.034254882344943255,0.08725738182357029
1648639748370949662,149472,11,2,0.211373344064,-0.081803791225,-0.130973652005,0.0,21.8999996185,0.0706934261083612,-0.0273591275,-0.043803896991638794,21.8999996185,0.0,0.10365154532103178,0.2617721306004678
1648639748371031823,149473,11,3,0.947865068913,0.899841725826,-0.0703759640455,0.0,21.8999996185,0.3170117287334448,0.3009504099752508,-0.02353711172090301,21.8999996185,0.0,0.5399666856144052,1.3088606101179354
1648639748371043258,149474,11,4,2.33955478668,1.8133174181,0.751883625984,0.0,21.8999996185,0.7824597948762541,0.6064606749498327,0.25146609564682276,21.8999996185,0.0,1.2618562562574969,3.054008127966427
1648639748371060423,149475,11,5,3.82833695412,-1.00345981121,0.669185519218,0.0,21.8999996185,1.2803802522140468,-0.3356052880301003,0.2238078659591973,21.8999996185,0.0,1.8415694637653988,4.013839145522087
1648639748371168948,149476,11,6,0.172054156661,-0.718509972095,-0.065126657486,0.608575165272,21.8999996185,0.0575431962076923,-0.240304338493311,-0.021781490797993307,21.8999996185,0.0822398871989189,0.2537097041074735,0.7416877337125001
1648639748371178268,149477,11,7,0.523856878281,-0.744414508343,0.10415379703,-0.608575165272,21.8999996185,0.17520296932474916,-0.2489680629909699,0.034834045829431434,21.8999996185,-0.0822398871989189,0.35125098905183677,0.9162024899494824
1648639748371185195,149478,11,8,0.448419362307,-0.846669197083,0.298333495855,-0.486860126257,21.8999996185,0.14997303087190636,-0.28316695554615384,0.09977708891471572,21.8999996185,-0.06579190895364864,0.3537899725700109,1.0034597792288706
1648639748371235264,149479,11,9,0.359510987997,-0.920292615891,0.641433954239,-0.486860126257,21.8999996185,0.12023778862775919,-0.307790172538796,0.21452640609999998,21.8999996185,-0.06579190895364864,0.351637657169492,1.177974603718076
1648639748371238052,149480,11,10,2.46715354919,-2.07236266136,0.782858014107,-0.365145087242,21.8999996185,0.8251349662842808,-0.6930978800535117,0.2618254227782608,21.8999996185,-0.04934393070837838,1.3572325137958472,3.3157804972180336
1648639748371326127,149481,11,11,3.13995289803,0.932563245296,0.515191376209,-0.365145087242,21.8999996185,1.0501514709130435,0.31189406197190633,0.17230480809665552,21.8999996185,-0.04934393070837838,1.5175355447616352,3.315780535928777
1648639748470885814,149482,12,0,0.0272642318159,0.081803791225,0.0133660538122,0.0,11.3000001907,0.009118472179230768,0.0273591275,0.004470252111103678,11.3000001907,0.0,0.030245907612899758,0.08725737785313714
1648639748470895075,149483,12,1,0.0696829557419,0.0272679310292,-0.0448842383921,0.0,11.3000001907,0.02330533636852843,0.00911970937431438,-0.015011450967257523,11.3000001907,0.0,0.03419717101709534,0.08725737355421412
1648639748470900095,149484,12,2,0.21189211309,-0.081803791225,-0.130132690072,0.0,11.3000001907,0.07086692745484949,-0.0273591275,-0.04352263882006689,11.3000001907,0.0,0.10388823163064745,0.2617721239435245
1648639748470903167,149485,12,3,0.948488473892,0.899841725826,-0.0614052675664,0.0,11.3000001907,0.3172202253819398,0.3009504099752508,-0.020536878784749163,11.3000001907,0.0,0.5402115252815409,1.3088606203597044
1648639748470906217,149486,12,4,2.33996319771,1.8133174181,0.750611960888,0.0,11.3000001907,0.7825963871939798,0.6064606749498327,0.2510407895946488,11.3000001907,0.0,1.2620256577260012,3.0540082090999996
1648639748470988513,149487,12,5,3.83110117912,-1.00345981121,0.653175055981,0.0,11.3000001907,1.2813047421806019,-0.3356052880301003,0.21845319598026755,11.3000001907,0.0,1.8428550116660736,4.013839245799967
1648639748470992013,149488,12,6,0.392138570547,-0.567172944546,0.108759336174,-0.608575165272,11.3000001907,0.13115002359431438,-0.18968994800869562,0.03637435992441471,11.3000001907,-0.0822398871989189,0.2652978208601045,0.6980590238229384
1648639748470993896,149489,12,7,0.465273529291,-0.773045837879,0.159209549427,-0.243430063128,11.3000001907,0.15560987601705686,-0.25854375848795985,0.053247340945484944,11.3000001907,-0.03289595447675676,0.33951986993571986,0.916202491346589
1648639748470999756,149490,12,8,0.171729460359,-0.883480906487,0.759996473789,-0.243430063128,11.3000001907,0.05743460212675585,-0.29547856404247486,0.25417942267190635,11.3000001907,-0.03289595447675676,0.30643930696227667,1.1779746006828835
1648639748570926844,149491,13,0,0.0272766966373,0.081803791225,0.0133406007662,0.0,14.0,0.009122641015819397,0.0273591275,0.004461739386688963,14.0,0.0,0.030248421707062288,0.08725737829564797
1648639748570932259,149492,13,1,0.0698256790638,0.0272679310292,-0.0446618869901,0.0,14.0,0.02335306992100334,0.00911970937431438,-0.01493708594986622,14.0,0.0,0.03426223647899389,0.0872573760140108
1648639748570941386,149493,13,2,0.948121547699,0.899841725826,-0.0668325573206,0.0,14.0,0.3170975075916388,0.3009504099752508,-0.022352025859732443,14.0,0.0,0.540067410520141,1.3088606463129193
1648639748570945830,149494,13,3,2.34189462662,1.8133174181,0.744564414024,0.0,14.0,0.7832423500401337,0.6064606749498327,0.2490181986702341,14.0,0.0,1.2628268717656388,3.054008295274815
1648639748570957136,149495,13,4,3.81659913063,-1.00345981121,0.733174920082,0.0,14.0,1.2764545587391303,-0.3356052880301003,0.24520900337190635,14.0,0.0,1.836110941747688,4.013839306708295
1648639748571080435,149496,13,5,0.820607841015,-0.715783178806,0.0626201555133,-0.608575165272,14.0,0.2744507829481605,-0.23939236749364545,0.020943195823846152,14.0,-0.0822398871989189,0.4560210194014408,1.0907172280996718
1648639748571085300,149497,13,6,0.527324914932,-0.681698262691,0.136385217309,-0.486860126257,14.0,0.17636284780334446,-0.22799272999698994,0.04561378505317725,14.0,-0.06579190895364864,0.3379177312632346,0.8725737875758083
1648639748571096383,149498,13,7,0.442648351192,-0.801677167416,0.0283394921571,-0.243430063128,14.0,0.1480429268200669,-0.26811945398528425,0.009478091022441472,14.0,-0.03289595447675676,0.3401785677673864,0.9162024723743436
1648639748670977974,149499,14,0,0.0272150970995,0.081803791225,0.013465818949,0.0,20.7000007629,0.009102039163712373,0.0273591275,0.0045036183775919725,20.7000007629,0.0,0.030236006539170544,0.08725737819167986
1648639748671007566,149500,14,1,0.0697917491198,0.0272679310292,-0.0447148941457,0.0,20.7000007629,0.023341722113645484,0.00911970937431438,-0.014954814095551838,20.7000007629,0.0,0.03424676746107946,0.08725737829132542
1648639748671012856,149501,14,2,0.211709693074,-0.081803791225,-0.130429267883,0.0,20.7000007629,0.07080591741605351,-0.0273591275,-0.04362182872341137,20.7000007629,0.0,0.10380499862636305,0.26177213052723175
1648639748671077276,149502,14,3,2.34411811829,1.8133174181,0.737533926964,0.0,20.7000007629,0.7839859927391304,0.6064606749498327,0.24666686520535117,20.7000007629,0.0,1.263749430814086,3.05400820311656
1648639748671095253,149503,14,4,3.82429361343,-1.00345981121,0.69191879034,0.0,20.7000007629,1.2790279643578595,-0.3356052880301003,0.23141096666889632,20.7000007629,0.0,1.8396890978022853,4.013839165544711
1648639748671099203,149504,14,5,3.81492948532,-1.03618133068,1.24554777145,0.0,20.7000007629,1.2758961489364546,-0.34654894002675585,0.41657116102006686,20.7000007629,0.0,1.8373671744034776,4.144725320087901
1648639748671102868,149505,14,6,3.28444433212,-2.33140802383,-0.9776045084,0.0,20.7000007629,1.0984763652575251,-0.7797351250267558,-0.32695802956521736,20.7000007629,0.0,1.7381851211131851,4.1447253852599335
1648639748671106242,149506,14,7,1.14800357819,-0.807130753994,-0.797789394855,0.243430063128,20.7000007629,0.3839476850133779,-0.26994339598461536,-0.2668191956036789,20.7000007629,0.03289595447675676,0.606383613474153,1.6142614993002447
1648639748671107908,149507,14,8,0.394875854254,-0.567172944546,0.0983581095934,0.365145087242,20.7000007629,0.13206550309498327,-0.18968994800869562,0.03289568882722407,20.7000007629,0.04934393070837838,0.26620456530834274,0.6980590283210966
1648639748671109642,149508,14,9,0.7845749259,-0.749868094921,0.108646176755,-0.486860126257,20.7000007629,0.2623996407692307,-0.250792004990301,0.036336513964882945,20.7000007629,-0.06579190895364864,0.4478881252262643,1.0907171795909878
1648639748671182141,149509,14,10,0.69204646349,-0.75259488821,0.225979968905,-0.365145087242,20.7000007629,0.23145366671906353,-0.2517039759899665,0.07557858491806019,20.7000007629,-0.04934393070837838,0.41291220762355324,1.047088496611028
1648639748671188432,149510,14,11,0.544389307499,-0.681698262691,0.0176857095212,-0.121715031564,20.7000007629,0.18207000250802677,-0.22799272999698994,0.005914953017123746,20.7000007629,-0.01644797723837838,0.34391809571179316,0.8725737927513275
1648639748770915826,149511,15,0,0.0272441077977,0.081803791225,0.0134070273489,0.0,22.1000003815,0.009111741738361203,0.0273591275,0.004483955635083611,22.1000003815,0.0,0.030241850680380718,0.08725737820270695
1648639748770921024,149512,15,1,0.0697990953922,0.0272679310292,-0.0447034277022,0.0,22.1000003815,0.023344179060936453,0.00911970937431438,-0.014950979164615385,22.1000003815,0.0,0.034250116658634686,0.0872573792209488
1648639748771019419,149513,15,2,0.21176174283,-0.081803791225,-0.130344733596,0.0,22.1000003815,0.070823325361204,-0.0273591275,-0.043593556386622066,22.1000003815,0.0,0.10382874692492047,0.26177212525667176
1648639748771047173,149514,15,3,0.301986545324,-0.830308496952,0.242526173592,0.0,22.1000003815,0.10099884458996654,-0.27769514948227425,0.08111243263946487,22.1000003815,0.0,0.3122757263429213,0.9162024986565965
1648639748771051285,149515,15,4,2.33665561676,1.8133174181,0.760846197605,0.0,22.1000003815,0.7814901728294313,0.6064606749498327,0.2544636112391304,22.1000003815,0.0,1.2606539297993544,3.0540082623547193
1648639748771410692,149516,15,5,3.84049129486,-1.00345981121,0.595482766628,0.0,22.1000003815,1.2844452491170568,-0.3356052880301003,0.199158115929097,22.1000003815,0.0,1.8472222674363048,4.013839147743714
1648639748771426297,149517,15,6,0.443781048059,-0.699422419071,0.0318851955235,0.121715031564,22.1000003815,0.14842175520367892,-0.2339205414953177,0.010663944991137122,22.1000003815,0.01644797723837838,0.3142878530407185,0.8289451155589529
1648639748771488265,149518,15,7,0.310333848,-0.672154486179,0.0447431281209,0.730290174484,22.1000003815,0.10379058461538461,-0.2248008314979933,0.014964256896622072,22.1000003815,0.09868786141675676,0.26847790365651286,0.7416877361929924
1648639748771494785,149519,15,8,0.559585809708,-0.486732572317,-0.00746629480273,-0.973720252514,22.1000003815,0.18715244471839462,-0.16278681348394647,-0.002497088562785953,22.1000003815,-0.13158381790729728,0.3107275684138771,0.7416876842303388
1648639748771497083,149520,15,9,0.75217461586,-0.71987336874,0.1113999933,-0.243430063128,22.1000003815,0.2515634166755853,-0.24076032399331102,0.037257522842809365,22.1000003815,-0.03289595447675676,0.42957402019716273,1.0470884768119906
1648639748870939540,149521,16,0,0.0272838845849,0.081803791225,0.0133258923888,0.0,25.1000003815,0.009125045011672241,0.0273591275,0.004456820196923076,25.1000003815,0.0,0.03024987190867666,0.08725737805356869
1648639748870965800,149522,16,1,0.0697008743882,0.0272679310292,-0.0448564141989,0.0,25.1000003815,0.02331132922682274,0.00911970937431438,-0.01500214521702341,25.1000003815,0.0,0.03420533934511683,0.08725737703985903
1648639748870970713,149523,16,2,0.212273567915,-0.081803791225,-0.129509523511,0.0,25.1000003815,0.07099450431939798,-0.0273591275,-0.043314221910033444,25.1000003815,0.0,0.10406229453877756,0.2617721233710606
1648639748871022415,149524,16,3,2.42657828331,1.71787965298,0.698264300823,0.0,25.1000003815,0.8115646432474916,0.5745416899598662,0.23353321097759194,25.1000003815,0.0,1.2835000949905675,3.0540081370157197
1648639748871080970,149525,16,4,3.83100485802,-1.00345981121,0.653739511967,0.0,25.1000003815,1.2812725277658863,-0.3356052880301003,0.21864197724648826,25.1000003815,0.0,1.8428102154505588,4.01383920509944
1648639748871083911,149526,16,5,0.459346324205,-0.736234128475,0.0913525223732,0.121715031564,25.1000003815,0.15362753317892974,-0.24623214999163878,0.030552683067959864,25.1000003815,0.01644797723837838,0.3283795206628928,0.8725737910549077
1648639748871085924,149527,16,6,0.803095698357,-0.715783178806,0.179877012968,-0.243430063128,25.1000003815,0.2685938790491639,-0.23939236749364545,0.060159536109698986,25.1000003815,-0.03289595447675676,0.44899225977689894,1.090717195048941
