%time,field.header.seq,field.header.frame_id,field.point_id,field.x,field.y,field.z,field.velocity,field.intensity,normalized_x,normalized_y,normalized_z,normalized_intensity,normalized_velocity,normalized_range,range
1648639234363558827,100227,0,0,0.0272333621979,0.081803791225,0.0134288398549,0.0,22.1000003815,0.009108147892274246,0.0273591275,0.004491250787591973,22.1000003815,0.0,0.030239685408686642,0.0872573779988486
1648639234363572636,100228,0,1,0.0697870403528,0.0272679310292,-0.0447222441435,0.0,22.1000003815,0.023340147275183947,0.00911970937431438,-0.014957272288795984,22.1000003815,0.0,0.03424462072686031,0.08725737897190909
1648639234363599382,100229,0,2,0.212407797575,-0.081803791225,-0.129289269447,0.0,22.1000003815,0.07103939718227424,-0.0273591275,-0.04324055834347826,22.1000003815,0.0,0.1041235504657956,0.26177212976859193
1648639234363708595,100230,0,3,0.941269695759,0.602621257305,0.193906083703,0.0,22.1000003815,0.3148059183140468,0.20154557100501672,0.06485153301103679,22.1000003815,0.0,0.48869842398235624,1.1343458860537796
1648639234363712687,100231,0,4,3.83157730103,-1.00345981121,0.650376260281,0.0,22.1000003815,1.2814639802775918,-0.3356052880301003,0.21751714390668897,22.1000003815,0.0,1.8430764430298443,4.01383924521387
1648639234363718980,100232,0,5,1.51374852657,-1.31704103947,-0.0411635115743,-0.608575165272,22.1000003815,0.5062704102240803,-0.440481953,-0.013767060727190635,22.1000003815,-0.0822398871989189,0.8406210843510953,2.0069195639153534
1648639234363739682,100233,0,6,1.27130413055,-1.34839916229,0.291732519865,-0.365145087242,22.1000003815,0.42518532794314373,-0.45096961949498326,0.09756940463712373,22.1000003815,-0.04934393070837838,0.7516240575604851,1.876033676767197
1648639234463495149,100234,1,0,0.0272218286991,0.081803791225,0.013452203013,0.0,30.7000007629,0.009104290534816054,0.0273591275,0.004499064552842809,30.7000007629,0.0,0.030237362150920814,0.08725737781075878
1648639234463501984,100235,1,1,0.0696343630552,0.0272679310292,-0.044959589839,0.0,30.7000007629,0.023289084633846154,0.00911970937431438,-0.01503665212006689,30.7000007629,0.0,0.03417502048626827,0.08725737389589332
1648639234463512113,100236,1,2,0.212159082294,-0.081803791225,-0.12969699502,0.0,30.7000007629,0.07095621481404682,-0.0273591275,-0.04337692141137124,30.7000007629,0.0,0.10401005095199008,0.2617721279583324
1648639234463535952,100237,1,3,0.942274153233,0.602621257305,0.188964426517,0.0,30.7000007629,0.31514185726856186,0.20154557100501672,0.06319880485518393,30.7000007629,0.0,0.48913126826762515,1.134345852945972
1648639234463541021,100238,1,4,0.945959866047,0.899841725826,0.0925251245499,0.0,30.7000007629,0.31637453713946484,0.3009504099752508,0.030944857708996652,30.7000007629,0.0,0.5392187355468028,1.3088606107535465
1648639234463598072,100239,1,5,3.82917928696,-1.00345981121,0.6643486619,0.0,30.7000007629,1.280661968882943,-0.3356052880301003,0.22219018792642137,30.7000007629,0.0,1.841961201122336,4.0138391533499975
1648639234463602473,100240,1,6,1.19376063347,-1.40702521801,0.338700175285,-0.243430063128,30.7000007629,0.39925104798327754,-0.47057699598996655,0.11327765059698996,30.7000007629,-0.03289595447675676,0.7350139507427269,1.8760336411900702
1648639234463631913,100241,1,7,1.20485699177,-1.57063269615,0.683381199837,-0.243430063128,30.7000007629,0.40296220460535115,-0.5252952161036789,0.22855558522976585,30.7000007629,-0.03289595447675676,0.7750433153974173,2.094176998518303
1648639234563677539,100242,2,0,0.0272703841329,0.081803791225,0.0133534995839,0.0,13.6999998093,0.009120529810334448,0.0273591275,0.004466053372541806,13.6999998093,0.0,0.03024714838796634,0.08725737825924253
1648639234563685029,100243,2,1,0.0697413980961,0.0272679310292,-0.0447933785617,0.0,13.6999998093,0.02332488230638796,0.00911970937431438,-0.014981063064113712,13.6999998093,0.0,0.03422381288351223,0.08725737466818305
1648639234563690059,100244,2,2,0.212434381247,-0.081803791225,-0.129245579243,0.0,13.6999998093,0.07104828804247491,-0.0273591275,-0.04322594623511706,13.6999998093,0.0,0.10413568228563264,0.26177212675996986
1648639234563696597,100245,2,3,0.950732588768,0.662610709667,0.211373537779,0.0,13.6999998093,0.31797076547424746,0.22160893299899664,0.07069349089598662,13.6999998093,0.0,0.501319593251163,1.1779746093970442
1648639234563702971,100246,2,4,3.82748007774,-1.00345981121,0.674070179462,0.0,13.6999998093,1.2800936714849498,-0.3356052880301003,0.22544153159264213,13.6999998093,0.0,1.841170965691509,4.013839302345093
1648639234563841120,100247,2,5,1.42264354229,-1.31704103947,0.518858790398,-0.486860126257,13.6999998093,0.4758005158160534,-0.440481953,0.17353136802608693,13.6999998093,-0.06579190895364864,0.8042366645585982,2.006919577970411
1648639234563848579,100248,2,6,1.17775058746,-1.37430369854,0.286183536053,-0.243430063128,13.6999998093,0.3938965175451505,-0.45963334399331096,0.0957135572083612,13.6999998093,-0.03289595447675676,0.7221992411923924,1.8324050093772657
1648639234563909181,100249,2,7,1.01079833508,-1.53791117668,0.904358744621,-0.243430063128,13.6999998093,0.33805964383946485,-0.5143515641070233,0.3024611186023411,13.6999998093,-0.03289595447675676,0.7022294333656721,2.0505484145784596
1648639234564016400,100250,2,8,1.46433866024,-0.768955588341,-1.21209251881,-0.243430063128,13.6999998093,0.4897453713177257,-0.2571757820538461,-0.40538211331438123,13.6999998093,-0.03289595447675676,0.7388101517502865,2.050548385888395
1648639234663730430,100251,3,0,0.0272260792553,0.081803791225,0.0134436003864,0.0,11.3000001907,0.009105712125518394,0.0273591275,0.004496187420200669,11.3000001907,0.0,0.030238218270706392,0.0872573781507815
1648639234663738632,100252,3,1,0.0696522668004,0.0272679310292,-0.0449318550527,0.0,11.3000001907,0.023295072508494982,0.00911970937431438,-0.015027376271806017,11.3000001907,0.0,0.03418318161646214,0.08725737751917688
1648639234663749330,100253,3,2,0.21262319386,-0.081803791225,-0.128934711218,0.0,11.3000001907,0.07111143607357859,-0.0273591275,-0.04312197699598661,11.3000001907,0.0,0.10422185249962967,0.26177211956753454
1648639234663756160,100254,3,3,0.965101599693,0.625799000263,0.254123419523,0.0,11.3000001907,0.3227764547468227,0.20929732450267555,0.0849911102083612,11.3000001907,0.0,0.5021699408784178,1.177974617218139
1648639234663767642,100255,3,4,0.909624218941,0.940743625164,-0.0264830030501,0.0,11.3000001907,0.30422214680301,0.31462997497123746,-0.008857191655551839,11.3000001907,0.0,0.5330049252692379,1.3088606256669502
1648639234663787467,100256,3,5,3.82946634293,-1.00345981121,0.662692606449,0.0,11.3000001907,1.2807579742240802,-0.3356052880301003,0.2216363232270903,11.3000001907,0.0,1.8420947007227686,4.0138392537556165
1648639234663826686,100257,3,6,1.34508752823,-1.34976255894,0.472644209862,-0.486860126257,11.3000001907,0.44986204957525083,-0.45142560499665546,0.15807498657591973,11.3000001907,-0.06579190895364864,0.7800876900340674,1.9632911076129853
1648639234663832113,100258,3,7,1.28223645687,-1.34839916229,0.239147886634,-0.365145087242,11.3000001907,0.4288416243712374,-0.45096961949498326,0.079982570780602,11.3000001907,-0.04934393070837838,0.7557670774082269,1.87603367343777
1648639234663839206,100259,3,8,5.21220874786,-3.18489432335,1.80652594566,-0.365145087242,11.3000001907,1.7432136280468227,-1.0651820479431438,0.6041892794849498,11.3000001907,-0.04934393070837838,2.685554002673691,6.369788683662757
1648639234663845559,100260,3,9,2.65255451202,-1.19433534145,-5.66672086716,-0.365145087242,11.3000001907,0.887141977264214,-0.3994432580100334,-1.895224370287625,11.3000001907,-0.04934393070837838,1.3166611910503736,6.369788672584101
1648639234663853670,100261,3,10,1.1774687767,-1.37430369854,0.287340819836,-0.243430063128,11.3000001907,0.3938022664548495,-0.45963334399331096,0.09610060864080268,11.3000001907,-0.03289595447675676,0.7220964347235249,1.8324050105443779
1648639234763775511,100262,4,0,0.0271912049502,0.081803791225,0.0135139999911,0.0,29.3999996185,0.009094048478327758,0.0273591275,0.004519732438494983,29.3999996185,0.0,0.030231197346674957,0.08725737837676892
1648639234763779851,100263,4,1,0.0697070583701,0.0272679310292,-0.0448468029499,0.0,29.3999996185,0.023313397448193978,0.00911970937431438,-0.014998930752474915,29.3999996185,0.0,0.03420815838695314,0.08725737667414082
1648639234763786504,100264,4,2,0.212513461709,-0.081803791225,-0.129115521908,0.0,29.3999996185,0.07107473635752508,-0.0273591275,-0.043182448798662204,29.3999996185,0.0,0.10417177234810135,0.26177213309269803
1648639234763845742,100265,4,3,0.92550355196,0.567172944546,0.329391211271,0.0,29.3999996185,0.3095329605217391,0.18968994800869562,0.11016428470602006,29.3999996185,0.0,0.47707817354627186,1.1343458660294634
1648639234763851609,100266,4,4,0.950216531754,0.899841725826,0.0221254434437,0.0,29.3999996185,0.31779817115518394,0.3009504099752508,0.00739981386076923,29.3999996185,0.0,0.5408904736112762,1.3088606205412763
1648639234763859570,100267,4,5,3.82675814629,-1.00345981121,0.678155839443,0.0,29.3999996185,1.2798522228394649,-0.3356052880301003,0.2268079730578595,29.3999996185,0.0,1.8408352272726654,4.013839165372864
1648639234763871780,100268,4,6,1.40866541862,-1.25977838039,0.337229669094,-0.486860126257,29.3999996185,0.4711255580668896,-0.42133056200334446,0.1127858425063545,29.3999996185,-0.06579190895364864,0.7883134055727649,1.919662386731365
1648639234763876871,100269,4,7,1.31772124767,-1.25977838039,0.185141190886,-0.365145087242,29.3999996185,0.4407094473812709,-0.42133056200334446,0.061920130731103674,29.3999996185,-0.04934393070837838,0.7523091628448136,1.8324050084033605
1648639234763881111,100270,4,8,0.9769577384,-1.50518965721,0.898712337017,-0.365145087242,29.3999996185,0.3267417185284281,-0.5034079121103678,0.3005726879655518,29.3999996185,-0.04934393070837838,0.6833299548747594,2.00691957773553
1648639234763943728,100271,4,9,1.5483341217,-0.752594828606,-1.03149819374,-0.365145087242,29.3999996185,0.517837498896321,-0.2517039560555184,-0.3449826734916388,29.3999996185,-0.04934393070837838,0.7743811929666119,2.006919543019572
1648639234863707041,100272,5,0,0.0273014698178,0.081803791225,0.0132898287848,0.0,17.2000007629,0.009130926360468227,0.0273591275,0.00444475879090301,17.2000007629,0.0,0.03025342112822686,0.08725737826754211
1648639234863730333,100273,5,1,0.0696903839707,0.0272679310292,-0.0448727123439,0.0,17.2000007629,0.02330782072598662,0.00911970937431438,-0.015007596101638794,17.2000007629,0.0,0.034200557203961174,0.08725737787542784
1648639234863734305,100274,5,2,0.211776033044,-0.081803791225,-0.130321517587,0.0,17.2000007629,0.07082810469698997,-0.0273591275,-0.04358579183511706,17.2000007629,0.0,0.10383526706999313,0.2617721268141731
1648639234863803860,100275,5,3,0.945627331734,0.567172944546,0.266166031361,0.0,17.2000007629,0.31626332165016724,0.18968994800869562,0.08901873958561872,17.2000007629,0.0,0.4858263615922215,1.1343458713275283
1648639234863810924,100276,5,4,0.950241029263,0.899841725826,-0.0210472885519,0.0,17.2000007629,0.31780636430200665,0.3009504099752508,-0.007039226940434781,17.2000007629,0.0,0.5409001013551311,1.3088606242024803
1648639234863817021,100277,5,5,3.82497000694,-1.00345981121,0.688169956207,0.0,17.2000007629,1.2792541829230768,-0.3356052880301003,0.2301571759889632,17.2000007629,0.0,1.8400036517371765,4.0138391890221685
1648639234863823895,100278,5,6,1.3277566433,-1.20251572132,0.385650485754,-0.486860126257,17.2000007629,0.4440657669899666,-0.4021791710100334,0.12898009556989967,17.2000007629,-0.06579190895364864,0.7457458658411003,1.8324049937203675
1648639234863827975,100279,5,7,1.1152215004,-1.47246825695,0.665304303169,-0.486860126257,17.2000007629,0.37298377939799326,-0.49246429998327756,0.2225098003909699,17.2000007629,-0.06579190895364864,0.721633484634715,1.9632910070835112
1648639234863834417,100280,5,8,1.12723267078,-1.3088606596,0.248536527157,-0.365145087242,17.2000007629,0.37700089323745817,-0.43774604,0.08312258433344481,17.2000007629,-0.04934393070837838,0.6898412444464047,1.7451475942319667
1648639234963921285,100281,6,0,0.0272058714181,0.081803791225,0.0134844481945,0.0,24.3999996185,0.00909895365153846,0.0273591275,0.004509848894481605,24.3999996185,0.0,0.03023414911432016,0.08725737814942489
1648639234963930635,100282,6,1,0.0697309374809,0.0272679310292,-0.0448096692562,0.0,24.3999996185,0.02332138377287625,0.00911970937431438,-0.014986511456923077,24.3999996185,0.0,0.03421904413094423,0.08725737884802882
1648639234963972537,100283,6,2,0.212491899729,-0.081803791225,-0.129151001573,0.0,24.3999996185,0.07106752499297658,-0.0273591275,-0.04319431490735785,24.3999996185,0.0,0.10416193198484731,0.26177213166517904
1648639234963984473,100284,6,3,0.951185703278,0.567172944546,0.245562940836,0.0,24.3999996185,0.31812230878862874,0.18968994800869562,0.08212807385819397,24.3999996185,0.0,0.48824776811938114,1.1343458683565029
1648639234963993299,100285,6,4,0.950473964214,0.899841725826,-0.00050771626411,0.0,24.3999996185,0.31788426896789296,0.3009504099752508,-0.00016980477060535117,24.3999996185,0.0,0.5409916507477496,1.3088606289296028
1648639234964093246,100286,6,5,3.82580184937,-1.00345981121,0.683530092239,0.0,24.3999996185,1.2795323910936454,-0.3356052880301003,0.2286053820197324,24.3999996185,0.0,1.840390499070621,4.013839156014199
1648639234964095157,100287,6,6,1.05600905418,-1.32931160927,0.11376389116,-0.608575165272,24.3999996185,0.35318028567892973,-0.4445858224983277,0.03804812413377926,24.3999996185,-0.0822398871989189,0.6686771881491212,1.7015189390606265
1648639234964097099,100288,6,7,1.60385930538,-2.794962883,1.55393052101,-0.365145087242,24.3999996185,0.5364077944414716,-0.9347701949832776,0.5197092043511705,24.3999996185,-0.04934393070837838,1.2038529649854266,3.577552550687145
1648639235063869681,100289,7,0,0.0272333621979,0.081803791225,0.0134288398549,0.0,12.3999996185,0.009108147892274246,0.0273591275,0.004491250787591973,12.3999996185,0.0,0.030239685408686642,0.0872573779988486
1648639235064039530,100290,7,1,0.0697309374809,0.0272679310292,-0.0448096692562,0.0,12.3999996185,0.02332138377287625,0.00911970937431438,-0.014986511456923077,12.3999996185,0.0,0.03421904413094423,0.08725737884802882
1648639235064043261,100291,7,2,0.212807893753,-0.081803791225,-0.128629639745,0.0,12.3999996185,0.07117320861304346,-0.0273591275,-0.04301994640301003,12.3999996185,0.0,0.10430615085464934,0.26177212250982723
1648639235064045022,100292,7,3,0.954137325287,0.662610709667,0.195430889726,0.0,12.3999996185,0.3191094733401338,0.22160893299899664,0.065361501580602,12.3999996185,0.0,0.50276458818794,1.1779746265222912
1648639235064046881,100293,7,4,0.947205722332,0.899841725826,0.0787543728948,0.0,12.3999996185,0.31679121148227424,0.3009504099752508,0.02633925514876254,12.3999996185,0.0,0.5397077844621898,1.308860597315869
1648639235064213358,100294,7,5,3.8250143528,-1.00345981121,0.687923908234,0.0,12.3999996185,1.279269014314381,-0.3356052880301003,0.23007488569698994,12.3999996185,0.0,1.8400242746560551,4.013839271241382
1648639235064222282,100295,7,6,1.04381418228,-1.21069610119,0.224737867713,-0.730290174484,12.3999996185,0.34910173320401333,-0.4049150840100334,0.07516316645919732,12.3999996185,-0.09868786141675676,0.6385141075269556,1.6142615047599065
1648639235064233429,100296,7,7,1.18489634991,-1.19978892803,0.449518918991,-0.608575165272,12.3999996185,0.3962864046521739,-0.4012672000100334,0.15034077558227424,12.3999996185,-0.0822398871989189,0.6892758481393245,1.7451475841269857
1648639235064239769,100297,7,8,1.20424795151,-1.43974673748,0.402516782284,-0.608575165272,12.3999996185,0.4027585122107023,-0.48152064798662203,0.13462099741939798,12.3999996185,-0.0822398871989189,0.7458491621995785,1.9196623549001006
1648639235163783103,100298,8,0,0.0272016003728,0.081803791225,0.0134930610657,0.0,12.8000001907,0.009097525208294313,0.0273591275,0.004512729453411371,12.8000001907,0.0,0.030233289390874378,0.08725737801783646
1648639235163831526,100299,8,1,0.0697082579136,0.0272679310292,-0.0448449403048,0.0,12.8000001907,0.023313798633311036,0.00911970937431438,-0.01499830779424749,12.8000001907,0.0,0.0342087052152096,0.08725737765314323
1648639235163838694,100300,8,2,0.211523547769,-0.081803791225,-0.130730912089,0.0,12.8000001907,0.070743661461204,-0.0273591275,-0.04372271307324414,12.8000001907,0.0,0.10372007101538322,0.261772120164065
1648639235163844027,100301,8,3,0.943772315979,0.899841725826,0.112671345472,0.0,12.8000001907,0.3156429150431438,0.3009504099752508,0.03768272423812709,12.8000001907,0.0,0.5383605194459732,1.3088606297220307
1648639235163858951,100302,8,4,3.82552886009,-1.00345981121,0.685056090355,0.0,12.8000001907,1.2794410903311035,-0.3356052880301003,0.2291157492826087,12.8000001907,0.0,1.8402635454219736,4.013839122215486
1648639235163865959,100303,8,5,0.975109159946,-1.22705686092,0.101887509227,-0.730290174484,12.8000001907,0.3261234648648829,-0.410386910006689,0.034076090042474916,12.8000001907,-0.09868786141675676,0.6173576310177038,1.5706328273272276
1648639235163876821,100304,8,6,1.19456517696,-1.25432479382,0.212658330798,-0.608575165272,12.8000001907,0.3995201260735786,-0.4195066200066889,0.07112318755785953,12.8000001907,-0.0822398871989189,0.7037176042313655,1.7451476201327076
1648639235163882606,100305,8,7,3.25185227394,1.06753945351,1.6410741806,-0.365145087242,12.8000001907,1.0875760113511705,0.35703660652508357,0.5488542410033445,12.8000001907,-0.04934393070837838,1.57896114560555,3.7956960050247885
1648639235163904912,100306,8,8,2.1134326458,-3.08400297165,0.655466675758,-0.365145087242,12.8000001907,0.7068336608026756,-1.0314391209531772,0.2192196239993311,12.8000001907,-0.04934393070837838,1.4363475583298377,3.795696041638274
1648639235163907469,100307,8,9,5.09363555908,1.02254736423,1.65857613087,-0.121715031564,12.8000001907,1.7035570431705684,0.34198908502675585,0.554707736076923,12.8000001907,-0.01644797723837838,2.4333453788867576,5.45358607731735
1648639235263714053,100308,9,0,0.027181610465,0.081803791225,0.013533285819,0.0,13.1999998093,0.009090839620401336,0.0273591275,0.004526182548160535,13.1999998093,0.0,0.03022926706966237,0.08725737809098513
1648639235263724252,100309,9,1,0.0697249174118,0.0272679310292,-0.0448190309107,0.0,13.1999998093,0.02331937037183946,0.00911970937431438,-0.014989642445050166,13.1999998093,0.0,0.0342162997436895,0.08725737620665557
1648639235263736399,100310,9,2,0.212870925665,-0.081803791225,-0.128525316715,0.0,13.1999998093,0.07119428952006689,-0.0273591275,-0.04298505575752508,13.1999998093,0.0,0.10433492022374612,0.2617721304664582
1648639235263745651,100311,9,3,0.969650506973,0.662610709667,0.0913734734058,0.0,13.1999998093,0.3242978284190635,0.22160893299899664,0.030559690102274245,13.1999998093,0.0,0.5093610529080472,1.177974604938766
1648639235263899930,100312,9,4,0.945087075233,0.899841725826,0.101051606238,0.0,13.1999998093,0.3160826338571906,0.3009504099752508,0.033796523825418055,13.1999998093,0.0,0.5388762493527333,1.3088606260535383
1648639235263905020,100313,9,5,3.82228589058,-1.00345981121,0.702924787998,0.0,13.1999998093,1.2783564851438125,-0.3356052880301003,0.2350919023404682,13.1999998093,0.0,1.8387554257084466,4.01383909488442
1648639235263907711,100314,9,6,0.90944057703,-1.19297194481,0.2854424119,-0.608575165272,13.1999998093,0.30416072810367895,-0.3989872725117057,0.09546568959866221,13.1999998093,-0.0822398871989189,0.5867012362927577,1.5270041240165995
1648639235263909663,100315,9,7,1.05374670029,-1.3088606596,0.471213102341,-0.608575165272,13.1999998093,0.3524236455819398,-0.43774604,0.1575963552979933,13.1999998093,-0.0822398871989189,0.6633448932992634,1.7451475933107894
1648639235263911168,100316,9,8,5.19863557816,1.02254736423,1.2923566103,-0.121715031564,13.1999998093,1.7386741064080267,0.34198908502675585,0.4322262910702341,13.1999998093,-0.01644797723837838,2.482525293096716,5.453586030749931
1648639235363706025,100317,10,0,0.0272376146168,0.081803791225,0.0134202167392,0.0,16.8999996185,0.009109570105953176,0.0273591275,0.004488366802408027,16.8999996185,0.0,0.03024054220069157,0.08725737863426684
1648639235363749481,100318,10,1,0.0698489397764,0.0272679310292,-0.0446255020797,0.0,16.8999996185,0.02336084942354515,0.00911970937431438,-0.014924917083511706,16.8999996185,0.0,0.034272841589968246,0.08725737726041088
1648639235363752252,100319,10,2,0.212434381247,-0.081803791225,-0.129245579243,0.0,16.8999996185,0.07104828804247491,-0.0273591275,-0.04322594623511706,16.8999996185,0.0,0.10413568228563264,0.26177212675996986
1648639235363838366,100320,10,3,0.950043320656,0.602621257305,0.144934102893,0.0,16.8999996185,0.31774024102207354,0.20154557100501672,0.04847294411137123,16.8999996185,0.0,0.4924818156249721,1.134345884225943
1648639235363840605,100321,10,4,0.948023080826,0.899841725826,0.0682151243091,0.0,16.8999996185,0.3170645755270903,0.3009504099752508,0.02281442284585284,16.8999996185,0.0,0.5400287393950617,1.3088606482360299
1648639235363844498,100322,10,5,3.8193154335,-1.00345981121,0.71889090538,0.0,16.8999996185,1.277363021237458,-0.3356052880301003,0.24043174092976588,16.8999996185,0.0,1.8373740733458552,4.013839322534346
1648639235363852527,100323,10,6,1.06406033039,-1.22296667099,0.517005622387,-0.608575165272,16.8999996185,0.3558730201973244,-0.40901895350836115,0.17291157939364546,16.8999996185,-0.0822398871989189,0.6485273450964156,1.7015189327897025
1648639235363855700,100324,10,7,1.01524865627,-1.06617605686,0.181498020887,-0.365145087242,16.8999996185,0.3395480455752508,-0.35658062102341137,0.060701679226421404,16.8999996185,-0.04934393070837838,0.5981099311977581,1.483375458158007
1648639235463807907,100325,11,0,0.0272345785052,0.081803791225,0.013426374644,0.0,32.2999992371,0.009108554684013377,0.0273591275,0.004490426302341137,32.2999992371,0.0,0.030239930463289433,0.08725737826235863
1648639235463817707,100326,11,1,0.0697235539556,0.0272679310292,-0.0448211506009,0.0,32.2999992371,0.023318914366421403,0.00911970937431438,-0.01499035137153846,32.2999992371,0.0,0.034215678183092416,0.08725737550488916
1648639235463973509,100327,11,2,0.21253439784,-0.081803791225,-0.129081040621,0.0,32.2999992371,0.07108173840802676,-0.0273591275,-0.04317091659565218,32.2999992371,0.0,0.10418132715499236,0.26177212527653715
1648639235463978136,100328,11,3,0.951829016209,0.602621257305,0.132701680064,0.0,32.2999992371,0.3183374636150501,0.20154557100501672,0.04438183279732441,32.2999992371,0.0,0.4932525708736498,1.1343458871724532
1648639235463981344,100329,11,4,0.948857843876,0.899841725826,0.0554058216512,0.0,32.2999992371,0.3173437604936455,0.3009504099752508,0.0185303751341806,32.2999992371,0.0,0.5403566173489207,1.308860628369335
1648639235463984922,100330,11,5,3.81838393211,-1.00345981121,0.723822116852,0.0,32.2999992371,1.2770514823110368,-0.3356052880301003,0.24208097553578595,32.2999992371,0.0,1.8369409044112985,4.013839297051334
1648639235464013040,100331,11,6,0.937133252621,-1.07981002331,0.16929975152,-0.365145087242,32.2999992371,0.3134224925153846,-0.36114047602341137,0.05662199047491639,32.2999992371,-0.04934393070837838,0.5717427402700701,1.4397467921386355
1648639235464079786,100332,11,7,0.982334494591,-1.32931160927,0.403876572847,-0.365145087242,32.2999992371,0.3285399647461538,-0.4445858224983277,0.13507577687190636,32.2999992371,-0.04934393070837838,0.6430657590303829,1.7015189390359398
1648639235563731668,100333,12,0,0.0272703841329,0.081803791225,0.0133534995839,0.0,11.8000001907,0.009120529810334448,0.0273591275,0.004466053372541806,11.8000001907,0.0,0.03024714838796634,0.08725737825924253
1648639235563735266,100334,12,1,0.069794408977,0.0272679310292,-0.0447107441723,0.0,11.8000001907,0.023342611697993308,0.00911970937431438,-0.014953426144581937,11.8000001907,0.0,0.03424798009866488,0.08725737923810688
1648639235563740858,100335,12,2,0.212660625577,-0.081803791225,-0.128872990608,0.0,11.8000001907,0.07112395504247492,-0.0273591275,-0.043101334651505015,11.8000001907,0.0,0.10423893619626613,0.2617721330429082
1648639235563746319,100336,12,3,0.973341524601,0.567172944546,0.132897347212,0.0,11.8000001907,0.3255322824752508,0.18968994800869562,0.04444727331505016,11.8000001907,0.0,0.49792048586359106,1.1343458808641946
1648639235564130290,100337,12,4,0.949366688728,0.899841725826,0.0458679646254,0.0,11.8000001907,0.3175139427183946,0.3009504099752508,0.015340456396454849,11.8000001907,0.0,0.5405565251714491,1.3088606157199314
1648639235564136467,100338,12,5,3.82243824005,-1.00345981121,0.702096641064,0.0,11.8000001907,1.2784074381438126,-0.3356052880301003,0.23481493012173912,11.8000001907,0.0,1.838826273783529,4.013839232593091
1648639235564138086,100339,12,6,4.98057937622,1.19297194481,1.87409961224,0.121715031564,11.8000001907,1.6657456107759194,0.3989872725117057,0.6267891679732441,11.8000001907,0.01644797723837838,2.3892692864691525,5.453586190804164
1648639235564140027,100340,12,7,0.912656188011,-1.04708850384,0.140747725964,-0.365145087242,11.8000001907,0.3052361832812709,-0.35019682402675584,0.047072818048160533,11.8000001907,-0.04934393070837838,0.5558561601049877,1.396118037542921
1648639235564141575,100341,12,8,1.0703305006,-0.95437759161,0.524688124657,-0.365145087242,11.8000001907,0.35797006709030094,-0.31918982996989964,0.17548097814615382,11.8000001907,-0.04934393070837838,0.5984707891129546,1.5270041244338635
1648639235564147052,100342,12,9,0.784507989883,-1.21069610119,0.724294424057,-0.365145087242,11.8000001907,0.26237725414147156,-0.4049150840100334,0.24223893781170566,11.8000001907,-0.04934393070837838,0.5492175090439935,1.6142615179539508
1648639235663764617,100343,13,0,0.0272333621979,0.081803791225,0.0134288398549,0.0,17.0,0.009108147892274246,0.0273591275,0.004491250787591973,17.0,0.0,0.030239685408686642,0.0872573779988486
1648639235663769300,100344,13,1,0.0697309374809,0.0272679310292,-0.0448096692562,0.0,17.0,0.02332138377287625,0.00911970937431438,-0.014986511456923077,17.0,0.0,0.03421904413094423,0.08725737884802882
1648639235663772354,100345,13,2,0.211776033044,-0.081803791225,-0.130321517587,0.0,17.0,0.07082810469698997,-0.0273591275,-0.04358579183511706,17.0,0.0,0.10383526706999313,0.2617721268141731
1648639235663777481,100346,13,3,0.925046503544,0.545358598232,0.191146686673,0.0,17.0,0.3093801015197324,0.18239418001070232,0.06392865775016722,17.0,0.0,0.4740250323922739,1.0907172365973767
1648639235663909833,100347,13,4,0.952972829342,0.725326955318,0.240952521563,0.0,17.0,0.3187200098133779,0.2425842659926421,0.08058612761304347,17.0,0.0,0.5118710925790481,1.2216032593369028
1648639235663914840,100348,13,5,3.81904482841,-1.00345981121,0.72032648325,0.0,17.0,1.277272517862876,-0.3356052880301003,0.2409118673076923,17.0,0.0,1.8372482355765942,4.013839214092922
1648639235663917395,100349,13,6,0.871376633644,-1.31158745289,0.355360805988,-0.365145087242,17.0,0.29143031225551835,-0.43865801099999996,0.1188497678889632,17.0,-0.04934393070837838,0.601900410713578,1.6142614988506876
1648639235663918985,100350,13,7,1.10123276711,-0.655793726444,-0.981356918812,-0.365145087242,17.0,0.36830527328093643,-0.21932900549966555,-0.3282130163250836,17.0,-0.04934393070837838,0.5651572889971099,1.614261571462394
1648639235664026463,100351,13,8,0.929907679558,-0.97210174799,0.139704540372,-0.243430063128,17.0,0.31100591289565216,-0.3251176414682274,0.046723926545819396,17.0,-0.03289595447675676,0.5469468315165368,1.3524893565373108
1648639235664042848,100352,13,9,3.15810036659,-3.11945128441,0.939826965332,-0.243430063128,17.0,1.0562208583913042,-1.0432947439498328,0.31432339977658863,17.0,-0.03289595447675676,1.8219958633748525,4.537383493383411
1648639235763857146,100353,14,0,0.0272631421685,0.081803791225,0.0133682806045,0.0,12.6999998093,0.009118107748662207,0.0273591275,0.0044709968576923075,12.6999998093,0.0,0.030245687880980386,0.08725737851897615
1648639235763874812,100354,14,1,0.0698152408004,0.0272679310292,-0.0446782074869,0.0,12.6999998093,0.02334957886301003,0.00911970937431438,-0.014942544309999998,12.6999998093,0.0,0.034257477508301847,0.08725737868440428
1648639235764076172,100355,14,2,0.211881443858,-0.081803791225,-0.130150049925,0.0,12.6999998093,0.07086335914983277,-0.0273591275,-0.0435284447909699,12.6999998093,0.0,0.10388336343013559,0.261772118464924
1648639235764080523,100356,14,3,0.954778671265,0.725326955318,0.233694493771,0.0,12.6999998093,0.31932397032274246,0.2425842659926421,0.0781586935688963,12.6999998093,0.0,0.5126233726163374,1.2216032987972498
1648639235764126201,100357,14,4,3.82337665558,-1.00345981121,0.696968078613,0.0,12.6999998093,1.2787212894916387,-0.3356052880301003,0.2330996918438127,12.6999998093,0.0,1.8392626733971644,4.013839202777462
1648639235764316161,100358,14,5,4.89219999313,1.29795348644,1.15612697601,0.243430063128,12.6999998093,1.6361872886722408,0.43409815599999996,0.38666454047157184,12.6999998093,0.03289595447675676,2.3542852198210475,5.191814096286668
1648639235764321842,100359,14,6,0.733222782612,-1.06344926357,0.211130693555,-0.365145087242,12.6999998093,0.2452250109070234,-0.3556686500234113,0.07061227209197324,12.6999998093,-0.04934393070837838,0.49676030493405504,1.3088606323401566
1648639235764325153,100360,14,7,1.01262557507,-0.959831178188,0.0495892204344,-0.243430063128,12.6999998093,0.33867076089297654,-0.32101377196923075,0.016585023556655518,12.6999998093,-0.03289595447675676,0.5765809660070029,1.3961180239116262
1648639235863932304,100361,15,0,0.0272218286991,0.081803791225,0.013452203013,0.0,32.7999992371,0.009104290534816054,0.0273591275,0.004499064552842809,32.7999992371,0.0,0.030237362150920814,0.08725737781075878
1648639235863938753,100362,15,1,0.0697322636843,0.0272679310292,-0.0448075979948,0.0,32.7999992371,0.023321827319163876,0.00911970937431438,-0.014985818727357858,32.7999992371,0.0,0.034219648713593696,0.08725737504196168
1648639235864036919,100363,15,2,0.212787047029,-0.081803791225,-0.128664121032,0.0,32.7999992371,0.07116623646454849,-0.0273591275,-0.043031478606020065,32.7999992371,0.0,0.10429663600815378,0.26177212166890956
1648639235864040054,100364,15,3,0.915280580521,0.545358598232,0.233472749591,0.0,32.7999992371,0.3061139065287625,0.18239418001070232,0.07808453163578595,32.7999992371,0.0,0.46976492466166136,1.0907172257491915
1648639235864043049,100365,15,4,0.9584030509,0.725326955318,0.218355223536,0.0,32.7999992371,0.3205361374247491,0.2425842659926421,0.07302850285484949,32.7999992371,0.0,0.5141341818023231,1.221603292288771
1648639235864167383,100366,15,5,3.82703447342,-1.00345981121,0.67659497261,0.0,32.7999992371,1.2799446399397991,-0.3356052880301003,0.2262859440167224,32.7999992371,0.0,1.840963734562691,4.013839210832919
1648639235864175439,100367,15,6,4.92168426514,1.29795348644,1.02336359024,0.365145087242,32.7999992371,1.646048249210702,0.43409815599999996,0.3422620703143813,32.7999992371,0.04934393070837838,2.367993008119288,5.191813969752509
1648639235864179239,100368,15,7,0.712474822998,-1.02800095081,0.190802693367,-0.365145087242,32.7999992371,0.2382858939792642,-0.34381302702675587,0.06381360982173913,32.7999992371,-0.04934393070837838,0.48142261277623327,1.2652319929832618
1648639235864189459,100369,15,8,0.933522343636,-1.03481793404,0.361328959465,-0.365145087242,32.7999992371,0.3122148306474916,-0.3460929545284281,0.1208458058411371,32.7999992371,-0.04934393070837838,0.5610138448618718,1.4397467623254179
1648639235963872590,100370,16,0,0.0272303316742,0.081803791225,0.0134349875152,0.0,25.1000003815,0.009107134339197324,0.0273591275,0.0044933068612709025,25.1000003815,0.0,0.030239074875161615,0.08725737854991925
1648639235963884383,100371,16,1,0.0697235539556,0.0272679310292,-0.0448211506009,0.0,25.1000003815,0.023318914366421403,0.00911970937431438,-0.01499035137153846,25.1000003815,0.0,0.034215678183092416,0.08725737550488916
1648639235963892309,100372,16,2,0.213142827153,-0.081803791225,-0.128073900938,0.0,25.1000003815,0.07128522647257525,-0.0273591275,-0.0428340805812709,25.1000003815,0.0,0.10445902969132895,0.26177213206724975
1648639235963895380,100373,16,3,0.928763151169,0.545358598232,0.172183126211,0.0,25.1000003815,0.31062312748127086,0.18239418001070232,0.05758632983645484,25.1000003815,0.0,0.47564807531857856,1.0907172046808173
1648639235963932680,100374,16,4,0.883234083652,0.763502061367,0.359550714493,0.0,25.1000003815,0.29539601459933107,0.2553518599889632,0.1202510750812709,25.1000003815,0.0,0.4896143209528899,1.2216032746062337
1648639235964002841,100375,16,5,0.94849139452,0.899841725826,0.0613600201905,0.0,25.1000003815,0.31722120218060196,0.3009504099752508,0.020521745883110367,25.1000003815,0.0,0.5402126724634329,1.3088606148455177
1648639235964008932,100376,16,6,3.82738375664,-1.00345981121,0.674616456032,0.0,25.1000003815,1.280061457070234,-0.3356052880301003,0.22562423278662208,25.1000003815,0.0,1.8411261708821878,4.013839231465867
1648639235964011979,100377,16,7,0.649308204651,-1.0307277441,0.0911799296737,-0.365145087242,25.1000003815,0.2171599346658863,-0.3447249980267558,0.030494959757090302,25.1000003815,-0.04934393070837838,0.4616840897331538,1.2216032934876528
1648639235964014991,100378,16,8,0.907957136631,-1.00345981121,0.343260705471,-0.365145087242,25.1000003815,0.30366459419096986,-0.3356052880301003,0.11480291152876254,25.1000003815,-0.04934393070837838,0.5450277799196105,1.3961180704343101
