%time,field.header.seq,field.header.frame_id,field.point_id,field.x,field.y,field.z,field.velocity,field.intensity,normalized_x,normalized_y,normalized_z,normalized_intensity,normalized_velocity,normalized_range,range
1648639380565726078,113085,0,0,0.02726659365,0.081803791225,0.0133612379432,0.0,14.1999998093,0.009119262090301002,0.0273591275,0.0044686414525752505,14.1999998093,0.0,0.030246383911212565,0.08725737829795494
1648639380565731329,113086,0,1,0.069713100791,0.0272679310292,-0.0448374189436,0.0,14.1999998093,0.023315418324749163,0.00911970937431438,-0.01499579228882943,14.1999998093,0.0,0.03421091291368963,0.08725738147591432
1648639380565740590,113087,0,2,0.212095037103,-0.081803791225,-0.129801690578,0.0,14.1999998093,0.07093479501772575,-0.0273591275,-0.04341193664816054,14.1999998093,0.0,0.10398082585734159,0.2617721220821904
1648639380565749987,113088,0,3,0.948619782925,0.899841725826,-0.0593425743282,0.0,14.1999998093,0.3172641414464883,0.3009504099752508,-0.019847014825484947,14.1999998093,0.0,0.5402631027192456,1.3088606362871817
1648639380565780771,113089,0,4,2.42731928825,1.71787965298,0.695684552193,0.0,14.1999998093,0.811812470986622,0.5745416899598662,0.23267041879364544,14.1999998093,0.0,1.2838135104448578,3.054008255619678
1648639380565827218,113090,0,5,3.82252955437,-1.00345981121,0.701598525047,0.0,14.1999998093,1.2784379780501671,-0.3356052880301003,0.2346483361361204,14.1999998093,0.0,1.8388687383268456,4.013839094569418
1648639380565836214,113091,0,6,0.898361980915,-1.12480211258,0.0252335593104,-0.121715031564,14.1999998093,0.30045551201170567,-0.37618799751839466,0.008439317495117057,14.1999998093,-0.01644797723837838,0.5675072148205097,1.439746774170175
1648639380665616448,113092,1,0,0.027187531814,0.081803791225,0.0135213853791,0.0,14.5,0.009092820004682273,0.0273591275,0.004522202467926421,14.5,0.0,0.03023045829682965,0.08725737795447895
1648639380665646585,113093,1,1,0.0696965903044,0.0272679310292,-0.0448630712926,0.0,14.5,0.02330989642287625,0.00911970937431438,-0.015004371669765884,14.5,0.0,0.034203386404892656,0.08725737750171902
1648639380665655253,113094,1,2,0.212442234159,-0.081803791225,-0.129232659936,0.0,14.5,0.07105091443444815,-0.0273591275,-0.043221625396655514,14.5,0.0,0.10413926608875157,0.26177212133339295
1648639380665660450,113095,1,3,0.949400067329,0.899841725826,-0.0451720803976,0.0,14.5,0.3175251061301003,0.3009504099752508,-0.015107719196521737,14.5,0.0,0.5405696396488934,1.3088606252115889
1648639380665671385,113096,1,4,2.33977770805,1.8133174181,0.751190066338,0.0,14.5,0.7825343505183947,0.6064606749498327,0.2512341358989966,14.5,0.0,1.2619487191415895,3.0540082347036086
1648639380665685332,113097,1,5,3.83142662048,-1.00345981121,0.651263237,0.0,14.5,1.2814135854448159,-0.3356052880301003,0.21781379163879597,14.5,0.0,1.8430063655014444,4.013839227560581
1648639380765646048,113098,2,0,0.0271905623376,0.081803791225,0.0135152898729,0.0,15.0,0.009093833557725752,0.0273591275,0.0045201638370903005,15.0,0.0,0.030231068044521588,0.08725737790792715
1648639380765654182,113099,2,1,0.0696965903044,0.0272679310292,-0.0448630712926,0.0,15.0,0.02330989642287625,0.00911970937431438,-0.015004371669765884,15.0,0.0,0.034203386404892656,0.08725737750171902
1648639380765677749,113100,2,2,0.211880519986,-0.081803791225,-0.130151569843,0.0,15.0,0.0708630501625418,-0.0273591275,-0.04352895312474916,15.0,0.0,0.10388294188286683,0.2617721263635959
1648639380765691498,113101,2,3,0.946937561035,0.899841725826,-0.0819164440036,0.0,15.0,0.3167015254297659,0.3009504099752508,-0.027396804014581937,15.0,0.0,0.5396025034072329,1.3088606418693411
1648639380765697996,113102,2,4,0.831186592579,-1.16979420185,0.116538263857,0.0,15.0,0.2779888269494983,-0.39123551901337794,0.038976007978929764,15.0,0.0,0.5546357427674342,1.4397467809680184
1648639380765703027,113103,2,5,2.42402982712,1.71787965298,0.707060515881,0.0,15.0,0.8107123167625417,0.5745416899598662,0.23647508892341138,15.0,0.0,1.2824223464221585,3.0540081332583267
1648639380765706786,113104,2,6,3.8331515789,-1.00345981121,0.641032457352,0.0,15.0,1.2819904946153844,-0.3356052880301003,0.21439212620468226,15.0,0.0,1.8438086033865235,4.013839213386096
1648639380865697649,113105,3,0,0.0272181946784,0.081803791225,0.0134595567361,0.0,14.8000001907,0.009103075143277592,0.0273591275,0.004501523992006689,14.8000001907,0.0,0.03023663029653888,0.08725737818584149
1648639380865709393,113106,3,1,0.0696903839707,0.0272679310292,-0.0448727123439,0.0,14.8000001907,0.02330782072598662,0.00911970937431438,-0.015007596101638794,14.8000001907,0.0,0.034200557203961174,0.08725737787542784
1648639380865728361,113107,3,2,0.211512178183,-0.081803791225,-0.130749315023,0.0,14.8000001907,0.07073985892408026,-0.0273591275,-0.04372886790066889,14.8000001907,0.0,0.10371488388249206,0.26177212448517934
1648639380865738303,113108,3,3,0.950306594372,0.899841725826,-0.0178418420255,0.0,14.8000001907,0.31782829243210703,0.3009504099752508,-0.005967171245986622,14.8000001907,0.0,0.5409258694173255,1.3088606060888555
1648639380865753231,113109,3,4,0.299056023359,-1.14525306225,0.558638572693,0.0,14.8000001907,0.10001873690936454,-0.38302778001672233,0.18683564304113712,14.8000001907,0.0,0.408310881229521,1.308860625353507
1648639380865758683,113110,3,5,0.891451358795,-1.12480211258,0.114041373134,0.0,14.8000001907,0.2981442671555184,-0.37618799751839466,0.03814092746956521,14.8000001907,0.0,0.5650640826953187,1.4397467667434336
1648639380865763616,113111,3,6,2.42576217651,1.71787965298,0.701094567776,0.0,14.8000001907,0.8112916978294314,0.5745416899598662,0.23447978855384613,14.8000001907,0.0,1.2831549366447772,3.0540082239696464
1648639380865783117,113112,3,7,3.83368372917,-1.00345981121,0.637841522694,0.0,14.8000001907,1.2821684712943142,-0.3356052880301003,0.2133249239779264,14.8000001907,0.0,1.8440560964667436,4.013839101918387
1648639380865785048,113113,3,8,5.34104967117,1.40702521801,1.0811984539,-0.121715031564,14.8000001907,1.7863042378494984,0.47057699598996655,0.3616048340802675,14.8000001907,-0.01644797723837838,2.5696708679270768,5.6281010696981095
1648639380965952064,113114,4,0,0.0272194538265,0.081803791225,0.0134570086375,0.0,11.3999996185,0.009103496263043478,0.0273591275,0.004500671785117057,11.3999996185,0.0,0.030236883866955427,0.0872573779508994
1648639380965957266,113115,4,1,0.0698048174381,0.0272679310292,-0.0446944907308,0.0,11.3999996185,0.023346092788662207,0.00911970937431438,-0.014947990210969899,11.3999996185,0.0,0.03425272538157524,0.08725737849526105
1648639380965959987,113116,4,2,0.212025910616,-0.081803791225,-0.129914596677,0.0,11.3999996185,0.07091167579130435,-0.0273591275,-0.04344969788528428,11.3999996185,0.0,0.1039492827518467,0.26177213270528815
1648639380965967189,113117,4,3,0.949530541897,0.899841725826,-0.0423407889903,0.0,11.3999996185,0.31756874310936456,0.3009504099752508,-0.01416079899341137,11.3999996185,0.0,0.5406209045758356,1.3088606205188718
1648639380965968466,113118,4,4,0.894746243954,-1.12480211258,0.0843807533383,0.0,11.3999996185,0.2992462354361204,-0.37618799751839466,0.02822098773856187,11.3999996185,0.0,0.5662278943343216,1.4397467642152078
1648639380965969788,113119,4,5,2.4257569313,1.71787965298,0.701112747192,0.0,11.3999996185,0.8112899435785953,0.5745416899598662,0.23448586862608695,11.3999996185,0.0,1.2831527183486227,3.054008231185337
1648639380965970931,113120,4,6,3.81856298447,-1.00345981121,0.72287684679,0.0,11.3999996185,1.2771113660434783,-0.3356052880301003,0.24176483170234112,11.3999996185,0.0,1.8370241674808323,4.01383928361651
1648639380965972857,113121,4,7,5.09819698334,1.33067500591,0.754205703735,-0.365145087242,11.3999996185,1.7050826031237458,0.4450418079966555,0.2522427102792642,11.3999996185,-0.04934393070837838,2.45207576918321,5.3226999441859455
1648639380965974286,113122,4,8,1.13724553585,-1.45474410057,3.8078956604,-0.121715031564,11.3999996185,0.380349677541806,-0.4865364884849498,1.2735436991304345,11.3999996185,-0.01644797723837838,0.7252927057675248,4.231982652073035
1648639381065802524,113123,5,0,0.02726659365,0.081803791225,0.0133612379432,0.0,12.1999998093,0.009119262090301002,0.0273591275,0.0044686414525752505,12.1999998093,0.0,0.030246383911212565,0.08725737829795494
1648639381065808523,113124,5,1,0.0696977749467,0.0272679310292,-0.0448612309992,0.0,12.1999998093,0.02331029262431438,0.00911970937431438,-0.01500375618702341,12.1999998093,0.0,0.034203926434464925,0.08725737757861872
1648639381065815342,113125,5,2,0.211751192808,-0.081803791225,-0.130361869931,0.0,12.1999998093,0.0708197969257525,-0.0273591275,-0.04359928760234113,12.1999998093,0.0,0.10382393332354012,0.26177212427281316
1648639381065821581,113126,5,3,0.950203239918,0.899841725826,-0.0226905792952,0.0,12.1999998093,0.31779372572508363,0.3009504099752508,-0.007588822506755852,12.1999998093,0.0,0.5408852498309886,1.308860646164033
1648639381065923411,113127,5,4,2.34164762497,1.8133174181,0.745340645313,0.0,12.1999998093,0.7831597407926421,0.6064606749498327,0.24927780779698996,12.1999998093,0.0,1.2627243996444368,3.0540082409627005
1648639381065928670,113128,5,5,3.8177011013,-1.00345981121,0.727414727211,0.0,12.1999998093,1.2768231108026755,-0.3356052880301003,0.24328251746187288,12.1999998093,0.0,1.8366233750863048,4.013839244033609
1648639381065931356,113129,5,6,1.08413827419,-1.12889230251,0.130896806717,0.121715031564,12.1999998093,0.3625880515685619,-0.3775559540167224,0.0437781962264214,12.1999998093,0.01644797723837838,0.6367799374148415,1.5706328667892788
1648639381065935065,113130,5,7,5.01451301575,1.31976783276,0.990689396858,-0.365145087242,12.1999998093,1.67709465409699,0.44139392399999994,0.3313342464408026,12.1999998093,-0.04934393070837838,2.4124928090557125,5.279071262879585
1648639381065938440,113131,5,8,5.33563804626,1.22160327435,1.10678803921,-0.365145087242,12.1999998093,1.7844943298528426,0.40856296801003344,0.3701632238160535,12.1999998093,-0.04934393070837838,2.5565139791096505,5.584472014822725
1648639381165787696,113132,6,0,0.0272780340165,0.081803791225,0.0133378654718,0.0,12.1999998093,0.009123088299832775,0.0273591275,0.0044608245725083605,12.1999998093,0.0,0.030248691505821334,0.08725737822059837
1648639381165795122,113133,6,1,0.0697974562645,0.0272679310292,-0.0447059832513,0.0,12.1999998093,0.023343630857692307,0.00911970937431438,-0.014951833863311035,12.1999998093,0.0,0.034249369371017135,0.08725737735041957
1648639381165797099,113134,6,2,0.212368115783,-0.081803791225,-0.129354432225,0.0,12.1999998093,0.0710261256799331,-0.0273591275,-0.04326235191471572,12.1999998093,0.0,0.10410544133600588,0.26177212608728456
1648639381165806301,113135,6,3,0.948956429958,0.899841725826,-0.0536902919412,0.0,12.1999998093,0.3173767324274247,0.3009504099752508,-0.017956619378327758,12.1999998093,0.0,0.5403953458690127,1.3088606056203533
1648639381165881917,113136,6,4,2.34012770653,1.8133174181,0.750099301338,0.0,12.1999998093,0.7826514068662207,0.6064606749498327,0.2508693315511705,12.1999998093,0.0,1.2620938949222262,3.0540083011547243
1648639381165886910,113137,6,5,3.82801914215,-1.00345981121,0.671001195908,0.0,12.1999998093,1.2802739605852842,-0.3356052880301003,0.2244151156882943,12.1999998093,0.0,1.8414216621021993,4.013839153515048
1648639381165889857,113138,6,6,0.742013156414,-1.09889757633,0.266585856676,0.121715031564,12.1999998093,0.2481649352555184,-0.36752427302006685,0.08915914938996654,12.1999998093,0.01644797723837838,0.5081788675650336,1.3524893443332897
1648639381165942705,113139,6,7,0.951202452183,-1.11253154278,0.240603804588,0.121715031564,12.1999998093,0.318127910429097,-0.37208412802006685,0.08046949986220735,12.1999998093,0.01644797723837838,0.5838298837096476,1.4833754512939805
1648639381165956370,113140,6,8,1.09139919281,-1.12889230251,0.0365709252656,0.243430063128,12.1999998093,0.365016452444816,-0.3775559540167224,0.012231078684147155,12.1999998093,0.03289595447675676,0.6395486842487245,1.5706328219247905
1648639381165975046,113141,6,9,1.02427792549,-1.27613914013,0.466358453035,0.243430063128,12.1999998093,0.3425678680568562,-0.4268023880033444,0.15597272676755852,12.1999998093,0.03289595447675676,0.6456514282919202,1.7015189039017558
1648639381165978639,113142,6,10,5.30812311172,1.21205949783,1.02746713161,-0.486860126257,12.1999998093,1.7752920106086953,0.4053710695083612,0.3436344921772575,12.1999998093,-0.06579190895364864,2.5431573191323578,5.540843609234501
1648639381165989596,113143,6,11,4.92857551575,1.3088606596,1.18570137024,-0.365145087242,12.1999998093,1.6483530153010033,0.43774604,0.3965556422207358,12.1999998093,-0.04934393070837838,2.3718678128511925,5.2354427300934105
1648639381265727840,113144,7,0,0.0272977706045,0.081803791225,0.013297422789,0.0,16.7000007629,0.009129689165384616,0.0273591275,0.004447298591638796,16.7000007629,0.0,0.03025267436234917,0.08725737786335726
1648639381265735191,113145,7,1,0.0697870403528,0.0272679310292,-0.0447222441435,0.0,16.7000007629,0.023340147275183947,0.00911970937431438,-0.014957272288795984,16.7000007629,0.0,0.03424462072686031,0.08725737897190909
1648639381265740644,113146,7,2,0.211221396923,-0.081803791225,-0.131218552589,0.0,16.7000007629,0.07064260766655517,-0.0273591275,-0.04388580354147157,16.7000007629,0.0,0.10358222769096509,0.26177212861654897
1648639381265779712,113147,7,3,0.948363780975,0.899841725826,-0.0633022636175,0.0,16.7000007629,0.31717852206521735,0.3009504099752508,-0.021171325624581936,16.7000007629,0.0,0.5401625486677346,1.3088606377998426
1648639381265788936,113148,7,4,2.42780447006,1.71787965298,0.6939894557,0.0,16.7000007629,0.8119747391505016,0.5745416899598662,0.2321034968896321,16.7000007629,0.0,1.2840187333286806,3.0540082533596378
1648639381265792163,113149,7,5,3.82972025871,-1.00345981121,0.661224007607,0.0,16.7000007629,1.280842895889632,-0.3356052880301003,0.22114515304581936,16.7000007629,0.0,1.8422127882673174,4.013839314287913
1648639381265797670,113150,7,6,0.840413570404,-1.01436698437,0.306581377983,0.243430063128,16.7000007629,0.28107477271036785,-0.3392531720301003,0.10253557792073578,16.7000007629,0.03289595447675676,0.5225885288071819,1.3524893676569298
1648639381265808157,113151,7,7,0.972236871719,-1.11253154278,0.132029235363,0.243430063128,16.7000007629,0.32516283335083607,-0.37208412802006685,0.04415693490401338,16.7000007629,0.03289595447675676,0.5915305019269426,1.4833754371031402
1648639381265813317,113152,7,8,1.03674674034,-1.32931160927,0.230767086148,0.243430063128,16.7000007629,0.3467380402474916,-0.4445858224983277,0.07717962747424749,16.7000007629,0.03289595447675676,0.6618996077018453,1.7015189115007952
1648639381265821194,113153,7,9,1.7305880785,-2.44593334198,0.29130667448,0.608575165272,16.7000007629,0.5787919994983277,-0.8180379070167223,0.09742698143143813,16.7000007629,0.0822398871989189,1.1572322043059655,3.0103794759884295
1648639381365791298,113154,8,0,0.02726659365,0.081803791225,0.0133612379432,0.0,26.2999992371,0.009119262090301002,0.0273591275,0.0044686414525752505,26.2999992371,0.0,0.030246383911212565,0.08725737829795494
1648639381365801064,113155,8,1,0.0696786940098,0.0272679310292,-0.044890858233,0.0,26.2999992371,0.023303911040066887,0.00911970937431438,-0.015013664960869564,26.2999992371,0.0,0.034195228301601675,0.08725737570211385
1648639381365813204,113156,8,2,0.212368115783,-0.081803791225,-0.129354432225,0.0,26.2999992371,0.0710261256799331,-0.0273591275,-0.04326235191471572,26.2999992371,0.0,0.10410544133600588,0.26177212608728456
1648639381365818843,113157,8,3,0.948566615582,0.899841725826,-0.060185752809,0.0,26.2999992371,0.31724635972642135,0.3009504099752508,-0.020129014317391305,26.2999992371,0.0,0.5402422186238348,1.3088606039511579
1648639381365838332,113158,8,4,2.3416762352,1.8133174181,0.745251059532,0.0,26.2999992371,0.783169309431438,0.6064606749498327,0.24924784599732439,26.2999992371,0.0,1.2627362688745571,3.0540083154796527
1648639381365840423,113159,8,5,3.8269712925,-1.00345981121,0.676951467991,0.0,26.2999992371,1.2799235091973244,-0.3356052880301003,0.22640517324113713,26.2999992371,0.0,1.8409343519381005,4.013839079528214
1648639381365960882,113160,8,6,0.8192101717,-1.01436698437,0.359418779612,0.243430063128,26.2999992371,0.2739833350167224,-0.3392531720301003,0.12020694970301002,26.2999992371,0.03289595447675676,0.5150014082177407,1.3524893875866126
1648639381365964252,113161,8,7,1.03509902954,-1.09753417969,0.236072510481,0.243430063128,26.2999992371,0.3461869664013378,-0.3670682875217391,0.07895401688327759,26.2999992371,0.03289595447675676,0.6119068222503031,1.5270040951966215
1648639381365965397,113162,8,8,0.889451861382,-1.32931160927,0.580493509769,0.243430063128,26.2999992371,0.29747553892374584,-0.4445858224983277,0.19414498654481605,26.2999992371,0.03289595447675676,0.6120783823028392,1.7015189341114703
1648639381365966563,113163,8,9,1.18415284157,-0.638069570065,-1.04202485085,0.243430063128,26.2999992371,0.39603773965551836,-0.2134011940016722,-0.3485032945986622,26.2999992371,0.03289595447675676,0.5993595348905727,1.7015188856519354
1648639381365967669,113164,8,10,5.1483373642,1.19297194481,1.34649217129,-0.365145087242,26.2999992371,1.7218519612709027,0.3989872725117057,0.45033182986287623,26.2999992371,-0.04934393070837838,2.467537070986217,5.453586053604253
1648639381465875171,113165,9,0,0.0273091439158,0.081803791225,0.0132740493864,0.0,15.8999996185,0.009133492948428093,0.0273591275,0.004439481400133779,15.8999996185,0.0,0.030254970574092908,0.08725737783883865
1648639381465882274,113166,9,1,0.069894939661,0.0272679310292,-0.0445534177125,0.0,15.8999996185,0.023376234000334443,0.00911970937431438,-0.014900808599498327,15.8999996185,0.0,0.034293814765183846,0.08725737609332833
1648639381465892320,113167,9,2,0.212368115783,-0.081803791225,-0.129354432225,0.0,15.8999996185,0.0710261256799331,-0.0273591275,-0.04326235191471572,15.8999996185,0.0,0.10410544133600588,0.26177212608728456
1648639381465903281,113168,9,3,0.948468208313,0.899841725826,-0.0617179498076,0.0,15.8999996185,0.3172134475963211,0.3009504099752508,-0.0206414547851505,15.8999996185,0.0,0.5402035652753131,1.3088606415682458
1648639381465965442,113169,9,4,2.42488384247,1.71787965298,0.704126119614,0.0,15.8999996185,0.810997940625418,0.5745416899598662,0.23549368548963207,15.8999996185,0.0,1.2827834863683258,3.0540081440489684
1648639381465969084,113170,9,5,3.81289505959,-1.00345981121,0.752200484276,0.0,15.8999996185,1.275215738993311,-0.3356052880301003,0.2515720683197324,15.8999996185,0.0,1.8343885279041294,4.013839296322723
1648639381465979929,113171,9,6,0.828774273396,-1.09071719646,0.26947119832,0.121715031564,15.8999996185,0.27718203123612034,-0.36478836002006687,0.09012414659531771,15.8999996185,0.01644797723837838,0.5354720389399368,1.3961180199469694
1648639381465984358,113172,9,7,1.03645384312,-1.09753417969,0.230051577091,0.243430063128,15.8999996185,0.3466400813110368,-0.3670682875217391,0.07694032678628762,15.8999996185,0.03289595447675676,0.612419643420087,1.527004116768542
1648639381465994594,113173,9,8,0.938496291637,-1.22296667099,0.720238804817,0.243430063128,15.8999996185,0.3138783584070234,-0.40901895350836115,0.24088254341705684,15.8999996185,0.03289595447675676,0.6036023128531323,1.7015189401628723
1648639381466007065,113174,9,9,4.84390354156,1.28704631329,1.17640078068,-0.243430063128,15.8999996185,1.6200346292842807,0.43045027200334446,0.3934450771505017,15.8999996185,-0.03289595447675676,2.331161049097266,5.148184974267669
1648639381565765734,113175,10,0,0.0272708274424,0.081803791225,0.0133525943384,0.0,19.5,0.00912067807438127,0.0273591275,0.004465750614849498,19.5,0.0,0.03024723780172753,0.08725737827681058
1648639381565772910,113176,10,1,0.0697766318917,0.0272679310292,-0.0447384826839,0.0,19.5,0.023336666184515048,0.00911970937431438,-0.014962703238762542,19.5,0.0,0.03423987552966473,0.08725737936484589
1648639381565782899,113177,10,2,0.212095037103,-0.081803791225,-0.129801690578,0.0,19.5,0.07093479501772575,-0.0273591275,-0.04341193664816054,19.5,0.0,0.10398082585734159,0.2617721220821904
1648639381565786840,113178,10,3,0.948628127575,0.899841725826,-0.059208702296,0.0,19.5,0.3172669322993311,0.3009504099752508,-0.01980224157056856,19.5,0.0,0.5402663805249482,1.3088606214534613
1648639381565793565,113179,10,4,2.42579340935,1.71787965298,0.700986087322,0.0,19.5,0.8113021435953177,0.5745416899598662,0.23444350746555181,19.5,0.0,1.2831681456093953,3.0540081305699873
1648639381565808757,113180,10,5,3.8332631588,-1.00345981121,0.640364527702,0.0,19.5,1.2820278123076922,-0.3356052880301003,0.21416873836187292,19.5,0.0,1.8438604970047656,4.013839155430367
1648639381565812500,113181,10,6,0.937216460705,-1.00345981121,0.252664417028,0.121715031564,19.5,0.31345032130602,-0.3356052880301003,0.0845031495076923,19.5,0.01644797723837838,0.5559974075546225,1.3961180446373846
1648639381565909646,113182,10,7,1.05593144894,-1.09753417969,0.110313139856,0.121715031564,19.5,0.35315433074916386,-0.3670682875217391,0.036894026707692304,19.5,0.01644797723837838,0.6198185947177784,1.527004089474949
1648639381565917683,113183,10,8,1.10139119625,-1.19978892803,0.626884460449,0.243430063128,19.5,0.3683582596153846,-0.4012672000100334,0.2096603546652174,19.5,0.03289595447675676,0.6575644308032805,1.7451476057207358
1648639381665698502,113184,11,0,0.0272810030729,0.081803791225,0.0133317904547,0.0,14.3999996185,0.00912408129528428,0.0273591275,0.004458792794214047,14.3999996185,0.0,0.030249290512790034,0.08725737805008238
1648639381665705754,113185,11,1,0.0698048174381,0.0272679310292,-0.0446944907308,0.0,14.3999996185,0.023346092788662207,0.00911970937431438,-0.014947990210969899,14.3999996185,0.0,0.03425272538157524,0.08725737849526105
1648639381665721970,113186,11,2,0.206102713943,-0.0899841710925,-0.13397449255,0.0,14.3999996185,0.06893067355953177,-0.030095040499163877,-0.04480752259197324,14.3999996185,0.0,0.10202248270546928,0.2617721230305175
1648639381665728163,113187,11,3,0.948766946793,0.899841725826,-0.0569412969053,0.0,14.3999996185,0.3173133601314381,0.3009504099752508,-0.019043912008461537,14.3999996185,0.0,0.5403209104782815,1.308860635116544
1648639381665737957,113188,11,4,2.42216682434,1.71787965298,0.713416397572,0.0,14.3999996185,0.810089238909699,0.5745416899598662,0.23860080186354515,14.3999996185,0.0,1.2816346216830012,3.054008117765998
1648639381665743310,113189,11,5,3.81813311577,-1.00345981121,0.725143134594,0.0,14.3999996185,1.2769675972474914,-0.3356052880301003,0.2425227874896321,14.3999996185,0.0,1.8368242698183812,4.013839140785533
1648639381665808881,113190,11,6,1.05148804188,-1.12889230251,0.294724315405,0.121715031564,14.3999996185,0.35166824143143804,-0.3775559540167224,0.0985700051521739,14.3999996185,0.01644797723837838,0.6244114048257269,1.570632788074256
1648639381665878602,113191,11,7,5.14572715759,1.01436698437,1.32672083378,-0.121715031564,14.3999996185,1.7209789824715718,0.3392531720301003,0.44371934240133776,14.3999996185,-0.01644797723837838,2.4573624134323895,5.409957165276361
1648639381765669468,113192,12,0,0.0272977706045,0.081803791225,0.013297422789,0.0,14.5,0.009129689165384616,0.0273591275,0.004447298591638796,14.5,0.0,0.03025267436234917,0.08725737786335726
1648639381765675663,113193,12,1,0.0697870403528,0.0272679310292,-0.0447222441435,0.0,14.5,0.023340147275183947,0.00911970937431438,-0.014957272288795984,14.5,0.0,0.03424462072686031,0.08725737897190909
1648639381765689374,113194,12,2,0.212762534618,-0.081803791225,-0.128704667091,0.0,14.5,0.07115803833377926,-0.0273591275,-0.04304503916086957,14.5,0.0,0.10428544815353892,0.2617721293928446
1648639381765741503,113195,12,3,0.948566615582,0.899841725826,-0.060185752809,0.0,14.5,0.31724635972642135,0.3009504099752508,-0.020129014317391305,14.5,0.0,0.5402422186238348,1.3088606039511579
1648639381765747754,113196,12,4,2.42222237587,1.71787965298,0.713227808475,0.0,14.5,0.8101078180167224,0.5745416899598662,0.23853772858695652,14.5,0.0,1.2816581085162957,3.0540081281931855
1648639381765750490,113197,12,5,3.83670186996,-1.00345981121,0.619429588318,0.0,14.5,1.2831778829297658,-0.3356052880301003,0.2071670863939799,14.5,0.0,1.8454597984876284,4.013839290075274
1648639381865756930,113198,13,0,0.0272339992225,0.081803791225,0.0134275499731,0.0,14.6000003815,0.009108360943979932,0.0273591275,0.004490819388996655,14.6000003815,0.0,0.030239813751623774,0.08725737831676252
1648639381865763530,113199,13,1,0.069769218564,0.0272679310292,-0.0447500348091,0.0,14.6000003815,0.02333418681070234,0.00911970937431438,-0.014966566825785952,14.6000003815,0.0,0.03423649583858528,0.08725737525882882
1648639381865772330,113200,13,2,0.211568370461,-0.081803791225,-0.130658388138,0.0,14.6000003815,0.07075865232809364,-0.0273591275,-0.04369845757123745,14.6000003815,0.0,0.10374052060857088,0.26177213379029973
1648639381865784815,113201,13,3,0.948852837086,0.899841725826,-0.0554921068251,0.0,14.6000003815,0.31734208598193975,0.3009504099752508,-0.01855923305187291,14.6000003815,0.0,0.5403546505166854,1.3088606541200456
1648639381865796832,113202,13,4,2.42595529556,1.71787965298,0.700425386429,0.0,14.6000003815,0.8113562861404682,0.5745416899598662,0.23425598208327758,14.6000003815,0.0,1.2832366109261557,3.054008074667208
1648639381865804305,113203,13,5,3.82194042206,-1.00345981121,0.70480120182,0.0,14.6000003815,1.2782409438327758,-0.3356052880301003,0.23571946549163877,14.6000003815,0.0,1.8385947705611416,4.013839174229169
1648639381865847093,113204,13,6,1.10334420204,-1.07981002331,0.289014428854,0.121715031564,14.6000003815,0.3690114388093645,-0.36114047602341137,0.09666034409832776,14.6000003815,0.01644797723837838,0.6346347984208957,1.570632819821944
1648639381965723676,113205,14,0,0.0272593703121,0.081803791225,0.0133759668097,0.0,13.8000001907,0.009116846258227423,0.0273591275,0.004473567494882942,13.8000001907,0.0,0.030244927325975956,0.08725737800719079
1648639381965729731,113206,14,1,0.0698876157403,0.0272679310292,-0.0445648990571,0.0,13.8000001907,0.023373784528528428,0.00911970937431438,-0.014904648514080267,13.8000001907,0.0,0.03429047543333436,0.08725737289448124
1648639381965738458,113207,14,2,0.206522077322,-0.0899841710925,-0.133327126503,0.0,13.8000001907,0.06907092887023411,-0.030095040499163877,-0.044591012208361196,13.8000001907,0.0,0.1022120242077232,0.2617721187027859
1648639381965749743,113208,14,3,0.949184000492,0.899841725826,-0.0495046749711,0.0,13.8000001907,0.317452842973913,0.3009504099752508,-0.016556747481973243,13.8000001907,0.0,0.5404847493581214,1.3088606156392304
1648639381965754872,113209,14,4,0.96754938364,-0.989825904369,0.396186232567,0.0,13.8000001907,0.32359511158528426,-0.3310454529662207,0.1325037567113712,13.8000001907,0.0,0.564817390324869,1.4397467352342515
1648639381965878247,113210,14,5,2.42350912094,1.71787965298,0.708843708038,0.0,13.8000001907,0.8105381675384614,0.5745416899598662,0.23707147426020064,13.8000001907,0.0,1.2822021664211742,3.0540082455401327
1648639381965883229,113211,14,6,3.82752323151,-1.00345981121,0.67382478714,0.0,13.8000001907,1.2801081041839464,-0.3356052880301003,0.22535946058193979,13.8000001907,0.0,1.8411910346698415,4.013839249923523
1648639381965885380,113212,14,7,4.76206922531,1.1070779562,1.30769443512,0.121715031564,13.8000001907,1.5926652927458194,0.37026018602006683,0.4373559983678929,13.8000001907,0.01644797723837838,2.282598973710859,5.060927745324208
1648639382065768650,113213,15,0,0.0272307731211,0.081803791225,0.0134340925142,0.0,12.6999998093,0.009107281980301004,0.0273591275,0.004493007529832776,12.6999998093,0.0,0.03023916380620812,0.08725737851457775
1648639382065785693,113214,15,1,0.0697144493461,0.0272679310292,-0.0448353178799,0.0,12.6999998093,0.023315869346521734,0.00911970937431438,-0.014995089591939799,12.6999998093,0.0,0.034211527674748776,0.0872573792847048
1648639382065812972,113215,15,2,0.212095037103,-0.081803791225,-0.129801690578,0.0,12.6999998093,0.07093479501772575,-0.0273591275,-0.04341193664816054,12.6999998093,0.0,0.10398082585734159,0.2617721220821904
1648639382065866291,113216,15,3,0.949108302593,0.899841725826,-0.0509354546666,0.0,12.6999998093,0.3174275259508361,0.3009504099752508,-0.017035269119264215,12.6999998093,0.0,0.54045500990074,1.308860619825722
1648639382065869545,113217,15,4,2.42177438736,1.71787965298,0.714747786522,0.0,12.6999998093,0.809957989083612,0.5745416899598662,0.2390460824488294,12.6999998093,0.0,1.2814687049095956,3.05400819968344
1648639382065871336,113218,15,5,3.8184261322,-1.00345981121,0.723599493504,0.0,12.6999998093,1.2770655960535116,-0.3356052880301003,0.24200651956655517,12.6999998093,0.0,1.8369605283186647,4.013839302560667
1648639382065873082,113219,15,6,4.90457487106,1.11662173271,0.868791997433,0.121715031564,12.6999998093,1.640326043832776,0.3734520845183947,0.29056588542909695,12.6999998093,0.01644797723837838,2.34963944459215,5.10455662076513
1648639382065875466,113220,15,7,0.987583041191,-0.989825904369,0.343212932348,-0.121715031564,12.6999998093,0.3302953315020067,-0.3310454529662207,0.11478693389565216,12.6999998093,-0.01644797723837838,0.5725217060982503,1.4397467489593043
1648639382165778222,113221,16,0,0.0272339992225,0.081803791225,0.0134275499731,0.0,20.6000003815,0.009108360943979932,0.0273591275,0.004490819388996655,20.6000003815,0.0,0.030239813751623774,0.08725737831676252
1648639382165784413,113222,16,1,0.0697070583701,0.0272679310292,-0.0448468029499,0.0,20.6000003815,0.023313397448193978,0.00911970937431438,-0.014998930752474915,20.6000003815,0.0,0.03420815838695314,0.08725737667414082
1648639382165788582,113223,16,2,0.212175056338,-0.081803791225,-0.129670858383,0.0,20.6000003815,0.07096155730367892,-0.0273591275,-0.043368180061204006,20.6000003815,0.0,0.1040173403211593,0.26177212667623895
1648639382165792016,113224,16,3,0.948609650135,0.899841725826,-0.0595039092004,0.0,20.6000003815,0.31726075255351166,0.3009504099752508,-0.019900972976722407,20.6000003815,0.0,0.5402591225383544,1.308860617131133
1648639382165798904,113225,16,4,2.33698368073,1.8133174181,0.759837388992,0.0,20.6000003815,0.7815998932207358,0.6064606749498327,0.2541262170541806,20.6000003815,0.0,1.2607899652305048,3.054008127116457
1648639382165920533,113226,16,5,3.82456636429,-1.00345981121,0.690409779549,0.0,20.6000003815,1.2791191853812707,-0.3356052880301003,0.2309062807856187,20.6000003815,0.0,1.8398159392109465,4.01383920097317
1648639382166492379,113227,16,6,4.85765457153,1.11662173271,1.10129225254,0.243430063128,20.6000003815,1.6246336359632108,0.3734520845183947,0.36832516807357857,20.6000003815,0.03289595447675676,2.327731806209044,5.104556460239344
1648639382166514350,113228,16,7,0.950755834579,-1.03481793404,0.313186764717,-0.121715031564,20.6000003815,0.3179785399929766,-0.3460929545284281,0.10474473736354516,20.6000003815,-0.01644797723837838,0.5674513520702428,1.439746770508872
