%time,field.header.seq,field.header.frame_id,field.point_id,field.x,field.y,field.z,field.velocity,field.intensity,normalized_x,normalized_y,normalized_z,normalized_intensity,normalized_velocity,normalized_range,range
1648639422366531012,117112,0,0,0.0272720865905,0.081803791225,0.0133500248194,0.0,15.3999996185,0.009121099194147157,0.0273591275,0.0044648912439464875,15.3999996185,0.0,0.03024749177337189,0.08725737864766345
1648639422366537176,117113,0,1,0.0697260946035,0.0272679310292,-0.0448172017932,0.0,15.3999996185,0.023319764081438127,0.00911970937431438,-0.014989030700066889,15.3999996185,0.0,0.034216836392335005,0.08725737738347314
1648639422366544311,117114,0,2,0.213346675038,-0.081803791225,-0.127734035254,0.0,15.3999996185,0.07135340302274247,-0.0273591275,-0.04272041312842809,15.3999996185,0.0,0.10455208320934158,0.26177212947680945
1648639422366558061,117115,0,3,0.94870531559,0.899841725826,-0.0579592250288,0.0,15.3999996185,0.3172927476889632,0.3009504099752508,-0.019384356196923077,15.3999996185,0.0,0.5402967006527948,1.3088606416009974
1648639422366561389,117116,0,4,0.897277772427,1.58290338516,0.456959545612,0.0,15.3999996185,0.3000929004772575,0.5293991254715719,0.1528292794688963,15.3999996185,0.0,0.6785093454653159,1.8760337294325153
1648639422366619286,117117,0,5,2.33413434029,1.8133174181,0.768545806408,0.0,15.3999996185,0.7806469365518394,0.6064606749498327,0.25703873124013377,15.3999996185,0.0,1.2596086016521757,3.0540081587731893
1648639422366630268,117118,0,6,3.82094812393,-1.00345981121,0.710161626339,0.0,15.3999996185,1.2779090715484949,-0.3356052880301003,0.2375122496117057,15.3999996185,0.0,1.8381333193339484,4.013839271072304
1648639422366632076,117119,0,7,1.29810774326,-1.25977838039,0.292544931173,0.486860126257,15.3999996185,0.43414974690969893,-0.42133056200334446,0.09784111410468227,15.3999996185,0.06579190895364864,0.7446418252835153,1.8324049272921739
1648639422366637836,117120,0,8,0.272474676371,-0.818037927151,-0.134001940489,-0.243430063128,15.3999996185,0.09112865430468226,-0.273591279983612,-0.04481670250468227,15.3999996185,-0.03289595447675676,0.3024252829275948,0.872573790332831
1648639422466180180,117121,1,0,0.0272835548967,0.081803791225,0.013326568529,0.0,16.1000003815,0.0091249347480602,0.0273591275,0.004457046330769231,16.1000003815,0.0,0.03024980538572057,0.08725737822867911
1648639422466196169,117122,1,1,0.0698095485568,0.0272679310292,-0.0446871072054,0.0,16.1000003815,0.02334767510260869,0.00911970937431438,-0.014945520804481603,16.1000003815,0.0,0.034254882344943255,0.08725738182357029
1648639422466223892,117123,1,2,0.211965531111,-0.081803791225,-0.130013078451,0.0,16.1000003815,0.07089148197692308,-0.0273591275,-0.04348263493344481,16.1000003815,0.0,0.1039217315643368,0.2617721283984557
1648639422466227913,117124,1,3,0.948930680752,0.899841725826,-0.054144334048,0.0,16.1000003815,0.3173681206528428,0.3009504099752508,-0.018108472925752506,16.1000003815,0.0,0.5403852304400134,1.308860640908523
1648639422466233291,117125,1,4,0.899232685566,1.58290338516,0.453100413084,0.0,16.1000003815,0.300746717580602,0.5293991254715719,0.15153859969364547,16.1000003815,0.0,0.6790880725804849,1.87603372407804
1648639422466237835,117126,1,5,2.33268904686,1.8133174181,0.772921919823,0.0,16.1000003815,0.7801635608227424,0.6064606749498327,0.25850231432207355,16.1000003815,0.0,1.2590094969982746,3.0540082747543984
1648639422466268403,117127,1,6,3.82176613808,-1.00345981121,0.705745697021,0.0,16.1000003815,1.278182654876254,-0.3356052880301003,0.23603535017424748,16.1000003815,0.0,1.8385137224961865,4.013839184091982
1648639422466277872,117128,1,7,5.12156915665,-3.25033736229,2.33743596077,0.243430063128,16.1000003815,1.712899383494983,-1.0870693519364547,0.7817511574481605,16.1000003815,0.03289595447675676,2.6551399910126263,6.500674616203127
1648639422466288648,117129,1,8,3.28796482086,-1.01573038101,-5.51510190964,0.243430063128,16.1000003815,1.0996537862408027,-0.33970915752842806,-1.8445156888428094,16.1000003815,0.03289595447675676,1.5918163244847505,6.500674576060121
1648639422466295779,117130,1,9,1.41106855869,-1.23114705086,0.112537756562,0.365145087242,16.1000003815,0.47192928384280936,-0.4117548665083612,0.037638045672909695,16.1000003815,0.04934393070837838,0.7842044172217422,1.876033657698272
1648639422466313848,117131,1,10,1.34588158131,-1.60335421562,0.433671951294,0.365145087242,16.1000003815,0.45012761916722405,-0.5362388681003344,0.14504078638595316,16.1000003815,0.04934393070837838,0.832335191335699,2.137805728543891
1648639422466331969,117132,1,11,1.60160064697,-1.21751308441,0.396593272686,0.486860126257,16.1000003815,0.5356523902909699,-0.4071950115083612,0.13263989053043476,16.1000003815,0.06579190895364864,0.8600318272285935,2.0505484551758504
1648639422566204378,117133,2,0,0.0272491220385,0.081803791225,0.013396833092,0.0,18.3999996185,0.009113418741973243,0.0273591275,0.004480546184615384,18.3999996185,0.0,0.03024286130468403,0.0872573781840101
1648639422566208942,117134,2,1,0.0698256790638,0.0272679310292,-0.0446618869901,0.0,18.3999996185,0.02335306992100334,0.00911970937431438,-0.01493708594986622,18.3999996185,0.0,0.03426223647899389,0.0872573760140108
1648639422566220504,117135,2,2,0.212391644716,-0.081803791225,-0.129315793514,0.0,18.3999996185,0.07103399488829432,-0.0273591275,-0.043249429268896314,18.3999996185,0.0,0.10411617894036307,0.26177212505556513
1648639422566225833,117136,2,3,0.948802173138,0.899841725826,-0.0563508868217,0.0,18.3999996185,0.31732514151772573,0.3009504099752508,-0.018846450442040134,18.3999996185,0.0,0.5403347482281339,1.3088606181463698
1648639422566232893,117137,2,4,0.900234699249,1.58290338516,0.451106220484,0.0,18.3999996185,0.30108183921371234,0.5293991254715719,0.15087164564682273,18.3999996185,0.0,0.6793850026742485,1.8760337050922844
1648639422566246743,117138,2,5,2.41981267929,1.71787965298,0.721361398697,0.0,18.3999996185,0.8093018994280936,0.5745416899598662,0.24125799287525082,18.3999996185,0.0,1.2806394037112006,3.054008214217085
1648639422566334498,117139,2,6,3.82475852966,-1.00345981121,0.689344227314,0.0,18.3999996185,1.2791834547357859,-0.3356052880301003,0.2305499088006689,18.3999996185,0.0,1.8399053049255896,4.013839168010057
1648639422566366467,117140,2,7,1.32089269161,-1.63607573509,0.580650150776,0.243430063128,18.3999996185,0.4417701309732441,-0.5471825200969899,0.19419737484147157,18.3999996185,0.03289595447675676,0.8305000948464288,2.181434370155377
1648639422566389547,117141,2,8,1.99135518074,-0.706239402294,-2.44112491608,0.243430063128,18.3999996185,0.6660050771705686,-0.2362004689946488,-0.816429737819398,18.3999996185,0.03289595447675676,0.9710387155964699,3.2285229448029655
1648639422566394941,117142,2,9,2.07122659683,-1.71515285969,1.78651368618,0.243430063128,18.3999996185,0.6927179253612039,-0.5736297189598663,0.5974962161137123,18.3999996185,0.03289595447675676,1.1352388747340518,3.2285228973057043
1648639422566420558,117143,2,10,4.92568922043,-2.42139220238,3.40116024017,0.243430063128,18.3999996185,1.6473876991404681,-0.8098301680200668,1.1375117860100332,18.3999996185,0.03289595447675676,2.4664949551122257,6.457046187950046
1648639422566424486,117144,2,11,2.02184247971,-4.84278440475,-3.76205205917,0.243430063128,18.3999996185,0.6762014982307692,-1.6196603360367892,-1.2582113910267558,18.3999996185,0.03289595447675676,1.880903117268372,6.457046035111948
1648639422566428605,117145,2,12,1.41868102551,-1.25977838039,0.292243510485,0.365145087242,18.3999996185,0.4744752593678929,-0.42133056200334446,0.09774030451003345,18.3999996185,0.04934393070837838,0.7923212643760816,1.91966238939579
1648639422566436840,117146,2,13,1.61693835258,-1.24341762066,0.474342048168,0.365145087242,18.3999996185,0.5407820577190635,-0.41585873600668893,0.1586428254742475,18.3999996185,0.04934393070837838,0.8705337191716414,2.09417702071055
1648639422666146990,117147,3,0,0.0272636115551,0.081803791225,0.0133673232049,0.0,28.7999992371,0.009118264734147157,0.0273591275,0.0044706766571571905,28.7999992371,0.0,0.030245782533854862,0.08725737850448538
1648639422666153409,117148,3,1,0.0697008743882,0.0272679310292,-0.0448564141989,0.0,28.7999992371,0.02331132922682274,0.00911970937431438,-0.01500214521702341,28.7999992371,0.0,0.03420533934511683,0.08725737703985903
1648639422666160251,117149,3,2,0.212272509933,-0.081803791225,-0.129511266947,0.0,28.7999992371,0.07099415047926422,-0.0273591275,-0.04331480499899665,28.7999992371,0.0,0.10406181173757298,0.26177212800116073
1648639422666164620,117150,3,3,0.94867503643,0.899841725826,-0.0584525875747,0.0,28.7999992371,0.31728262087959863,0.3009504099752508,-0.019549360392876254,28.7999992371,0.0,0.540284806642502,1.3088606347801717
1648639422666258454,117151,3,4,0.891871511936,1.58290338516,0.467423260212,0.0,28.7999992371,0.29828478660066887,0.5293991254715719,0.15632884956923074,28.7999992371,0.0,0.6769128909135046,1.8760336949909
1648639422666262734,117152,3,5,2.33104705811,1.8133174181,0.77785974741,0.0,28.7999992371,0.7796144007056854,0.6064606749498327,0.26015376167558524,28.7999992371,0.0,1.2583289624879406,3.054008224047356
1648639422666281494,117153,3,6,3.82488560677,-1.00345981121,0.688639581203,0.0,28.7999992371,1.2792259554414716,-0.3356052880301003,0.2303142412050167,28.7999992371,0.0,1.8399644016947876,4.013839305501574
1648639422666394595,117154,3,7,1.37895011902,-1.31976783276,0.204482316971,0.121715031564,28.7999992371,0.46118733077591967,-0.44139392399999994,0.06838873477290969,28.7999992371,0.01644797723837838,0.787538001800899,1.9196623612206205
1648639422666397926,117155,3,8,1.51938617229,-1.43156635761,0.633039772511,0.243430063128,28.7999992371,0.5081559104648828,-0.478784734986622,0.21171898746187287,28.7999992371,0.03289595447675676,0.8635274640316878,2.181434374526907
1648639422766025725,117156,4,0,0.0272362846881,0.081803791225,0.0134229110554,0.0,18.7999992371,0.009109125313745818,0.0273591275,0.004489267911505016,18.7999992371,0.0,0.030240274230309255,0.08725737793215997
1648639422766031151,117157,4,1,0.0697974562645,0.0272679310292,-0.0447059832513,0.0,18.7999992371,0.023343630857692307,0.00911970937431438,-0.014951833863311035,18.7999992371,0.0,0.034249369371017135,0.08725737735041957
1648639422766034783,117158,4,2,0.212713673711,-0.081803791225,-0.128785386682,0.0,18.7999992371,0.07114169689331103,-0.0273591275,-0.043072035679598664,18.7999992371,0.0,0.10426314752241435,0.2617721204888814
1648639422766056119,117159,4,3,0.948889672756,0.899841725826,-0.0548583194613,0.0,18.7999992371,0.31735440560401335,0.3009504099752508,-0.0183472640338796,18.7999992371,0.0,0.5403691208579787,1.3088606410976766
1648639422766060580,117160,4,4,0.885958850384,1.58290338516,0.478535503149,0.0,18.7999992371,0.2963073078207358,0.5293991254715719,0.16004531877892975,18.7999992371,0.0,0.6751736631312049,1.8760336988174795
1648639422766067340,117161,4,5,2.33103275299,1.8133174181,0.777902305126,0.0,18.7999992371,0.7796096163846153,0.6064606749498327,0.26016799502541804,18.7999992371,0.0,1.2583230341129978,3.0540081451458727
1648639422766071805,117162,4,6,3.82412672043,-1.00345981121,0.692840635777,0.0,18.7999992371,1.2789721473010032,-0.3356052880301003,0.23171927617959862,18.7999992371,0.0,1.8396114852047551,4.0138391738090595
1648639422766144249,117163,4,7,3.97095394135,-1.03618133068,0.580173254013,0.0,18.7999992371,1.3280782412541805,-0.34654894002675585,0.19403787759632107,18.7999992371,0.0,1.9098899962090128,4.144725317683297
1648639422766148142,117164,4,8,1.40006625652,-1.34976255894,0.269197583199,0.121715031564,18.7999992371,0.4682495841204013,-0.45142560499665546,0.09003263652140468,18.7999992371,0.01644797723837838,0.8014364746531405,1.9632910703617958
1648639422866136693,117165,5,0,0.0272194538265,0.081803791225,0.0134570086375,0.0,16.0,0.009103496263043478,0.0273591275,0.004500671785117057,16.0,0.0,0.030236883866955427,0.0872573779508994
1648639422866141713,117166,5,1,0.0697249174118,0.0272679310292,-0.0448190309107,0.0,16.0,0.02331937037183946,0.00911970937431438,-0.014989642445050166,16.0,0.0,0.0342162997436895,0.08725737620665557
1648639422866146313,117167,5,2,0.21149456501,-0.081803791225,-0.130777806044,0.0,16.0,0.07073396823076923,-0.0273591275,-0.04373839667023411,16.0,0.0,0.10370684828353526,0.26177212579118236
1648639422866154829,117168,5,3,0.948744773865,0.899841725826,-0.0573089011014,0.0,16.0,0.3173059444364548,0.3009504099752508,-0.019166856555652173,16.0,0.0,0.5403122005042017,1.3088606066419426
1648639422866173343,117169,5,4,0.889005899429,1.58290338516,0.472850799561,0.0,16.0,0.2973263877688963,0.5293991254715719,0.15814408012073577,16.0,0.0,0.6760690761878295,1.8760337136139185
1648639422866197450,117170,5,5,2.41798758507,1.71787965298,0.727455496788,0.0,16.0,0.8086915000234114,0.5745416899598662,0.24329615277190636,16.0,0.0,1.2798679767547,3.054008179995989
1648639422866274060,117171,5,6,3.82592725754,-1.00345981121,0.682827711105,0.0,16.0,1.279574333625418,-0.3356052880301003,0.22837047194147153,16.0,0.0,1.8404488202337037,4.013839141738748
1648639422966166689,117172,6,0,0.027232022956,0.081803791225,0.0134315546602,0.0,14.6000003815,0.00910769998528428,0.0273591275,0.004492158749230769,14.6000003815,0.0,0.030239415596290065,0.0872573778751656
1648639422966173754,117173,6,1,0.0697249174118,0.0272679310292,-0.0448190309107,0.0,14.6000003815,0.02331937037183946,0.00911970937431438,-0.014989642445050166,14.6000003815,0.0,0.0342162997436895,0.08725737620665557
1648639422966183406,117174,6,2,0.211751192808,-0.081803791225,-0.130361869931,0.0,14.6000003815,0.0708197969257525,-0.0273591275,-0.04359928760234113,14.6000003815,0.0,0.10382393332354012,0.26177212427281316
1648639422966190123,117175,6,3,0.948476016521,0.899841725826,-0.0615974962711,0.0,14.6000003815,0.31721605903712374,0.3009504099752508,-0.020601169321438125,14.6000003815,0.0,0.5402066322124891,1.308860625505988
1648639422966194043,117176,6,4,0.895504832268,1.58290338516,0.460424184799,0.0,14.6000003815,0.29949994390234114,0.5293991254715719,0.15398802167190634,14.6000003815,0.0,0.6779851523780415,1.8760337047383104
1648639422966197495,117177,6,5,2.41796302795,1.71787965298,0.727537035942,0.0,14.6000003815,0.8086832869397993,0.5745416899598662,0.24332342339197324,14.6000003815,0.0,1.2798575978027613,3.05400816065103
1648639422966203503,117178,6,6,3.82354092598,-1.00345981121,0.696066319942,0.0,14.6000003815,1.2787762294247491,-0.3356052880301003,0.23279810031505013,14.6000003815,0.0,1.8393390658704893,4.0138392004557435
1648639423066264013,117179,7,0,0.0273384619504,0.081803791225,0.0132135627791,0.0,15.0,0.009143298311170568,0.0273591275,0.0044192517655852834,15.0,0.0,0.030260893337364734,0.0872573779225234
1648639423066267750,117180,7,1,0.0697974562645,0.0272679310292,-0.0447059832513,0.0,15.0,0.023343630857692307,0.00911970937431438,-0.014951833863311035,15.0,0.0,0.034249369371017135,0.08725737735041957
1648639423066411372,117181,7,2,0.211419865489,-0.081803791225,-0.130898550153,0.0,15.0,0.07070898511337792,-0.0273591275,-0.04377877931538461,15.0,0.0,0.10367276888888932,0.2617721341440446
1648639423066429910,117182,7,3,0.948741495609,0.899841725826,-0.0573635101318,0.0,15.0,0.3173048480297659,0.3009504099752508,-0.01918512044541806,15.0,0.0,0.5403109127443727,1.3088606225731436
1648639423066564045,117183,7,4,0.886179447174,1.58290338516,0.478126913309,0.0,15.0,0.2963810860113712,0.5293991254715719,0.1599086666585284,15.0,0.0,0.6752384248105441,1.8760337109377847
1648639423066567777,117184,7,5,2.3315987587,1.8133174181,0.776203989983,0.0,15.0,0.7797989159531773,0.6064606749498327,0.25959999664983274,15.0,0.0,1.2585576065099713,3.0540080982901405
1648639423066569286,117185,7,6,3.81790876389,-1.00345981121,0.726324260235,0.0,15.0,1.276892563173913,-0.3356052880301003,0.2429178127876254,15.0,0.0,1.836719941943098,4.0138392908919
1648639423066576627,117186,7,7,1.47491753101,-1.28840970993,0.138313055038,-0.121715031564,15.0,0.49328345518729094,-0.4309062575016722,0.046258546835451504,15.0,-0.01644797723837838,0.819961790010438,1.9632910647982091
1648639423166147313,117187,8,0,0.0272636115551,0.081803791225,0.0133673232049,0.0,16.8999996185,0.009118264734147157,0.0273591275,0.0044706766571571905,16.8999996185,0.0,0.030245782533854862,0.08725737850448538
1648639423166152358,117188,8,1,0.0698152408004,0.0272679310292,-0.0446782074869,0.0,16.8999996185,0.02334957886301003,0.00911970937431438,-0.014942544309999998,16.8999996185,0.0,0.034257477508301847,0.08725737868440428
1648639423166156603,117189,8,2,0.213106423616,-0.081803791225,-0.128134444356,0.0,16.8999996185,0.07127305137658863,-0.0273591275,-0.042854329216053505,16.8999996185,0.0,0.10444241266181542,0.2617721220367178
1648639423166162888,117190,8,3,0.948896884918,0.899841725826,-0.0547331832349,0.0,16.8999996185,0.31735681769832774,0.3009504099752508,-0.01830541245314381,16.8999996185,0.0,0.5403719540682055,1.3088606308891804
1648639423166165928,117191,8,4,0.899835646152,1.58290338516,0.451901704073,0.0,16.8999996185,0.30094837663946483,0.5293991254715719,0.15113769366989965,16.8999996185,0.0,0.6792667258551117,1.8760337062485994
1648639423166170430,117192,8,5,2.41939401627,1.71787965298,0.722763776779,0.0,16.8999996185,0.8091618783511705,0.5745416899598662,0.24172701564515048,16.8999996185,0.0,1.2804624337541215,3.0540080853052127
1648639423166271798,117193,8,6,3.82707428932,-1.00345981121,0.67636936903,0.0,16.8999996185,1.2799579562943144,-0.3356052880301003,0.22621049131438126,16.8999996185,0.0,1.8409822511681102,4.013839151242839
1648639423166382638,117194,8,7,1.57724535465,-1.29522669315,0.770286202431,-0.365145087242,16.8999996185,0.5275068075752508,-0.433186185,0.25762080348862876,16.8999996185,-0.04934393070837838,0.8626570204613879,2.181434374229227
1648639423166480683,117195,8,8,1.45651054382,-1.37430369854,0.612734556198,-0.243430063128,16.8999996185,0.4871272721806019,-0.45963334399331096,0.2049279452167224,16.8999996185,-0.03289595447675676,0.8281598695389084,2.0941769878495737
1648639423166613265,117196,8,9,1.59065461159,-0.6544303298,-1.19461965561,-0.243430063128,16.8999996185,0.5319915088929765,-0.21887302,-0.3995383463578595,16.8999996185,-0.03289595447675676,0.7835402542003648,2.094176991446622
1648639423166619822,117197,8,10,1.45305669308,-1.37975728512,0.112349204719,-0.121715031564,16.8999996185,0.4859721381538461,-0.461457285993311,0.037574984855852846,16.8999996185,-0.01644797723837838,0.8278168063768422,2.0069195955362265
1648639423266252014,117198,9,0,0.027256373316,0.081803791225,0.0133820734918,0.0,15.0,0.009115843918394649,0.0273591275,0.00447560986347826,15.0,0.0,0.03024432307475771,0.08725737811821119
1648639423266260384,117199,9,1,0.0698361322284,0.0272679310292,-0.044645536691,0.0,15.0,0.023356565962675584,0.00911970937431438,-0.014931617622408026,15.0,0.0,0.034267002293891846,0.08725737432253623
1648639423266426025,117200,9,2,0.211457684636,-0.081803791225,-0.130837440491,0.0,15.0,0.07072163365752508,-0.0273591275,-0.04375834130133779,15.0,0.0,0.103690022624839,0.2617721308402355
1648639423266429849,117201,9,3,0.948930680752,0.899841725826,-0.054144334048,0.0,15.0,0.3173681206528428,0.3009504099752508,-0.018108472925752506,15.0,0.0,0.5403852304400134,1.308860640908523
1648639423266431473,117202,9,4,0.894252419472,1.58290338516,0.462852030993,0.0,15.0,0.29908107674648826,0.5293991254715719,0.15480001036555183,15.0,0.0,0.6776152411108701,1.876033720133212
1648639423266465601,117203,9,5,2.33359217644,1.8133174181,0.770190656185,0.0,15.0,0.7804656108494982,0.6064606749498327,0.257588848222408,15.0,0.0,1.259383853198844,3.05400821079471
1648639423266470175,117204,9,6,3.82757258415,-1.00345981121,0.673544168472,0.0,15.0,1.280124610083612,-0.3356052880301003,0.22526560818461538,15.0,0.0,1.8412139864875037,4.013839212840115
1648639423266473789,117205,9,7,1.31269109249,-1.31976783276,0.469210833311,-0.365145087242,15.0,0.43902712123411364,-0.44139392399999994,0.15692670010401336,15.0,-0.04934393070837838,0.7617862052455032,1.9196624293836195
1648639423266482080,117206,9,8,1.39465212822,-1.44247353077,0.0440633818507,-0.243430063128,15.0,0.46643883886956516,-0.48243261898662204,0.014736917006923077,15.0,-0.03289595447675676,0.817234123537599,2.0069195368376795
1648639423266584541,117207,9,9,1.33602881432,-1.60335421562,0.463136762381,-0.243430063128,15.0,0.44683237937123743,-0.5362388681003344,0.15489523825451504,15.0,-0.03289595447675676,0.8287764922888744,2.1378057428373807
1648639423366100530,117208,10,0,0.0272279996425,0.081803791225,0.013439710252,0.0,19.5,0.00910635439548495,0.0273591275,0.004494886371906354,19.5,0.0,0.03023860509867465,0.08725737811195729
1648639423366110178,117209,10,1,0.0697365924716,0.0272679310292,-0.0448008663952,0.0,19.5,0.02332327507411371,0.00911970937431438,-0.014983567356254179,19.5,0.0,0.03422162210412454,0.08725737803718255
1648639423366227013,117210,10,2,0.211968272924,-0.081803791225,-0.130008593202,0.0,19.5,0.07089239897123745,-0.0273591275,-0.043481134850167226,19.5,0.0,0.10392298264270264,0.2617721209210978
1648639423366246933,117211,10,3,0.948716819286,0.899841725826,-0.0577704310417,0.0,19.5,0.31729659507892977,0.3009504099752508,-0.01932121439521739,19.5,0.0,0.5403012194708023,1.30886063331296
1648639423366274207,117212,10,4,0.895699739456,1.58290338516,0.460044890642,0.0,19.5,0.2995651302528428,0.5293991254715719,0.15386116743879596,19.5,0.0,0.6780427483403023,1.8760337021008828
1648639423366278956,117213,10,5,2.42085170746,1.71787965298,0.717866361141,0.0,19.5,0.8096494004882941,0.5745416899598662,0.24008908399364548,19.5,0.0,1.2810786302659363,3.0540081211569334
1648639423366281379,117214,10,6,3.8176343441,-1.00345981121,0.727765142918,0.0,19.5,1.2768007839799331,-0.3356052880301003,0.24339971335050165,19.5,0.0,1.836592331819261,4.013839269479023
1648639423366284527,117215,10,7,1.57024550438,-1.28159272671,0.310801774263,-0.486860126257,19.5,0.5251657205284281,-0.42862633000334444,0.10394708169331103,19.5,-0.06579190895364864,0.857507200441152,2.0505483666733157
1648639423366290756,117216,10,8,1.22618257999,-1.34839916229,0.444745182991,-0.365145087242,19.5,0.4100945083578595,-0.45096961949498326,0.14874420835819396,19.5,-0.04934393070837838,0.7346622416308047,1.8760336612462487
1648639423366315399,117217,10,9,1.22929441929,-1.73696708679,0.204924464226,-0.365145087242,19.5,0.41113525728762534,-0.5809254470869565,0.06853661010903009,19.5,-0.04934393070837838,0.8219116586611387,2.137805759634769
1648639423466176799,117218,11,0,0.0272606164217,0.081803791225,0.0133734289557,0.0,21.6000003815,0.00911726301729097,0.0273591275,0.004472718714280936,21.6000003815,0.0,0.03024517858129093,0.08725737830411594
1648639423466182412,117219,11,1,0.0698152408004,0.0272679310292,-0.0446782074869,0.0,21.6000003815,0.02334957886301003,0.00911970937431438,-0.014942544309999998,21.6000003815,0.0,0.034257477508301847,0.08725737868440428
1648639423466185209,117220,11,2,0.211512178183,-0.081803791225,-0.130749315023,0.0,21.6000003815,0.07073985892408026,-0.0273591275,-0.04372886790066889,21.6000003815,0.0,0.10371488388249206,0.26177212448517934
1648639423466187561,117221,11,3,0.948738217354,0.899841725826,-0.0574178099632,0.0,21.6000003815,0.31730375162341135,0.3009504099752508,-0.019203280924147154,21.6000003815,0.0,0.5403096249863171,1.3088606272275631
1648639423466190221,117222,11,4,0.895101964474,1.58290338516,0.461206942797,0.0,21.6000003815,0.299365205509699,0.5293991254715719,0.1542498136444816,21.6000003815,0.0,0.6778661273362121,1.8760337144199613
1648639423466215592,117223,11,5,2.42265295982,1.71787965298,0.7117639184,0.0,21.6000003815,0.8102518260267558,0.5745416899598662,0.23804813324414714,21.6000003815,0.0,1.2818401603403302,3.054008143634102
1648639423466307434,117224,11,6,3.81865930557,-1.00345981121,0.722367584705,0.0,21.6000003815,1.2771435804581939,-0.3356052880301003,0.24159450993478257,21.6000003815,0.0,1.8370689588485558,4.013839235963805
1648639423466312760,117225,11,7,1.21744835377,-1.31704103947,0.375406950712,-0.365145087242,21.6000003815,0.40717336246488295,-0.440481953,0.12555416411772574,21.6000003815,-0.04934393070837838,0.7249859620162394,1.832404969538225
1648639423466317226,117226,11,8,1.50757062435,-1.12889230251,0.693223714828,-0.365145087242,21.6000003815,0.5042042221906354,-0.3775559540167224,0.23184739626354514,21.6000003815,-0.04934393070837838,0.8068409346105369,2.0069195641254063
1648639423466321263,117227,11,9,1.14018988609,-1.70151877403,0.436323165894,-0.365145087242,21.6000003815,0.3813344100635451,-0.5690698240903009,0.145927480232107,21.6000003815,-0.04934393070837838,0.7840104140170525,2.0941769313537586
1648639423466326608,117228,11,10,1.19448983669,-1.53791117668,0.642473220825,-0.243430063128,21.6000003815,0.3994949286588629,-0.5143515641070233,0.2148739868979933,21.6000003815,-0.03289595447675676,0.7640352920825328,2.0505483648990612
1648639423566276977,117229,12,0,0.0271844957024,0.081803791225,0.0135274911299,0.0,19.3999996185,0.009091804582742474,0.0273591275,0.004524244525050167,19.3999996185,0.0,0.030229847480640892,0.08725737837940535
1648639423566353120,117230,12,1,0.0697280466557,0.0272679310292,-0.0448141656816,0.0,19.3999996185,0.023320416941705682,0.00911970937431438,-0.01498801527812709,19.3999996185,0.0,0.03421772627954617,0.08725737790451062
1648639423566355682,117231,12,2,0.212368115783,-0.081803791225,-0.129354432225,0.0,19.3999996185,0.0710261256799331,-0.0273591275,-0.04326235191471572,19.3999996185,0.0,0.10410544133600588,0.26177212608728456
1648639423566359193,117232,12,3,0.948728263378,0.899841725826,-0.0575825758278,0.0,19.3999996185,0.3173004225344481,0.3009504099752508,-0.019258386564481603,19.3999996185,0.0,0.5403057148923656,1.3088606504547053
1648639423566362445,117233,12,4,0.884991765022,1.58290338516,0.480321735144,0.0,19.3999996185,0.29598386790033443,0.5293991254715719,0.16064272078394648,19.3999996185,0.0,0.6748898681744676,1.8760337204217534
1648639423566388854,117234,12,5,2.42688703537,1.71787965298,0.697190344334,0.0,19.3999996185,0.81166790480602,0.5745416899598662,0.23317402820535113,19.3999996185,0.0,1.2836306824341368,3.054008114069482
1648639423566419060,117235,12,6,3.82293915749,-1.00345981121,0.699363708496,0.0,19.3999996185,1.2785749690602006,-0.3356052880301003,0.23390090585150503,19.3999996185,0.0,1.8390592193750457,4.013839183543013
1648639423566421926,117236,12,7,1.44829690456,-1.25977838039,0.0223184619099,-0.486860126257,19.3999996185,0.48438023563879595,-0.42133056200334446,0.00746436853173913,19.3999996185,-0.06579190895364864,0.8042187935089835,1.9196623675006377
1648639423566426374,117237,12,8,1.25380218029,-1.22978365421,0.339607030153,-0.243430063128,19.3999996185,0.41933183287290965,-0.41129888100668893,0.11358094653946486,19.3999996185,-0.03289595447675676,0.7216960174744365,1.7887763075330014
1648639423566432318,117238,12,9,1.2852537632,-1.47383165359,0.617002129555,-0.243430063128,19.3999996185,0.4298507569230769,-0.4929202854816053,0.2063552272759197,19.3999996185,-0.03289595447675676,0.7826325793716689,2.0505483673444527
1648639423666269296,117239,13,0,0.0272194538265,0.081803791225,0.0134570086375,0.0,15.8999996185,0.009103496263043478,0.0273591275,0.004500671785117057,15.8999996185,0.0,0.030236883866955427,0.0872573779508994
1648639423666275138,117240,13,1,0.0698256790638,0.0272679310292,-0.0446618869901,0.0,15.8999996185,0.02335306992100334,0.00911970937431438,-0.01493708594986622,15.8999996185,0.0,0.03426223647899389,0.0872573760140108
1648639423666277324,117241,13,2,0.211751192808,-0.081803791225,-0.130361869931,0.0,15.8999996185,0.0708197969257525,-0.0273591275,-0.04359928760234113,15.8999996185,0.0,0.10382393332354012,0.26177212427281316
1648639423666281926,117242,13,3,0.948703110218,0.899841725826,-0.0579944886267,0.0,15.8999996185,0.3172920101063545,0.3009504099752508,-0.01939615004237458,15.8999996185,0.0,0.5402958343527493,1.3088606051012053
1648639423666289169,117243,13,4,0.878577888012,1.58290338516,0.491955518723,0.0,15.8999996185,0.29383875853244146,0.5293991254715719,0.16453361830200666,15.8999996185,0.0,0.6730125304047748,1.8760337055758431
1648639423666324372,117244,13,5,2.33877491951,1.8133174181,0.754306137562,0.0,15.8999996185,0.782198969735786,0.6064606749498327,0.2522763001879599,15.8999996185,0.0,1.2615328005137467,3.0540081748544092
1648639423666385003,117245,13,6,3.82308340073,-1.00345981121,0.698575139046,0.0,15.8999996185,1.2786232109464881,-0.3356052880301003,0.23363717024949832,15.8999996185,0.0,1.8391262981361507,4.013839247720816
1648639423666418501,117246,13,7,1.20403778553,-1.28568291664,0.311501294374,-0.243430063128,15.8999996185,0.40268822258528425,-0.42999428650167215,0.10418103490769229,15.8999996185,-0.03289595447675676,0.7135900052844582,1.7887762877231463
1648639423666429807,117247,13,8,1.22102129459,-1.47383165359,0.735986411572,-0.243430063128,15.8999996185,0.4083683259498328,-0.4929202854816053,0.24614930152909695,15.8999996185,-0.03289595447675676,0.7592758307212242,2.0505484005467176
1648639423766225972,117248,14,0,0.0272593703121,0.081803791225,0.0133759668097,0.0,15.3999996185,0.009116846258227423,0.0273591275,0.004473567494882942,15.3999996185,0.0,0.030244927325975956,0.08725737800719079
1648639423766233194,117249,14,1,0.0698256790638,0.0272679310292,-0.0446618869901,0.0,15.3999996185,0.02335306992100334,0.00911970937431438,-0.01493708594986622,15.3999996185,0.0,0.03426223647899389,0.0872573760140108
1648639423766237884,117250,14,2,0.205446854234,-0.0899841710925,-0.134978100657,0.0,15.3999996185,0.06871132248628763,-0.030095040499163877,-0.045143177477257525,15.3999996185,0.0,0.10172611826996814,0.2617721310965359
1648639423766241440,117251,14,3,0.948824465275,0.899841725826,-0.0559745468199,0.0,15.3999996185,0.3173325970819398,0.3009504099752508,-0.01872058422070234,15.3999996185,0.0,0.5403435051944355,1.3088606294535705
1648639423766243488,117252,14,4,0.900426268578,1.58290338516,0.450723767281,0.0,15.3999996185,0.30114590922341133,0.5293991254715719,0.15074373487658863,15.3999996185,0.0,0.6794417939264962,1.8760337167247996
1648639423766248481,117253,14,5,2.33684968948,1.8133174181,0.760249853134,0.0,15.3999996185,0.7815550800936455,0.6064606749498327,0.25426416492775916,15.3999996185,0.0,1.2607344037111765,3.0540082464194316
1648639423766254329,117254,14,6,3.81704163551,-1.00345981121,0.730867266655,0.0,15.3999996185,1.276602553682274,-0.3356052880301003,0.24443721292809364,15.3999996185,0.0,1.836316712740472,4.013839234622909
1648639423766346578,117255,14,7,1.18171608448,-1.25432479382,0.275239020586,-0.243430063128,15.3999996185,0.395222770729097,-0.4195066200066889,0.09205318414247492,15.3999996185,-0.03289595447675676,0.6988475379043738,1.7451475900804119
1648639423766349985,117256,14,8,1.05107998848,-1.53382110596,0.630186676979,-0.243430063128,15.3999996185,0.351531768722408,-0.5129836474782609,0.21076477490936454,15.3999996185,-0.03289595447675676,0.7143538278908497,1.9632910062222841
1648639423866264765,117257,15,0,0.0273075979203,0.081803791225,0.0132772326469,0.0,18.3999996185,0.009132975893076921,0.0273591275,0.004440546035752508,18.3999996185,0.0,0.030254658399795305,0.08725737831106357
1648639423866303150,117258,15,1,0.0698095485568,0.0272679310292,-0.0446871072054,0.0,18.3999996185,0.02334767510260869,0.00911970937431438,-0.014945520804481603,18.3999996185,0.0,0.034254882344943255,0.08725738182357029
1648639423866312095,117259,15,2,0.211751192808,-0.081803791225,-0.130361869931,0.0,18.3999996185,0.0708197969257525,-0.0273591275,-0.04359928760234113,18.3999996185,0.0,0.10382393332354012,0.26177212427281316
1648639423866333846,117260,15,3,0.948546588421,0.899841725826,-0.0605012401938,0.0,18.3999996185,0.3172396616792642,0.3009504099752508,-0.020234528492909697,18.3999996185,0.0,0.5402343520630835,1.3088606350592182
1648639423866341310,117261,15,4,1.00034081936,1.52427732944,0.442039817572,0.0,18.3999996185,0.3345621469431438,0.5097917489765886,0.14783940387023412,18.3999996185,0.0,0.695522312840516,1.8760336703379452
1648639423866347764,117262,15,5,2.42161178589,1.71787965298,0.715298235416,0.0,18.3999996185,0.8099036073210703,0.5745416899598662,0.23923017906889632,18.3999996185,0.0,1.2813999609042073,3.0540081383770548
1648639423866449298,117263,15,6,3.8193154335,-1.00345981121,0.718890309334,0.0,18.3999996185,1.277363021237458,-0.3356052880301003,0.24043154158327756,18.3999996185,0.0,1.8373740733458552,4.013839215780726
1648639423866530019,117264,15,7,1.17062997818,-1.22296667099,0.170718044043,-0.365145087242,18.3999996185,0.3915150428695652,-0.40901895350836115,0.05709633580033444,18.3999996185,-0.04934393070837838,0.6883782113891969,1.7015189316395918
1648639423866534084,117265,15,8,1.52560901642,-1.16570401192,0.410077184439,-0.243430063128,18.3999996185,0.5102371292374581,-0.3898675625150501,0.13714956001304346,18.3999996185,-0.03289595447675676,0.8201710628926088,1.96329111738066
1648639423966336915,117266,16,0,0.0272290110588,0.081803791225,0.013437660411,0.0,16.7000007629,0.00910669266180602,0.0273591275,0.004494200806354515,16.7000007629,0.0,0.030238808839543257,0.08725737802240563
1648639423966345731,117267,16,1,0.0698095485568,0.0272679310292,-0.0446871072054,0.0,16.7000007629,0.02334767510260869,0.00911970937431438,-0.014945520804481603,16.7000007629,0.0,0.034254882344943255,0.08725738182357029
1648639423966348086,117268,16,2,0.212095037103,-0.081803791225,-0.129801690578,0.0,16.7000007629,0.07093479501772575,-0.0273591275,-0.04341193664816054,16.7000007629,0.0,0.10398082585734159,0.2617721220821904
1648639423966351344,117269,16,3,0.948902666569,0.899841725826,-0.0546323917806,0.0,16.7000007629,0.31735875136086955,0.3009504099752508,-0.018271702936655514,16.7000007629,0.0,0.5403742253243876,1.3088606115209296
1648639423966356975,117270,16,4,1.00663805008,1.52427732944,0.427505403757,0.0,16.7000007629,0.33666824417391306,0.5097917489765886,0.14297839590535116,16.7000007629,0.0,0.6975518909693388,1.8760336913699174
1648639423966375201,117271,16,5,2.33579277992,1.8133174181,0.763490796089,0.0,16.7000007629,0.7812015986354514,0.6064606749498327,0.25534809233745814,16.7000007629,0.0,1.2602961658601426,3.0540082130249533
1648639423966493947,117272,16,6,3.81987667084,-1.00345981121,0.715901494026,0.0,16.7000007629,1.2775507260334447,-0.3356052880301003,0.23943193780133779,16.7000007629,0.0,1.837635062935764,4.013839100199452
1648639423966498780,117273,16,7,1.11794936657,-1.19160854816,0.280817300081,-0.365145087242,16.7000007629,0.37389610922073574,-0.39853128701003343,0.09391882945852842,16.7000007629,-0.04934393070837838,0.6621357773951521,1.6578902479618576
1648639423966501476,117274,16,8,1.48604261875,-1.13979947567,0.421471297741,-0.243430063128,16.7000007629,0.49700422031772573,-0.3812038380167224,0.14096030024782608,16.7000007629,-0.03289595447675676,0.7995891170757268,1.9196623568477993
1648639424066375681,117275,17,0,0.0271801967174,0.081803791225,0.0135361254215,0.0,17.8999996185,0.009090366795117056,0.0273591275,0.0045271322479933105,17.8999996185,0.0,0.030228982690470908,0.08725737816257446
1648639424066382256,117276,17,1,0.0698256790638,0.0272679310292,-0.0446618869901,0.0,17.8999996185,0.02335306992100334,0.00911970937431438,-0.01493708594986622,17.8999996185,0.0,0.03426223647899389,0.0872573760140108
1648639424066387553,117277,17,2,0.211568370461,-0.081803791225,-0.130658388138,0.0,17.8999996185,0.07075865232809364,-0.0273591275,-0.04369845757123745,17.8999996185,0.0,0.10374052060857088,0.26177213379029973
1648639424066404644,117278,17,3,0.949039101601,0.899841725826,-0.0522092692554,0.0,17.8999996185,0.3174043818063545,0.3009504099752508,-0.01746129406535117,17.8999996185,0.0,0.5404278235287481,1.308860632650142
1648639424066433060,117279,17,4,0.895250201225,1.58290338516,0.460919111967,0.0,17.8999996185,0.29941478301839464,0.5293991254715719,0.1541535491528428,17.8999996185,0.0,0.6779099192591667,1.8760337090044088
1648639424066438697,117280,17,5,2.33690428734,1.8133174181,0.760081648827,0.0,17.8999996185,0.7815733402474916,0.6064606749498327,0.25420790930668896,17.8999996185,0.0,1.2607570434591469,3.0540081564816575
1648639424066453085,117281,17,6,3.82136631012,-1.00345981121,0.707907259464,0.0,17.8999996185,1.2780489331505016,-0.3356052880301003,0.23675828075719063,17.8999996185,0.0,1.838327789162759,4.013839154330375
1648639424066473452,117282,17,7,1.10016083717,-1.16025042534,0.222048014402,-0.486860126257,17.8999996185,0.3679467682842809,-0.3880436205150501,0.07426354996722408,17.8999996185,-0.06579190895364864,0.6491128561383765,1.6142615147007986
1648639424066484016,117283,17,8,1.33961582184,-1.28977310658,0.247825145721,-0.486860126257,17.8999996185,0.4480320474381271,-0.43136224300334447,0.08288466412073578,17.8999996185,-0.06579190895364864,0.7665108060243356,1.8760337202280553
1648639424066651401,117284,17,9,1.23559176922,-1.16979420185,0.00781043618917,-0.243430063128,17.8999996185,0.41324139438795987,-0.39123551901337794,0.002612186016444816,17.8999996185,-0.03289595447675676,0.7032795542379133,1.7015188796365304
1648639424066657050,117285,17,10,2.16149997711,-2.86313271523,0.749146819115,-0.243430063128,17.8999996185,0.7229096913411371,-0.9575694699765885,0.25055077562374584,17.8999996185,-0.03289595447675676,1.4007626970693934,3.664809961329095
1648639424066691378,117286,17,11,3.49140381813,0.916202485561,0.633643329144,-0.243430063128,17.8999996185,1.1676935846588627,0.3064222359735786,0.21192084586755852,17.8999996185,-0.03289595447675676,1.6795568469111062,3.6648098837961003
