%time,field.header.seq,field.header.frame_id,field.point_id,field.x,field.y,field.z,field.velocity,field.intensity,normalized_x,normalized_y,normalized_z,normalized_intensity,normalized_velocity,normalized_range,range
1648639367765442458,112018,0,0,0.0272297356278,0.081803791225,0.0134361945093,0.0,19.1000003815,0.00910693499257525,0.0273591275,0.004493710538227424,19.1000003815,0.0,0.030238954801369036,0.0872573783930907
1648639367765450204,112019,0,1,0.0697309374809,0.0272679310292,-0.0448096692562,0.0,19.1000003815,0.02332138377287625,0.00911970937431438,-0.014986511456923077,19.1000003815,0.0,0.03421904413094423,0.08725737884802882
1648639367765454206,112020,0,2,0.211568370461,-0.081803791225,-0.130658388138,0.0,19.1000003815,0.07075865232809364,-0.0273591275,-0.04369845757123745,19.1000003815,0.0,0.10374052060857088,0.26177213379029973
1648639367765457170,112021,0,3,2.34230160713,1.8133174181,0.743282914162,0.0,19.1000003815,0.7833784639230769,0.6064606749498327,0.24858960339866218,19.1000003815,0.0,1.2629957188120495,3.0540082462288454
1648639367765460551,112022,0,4,3.82578253746,-1.00345981121,0.683637738228,0.0,19.1000003815,1.2795259322608694,-0.3356052880301003,0.22864138402274245,19.1000003815,0.0,1.8403815180581065,4.013839081699337
1648639367765465395,112023,0,5,0.895278036594,-0.940743625164,0.163079276681,0.243430063128,19.1000003815,0.2994240925063545,-0.31462997497123746,0.05454156410735786,19.1000003815,0.03289595447675676,0.5275429797627008,1.3088606425349911
1648639367865525661,112024,1,0,0.0271905623376,0.081803791225,0.0135152898729,0.0,45.5,0.009093833557725752,0.0273591275,0.0045201638370903005,45.5,0.0,0.030231068044521588,0.08725737790792715
1648639367865536231,112025,1,1,0.0696965903044,0.0272679310292,-0.0448630712926,0.0,45.5,0.02330989642287625,0.00911970937431438,-0.015004371669765884,45.5,0.0,0.034203386404892656,0.08725737750171902
1648639367865540895,112026,1,2,0.212316960096,-0.081803791225,-0.129438370466,0.0,45.5,0.07100901675451506,-0.0273591275,-0.04329042490501672,45.5,0.0,0.10408209633960712,0.2617721214187701
1648639367865548553,112027,1,3,0.94916331768,0.899841725826,-0.049899738282,0.0,45.5,0.3174459256454849,0.3009504099752508,-0.01668887567959866,45.5,0.0,0.5404766236222516,1.3088606186479257
1648639367865565750,112028,1,4,2.34221577644,1.8133174181,0.74355340004,0.0,45.5,0.7833497580066888,0.6064606749498327,0.24868006690301003,45.5,0.0,1.2629601090291342,3.0540082614328874
1648639367865574375,112029,1,5,3.8273730278,-1.00345981121,0.674676895142,0.0,45.5,1.2800578688294315,-0.3356052880301003,0.22564444653578594,45.5,0.0,1.8411211813615254,4.013839159642922
1648639367865579358,112030,1,6,0.894958555698,-0.97210174799,0.288608491421,0.243430063128,45.5,0.2993172427083612,-0.3251176414682274,0.09652457907056855,45.5,0.03289595447675676,0.5337444185740351,1.3524893663842865
1648639367865581823,112031,1,7,0.923426628113,-1.0307277441,0.742812991142,0.486860126257,45.5,0.30883833716153847,-0.3447249980267558,0.24843243850903007,45.5,0.06579190895364864,0.5564149182633003,1.5706328532712364
1648639367965604653,112032,2,0,0.0272307731211,0.081803791225,0.0134340925142,0.0,19.2000007629,0.009107281980301004,0.0273591275,0.004493007529832776,19.2000007629,0.0,0.03023916380620812,0.08725737851457775
1648639367965610287,112033,2,1,0.0697870403528,0.0272679310292,-0.0447222441435,0.0,19.2000007629,0.023340147275183947,0.00911970937431438,-0.014957272288795984,19.2000007629,0.0,0.03424462072686031,0.08725737897190909
1648639367965612440,112034,2,2,0.211355909705,-0.081803791225,-0.131001770496,0.0,19.2000007629,0.07068759521906354,-0.0273591275,-0.04381330116923077,19.2000007629,0.0,0.10364359166523324,0.26177212360963525
1648639367965614422,112035,2,3,2.42288446426,1.71787965298,0.710975348949,0.0,19.2000007629,0.8103292522608695,0.5745416899598662,0.23778439764180603,19.2000007629,0.0,1.2819380436047831,3.0540081165721067
1648639367965622537,112036,2,4,3.82789158821,-1.00345981121,0.671728372574,0.0,19.2000007629,1.2802313004046821,-0.3356052880301003,0.22465831858662205,19.2000007629,0.0,1.841362341970068,4.013839136079496
1648639367965627352,112037,2,5,0.907958865166,-0.97210174799,0.244655460119,0.121715031564,19.2000007629,0.30366517229632106,-0.3251176414682274,0.08182456860167224,19.2000007629,0.01644797723837838,0.5386339708237604,1.3524893357970642
1648639367965631983,112038,2,6,0.928158164024,-1.05935907364,0.788746476173,0.365145087242,19.2000007629,0.3104207906434782,-0.3543006935250836,0.26379480808461536,19.2000007629,0.04934393070837838,0.5641374973885351,1.6142615116588535
1648639367965724157,112039,2,7,1.35686933994,-0.504456698895,-0.714331328869,0.365145087242,19.2000007629,0.45380245482943143,-0.16871461501505017,-0.23890679895284278,19.2000007629,0.04934393070837838,0.6635796541019872,1.6142615073565385
1648639368065544625,112040,3,0,0.0272137541324,0.081803791225,0.0134685337543,0.0,18.3999996185,0.00910159001083612,0.0273591275,0.004504526339230769,18.3999996185,0.0,0.030235736124856628,0.08725737833703706
1648639368065561618,112041,3,1,0.0698152408004,0.0272679310292,-0.0446782074869,0.0,18.3999996185,0.02334957886301003,0.00911970937431438,-0.014942544309999998,18.3999996185,0.0,0.034257477508301847,0.08725737868440428
1648639368065566244,112042,3,2,0.212149068713,-0.081803791225,-0.129713356495,0.0,18.3999996185,0.070952865790301,-0.0273591275,-0.04338239347658862,18.3999996185,0.0,0.10400548151551527,0.2617721193476791
1648639368065569403,112043,3,3,0.889571130276,-1.04708850384,0.247819289565,0.0,18.3999996185,0.29751542818595317,-0.35019682402675584,0.08288270554013377,18.3999996185,0.0,0.5474200175146765,1.396118021864524
1648639368065677458,112044,3,4,2.34305000305,1.8133174181,0.740920126438,0.0,18.3999996185,0.7836287635618729,0.6064606749498327,0.24779937339063543,18.3999996185,0.0,1.2633062290765553,3.0540081875034906
1648639368065684122,112045,3,5,3.82242107391,-1.00345981121,0.702189922333,0.0,18.3999996185,1.2784016969598662,-0.3356052880301003,0.23484612787056855,18.3999996185,0.0,1.8388182908959485,4.013839202809564
1648639368065691010,112046,3,6,0.72515720129,-1.05935907364,0.978644788265,0.243430063128,18.3999996185,0.2425274920702341,-0.3543006935250836,0.32730594925250833,18.3999996185,0.03289595447675676,0.493120827234168,1.6142615138460037
1648639368165620901,112047,4,0,0.0272822696716,0.081803791225,0.0133292004466,0.0,13.8000001907,0.009124504906889631,0.0273591275,0.0044579265707692306,13.8000001907,0.0,0.03024954606523811,0.0872573783800713
1648639368165633213,112048,4,1,0.0696903839707,0.0272679310292,-0.0448727123439,0.0,13.8000001907,0.02330782072598662,0.00911970937431438,-0.015007596101638794,13.8000001907,0.0,0.034200557203961174,0.08725737787542784
1648639368165644014,112049,4,2,0.906798422337,-0.97210174799,0.248922228813,0.0,13.8000001907,0.30327706432675583,-0.3251176414682274,0.08325158154280936,13.8000001907,0.0,0.5381964662529598,1.35248935788616
1648639368165647101,112050,4,3,2.42381000519,1.71787965298,0.707813799381,0.0,13.8000001907,0.810638797722408,0.5745416899598662,0.2367270232043478,13.8000001907,0.0,1.2823293938172053,3.0540081561737846
1648639368165650272,112051,4,4,3.82721567154,-1.00345981121,0.675568640232,0.0,13.8000001907,1.2800052413177256,-0.3356052880301003,0.22594268904080267,13.8000001907,0.0,1.8410480018064344,4.013839106997176
1648639368165784796,112052,4,5,1.0533156395,-0.916202485561,0.0156417805701,0.243430063128,13.8000001907,0.35227947809364546,-0.3064222359735786,0.005231364739163879,13.8000001907,0.03289595447675676,0.5848899452639872,1.3961180094328889
1648639368265505542,112053,5,0,0.0272307731211,0.081803791225,0.0134340925142,0.0,28.3999996185,0.009107281980301004,0.0273591275,0.004493007529832776,28.3999996185,0.0,0.03023916380620812,0.08725737851457775
1648639368265511891,112054,5,1,0.0698048174381,0.0272679310292,-0.0446944907308,0.0,28.3999996185,0.023346092788662207,0.00911970937431438,-0.014947990210969899,28.3999996185,0.0,0.03425272538157524,0.08725737849526105
1648639368265516966,112055,5,2,0.927735090256,-0.929836452007,0.322396039963,0.0,28.3999996185,0.31027929439999996,-0.3109820909722408,0.10782476252943142,28.3999996185,0.0,0.5378255683511065,1.3524893462638066
1648639368265524815,112056,5,3,1.08441734314,-0.944833815098,0.0647993534803,0.0,28.3999996185,0.3626813856655518,-0.315997931470903,0.021672024575351168,28.3999996185,0.0,0.6024369408580943,1.4397468070695356
1648639368265633075,112057,5,4,2.34495973587,1.8133174181,0.734853327274,0.0,28.3999996185,0.7842674701906354,0.6064606749498327,0.24577034356989966,28.3999996185,0.0,1.2640986828009295,3.0540081260929903
1648639368265643247,112058,5,5,3.83207702637,-1.00345981121,0.647425293922,0.0,28.3999996185,1.2816311124983277,-0.3356052880301003,0.21653019863612039,28.3999996185,0.0,1.843308852688873,4.013839239426056
1648639368365572954,112059,6,0,0.0272465385497,0.081803791225,0.0134020866826,0.0,14.5,0.009112554698896321,0.0273591275,0.0044823032383277586,14.5,0.0,0.030242340581410215,0.08725737819331728
1648639368365590935,112060,6,1,0.0698152408004,0.0272679310292,-0.0446782074869,0.0,14.5,0.02334957886301003,0.00911970937431438,-0.014942544309999998,14.5,0.0,0.034257477508301847,0.08725737868440428
1648639368365594280,112061,6,2,0.911154210567,-0.929836452007,0.366646379232,0.0,14.5,0.30473384968795986,-0.3109820909722408,0.12262420710100333,14.5,0.0,0.5314464217555287,1.352489330944564
1648639368365600065,112062,6,3,2.42484998703,1.71787965298,0.704243004322,0.0,14.5,0.8109866177357858,0.5745416899598662,0.23553277736521738,14.5,0.0,1.2827691693344514,3.05400821394746
1648639368365703625,112063,6,4,3.83136057854,-1.00345981121,0.651651740074,0.0,14.5,1.2813914978394647,-0.3356052880301003,0.21794372577725749,14.5,0.0,1.8429756511751043,4.013839242651036
1648639368365706144,112064,6,5,4.78777170181,1.42338597775,0.814988195896,-0.243430063128,14.5,1.6012614387324413,0.4760488219899665,0.27257130297525084,14.5,-0.03289595447675676,2.314022227909881,5.060927906002788
1648639368465589346,112065,7,0,0.0272297356278,0.081803791225,0.0134361945093,0.0,12.0,0.00910693499257525,0.0273591275,0.004493710538227424,12.0,0.0,0.030238954801369036,0.0872573783930907
1648639368465595346,112066,7,1,0.0696965903044,0.0272679310292,-0.0448630712926,0.0,12.0,0.02330989642287625,0.00911970937431438,-0.015004371669765884,12.0,0.0,0.034203386404892656,0.08725737750171902
1648639368465602967,112067,7,2,0.213004231453,-0.081803791225,-0.128304257989,0.0,12.0,0.07123887339565216,-0.0273591275,-0.04291112307324414,12.0,0.0,0.10439576630747423,0.26177212512751324
1648639368465817293,112068,7,3,0.88805526495,-0.97210174799,0.309198111296,0.0,12.0,0.2970084498160535,-0.3251176414682274,0.1034107395638796,12.0,0.0,0.5311586573879157,1.3524893471224244
1648639368465823978,112069,7,4,2.33673787117,1.8133174181,0.76059281826,0.0,12.0,0.7815176826655518,0.6064606749498327,0.2543788689832776,12.0,0.0,1.2606880371045308,3.0540080832462846
1648639368465827236,112070,7,5,3.83000278473,-1.00345981121,0.659584820271,0.0,12.0,1.2809373861973243,-0.3356052880301003,0.2205969298565217,12.0,0.0,1.8423441817613322,4.013839191956385
1648639368565546901,112071,8,0,0.0272636115551,0.081803791225,0.0133673232049,0.0,14.3999996185,0.009118264734147157,0.0273591275,0.0044706766571571905,14.3999996185,0.0,0.030245782533854862,0.08725737850448538
1648639368565551762,112072,8,1,0.0698152408004,0.0272679310292,-0.0446782074869,0.0,14.3999996185,0.02334957886301003,0.00911970937431438,-0.014942544309999998,14.3999996185,0.0,0.034257477508301847,0.08725737868440428
1648639368565557404,112073,8,2,2.33985209465,1.8133174181,0.750958144665,0.0,14.3999996185,0.782559228979933,0.6064606749498327,0.25115657012207354,14.3999996185,0.0,1.2619795735208796,3.054008189029876
1648639368565799076,112074,8,3,3.82550096512,-1.00345981121,0.685211837292,0.0,14.3999996185,1.2794317609096988,-0.3356052880301003,0.22916783855919728,14.3999996185,0.0,1.8402505728847776,4.013839120943032
1648639368565804463,112075,8,4,0.934600114822,-0.929836452007,0.301917642355,0.121715031564,14.3999996185,0.31257528923812705,-0.3109820909722408,0.1009758001187291,14.3999996185,0.01644797723837838,0.5404780141597478,1.3524893585058122
1648639368665536767,112076,9,0,0.0272339992225,0.081803791225,0.0134275499731,0.0,29.6000003815,0.009108360943979932,0.0273591275,0.004490819388996655,29.6000003815,0.0,0.030239813751623774,0.08725737831676252
1648639368665556370,112077,9,1,0.0697974562645,0.0272679310292,-0.0447059832513,0.0,29.6000003815,0.023343630857692307,0.00911970937431438,-0.014951833863311035,29.6000003815,0.0,0.034249369371017135,0.08725737735041957
1648639368665561443,112078,9,2,0.213453575969,-0.081803791225,-0.127555295825,0.0,29.6000003815,0.0713891558424749,-0.0273591275,-0.042660634055183944,29.6000003815,0.0,0.10460088432400366,0.2617721200696138
1648639368665563835,112079,9,3,2.34010648727,1.8133174181,0.750164866447,0.0,29.6000003815,0.7826443101237457,0.6064606749498327,0.25089125968127085,29.6000003815,0.0,1.2620850932479768,3.054008146256233
1648639368665578466,112080,9,4,3.83001089096,-1.00345981121,0.659537553787,0.0,29.6000003815,1.2809400973110368,-0.3356052880301003,0.22058112166789295,29.6000003815,0.0,1.8423479517051558,4.013839160011417
1648639368665583356,112081,9,5,0.887112081051,-0.97210174799,0.311893880367,0.121715031564,29.6000003815,0.2966930036959866,-0.3251176414682274,0.104312334570903,29.6000003815,0.01644797723837838,0.5308059510575934,1.3524893513082585
1648639368765536930,112082,10,0,0.0272151790559,0.081803791225,0.0134656522423,0.0,29.6000003815,0.009102066573879597,0.0273591275,0.004503562622842809,29.6000003815,0.0,0.030236023041926807,0.08725737802695337
1648639368765553170,112083,10,1,0.0697249174118,0.0272679310292,-0.0448190309107,0.0,29.6000003815,0.02331937037183946,0.00911970937431438,-0.014989642445050166,29.6000003815,0.0,0.0342162997436895,0.08725737620665557
1648639368765557674,112084,10,2,0.213024243712,-0.081803791225,-0.128271028399,0.0,29.6000003815,0.07124556645886286,-0.0273591275,-0.04290000949799331,29.6000003815,0.0,0.10440490092734989,0.2617721249376832
1648639368765560244,112085,10,3,0.947653770447,0.899841725826,-0.0731669962406,0.0,29.6000003815,0.3169410603501672,0.3009504099752508,-0.024470567304548493,29.6000003815,0.0,0.5398837103821973,1.3088606532090425
1648639368765565493,112086,10,4,2.34008860588,1.8133174181,0.750221312046,0.0,29.6000003815,0.7826383297257525,0.6064606749498327,0.25091013780802673,29.6000003815,0.0,1.2620776761247454,3.054008310270664
1648639368765685019,112087,10,5,3.82645201683,-1.00345981121,0.679881036282,0.0,29.6000003815,1.2797498384046821,-0.3356052880301003,0.22738496196722408,29.6000003815,0.0,1.8406928606227022,4.0138391663483315
1648639368765697376,112088,10,6,0.911388278008,-1.04708850384,-0.148737043142,0.121715031564,29.6000003815,0.30481213311304345,-0.35019682402675584,-0.049744830482274245,29.6000003815,0.01644797723837838,0.5553905729702964,1.3961180595375529
1648639368765701692,112089,10,7,1.03369498253,-1.06344926357,0.834096550941,0.243430063128,29.6000003815,0.3457173854615384,-0.3556686500234113,0.278962057170903,29.6000003815,0.03289595447675676,0.6046000412092276,1.7015189418243173
1648639368765703464,112090,10,8,4.76134490967,1.26523196697,1.15834963322,0.243430063128,29.6000003815,1.5924230467123746,0.4231545040033445,0.3874079040869565,29.6000003815,0.03289595447675676,2.2914366789548777,5.060927894355353
1648639368865598223,112091,11,0,0.02726659365,0.081803791225,0.0133612379432,0.0,14.6000003815,0.009119262090301002,0.0273591275,0.0044686414525752505,14.6000003815,0.0,0.030246383911212565,0.08725737829795494
1648639368865604625,112092,11,1,0.0697322636843,0.0272679310292,-0.0448075979948,0.0,14.6000003815,0.023321827319163876,0.00911970937431438,-0.014985818727357858,14.6000003815,0.0,0.034219648713593696,0.08725737504196168
1648639368865626450,112093,11,2,0.211568370461,-0.081803791225,-0.130658388138,0.0,14.6000003815,0.07075865232809364,-0.0273591275,-0.04369845757123745,14.6000003815,0.0,0.10374052060857088,0.26177213379029973
1648639368865756061,112094,11,3,0.948432087898,0.899841725826,-0.0622702911496,0.0,14.6000003815,0.31720136718996655,0.3009504099752508,-0.0208261843309699,14.6000003815,0.0,0.5401893778654293,1.3088606289639588
1648639368865764440,112095,11,4,2.42693591118,1.71787965298,0.697020292282,0.0,14.6000003815,0.8116842512307693,0.5745416899598662,0.23311715460936455,14.6000003815,0.0,1.2836513548834232,3.054008137996798
1648639368865817592,112096,11,5,3.82613348961,-1.00345981121,0.681671738625,0.0,14.6000003815,1.279643307561873,-0.3356052880301003,0.22798385907190633,14.6000003815,0.0,1.840544728750037,4.013839238468432
1648639368865823380,112097,11,6,0.930178284645,-1.07981002331,0.204081833363,0.243430063128,14.6000003815,0.31109641626923074,-0.36114047602341137,0.06825479376688963,14.6000003815,0.03289595447675676,0.5691962788472296,1.4397467563341342
1648639368965486471,112098,12,0,0.0272151790559,0.081803791225,0.0134656522423,0.0,27.7000007629,0.009102066573879597,0.0273591275,0.004503562622842809,27.7000007629,0.0,0.030236023041926807,0.08725737802695337
1648639368965502248,112099,12,1,0.0697039887309,0.0272679310292,-0.0448515713215,0.0,27.7000007629,0.023312370813010033,0.00911970937431438,-0.015000525525585283,27.7000007629,0.0,0.0342067590531246,0.08725737537663074
1648639368965506001,112100,12,2,0.21162289381,-0.081803791225,-0.130570039153,0.0,27.7000007629,0.0707768875618729,-0.0273591275,-0.04366890941571906,27.7000007629,0.0,0.10376539636821736,0.26177212335869127
1648639368965511336,112101,12,3,0.94779753685,0.899841725826,-0.0712799876928,0.0,27.7000007629,0.3169891427591973,0.3009504099752508,-0.02383946076682274,27.7000007629,0.0,0.5399401656838405,1.308860626286056
1648639368965687391,112102,12,4,2.34145641327,1.8133174181,0.745940625668,0.0,27.7000007629,0.7830957903913043,0.6064606749498327,0.24947847012307692,27.7000007629,0.0,1.2626450744836293,3.0540081222960147
1648639368965693109,112103,12,5,3.83340167999,-1.00345981121,0.639534473419,0.0,27.7000007629,1.282074140464883,-0.3356052880301003,0.21389112823377926,27.7000007629,0.0,1.8439249205570447,4.013839106834638
1648639368965699108,112104,12,6,1.15795564651,-0.927109658718,0.00303797610104,0.121715031564,27.7000007629,0.3872761359565217,-0.3100701199725752,0.001016045518742475,27.7000007629,0.01644797723837838,0.6293719808369577,1.4833754844513878
1648639369065478026,112105,13,0,0.027273805812,0.081803791225,0.0133465090767,0.0,18.6000003815,0.009121674184615383,0.0273591275,0.004463715410267558,18.6000003815,0.0,0.030247838557850935,0.08725737817966174
1648639369065616840,112106,13,1,0.0697870403528,0.0272679310292,-0.0447222441435,0.0,18.6000003815,0.023340147275183947,0.00911970937431438,-0.014957272288795984,18.6000003815,0.0,0.03424462072686031,0.08725737897190909
1648639369065621812,112107,13,2,0.212095037103,-0.081803791225,-0.129801690578,0.0,18.6000003815,0.07093479501772575,-0.0273591275,-0.04341193664816054,18.6000003815,0.0,0.10398082585734159,0.2617721220821904
1648639369065631672,112108,13,3,0.94843262434,0.899841725826,-0.0622624903917,0.0,18.6000003815,0.31720154660200667,0.3009504099752508,-0.020823575381839463,18.6000003815,0.0,0.5401895885683855,1.3088606465776829
1648639369065639138,112109,13,4,2.3407971859,1.8133174181,0.748006701469,0.0,18.6000003815,0.7828753130100334,0.6064606749498327,0.25016946537424745,18.6000003815,0.0,1.2623716020656208,3.0540081122591576
1648639369065644900,112110,13,5,3.82421684265,-1.00345981121,0.692342996597,0.0,18.6000003815,1.2790022885117056,-0.3356052880301003,0.23155284167123746,18.6000003815,0.0,1.8396533959934211,4.013839169331335
1648639369065651903,112111,13,6,0.955888688564,-1.03481793404,0.297152280807,0.121715031564,18.6000003815,0.31969521356655517,-0.3460929545284281,0.09938203371471571,18.6000003815,0.01644797723837838,0.5693771968817747,1.439746790072553
1648639369165521755,112112,14,0,0.0272977706045,0.081803791225,0.013297422789,0.0,25.6000003815,0.009129689165384616,0.0273591275,0.004447298591638796,25.6000003815,0.0,0.03025267436234917,0.08725737786335726
1648639369165538006,112113,14,1,0.0697782412171,0.0272679310292,-0.0447359643877,0.0,25.6000003815,0.02333720442043478,0.00911970937431438,-0.014961860999230768,25.6000003815,0.0,0.034240609214707014,0.08725737515913806
1648639369165541093,112114,14,2,0.211568370461,-0.081803791225,-0.130658388138,0.0,25.6000003815,0.07075865232809364,-0.0273591275,-0.04369845757123745,25.6000003815,0.0,0.10374052060857088,0.26177213379029973
1648639369165544002,112115,14,3,0.94792330265,0.899841725826,-0.0695877075195,0.0,25.6000003815,0.3170312048996655,0.3009504099752508,-0.023273480775752507,25.6000003815,0.0,0.5399895545513256,1.3088606374561873
1648639369165549079,112116,14,4,0.945597946644,-1.03481793404,0.328431367874,0.0,25.6000003815,0.31625349386086954,-0.3460929545284281,0.10984326684749164,25.6000003815,0.0,0.5655200066599153,1.4397467821501633
1648639369165555159,112117,14,5,2.42633700371,1.71787965298,0.699102401733,0.0,25.6000003815,0.8114839477290969,0.5745416899598662,0.23381351228528427,25.6000003815,0.0,1.2833980475074513,3.054008173827299
1648639369165655288,112118,14,6,3.82597303391,-1.00345981121,0.682571530342,0.0,25.6000003815,1.2795896434481604,-0.3356052880301003,0.22828479275652172,25.6000003815,0.0,1.840470108584583,4.0138392024287075
1648639369265497258,112119,15,0,0.0272623617202,0.081803791225,0.0133698713034,0.0,14.6000003815,0.00911784672916388,0.0273591275,0.004471528864013377,14.6000003815,0.0,0.030245530504758967,0.08725737839298114
1648639369265521295,112120,15,1,0.0697039887309,0.0272679310292,-0.0448515713215,0.0,14.6000003815,0.023312370813010033,0.00911970937431438,-0.015000525525585283,14.6000003815,0.0,0.0342067590531246,0.08725737537663074
1648639369265523801,112121,15,2,0.211968272924,-0.081803791225,-0.130008593202,0.0,14.6000003815,0.07089239897123745,-0.0273591275,-0.043481134850167226,14.6000003815,0.0,0.10392298264270264,0.2617721209210978
1648639369265528663,112122,15,3,0.94808357954,0.899841725826,-0.0673692971468,0.0,14.6000003815,0.3170848092107023,0.3009504099752508,-0.022531537507290967,14.6000003815,0.0,0.5400524990486079,1.3088606600891277
1648639369265624540,112123,15,4,1.01759469509,-1.06617605686,0.167846232653,0.0,14.6000003815,0.34033267394314376,-0.35658062102341137,0.056135863763545145,14.6000003815,0.0,0.5990011662726727,1.4833754432080413
1648639369265629709,112124,15,5,2.33707523346,1.8133174181,0.75955593586,0.0,14.6000003815,0.7816305128628761,0.6064606749498327,0.2540320855719064,14.6000003815,0.0,1.260827929392894,3.0540081737508697
1648639369265631862,112125,15,6,3.82791566849,-1.00345981121,0.671591997147,0.0,14.6000003815,1.2802393540100334,-0.3356052880301003,0.2246127080759197,14.6000003815,0.0,1.8413735407205736,4.0138392803420455
1648639369365596973,112126,16,0,0.0272495206445,0.081803791225,0.01339602191,0.0,14.6000003815,0.009113552055016723,0.0273591275,0.004480274886287625,14.6000003815,0.0,0.03024294165057783,0.08725737812444069
1648639369365602263,112127,16,1,0.0698152408004,0.0272679310292,-0.0446782074869,0.0,14.6000003815,0.02334957886301003,0.00911970937431438,-0.014942544309999998,14.6000003815,0.0,0.034257477508301847,0.08725737868440428
1648639369365616843,112128,16,2,0.211702868342,-0.081803791225,-0.130440324545,0.0,14.6000003815,0.07080363489698996,-0.0273591275,-0.04362552660367893,14.6000003815,0.0,0.10380188479412966,0.2617721203459576
1648639369365631177,112129,16,3,0.948562085629,0.899841725826,-0.0602578371763,0.0,14.6000003815,0.3172448446919732,0.3009504099752508,-0.020153122801438123,14.6000003815,0.0,0.5402404392782346,1.308860637643106
1648639369365681275,112130,16,4,0.910099029541,-1.07981002331,0.28035852313,0.0,14.6000003815,0.3043809463347826,-0.36114047602341137,0.09376539235117055,14.6000003815,0.0,0.5618878574998144,1.4397467942328774
1648639369365685072,112131,16,5,2.42505311966,1.71787965298,0.703542888165,0.0,14.6000003815,0.8110545550702339,0.5745416899598662,0.2352986248043478,14.6000003815,0.0,1.2828550721349194,3.0540081418985987
1648639369365688952,112132,16,6,3.8259344101,-1.00345981121,0.682787895203,0.0,14.6000003815,1.2795767257859532,-0.3356052880301003,0.2283571555862876,14.6000003815,0.0,1.8404521465389876,4.013839186232626
