%time,field.header.seq,field.header.frame_id,field.point_id,field.x,field.y,field.z,field.velocity,field.intensity,normalized_x,normalized_y,normalized_z,normalized_intensity,normalized_velocity,normalized_range,range
1648639737670637380,148401,0,0,0.0272253192961,0.081803791225,0.0134451398626,0.0,31.5,0.009105457958561873,0.0273591275,0.004496702295183946,31.5,0.0,0.030238065196561963,0.08725737822948187
1648639737670643734,148402,0,1,0.0696269571781,0.0272679310292,-0.0449710637331,0.0,31.5,0.02328660775187291,0.00911970937431438,-0.01504048954284281,31.5,0.0,0.0341716446816821,0.08725737677572436
1648639737670659472,148403,0,2,0.21189211309,-0.081803791225,-0.130132690072,0.0,31.5,0.07086692745484949,-0.0273591275,-0.04352263882006689,31.5,0.0,0.10388823163064745,0.2617721239435245
1648639737670671159,148404,0,3,0.947868406773,0.899841725826,-0.0703310295939,0.0,31.5,0.31701284507458194,0.3009504099752508,-0.023522083476220736,31.5,0.0,0.53996799641167,1.308860612066708
1648639737670756659,148405,0,4,2.33848428726,1.8133174181,0.755206465721,0.0,31.5,0.7821017683143813,0.6064606749498327,0.25257741328461536,31.5,0.0,1.261412264987768,3.0540081248113213
1648639737670862648,148406,0,5,3.82712388039,-1.00345981121,0.676089823246,0.0,31.5,1.2799745419364548,-0.3356052880301003,0.2261169977411371,31.5,0.0,1.8410053137795777,4.013839338795441
1648639737670915767,148407,0,6,0.977974534035,-1.11253154278,0.0790068283677,-0.365145087242,31.5,0.327081783958194,-0.37208412802006685,0.026423688417290966,31.5,-0.04934393070837838,0.593642640920447,1.483375441966782
1648639737670919825,148408,0,7,1.24458360672,-1.11662173271,0.315173178911,-0.243430063128,31.5,0.4162486978996655,-0.3734520845183947,0.10540908993678928,31.5,-0.03289595447675676,0.6971315632199335,1.7015189040328973
1648639737770719020,148409,1,0,0.0272398274392,0.081803791225,0.0134157231078,0.0,21.7000007629,0.009110310180334447,0.0273591275,0.004486863915652174,21.7000007629,0.0,0.030240988091083717,0.08725737839407015
1648639737770724175,148410,1,1,0.0697249174118,0.0272679310292,-0.0448190309107,0.0,21.7000007629,0.02331937037183946,0.00911970937431438,-0.014989642445050166,21.7000007629,0.0,0.0342162997436895,0.08725737620665557
1648639737770732162,148411,1,2,0.212225466967,-0.081803791225,-0.129588350654,0.0,21.7000007629,0.07097841704581939,-0.0273591275,-0.04334058550301004,21.7000007629,0.0,0.10404034424309536,0.26177213318718373
1648639737770741022,148412,1,3,0.948378682137,0.899841725826,-0.0630778893828,0.0,21.7000007629,0.3171835057314381,0.3009504099752508,-0.021096284074515047,21.7000007629,0.0,0.5401684014087107,1.3088606023555052
1648639737770743987,148413,1,4,2.33918690681,1.8133174181,0.753027498722,0.0,21.7000007629,0.7823367581304348,0.6064606749498327,0.2518486617799331,21.7000007629,0.0,1.2617036722244583,3.0540081626622575
1648639737770749467,148414,1,5,3.82246184349,-1.00345981121,0.701968312263,0.0,21.7000007629,1.2784153322709029,-0.3356052880301003,0.234772010790301,21.7000007629,0.0,1.8388372502547399,4.013839265475381
1648639737770754562,148415,1,6,3.16060066223,-3.38667702675,0.861979007721,-0.486860126257,21.7000007629,1.0570570776688961,-1.132667901923077,0.2882872935521739,21.7000007629,-0.06579190895364864,1.8755468287799797,4.711898305285951
1648639737770865641,148416,1,7,0.900692164898,-1.04708850384,0.203727588058,-0.365145087242,21.7000007629,0.3012348377585284,-0.35019682402675584,0.06813631707625419,21.7000007629,-0.04934393070837838,0.5514731820471784,1.3961180612392585
1648639737770868592,148417,1,8,1.07444775105,-1.01982057095,-0.0770112797618,-0.243430063128,21.7000007629,0.35934707392976584,-0.34107711403010027,-0.025756280856789295,21.7000007629,-0.03289595447675676,0.6120410417601676,1.4833754426576358
1648639737770870621,148418,1,9,1.18234872818,-1.08799040318,0.408568769693,-0.243430063128,21.7000007629,0.3954343572508361,-0.36387638902341135,0.13664507347591973,21.7000007629,-0.03289595447675676,0.6671901440200393,1.6578902472748593
1648639737770881506,148419,1,10,1.91639220715,-2.93130254745,1.34644544125,-0.243430063128,21.7000007629,0.6409338485451505,-0.9803687449665551,0.45031620108695647,21.7000007629,-0.03289595447675676,1.3351836100436127,3.752067302511379
1648639737870799891,148420,2,0,0.0272167492658,0.081803791225,0.0134624801576,0.0,14.0,0.009102591727692306,0.0273591275,0.004502501724949833,14.0,0.0,0.03023633922754805,0.08725737832054425
1648639737870812901,148421,2,1,0.0697175487876,0.0272679310292,-0.0448305010796,0.0,14.0,0.0233169059490301,0.00911970937431438,-0.0149934786219398,14.0,0.0,0.03421294060942128,0.08725738076869263
1648639737870827923,148422,2,2,0.212400451303,-0.081803791225,-0.129301339388,0.0,14.0,0.07103694023511706,-0.0273591275,-0.04324459511304348,14.0,0.0,0.10412019791326005,0.26177213056403126
1648639737870831363,148423,2,3,0.948278188705,0.899841725826,-0.0645713955164,0.0,14.0,0.31714989588795983,0.3009504099752508,-0.021595784453645482,14.0,0.0,0.5401289310782742,1.3088606189469087
1648639737870918162,148424,2,4,0.999239087105,1.52427732944,0.444524675608,0.0,14.0,0.33419367461705685,0.5097917489765886,0.14867046006956522,14.0,0.0,0.6951679305266546,1.876033666400358
1648639737870924529,148425,2,5,2.3379445076,1.8133174181,0.756876051426,0.0,14.0,0.78192124,0.6064606749498327,0.25313580315250833,14.0,0.0,1.261188408362082,3.0540081755987605
1648639737870934161,148426,2,6,3.82368850708,-1.00345981121,0.695255637169,0.0,14.0,1.278825587652174,-0.3356052880301003,0.23252696895284278,14.0,0.0,1.8394076972280025,4.013839283392468
1648639737870940358,148427,2,7,0.854174613953,-1.09071719646,0.172821491957,-0.486860126257,14.0,0.2856771284123746,-0.36478836002006687,0.05779983008595317,14.0,-0.06579190895364864,0.5443283852620683,1.396118025761992
1648639737871048986,148428,2,8,1.21745181084,-1.05935907364,0.0375467576087,-0.486860126257,14.0,0.4071745186755853,-0.3543006935250836,0.012557444016287625,14.0,-0.06579190895364864,0.6760999620986118,1.6142615394129667
1648639737871052905,148429,2,9,0.382516652346,-1.51337015629,0.411378234625,-0.486860126257,14.0,0.12793199075117057,-0.506143864979933,0.13758469385451505,14.0,-0.06579190895364864,0.5375079539615575,1.6142615250306844
1648639737871054416,148430,2,10,1.29667878151,-0.958467781544,-0.0761840417981,-0.243430063128,14.0,0.43367183328093645,-0.32055778646956523,-0.025479612641505014,14.0,-0.03289595447675676,0.6920258755485693,1.6142615521968025
1648639737871056543,148431,2,11,2.180798769,-2.82904791832,0.594606816769,-0.243430063128,14.0,0.7293641367892976,-0.946169872347826,0.19886515611003341,14.0,-0.03289595447675676,1.3997076535503747,3.6211811141630026
1648639737970831452,148432,3,0,0.0271883029491,0.081803791225,0.0135198356584,0.0,13.8999996185,0.009093077909397992,0.0273591275,0.004521684166688963,13.8999996185,0.0,0.03023061344554589,0.08725737809644278
1648639737970838533,148433,3,1,0.0697070583701,0.0272679310292,-0.0448468029499,0.0,13.8999996185,0.023313397448193978,0.00911970937431438,-0.014998930752474915,13.8999996185,0.0,0.03420815838695314,0.08725737667414082
1648639737970847082,148434,3,2,0.206703647971,-0.0899841710925,-0.133045464754,0.0,13.8999996185,0.06913165483979933,-0.030095040499163877,-0.04449681095451505,13.8999996185,0.0,0.10229409985148026,0.2617721238469277
1648639737970849224,148435,3,3,0.948242843151,0.899841725826,-0.0650887861848,0.0,13.8999996185,0.3171380746324415,0.3009504099752508,-0.021768824810969898,13.8999996185,0.0,0.5401150488807135,1.308860638575252
1648639737970854744,148436,3,4,0.997141301632,1.52427732944,0.449210613966,0.0,13.8999996185,0.3334920741244147,0.5097917489765886,0.15023766353377924,13.8999996185,0.0,0.6944937395918104,1.8760336692513833
1648639737970859711,148437,3,5,2.33601689339,1.8133174181,0.762804508209,0.0,13.8999996185,0.7812765529732442,0.6064606749498327,0.25511856461839466,13.8999996185,0.0,1.2603890886199052,3.0540081373061683
1648639737970887941,148438,3,6,3.82244491577,-1.00345981121,0.702060043812,0.0,13.8999996185,1.2784096708260868,-0.3356052880301003,0.23480269023812708,13.8999996185,0.0,1.8388293782396163,4.013839188598222
1648639737970933385,148439,3,7,0.958183884621,-1.00345981121,-0.155234143138,-0.608575165272,13.8999996185,0.3204628376658863,-0.3356052880301003,-0.051917773624749156,13.8999996185,-0.0822398871989189,0.5639359626797275,1.396118042522475
1648639737970935883,148440,3,8,1.19441401958,-1.05935907364,0.238691717386,-0.486860126257,13.8999996185,0.3994695717658862,-0.3543006935250836,0.07983000581471572,13.8999996185,-0.06579190895364864,0.6668439539847357,1.6142615132069926
1648639737971019510,148441,3,9,2.44251322746,-2.3395884037,0.375661164522,-0.365145087242,13.8999996185,0.816894056006689,-0.7824710380267559,0.12563918545886285,13.8999996185,-0.04934393070837838,1.3953109771046697,3.4030377716937856
1648639737971141261,148442,3,10,2.86977863312,0.850759446621,1.61902570724,-0.365145087242,13.8999996185,0.9597921849899665,0.2845349319802675,0.541480169645485,13.8999996185,-0.04934393070837838,1.3868533463393466,3.403037654777118
1648639737971147748,148443,3,11,1.95546877384,-2.89721775055,1.23886561394,-0.243430063128,13.8999996185,0.6540029343946488,-0.968969147341137,0.41433632573244145,13.8999996185,-0.03289595447675676,1.3395300985392724,3.7084385971683886
1648639737971149753,148444,3,12,3.0776913166,1.0429983139,1.78675341606,-0.243430063128,13.8999996185,1.0293281995317725,0.34882886752508363,0.5975763933311037,13.8999996185,-0.03289595447675676,1.4969016879947303,3.7084386327503607
1648639737971151252,148445,3,13,5.17901515961,1.20251572132,1.39682769775,-0.121715031564,13.8999996185,1.7321120935150498,0.4021791710100334,0.4671664540969899,13.8999996185,-0.01644797723837838,2.4823723924094256,5.497214722083677
1648639738070771410,148446,4,0,0.0271839816123,0.081803791225,0.0135285211727,0.0,13.8000001907,0.00909163264625418,0.0273591275,0.004524589020969899,13.8000001907,0.0,0.03022974405961992,0.08725737791270974
1648639738070781933,148447,4,1,0.0697008743882,0.0272679310292,-0.0448564141989,0.0,13.8000001907,0.02331132922682274,0.00911970937431438,-0.01500214521702341,13.8000001907,0.0,0.03420533934511683,0.08725737703985903
1648639738070785926,148448,4,2,0.206510439515,-0.0899841710925,-0.133345156908,0.0,13.8000001907,0.0690670366270903,-0.030095040499163877,-0.04459704244414715,13.8000001907,0.0,0.10220676376611275,0.2617721214084913
1648639738070791595,148449,4,3,0.948068320751,0.899841725826,-0.0675830543041,0.0,13.8000001907,0.3170797059367893,0.3009504099752508,-0.02260302819535117,13.8000001907,0.0,0.5400465064216166,1.3088606272549441
1648639738070944338,148450,4,4,0.999998390675,1.52427732944,0.442813843489,0.0,13.8000001907,0.33444762229933106,0.5097917489765886,0.14809827541438125,13.8000001907,0.0,0.6954121450247768,1.8760336506531083
1648639738070950209,148451,4,5,2.33855342865,1.8133174181,0.754992723465,0.0,13.8000001907,0.7821248925250835,0.6064606749498327,0.2525059275802675,13.8000001907,0.0,1.2614409400663011,3.0540082203426726
1648639738070957515,148452,4,6,3.82372832298,-1.00345981121,0.695035755634,0.0,13.8000001907,1.278838904006689,-0.3356052880301003,0.2324534299779264,13.8000001907,0.0,1.8394262132947397,4.0138391325865035
1648639738070963786,148453,4,7,1.13326442242,-1.00209641457,0.207980796695,-0.852005243301,13.8000001907,0.3790182014782608,-0.33514930253177255,0.0695587948812709,13.8000001907,-0.11513584368932432,0.6321666307953661,1.5270040887341698
1648639738070972594,148454,4,8,0.678674221039,-1.02800095081,0.288837790489,-0.608575165272,13.8000001907,0.22698134482909696,-0.34381302702675587,0.09660126772207357,13.8000001907,-0.0822398871989189,0.4703705553647588,1.2652319638642255
1648639738070979276,148455,4,9,0.894086182117,-1.01436698437,-0.02995124273,-0.608575165272,13.8000001907,0.2990254789688963,-0.3392531720301003,-0.010017138036789297,13.8000001907,-0.0822398871989189,0.5421486778344484,1.3524893925548964
1648639738070983301,148456,4,10,1.31308531761,-2.09826731682,0.239647373557,-0.365145087242,13.8000001907,0.43915896910033436,-0.7017616444214047,0.08014962326321069,13.8000001907,-0.04934393070837838,0.9371182454010651,2.486835267525922
1648639738070987392,148457,4,11,2.42958927155,0.466281592846,0.253036648035,-0.365145087242,13.8000001907,0.8125716627257524,0.1559470210187291,0.08462764148327757,13.8000001907,-0.04934393070837838,1.1596830978738992,2.486835357941223
1648639738070991821,148458,4,12,2.20931887627,-2.41457533836,0.757869064808,-0.243430063128,13.8000001907,0.7389026342040133,-0.8075502803879598,0.253467914651505,13.8000001907,-0.03289595447675676,1.3206406252353182,3.3594090970068224
1648639738070995335,148459,4,13,2.62210488319,1.04981529713,1.81881392002,-0.243430063128,13.8000001907,0.8769581549130434,0.35110879502675585,0.6082989699063545,13.8000001907,-0.03289595447675676,1.2889486401257886,3.3594092117804752
1648639738071106248,148460,4,14,2.2164785862,-2.74860739708,0.981433808804,-0.243430063128,13.8000001907,0.7412971860200669,-0.9192666879866219,0.3282387320414715,13.8000001907,-0.03289595447675676,1.394307813807422,3.664809990631106
1648639738071109685,148461,4,15,3.01013159752,1.14525306225,1.74880981445,-0.243430063128,13.8000001907,1.0067329757591972,0.38302778001672233,0.5848862255685618,13.8000001907,-0.03289595447675676,1.4743584534388086,3.664810033016439
1648639738071111724,148462,4,16,5.26454401016,1.37430369854,0.784369468689,-0.121715031564,13.8000001907,1.7607170602541804,0.45963334399331096,0.26233092598294316,13.8000001907,-0.01644797723837838,2.5320963535084364,5.4972147269452485
1648639738170786603,148463,5,0,0.0272167492658,0.081803791225,0.0134624801576,0.0,12.1000003815,0.009102591727692306,0.0273591275,0.004502501724949833,12.1000003815,0.0,0.03023633922754805,0.08725737832054425
1648639738170807931,148464,5,1,0.0698048174381,0.0272679310292,-0.0446944907308,0.0,12.1000003815,0.023346092788662207,0.00911970937431438,-0.014947990210969899,12.1000003815,0.0,0.03425272538157524,0.08725737849526105
1648639738170948004,148465,5,2,0.21176174283,-0.081803791225,-0.130344733596,0.0,12.1000003815,0.070823325361204,-0.0273591275,-0.043593556386622066,12.1000003815,0.0,0.10382874692492047,0.26177212525667176
1648639738170955421,148466,5,3,0.948065638542,0.899841725826,-0.0676208138466,0.0,12.1000003815,0.317078808876923,0.3009504099752508,-0.022615656804882943,12.1000003815,0.0,0.5400454530332499,1.3088606346692686
1648639738170958805,148467,5,4,0.999715149403,1.52427732944,0.443453013897,0.0,12.1000003815,0.33435289277692304,0.5097917489765886,0.14831204478160534,12.1000003815,0.0,0.6953210345884859,1.8760336704134428
1648639738170961004,148468,5,5,2.33838772774,1.8133174181,0.75550609827,0.0,12.1000003815,0.782069474160535,0.6064606749498327,0.2526776248394649,12.1000003815,0.0,1.261372219088433,3.0540082987040242
1648639738170966584,148469,5,6,3.82387661934,-1.00345981121,0.694220125675,0.0,12.1000003815,1.278888501451505,-0.3356052880301003,0.23218064403846153,12.1000003815,0.0,1.8394951773906663,4.013839256315695
1648639738171035720,148470,5,7,1.0441879034,-0.944833815098,0.299718856812,-0.852005243301,12.1000003815,0.34922672354515044,-0.315997931470903,0.10024042033846153,12.1000003815,-0.11513584368932432,0.586321841286892,1.4397467516505191
1648639738171042308,148471,5,8,2.80190610886,-3.30487298965,0.802717626095,-0.852005243301,12.1000003815,0.9370923441003344,-1.1053086921906354,0.2684674334765886,12.1000003815,-0.11513584368932432,1.7256857847751694,4.406497351392454
1648639738171049526,148472,5,9,0.789506971836,-0.916202425957,0.171949028969,-0.486860126257,12.1000003815,0.26404915446020066,-0.3064222160391304,0.0575080364444816,12.1000003815,-0.06579190895364864,0.4830512254664357,1.2216032958659389
1648639738171053076,148473,5,10,2.17840409279,-2.74860739708,1.06327092648,-0.243430063128,12.1000003815,0.7285632417357859,-0.9192666879866219,0.35560900551170566,12.1000003815,-0.03289595447675676,1.3808186115703278,3.664809964768262
1648639738171055326,148474,5,11,2.98040866852,1.14525306225,1.79899728298,-0.243430063128,12.1000003815,0.9967921968294313,0.38302778001672233,0.6016713321003344,12.1000003815,-0.03289595447675676,1.4607873382476404,3.6648099039584006
1648639738270800106,148475,6,0,0.0271962266415,0.081803791225,0.0135038895532,0.0,14.1999998093,0.009095727973745818,0.0273591275,0.004516351021137123,14.1999998093,0.0,0.030232207863568627,0.08725737811431333
1648639738270809656,148476,6,1,0.0697974562645,0.0272679310292,-0.0447059832513,0.0,14.1999998093,0.023343630857692307,0.00911970937431438,-0.014951833863311035,14.1999998093,0.0,0.034249369371017135,0.08725737735041957
1648639738270821553,148477,6,2,0.211860656738,-0.081803791225,-0.130183905363,0.0,14.1999998093,0.07085640693578595,-0.0273591275,-0.04353976767993311,14.1999998093,0.0,0.10387387864742822,0.26177212866881494
1648639738270825588,148478,6,3,2.33955359459,1.8133174181,0.751887977123,0.0,14.1999998093,0.7824593961839464,0.6064606749498327,0.25146755087725753,14.1999998093,0.0,1.261855761810239,3.054008285988425
1648639738270966251,148479,6,4,3.82916593552,-1.00345981121,0.664425969124,0.0,14.1999998093,1.2806575035183945,-0.3356052880301003,0.22221604318528426,14.1999998093,0.0,1.8419549918468963,4.0138392123884
1648639738270977335,148480,6,5,1.44754421711,-0.655793726444,0.283531904221,-0.486860126257,14.1999998093,0.4841285007056856,-0.21932900549966555,0.09482672381973244,14.1999998093,-0.06579190895364864,0.7189339490137757,1.614261445009171
1648639738271005622,148481,6,6,0.775971829891,-0.883480906487,0.0703804269433,-0.365145087242,14.1999998093,0.2595223511341137,-0.29547856404247486,0.023538604328862876,14.1999998093,-0.04934393070837838,0.47118073314277115,1.1779746166230407
1648639738271018960,148482,6,7,0.717923164368,-1.16979420185,0.434785723686,-0.365145087242,14.1999998093,0.24010808172842807,-0.39123551901337794,0.14541328551371235,14.1999998093,-0.04934393070837838,0.5180434471743448,1.4397467729219606
1648639738370827472,148483,7,0,0.0272527523339,0.081803791225,0.013389447704,0.0,22.0,0.009114632887591973,0.0273591275,0.004478076155183946,22.0,0.0,0.030243593088659336,0.08725737836065459
1648639738370834051,148484,7,1,0.0697187483311,0.0272679310292,-0.0448286235332,0.0,22.0,0.023317307134147158,0.00911970937431438,-0.01499285068,22.0,0.0,0.03421348744352522,0.08725737458432863
1648639738370847481,148485,7,2,0.212225466967,-0.081803791225,-0.129588350654,0.0,22.0,0.07097841704581939,-0.0273591275,-0.04334058550301004,22.0,0.0,0.10404034424309536,0.26177213318718373
1648639738370852934,148486,7,3,0.947933375835,0.899841725826,-0.0694500878453,0.0,22.0,0.31703457385785955,0.3009504099752508,-0.023227454128862877,22.0,0.0,0.5399935104302095,1.3088606233137177
1648639738370940616,148487,7,4,2.33890175819,1.8133174181,0.75391292572,0.0,22.0,0.7822413906989966,0.6064606749498327,0.2521447912107023,22.0,0.0,1.261585406108523,3.0540082175424503
1648639738370946224,148488,7,5,3.83093166351,-1.00345981121,0.654168784618,0.0,22.0,1.2812480479966555,-0.3356052880301003,0.21878554669498326,22.0,0.0,1.842776174782018,4.013839284521205
1648639738370948722,148489,7,6,0.912111997604,-0.899841725826,0.267306506634,-0.608575165272,22.0,0.30505417980066885,-0.3009504099752508,0.08940016944280936,22.0,-0.0822398871989189,0.5260106980775098,1.308860648120932
1648639738370951503,148490,7,7,2.73110055923,-3.23942995071,0.83846193552,-0.365145087242,22.0,0.913411558270903,-1.0834213881973243,0.28042205201337794,22.0,-0.04934393070837838,1.6859547010430547,4.319240105330955
1648639738370954374,148491,7,8,0.689610183239,-0.886207699776,0.16066814959,-0.243430063128,22.0,0.23063885727056854,-0.29639053504214047,0.05373516708695652,22.0,-0.03289595447675676,0.4407220373758427,1.134345867124252
1648639738370995791,148492,7,9,0.584598839283,-1.04708850384,0.714839458466,-0.243430063128,22.0,0.1955180064491639,-0.35019682402675584,0.23907674196187292,22.0,-0.03289595447675676,0.44619771094228755,1.3961180426972803
1648639738370998271,148493,7,10,1.17574226856,-0.479915589094,-0.580048978329,-0.243430063128,22.0,0.3932248389832776,-0.16050688598461538,-0.19399631382240803,22.0,-0.03289595447675676,0.578803946457976,1.396118072368728
1648639738371003457,148494,7,11,0.80430752039,-0.916202425957,0.0773119181395,-0.121715031564,22.0,0.26899917069899665,-0.3064222160391304,0.025856828809197322,22.0,-0.01644797723837838,0.48848304183034585,1.2216032929604483
1648639738470695563,148495,8,0,0.0272180456668,0.081803791225,0.0134598584846,0.0,25.3999996185,0.009103025306622074,0.0273591275,0.004501624911237458,25.3999996185,0.0,0.030236600288842994,0.08725737825037409
1648639738470703507,148496,8,1,0.0697280466557,0.0272679310292,-0.0448141656816,0.0,25.3999996185,0.023320416941705682,0.00911970937431438,-0.01498801527812709,25.3999996185,0.0,0.03421772627954617,0.08725737790451062
1648639738470713155,148497,8,2,0.946340382099,0.899841725826,-0.0885488986969,0.0,25.3999996185,0.31650180003311035,0.3009504099752508,-0.029615016286588625,25.3999996185,0.0,0.5393680822153546,1.3088606334477437
1648639738470848996,148498,8,3,2.34075784683,1.8133174181,0.748130440712,0.0,25.3999996185,0.7828621561304346,0.6064606749498327,0.2502108497364548,25.3999996185,0.0,1.2623552832950764,3.0540082698972837
1648639738470853434,148499,8,4,3.8252260685,-1.00345981121,0.686745941639,0.0,25.3999996185,1.2793398222408026,-0.3356052880301003,0.2296809169361204,25.3999996185,0.0,1.840122732563245,4.013839316191321
1648639738470856994,148500,8,5,0.506317079067,-1.17797458172,0.552416920662,-0.243430063128,25.3999996185,0.16933681574147155,-0.3939714320133779,0.18475482296387957,25.3999996185,-0.03289595447675676,0.4610459885668607,1.3961180300988287
1648639738470864962,148501,8,6,0.638202786446,-0.852122783661,0.237166464329,-0.121715031564,25.3999996185,0.21344574797525084,-0.28499089754548496,0.0793198877354515,25.3999996185,-0.01644797723837838,0.4151361058029158,1.090717180053532
1648639738470867689,148502,8,7,0.762478113174,-0.954377532005,-0.0102589474991,-0.121715031564,25.3999996185,0.2550094023993311,-0.31918981003511704,-0.003431086120100334,25.3999996185,-0.01644797723837838,0.48160328638245614,1.221603287761263
1648639738570690052,148503,9,0,0.0272642318159,0.081803791225,0.0133660538122,0.0,19.2999992371,0.009118472179230768,0.0273591275,0.004470252111103678,19.2999992371,0.0,0.030245907612899758,0.08725737785313714
1648639738570701325,148504,9,1,0.0697082579136,0.0272679310292,-0.0448449403048,0.0,19.2999992371,0.023313798633311036,0.00911970937431438,-0.01499830779424749,19.2999992371,0.0,0.0342087052152096,0.08725737765314323
1648639738570721429,148505,9,2,0.21189211309,-0.081803791225,-0.130132690072,0.0,19.2999992371,0.07086692745484949,-0.0273591275,-0.04352263882006689,19.2999992371,0.0,0.10388823163064745,0.2617721239435245
1648639738570736580,148506,9,3,0.652208983898,-0.921656012535,0.109152190387,0.0,19.2999992371,0.21813009494916386,-0.3082461580384615,0.03650574929331103,19.2999992371,0.0,0.4360930756048927,1.1343458752891278
1648639738570838989,148507,9,4,0.947687387466,0.899841725826,-0.0727298036218,0.0,19.2999992371,0.31695230350033443,0.3009504099752508,-0.0243243490373913,19.2999992371,0.0,0.5398969111345311,1.3088606267416374
1648639738570866841,148508,9,5,2.33665156364,1.8133174181,0.760858237743,0.0,19.2999992371,0.7814888172709029,0.6064606749498327,0.2544676380411371,19.2999992371,0.0,1.2606522491549983,3.054008160858037
1648639738570872010,148509,9,6,3.8323674202,-1.00345981121,0.645703852177,0.0,19.2999992371,1.281728234180602,-0.3356052880301003,0.21595446561103676,19.2999992371,0.0,1.8434439080007874,4.013839197182696
1648639738570875157,148510,9,7,4.89095544815,1.47246825695,1.14902150631,0.365145087242,19.2999992371,1.6357710528929763,0.49246429998327756,0.38428812920066885,19.2999992371,0.04934393070837838,2.3651670050385896,5.2354425205016275
1648639738570878685,148511,9,8,0.734409511089,-0.543995201588,0.0643346384168,-0.243430063128,19.2999992371,0.24562191006321069,-0.18193819451103677,0.021516601477190634,19.2999992371,-0.03289595447675676,0.3921246638865449,0.9162025185672507
1648639738570883621,148512,9,9,0.606139540672,-1.0307277441,-0.250019520521,-0.243430063128,19.2999992371,0.20272225440535116,-0.3447249980267558,-0.0836185687361204,19.2999992371,-0.03289595447675676,0.4483614045911207,1.2216032849763825
1648639738570902467,148513,9,10,0.522062838078,-1.26523196697,0.275288939476,-0.243430063128,19.2999992371,0.17460295587892977,-0.4231545040033445,0.09206987942341137,19.2999992371,-0.03289595447675676,0.4899307284317197,1.3961180241450406
1648639738670800577,148514,10,0,0.0271956119686,0.081803791225,0.013505127281,0.0,18.3999996185,0.009095522397525082,0.0273591275,0.004516764976923077,18.3999996185,0.0,0.030232084164493477,0.08725737809495572
1648639738670806422,148515,10,1,0.0697008743882,0.0272679310292,-0.0448564141989,0.0,18.3999996185,0.02331132922682274,0.00911970937431438,-0.01500214521702341,18.3999996185,0.0,0.03420533934511683,0.08725737703985903
1648639738670809838,148516,10,2,0.206648871303,-0.0899841710925,-0.133130535483,0.0,18.3999996185,0.06911333488394648,-0.030095040499163877,-0.044525262703344476,18.3999996185,0.0,0.10226933841678737,0.26177212711822184
1648639738670815159,148517,10,3,0.949032843113,0.899841725826,-0.0523222349584,0.0,18.3999996185,0.3174022886665551,0.3009504099752508,-0.017499075236923074,18.3999996185,0.0,0.5404253648431075,1.3088606056856094
1648639738670825314,148518,10,4,2.33975505829,1.8133174181,0.751260340214,0.0,18.3999996185,0.7825267753478261,0.6064606749498327,0.25125763886755853,18.3999996185,0.0,1.2619393244261552,3.054008168023941
1648639738670845516,148519,10,5,3.82577133179,-1.00345981121,0.683700799942,0.0,18.3999996185,1.2795221845451503,-0.3356052880301003,0.22866247489698993,18.3999996185,0.0,1.840376306856876,4.013839142230437
1648639738670932285,148520,10,6,0.652974247932,-0.921656012535,0.104476667941,0.121715031564,18.3999996185,0.21838603609765883,-0.3082461580384615,0.03494202941170568,18.3999996185,0.01644797723837838,0.4363491898358104,1.1343458679116925
1648639738670935989,148521,10,7,0.681619524956,-0.98846244812,0.398934572935,0.243430063128,18.3999996185,0.22796639630635449,-0.33058944753177255,0.13342293409197323,18.3999996185,0.03289595447675676,0.46176480865173597,1.2652319872764273
1648639738670980678,148522,10,8,0.783493101597,-0.981645464897,0.36827558279,0.365145087242,18.3999996185,0.2620378266210702,-0.32830952003244146,0.12316909123411371,18.3999996185,0.04934393070837838,0.4950906847280811,1.308860635775348
1648639738671088748,148523,10,9,0.678867936134,-0.601257860661,0.130592212081,0.486860126257,18.3999996185,0.2270461324862876,-0.20108958550535114,0.04367632511070234,18.3999996185,0.06579190895364864,0.378862658430038,0.9162024970352831
1648639738671099915,148524,10,10,0.366436809301,-1.26795876026,0.295350790024,-0.243430063128,18.3999996185,0.1225541168230769,-0.42406647500334443,0.0987795284361204,18.3999996185,-0.03289595447675676,0.4581172320731135,1.352489350086933
1648639738770693558,148525,11,0,0.0272355470806,0.081803791225,0.0134244086221,0.0,25.6000003815,0.009108878622274247,0.0273591275,0.00448976876993311,25.6000003815,0.0,0.03024012561270052,0.08725737808584487
1648639738770699938,148526,11,1,0.0697070583701,0.0272679310292,-0.0448468029499,0.0,25.6000003815,0.023313397448193978,0.00911970937431438,-0.014998930752474915,25.6000003815,0.0,0.03420815838695314,0.08725737667414082
1648639738770739964,148527,11,2,0.211082085967,-0.081803791225,-0.131442517042,0.0,25.6000003815,0.0705960153735786,-0.0273591275,-0.04396070804080267,25.6000003815,0.0,0.10351867769061943,0.26177211952631596
1648639738770790427,148528,11,3,0.94467240572,0.899841725826,-0.104857601225,0.0,25.6000003815,0.31594394840133777,0.3009504099752508,-0.035069431847826085,25.6000003815,0.0,0.5387135661250103,1.3088606504135525
1648639738770792977,148529,11,4,0.997840762138,1.52427732944,0.447654753923,0.0,25.6000003815,0.33372600740401337,0.5097917489765886,0.14971730900434782,25.6000003815,0.0,0.6947184489850953,1.876033673029017
1648639738770797583,148530,11,5,2.33854985237,1.8133174181,0.75500369072,0.0,25.6000003815,0.7821236964448159,0.6064606749498327,0.2525095955585284,25.6000003815,0.0,1.2614394568672773,3.054008193146413
1648639738770891097,148531,11,6,3.81912684441,-1.00345981121,0.719891250134,0.0,25.6000003815,1.2772999479632106,-0.3356052880301003,0.24076630439264213,25.6000003815,0.0,1.837286374925642,4.0138391669854165
1648639738770896185,148532,11,7,0.579290688038,-0.920292615891,0.0845447406173,0.121715031564,25.6000003815,0.19374270502943142,-0.307790172538796,0.028275832982374578,25.6000003815,0.01644797723837838,0.4120767668962961,1.0907172013299715
1648639738770899379,148533,11,8,0.759493052959,-0.954377532005,-0.0681791007519,0.243430063128,25.6000003815,0.25401105450133776,-0.31918981003511704,-0.022802374833411368,25.6000003815,0.03289595447675676,0.48054694510319934,1.2216032747452321
1648639738770908395,148534,11,9,0.804617881775,-0.531724631786,-1.40179371834,0.243430063128,25.6000003815,0.26910297049331106,-0.17783432501204013,-0.46882733054849496,25.6000003815,0.03289595447675676,0.4200688807911574,1.7015189239316524
1648639738770912852,148535,11,10,0.841753065586,-1.01436698437,0.302884399891,0.486860126257,25.6000003815,0.28152276441003343,-0.3392531720301003,0.10129913039832776,25.6000003815,0.06579190895364864,0.5230705960906417,1.3524893944503402
1648639738770914993,148536,11,11,5.21790599823,1.57063281536,1.22184062004,0.486860126257,25.6000003815,1.7451190629531772,0.5252952559732441,0.40864234783946485,25.6000003815,0.06579190895364864,2.5232550790027446,5.584471769812255
1648639738770917505,148537,11,12,4.97223186493,1.49700939655,1.16919052601,0.608575165272,25.6000003815,1.6629538009799332,0.5006720389799331,0.3910336207391304,25.6000003815,0.0822398871989189,2.4044756557311073,5.322699816643412
1648639738770920134,148538,11,13,0.95484828949,-0.425379693508,0.0609188936651,-0.730290174484,25.6000003815,0.31934725401003344,-0.14226745602274246,0.02037421192812709,25.6000003815,-0.09868786141675676,0.4735032907284601,1.0470884638827413
1648639738770927681,148539,11,14,0.211335226893,-1.26795876026,0.246443033218,-0.243430063128,25.6000003815,0.07068067789063544,-0.42406647500334443,0.08242241913645484,25.6000003815,-0.03289595447675676,0.43568783742023565,1.3088606359989898
1648639738870710465,148540,12,0,0.0273193772882,0.081803791225,0.0132529754192,0.0,26.5,0.009136915481003344,0.0273591275,0.004432433250568561,26.5,0.0,0.0302570373066375,0.08725737786376762
1648639738870719215,148541,12,1,0.0697886645794,0.0272679310292,-0.0447197109461,0.0,26.5,0.023340690494782608,0.00911970937431438,-0.014956425065585283,26.5,0.0,0.03424536121313992,0.08725737970791894
1648639738870723309,148542,12,2,0.211709693074,-0.081803791225,-0.130429267883,0.0,26.5,0.07080591741605351,-0.0273591275,-0.04362182872341137,26.5,0.0,0.10380499862636305,0.26177213052723175
1648639738870733986,148543,12,3,0.946553111076,0.899841725826,-0.086245290935,0.0,26.5,0.3165729468481605,0.3009504099752508,-0.028844578908026754,26.5,0.0,0.5394515831995751,1.3088606395768922
1648639738870763553,148544,12,4,2.33867812157,1.8133174181,0.754606485367,0.0,26.5,0.7821665958428093,0.6064606749498327,0.25237675095886286,26.5,0.0,1.2614926545823657,3.054008245380646
1648639738870901543,148545,12,5,3.82772111893,-1.00345981121,0.672699987888,0.0,26.5,1.2801742872675583,-0.3356052880301003,0.22498327354113712,26.5,0.0,1.841283063767157,4.013839288103207
1648639738870906093,148546,12,6,0.534128069878,-0.992552638054,0.127620354295,0.243430063128,26.5,0.17863815046086956,-0.3319574040314381,0.04268239274080267,26.5,0.03289595447675676,0.41715572115392585,1.134345841959115
1648639738970694859,148547,13,0,0.0272766966373,0.081803791225,0.0133406007662,0.0,33.7999992371,0.009122641015819397,0.0273591275,0.004461739386688963,33.7999992371,0.0,0.030248421707062288,0.08725737829564797
1648639738970698545,148548,13,1,0.0697974562645,0.0272679310292,-0.0447059832513,0.0,33.7999992371,0.023343630857692307,0.00911970937431438,-0.014951833863311035,33.7999992371,0.0,0.034249369371017135,0.08725737735041957
1648639738970701316,148549,13,2,0.212129473686,-0.081803791225,-0.129745408893,0.0,33.7999992371,0.07094631226956521,-0.0273591275,-0.04339311334214047,33.7999992371,0.0,0.10399653987927952,0.26177212417271345
1648639738970703381,148550,13,3,0.941402554512,0.899841725826,-0.131004840136,0.0,33.7999992371,0.3148503526795986,0.3009504099752508,-0.04381432780468227,33.7999992371,0.0,0.5374315197578263,1.30886063785198
1648639738970705889,148551,13,4,0.999441087246,1.52427732944,0.444070249796,0.0,33.7999992371,0.3342612331926421,0.5097917489765886,0.14851847819264213,33.7999992371,0.0,0.6952328900127934,1.8760336485985765
1648639738970707748,148552,13,5,2.42490625381,1.71787965298,0.704048573971,0.0,33.7999992371,0.8110054360568562,0.5745416899598662,0.23546775049197322,33.7999992371,0.0,1.2827929638602957,3.054008060958604
1648639738970811661,148553,13,6,3.82886385918,-1.00345981121,0.666163861752,0.0,33.7999992371,1.2805564746421405,-0.3356052880301003,0.2227972781779264,33.7999992371,0.0,1.8418145071775227,4.013839101851581
1648639738970815324,148554,13,7,0.558138012886,-1.0307277441,0.117074713111,0.243430063128,33.7999992371,0.18666823173444813,-0.3447249980267558,0.039155422445150495,33.7999992371,0.03289595447675676,0.43419509640515064,1.1779746229591836
1648639739070587583,148555,14,0,0.0272441077977,0.081803791225,0.0134070273489,0.0,33.0,0.009111741738361203,0.0273591275,0.004483955635083611,33.0,0.0,0.030241850680380718,0.08725737820270695
1648639739070593381,148556,14,1,0.0697917491198,0.0272679310292,-0.0447148941457,0.0,33.0,0.023341722113645484,0.00911970937431438,-0.014954814095551838,33.0,0.0,0.03424676746107946,0.08725737829132542
1648639739070597337,148557,14,2,0.211669072509,-0.081803791225,-0.130495175719,0.0,33.0,0.07079233194280936,-0.0273591275,-0.043643871477926414,33.0,0.0,0.10378646530912915,0.26177212877144956
1648639739070605013,148558,14,3,0.947494328022,0.899841725826,-0.0752028524876,0.0,33.0,0.3168877351244147,0.3009504099752508,-0.02515145568147157,33.0,0.0,0.5398211024115619,1.308860612209584
1648639739070645610,148559,14,4,2.41936159134,1.71787965298,0.722873032093,0.0,33.0,0.8091510338929765,0.5745416899598662,0.2417635558839465,33.0,0.0,1.2804487279083394,3.054008256750664
1648639739070688118,148560,14,5,3.82809114456,-1.00345981121,0.670590519905,0.0,33.0,1.2802980416588627,-0.3356052880301003,0.22427776585451503,33.0,0.0,1.8414551475137277,4.013839190744786
1648639739070690557,148561,14,6,0.561849415302,-1.0307277441,0.0977226793766,0.243430063128,33.0,0.18790950344548496,-0.3447249980267558,0.032683170360066884,33.0,0.03289595447675676,0.4352646174855065,1.1779746049882467
1648639739070708528,148562,14,7,0.776613414288,-1.09889757633,0.136099770665,0.365145087242,33.0,0.2597369278555184,-0.36752427302006685,0.04551831794816053,33.0,0.04934393070837838,0.519615852955406,1.352489344169143
1648639739070716172,148563,14,8,5.0298075676,1.70424568653,1.24023485184,0.365145087242,33.0,1.6822098888294312,0.5699818349598662,0.4147942648294314,33.0,0.04934393070837838,2.446331848367116,5.453585977580341
1648639739070727976,148564,14,9,1.26624560356,-0.883480966091,0.288046658039,-0.852005243301,33.0,0.42349351289632103,-0.29547858397692306,0.09633667492943143,33.0,-0.11513584368932432,0.6678331412258158,1.570632809789593
1648639739170748095,148565,15,0,0.0272838845849,0.081803791225,0.0133258923888,0.0,32.4000015259,0.009125045011672241,0.0273591275,0.004456820196923076,32.4000015259,0.0,0.03024987190867666,0.08725737805356869
1648639739170760091,148566,15,1,0.0697175487876,0.0272679310292,-0.0448305010796,0.0,32.4000015259,0.0233169059490301,0.00911970937431438,-0.0149934786219398,32.4000015259,0.0,0.03421294060942128,0.08725738076869263
1648639739170766893,148567,15,2,0.212019249797,-0.081803791225,-0.129925459623,0.0,32.4000015259,0.07090944809264213,-0.0273591275,-0.04345333097759197,32.4000015259,0.0,0.10394624339131969,0.26177212915341824
1648639739170853458,148568,15,3,0.945915162563,0.899841725826,-0.0929813534021,0.0,32.4000015259,0.3163595861414715,0.3009504099752508,-0.03109744260939799,32.4000015259,0.0,0.5392011913483481,1.3088606336751774
1648639739170857466,148569,15,4,1.00001823902,1.52427732944,0.442768871784,0.0,32.4000015259,0.33445426054180605,0.5097917489765886,0.14808323471036788,32.4000015259,0.0,0.6954185301771457,1.8760336162335356
1648639739170860727,148570,15,5,3.82403492928,-1.00345981121,0.693347096443,0.0,32.4000015259,1.2789414479197325,-0.3356052880301003,0.23188866101772573,32.4000015259,0.0,1.8395687983241644,4.013839175803266
1648639739170864148,148571,15,6,0.570490956306,-1.06890285015,0.155888751149,0.243430063128,32.4000015259,0.19079965093846152,-0.3574925920234113,0.05213670606989966,32.4000015259,0.03289595447675676,0.44789504010213677,1.2216032649843904
1648639739171022219,148572,15,7,1.06028473377,-1.32931160927,0.0623974874616,0.852005243301,32.4000015259,0.3546102788528428,-0.4445858224983277,0.02086872490354515,32.4000015259,0.11513584368932432,0.6701891175651067,1.7015188854806276
1648639739171235657,148573,15,8,1.9349629879,-3.23943018913,0.708819448948,0.852005243301,32.4000015259,0.6471448120066889,-1.0834214679364549,0.2370633608521739,32.4000015259,0.11513584368932432,1.4182365432465518,3.8393247747483765
1648639739270664009,148574,16,0,0.0272513367236,0.081803791225,0.013392329216,0.0,23.3999996185,0.009114159439331103,0.0273591275,0.004479039871571906,23.3999996185,0.0,0.03024330772472404,0.0872573784492529
1648639739270676141,148575,16,1,0.069751881063,0.0272679310292,-0.0447770580649,0.0,23.3999996185,0.023328388315384613,0.00911970937431438,-0.014975604703979932,23.3999996185,0.0,0.03422859187665634,0.08725737735794913
1648639739270684066,148576,16,2,0.211934924126,-0.081803791225,-0.130062952638,0.0,23.3999996185,0.0708812455270903,-0.0273591275,-0.04349931526354515,23.3999996185,0.0,0.10390776579498076,0.261772122220819
1648639739270710033,148577,16,3,0.949042201042,0.899841725826,-0.0521524772048,0.0,23.3999996185,0.3174054184086956,0.3009504099752508,-0.01744230006849498,23.3999996185,0.0,0.5404290411651375,1.308860615869679
1648639739270717230,148578,16,4,0.995244860649,1.52427732944,0.453396737576,0.0,23.3999996185,0.3328578129260869,0.5097917489765886,0.15163770487491637,23.3999996185,0.0,0.6938849145041884,1.8760336647665856
1648639739270910976,148579,16,5,3.83046174049,-1.00345981121,0.65691447258,0.0,23.3999996185,1.2810908831070233,-0.3356052880301003,0.21970383698327758,23.3999996185,0.0,1.8425576275692523,4.013839229759501
1648639739270922849,148580,16,6,0.577866137028,-1.06890285015,0.125825330615,0.121715031564,23.3999996185,0.1932662665645485,-0.3574925920234113,0.0420820503729097,23.3999996185,0.01644797723837838,0.45000516989831957,1.2216032863441515
1648639739270931516,148581,16,7,0.615732014179,-1.22160327435,0.278756350279,0.365145087242,23.3999996185,0.20593043952474915,-0.40856296801003344,0.0932295485882943,23.3999996185,0.04934393070837838,0.5017353791341411,1.396118037992647
