%time,field.header.seq,field.header.frame_id,field.point_id,field.x,field.y,field.z,field.velocity,field.intensity,normalized_x,normalized_y,normalized_z,normalized_intensity,normalized_velocity,normalized_range,range
1648639358165430690,111247,0,0,0.0272424854338,0.081803791225,0.0134103242308,0.0,14.5,0.00911119914173913,0.0273591275,0.004485058271170568,14.5,0.0,0.030241523724212575,0.0872573782975937
1648639358165438615,111248,0,1,0.069794408977,0.0272679310292,-0.0447107441723,0.0,14.5,0.023342611697993308,0.00911970937431438,-0.014953426144581937,14.5,0.0,0.03424798009866488,0.08725737923810688
1648639358165466114,111249,0,2,0.212149068713,-0.081803791225,-0.129713356495,0.0,14.5,0.070952865790301,-0.0273591275,-0.04338239347658862,14.5,0.0,0.10400548151551527,0.2617721193476791
1648639358165469950,111250,0,3,0.944861471653,0.899841725826,-0.103139728308,0.0,14.5,0.3160071811548495,0.3009504099752508,-0.03449489241070234,14.5,0.0,0.5387877377475654,1.308860625012165
1648639358165593083,111251,0,4,2.42467021942,1.71787965298,0.704861581326,0.0,14.5,0.8109264947892976,0.5745416899598662,0.2357396593063545,14.5,0.0,1.2826931485762494,3.05400818988658
1648639358165596162,111252,0,5,3.83247375488,-1.00345981121,0.645072937012,0.0,14.5,1.281763797618729,-0.3356052880301003,0.2157434571946488,14.5,0.0,1.8434933618339229,4.013839280367725
1648639358165600844,111253,0,6,1.04042637348,-0.989825904369,0.103094048798,-0.121715031564,14.5,0.3479686867826087,-0.3310454529662207,0.03447961498260869,14.5,-0.01644797723837838,0.5930897958083892,1.439746763319931
1648639358265440607,111254,1,0,0.0272392891347,0.081803791225,0.0134168155491,0.0,20.2999992371,0.009110130145384615,0.0273591275,0.004487229280635451,20.2999992371,0.0,0.03024087961837333,0.0872573783173993
1648639358265450034,111255,1,1,0.0698876157403,0.0272679310292,-0.0445648990571,0.0,20.2999992371,0.023373784528528428,0.00911970937431438,-0.014904648514080267,20.2999992371,0.0,0.03429047543333436,0.08725737289448124
1648639358265452881,111256,1,2,0.211568370461,-0.081803791225,-0.130658388138,0.0,20.2999992371,0.07075865232809364,-0.0273591275,-0.04369845757123745,20.2999992371,0.0,0.10374052060857088,0.26177213379029973
1648639358265456419,111257,1,3,0.950401067734,0.899841725826,0.0117848208174,0.0,20.2999992371,0.3178598888742475,0.3009504099752508,0.003941411644615384,20.2999992371,0.0,0.5409629998202922,1.3088606507528369
1648639358265518477,111258,1,4,1.0617171526,-0.944833815098,0.230035558343,0.0,20.2999992371,0.3550893486956521,-0.315997931470903,0.07693496934548494,20.2999992371,0.0,0.5933224956194517,1.4397467167456464
1648639358265524524,111259,1,5,2.33998513222,1.8133174181,0.750543475151,0.0,20.2999992371,0.7826037231505015,0.6064606749498327,0.25101788466588626,20.2999992371,0.0,1.2620347559551046,3.054008183664091
1648639358265527535,111260,1,6,3.83042883873,-1.00345981121,0.657105743885,0.0,20.2999992371,1.281079879173913,-0.3356052880301003,0.21976780731939796,20.2999992371,0.0,1.8425423259730729,4.01383913976815
1648639358265537674,111261,1,7,0.907908916473,-0.97210174799,0.244840875268,-0.121715031564,20.2999992371,0.30364846704782605,-0.3251176414682274,0.08188658035719062,20.2999992371,-0.01644797723837838,0.5386151352077402,1.3524893579094774
1648639358365502050,111262,2,0,0.02726659365,0.081803791225,0.0133612379432,0.0,16.8999996185,0.009119262090301002,0.0273591275,0.0044686414525752505,16.8999996185,0.0,0.030246383911212565,0.08725737829795494
1648639358365507868,111263,2,1,0.0698256790638,0.0272679310292,-0.0446618869901,0.0,16.8999996185,0.02335306992100334,0.00911970937431438,-0.01493708594986622,16.8999996185,0.0,0.03426223647899389,0.0872573760140108
1648639358365513016,111264,2,2,0.212096497416,-0.081803791225,-0.129799321294,0.0,16.8999996185,0.07093528341672241,-0.0273591275,-0.043411144245484944,16.8999996185,0.0,0.10398149222040778,0.2617721304556727
1648639358365521997,111265,2,3,0.948879003525,0.899841725826,-0.0550427436829,0.0,16.8999996185,0.31735083729933106,0.3009504099752508,-0.018408944375551836,16.8999996185,0.0,0.5403649295924418,1.3088606489998285
1648639358365642943,111266,2,4,2.3398475647,1.8133174181,0.750972390175,0.0,16.8999996185,0.7825577139464882,0.6064606749498327,0.2511613345066889,16.8999996185,0.0,1.2619776945631465,3.054008221276184
1648639358365647054,111267,2,5,3.8318965435,-1.00345981121,0.648492455482,0.0,16.8999996185,1.281570750334448,-0.3356052880301003,0.21688710885685616,16.8999996185,0.0,1.8432249145395594,4.013839206746819
1648639358365650566,111268,2,6,0.868363440037,-0.940743625164,0.272144347429,-0.243430063128,16.8999996185,0.29042255519632104,-0.31462997497123746,0.09101817639765886,16.8999996185,-0.03289595447675676,0.517380461830481,1.3088606412132473
1648639358365654201,111269,2,7,0.970957279205,-1.03481793404,0.24344304204,-0.243430063128,16.8999996185,0.32473487598829426,-0.3460929545284281,0.08141907760535116,16.8999996185,-0.03289595447675676,0.5750528780386046,1.4397467518177214
1648639358465445107,111270,3,0,0.0272151790559,0.081803791225,0.0134656522423,0.0,37.7999992371,0.009102066573879597,0.0273591275,0.004503562622842809,37.7999992371,0.0,0.030236023041926807,0.08725737802695337
1648639358465558681,111271,3,1,0.0697974562645,0.0272679310292,-0.0447059832513,0.0,37.7999992371,0.023343630857692307,0.00911970937431438,-0.014951833863311035,37.7999992371,0.0,0.034249369371017135,0.08725737735041957
1648639358465563942,111272,3,2,0.211568370461,-0.081803791225,-0.130658388138,0.0,37.7999992371,0.07075865232809364,-0.0273591275,-0.04369845757123745,37.7999992371,0.0,0.10374052060857088,0.26177213379029973
1648639358465569796,111273,3,3,0.948631763458,0.899841725826,-0.0591506585479,0.0,37.7999992371,0.31726814831371236,0.3009504099752508,-0.019782828945785952,37.7999992371,0.0,0.5402678087144329,1.3088606322239198
1648639358465579766,111274,3,4,2.33954691887,1.8133174181,0.751908361912,0.0,37.7999992371,0.7824571635016722,0.6064606749498327,0.25147436853244143,37.7999992371,0.0,1.2618529929000333,3.054008190737567
1648639358465601436,111275,3,5,3.83053946495,-1.00345981121,0.656460404396,0.0,37.7999992371,1.281116877909699,-0.3356052880301003,0.21955197471438123,37.7999992371,0.0,1.8425937748413121,4.013839115833219
1648639358465720879,111276,3,6,0.995922684669,-0.959831178188,0.189757108688,-0.365145087242,37.7999992371,0.33308450992274247,-0.32101377196923075,0.06346391594916387,37.7999992371,-0.04934393070837838,0.5700354579277155,1.3961180626142267
1648639358465724250,111277,3,7,0.71649980545,-1.09753417969,0.78344643116,-0.243430063128,37.7999992371,0.23963204195652174,-0.3670682875217391,0.2620222177792642,37.7999992371,-0.03289595447675676,0.49958598736218224,1.527004111747912
1648639358565457236,111278,4,0,0.0272623617202,0.081803791225,0.0133698713034,0.0,20.6000003815,0.00911784672916388,0.0273591275,0.004471528864013377,20.6000003815,0.0,0.030245530504758967,0.08725737839298114
1648639358565459827,111279,4,1,0.0698030292988,0.0272679310292,-0.0446972846985,0.0,20.6000003815,0.02334549474876254,0.00911970937431438,-0.014948924648327757,20.6000003815,0.0,0.0342519101540477,0.08725737917976394
1648639358565469533,111280,4,2,0.211968272924,-0.081803791225,-0.130008593202,0.0,20.6000003815,0.07089239897123745,-0.0273591275,-0.043481134850167226,20.6000003815,0.0,0.10392298264270264,0.2617721209210978
1648639358565506288,111281,4,3,0.948874294758,0.899841725826,-0.0551235675812,0.0,20.6000003815,0.31734926246086953,0.3009504099752508,-0.01843597577966555,20.6000003815,0.0,0.5403630798205844,1.3088606367726416
1648639358565513451,111282,4,4,2.42661595345,1.71787965298,0.698133230209,0.0,20.6000003815,0.8115772419565216,0.5745416899598662,0.23348937465183944,20.6000003815,0.0,1.283516027490677,3.054008103260826
1648639358565622960,111283,4,5,3.82594227791,-1.00345981121,0.682744324207,0.0,20.6000003815,1.279579357160535,-0.3356052880301003,0.22834258334682275,20.6000003815,0.0,1.8404558054722482,4.01383927416752
1648639358565681236,111284,4,6,0.954780876637,-0.929836452007,0.230271875858,-0.365145087242,20.6000003815,0.3193247079053511,-0.3109820909722408,0.07701400530367893,20.6000003815,-0.04934393070837838,0.5483123189051498,1.3524893665696032
1648639358665406781,111285,5,0,0.0272151790559,0.081803791225,0.0134656522423,0.0,39.2999992371,0.009102066573879597,0.0273591275,0.004503562622842809,39.2999992371,0.0,0.030236023041926807,0.08725737802695337
1648639358665461901,111286,5,1,0.0697144493461,0.0272679310292,-0.0448353178799,0.0,39.2999992371,0.023315869346521734,0.00911970937431438,-0.014995089591939799,39.2999992371,0.0,0.034211527674748776,0.0872573792847048
1648639358665466781,111287,5,2,0.212360098958,-0.081803791225,-0.129367589951,0.0,39.2999992371,0.07102344446755852,-0.0273591275,-0.043266752491973245,39.2999992371,0.0,0.10410178281678943,0.26177212460070115
1648639358665479777,111288,5,3,0.948422551155,0.899841725826,-0.0624150857329,0.0,39.2999992371,0.3171981776438127,0.3009504099752508,-0.020874610613010033,39.2999992371,0.0,0.5401856320427109,1.3088606151931985
1648639358665504749,111289,5,4,2.33876037598,1.8133174181,0.754351258278,0.0,39.2999992371,0.7821941056789298,0.6064606749498327,0.25229139072842804,39.2999992371,0.0,1.2615267687125502,3.0540081820297345
1648639358665523436,111290,5,5,3.82750082016,-1.00345981121,0.673951685429,0.0,39.2999992371,1.2801006087491638,-0.3356052880301003,0.22540190148127087,39.2999992371,0.0,1.841180612105647,4.013839184039599
1648639358665610657,111291,5,6,0.779754638672,-0.948923945427,0.303871661425,-0.730290174484,39.2999992371,0.2607875045725752,-0.3173658680357859,0.10162931820234113,39.2999992371,-0.09868786141675676,0.48656072516849297,1.265231969779627
1648639358665613374,111292,5,7,0.941110193729,-0.858939826488,0.299416214228,-0.486860126257,39.2999992371,0.3147525731535117,-0.2872708449792642,0.10013920208294315,39.2999992371,-0.06579190895364864,0.5297762763550421,1.3088606081666982
1648639358665615717,111293,5,8,0.879087567329,-0.801677167416,0.277188301086,-0.365145087242,39.2999992371,0.29400921984247486,-0.26811945398528425,0.09270511742006689,39.2999992371,-0.04934393070837838,0.4947432508990177,1.2216032850510445
1648639358665674792,111294,5,9,0.936008870602,-0.97210174799,0.0901832804084,-0.365145087242,39.2999992371,0.31304644501739126,-0.3251176414682274,0.030161632243612038,39.2999992371,-0.04934393070837838,0.549270092276938,1.3524893487033698
1648639358665680647,111295,5,10,0.60061532259,-0.973465144634,0.944473147392,-0.243430063128,39.2999992371,0.2008746898294314,-0.32557362696789294,0.31587730682006687,39.2999992371,-0.03289595447675676,0.4320873390938101,1.4833754345046082
1648639358665683039,111296,5,11,1.21303427219,-0.417199343443,-0.744912803173,-0.243430063128,39.2999992371,0.40569708099999996,-0.1395315529909699,-0.24913471678026755,39.2999992371,-0.03289595447675676,0.5904653227276881,1.4833753813542443
1648639358765532508,111297,6,0,0.0272551309317,0.081803791225,0.0133846011013,0.0,15.1999998093,0.009115428405250836,0.0273591275,0.004476455217826087,15.1999998093,0.0,0.03024407260247475,0.0872573777254876
1648639358765538498,111298,6,1,0.0697974562645,0.0272679310292,-0.0447059832513,0.0,15.1999998093,0.023343630857692307,0.00911970937431438,-0.014951833863311035,15.1999998093,0.0,0.034249369371017135,0.08725737735041957
1648639358765573148,111299,6,2,0.212836876512,-0.081803791225,-0.128581672907,0.0,15.1999998093,0.07118290184347825,-0.0273591275,-0.04300390398227425,15.1999998093,0.0,0.10431937925082653,0.2617721201154364
1648639358765722281,111300,6,3,0.947986662388,0.899841725826,-0.068719252944,0.0,15.1999998093,0.31705239544749164,0.3009504099752508,-0.022983027740468225,15.1999998093,0.0,0.540014437012805,1.308860641675895
1648639358765728241,111301,6,4,2.42483496666,1.71787965298,0.704294681549,0.0,15.1999998093,0.810981594200669,0.5745416899598662,0.23555006071872908,15.1999998093,0.0,1.28276281742435,3.0540082049853594
1648639358765743926,111302,6,5,3.82826280594,-1.00345981121,0.669609963894,0.0,15.1999998093,1.2803554534916388,-0.3356052880301003,0.22394982070033442,15.1999998093,0.0,1.8415349803697258,4.013839210506985
1648639358765750038,111303,6,6,0.787760257721,-0.846669256687,0.224073901772,-0.608575165272,15.1999998093,0.26346496913745815,-0.283166975480602,0.0749411042715719,15.1999998093,-0.0822398871989189,0.46798623476341206,1.1779746038514163
1648639358765755060,111304,6,7,0.904289603233,-0.940743625164,0.101872161031,-0.608575165272,15.1999998093,0.3024379943923077,-0.31462997497123746,0.03407095686655518,15.1999998093,-0.0822398871989189,0.5309703400892413,1.308860646514795
1648639358765819984,111305,6,8,0.855758070946,-0.773045837879,0.240213289857,-0.365145087242,15.1999998093,0.28620671269096987,-0.25854375848795985,0.08033889292876253,15.1999998093,-0.04934393070837838,0.48028474869791904,1.1779746041724275
1648639358765821919,111306,6,9,0.943460643291,-0.899841725826,0.115251898766,-0.365145087242,15.1999998093,0.31553867668595315,-0.3009504099752508,0.038545785540468225,15.1999998093,-0.04934393070837838,0.5382382950271343,1.3088606179214615
1648639358765827101,111307,6,10,0.743578493595,-0.989825904369,0.734987318516,-0.243430063128,15.1999998093,0.24868845939632103,-0.3310454529662207,0.24581515669431436,15.1999998093,-0.03289595447675676,0.4829937800877372,1.4397467331014362
1648639358865454867,111308,7,0,0.0272593703121,0.081803791225,0.0133759668097,0.0,23.2000007629,0.009116846258227423,0.0273591275,0.004473567494882942,23.2000007629,0.0,0.030244927325975956,0.08725737800719079
1648639358865630244,111309,7,1,0.0697070583701,0.0272679310292,-0.0448468029499,0.0,23.2000007629,0.023313397448193978,0.00911970937431438,-0.014998930752474915,23.2000007629,0.0,0.03420815838695314,0.08725737667414082
1648639358865635094,111310,7,2,0.212611466646,-0.081803791225,-0.128954052925,0.0,23.2000007629,0.0711075139284281,-0.0273591275,-0.04312844579431438,23.2000007629,0.0,0.10421650028534084,0.2617721218425107
1648639358865639814,111311,7,3,2.42433094978,1.71787965298,0.706027686596,0.0,23.2000007629,0.8108130266822742,0.5745416899598662,0.2361296610688963,23.2000007629,0.0,1.2825496801205323,3.0540082106019266
1648639358865644248,111312,7,4,3.82719278336,-1.00345981121,0.675698697567,0.0,23.2000007629,1.2799975864080266,-0.3356052880301003,0.2259861864772575,23.2000007629,0.0,1.8410373575173629,4.0138391751053275
1648639358865671573,111313,7,5,0.934305012226,-0.899841725826,0.174571380019,-0.243430063128,23.2000007629,0.31247659271772577,-0.3009504099752508,0.05838507692943143,23.2000007629,-0.03289595447675676,0.5346535244971555,1.3088606320498293
1648639358865676596,111314,7,6,0.836431503296,-0.744414508343,0.181576296687,-0.121715031564,23.2000007629,0.2797429776909699,-0.2489680629909699,0.06072785842374582,23.2000007629,-0.01644797723837838,0.46743701556925993,1.1343458782294413
1648639358965337026,111315,8,0,0.02726659365,0.081803791225,0.0133612379432,0.0,28.0,0.009119262090301002,0.0273591275,0.0044686414525752505,28.0,0.0,0.030246383911212565,0.08725737829795494
1648639358965344510,111316,8,1,0.0697144493461,0.0272679310292,-0.0448353178799,0.0,28.0,0.023315869346521734,0.00911970937431438,-0.014995089591939799,28.0,0.0,0.034211527674748776,0.0872573792847048
1648639358965348695,111317,8,2,0.211826235056,-0.081803791225,-0.130239889026,0.0,28.0,0.07084489466755853,-0.0273591275,-0.04355849131304348,28.0,0.0,0.10385817280539929,0.26177212000189776
1648639358965353027,111318,8,3,0.907773137093,-0.673517882824,0.0951951220632,0.0,28.0,0.3036030558839465,-0.2252568169979933,0.031837833465953175,28.0,0.0,0.4848610777204218,1.1343458547444945
1648639358965364867,111319,8,4,2.42722058296,1.71787965298,0.696028590202,0.0,28.0,0.8117794591839465,0.5745416899598662,0.2327854816729097,28.0,0.0,1.2837717609481447,3.054008195608838
1648639358965523923,111320,8,5,3.82259702682,-1.00345981121,0.701231896877,0.0,28.0,1.2784605440869565,-0.3356052880301003,0.23452571801906355,28.0,0.0,1.8389001155386338,4.013839283698891
1648639358965527280,111321,8,6,0.886018514633,-0.869846999645,0.243206471205,-0.121715031564,28.0,0.2963272624190635,-0.2909187289782609,0.08133995692474916,28.0,-0.01644797723837838,0.5101503697694239,1.265231994023177
1648639358965529254,111322,8,7,0.949948132038,-0.845305860043,0.460742950439,-0.121715031564,28.0,0.31770840536387956,-0.2827109899809364,0.15409463225384615,28.0,-0.01644797723837838,0.5308509824175892,1.3524893777641125
1648639359065339661,111323,9,0,0.02726659365,0.081803791225,0.0133612379432,0.0,16.5,0.009119262090301002,0.0273591275,0.0044686414525752505,16.5,0.0,0.030246383911212565,0.08725737829795494
1648639359065346965,111324,9,1,0.0698489397764,0.0272679310292,-0.0446255020797,0.0,16.5,0.02336084942354515,0.00911970937431438,-0.014924917083511706,16.5,0.0,0.034272841589968246,0.08725737726041088
1648639359065353090,111325,9,2,0.212491348386,-0.081803791225,-0.129151895642,0.0,16.5,0.0710673405973244,-0.0273591275,-0.0431946139270903,16.5,0.0,0.10416168036621473,0.2617721252265143
1648639359065358866,111326,9,3,2.4265191555,1.71787965298,0.698469996452,0.0,16.5,0.8115448680602005,0.5745416899598662,0.23360200550234114,16.5,0.0,1.2834750871176408,3.054008194172827
1648639359065538605,111327,9,4,3.8219165802,-1.00345981121,0.704930305481,0.0,16.5,1.278232969966555,-0.3356052880301003,0.23576264397357857,16.5,0.0,1.8385836832662275,4.013839144049847
1648639359065542278,111328,9,5,0.892710924149,-0.869846999645,0.217360079288,-0.121715031564,16.5,0.2985655264712374,-0.2909187289782609,0.07269567869163879,16.5,-0.01644797723837838,0.5127537947830529,1.2652319949141564
1648639359165291265,111329,10,0,0.02726659365,0.081803791225,0.0133612379432,0.0,25.5,0.009119262090301002,0.0273591275,0.0044686414525752505,25.5,0.0,0.030246383911212565,0.08725737829795494
1648639359165301591,111330,10,1,0.0696965903044,0.0272679310292,-0.0448630712926,0.0,25.5,0.02330989642287625,0.00911970937431438,-0.015004371669765884,25.5,0.0,0.034203386404892656,0.08725737750171902
1648639359165323940,111331,10,2,0.212095037103,-0.081803791225,-0.129801690578,0.0,25.5,0.07093479501772575,-0.0273591275,-0.04341193664816054,25.5,0.0,0.10398082585734159,0.2617721220821904
1648639359165346514,111332,10,3,0.892908275127,-0.869846999645,0.216547727585,0.0,25.5,0.29863153014280935,-0.2909187289782609,0.07242398915886286,25.5,0.0,0.5128306625594828,1.2652319585372125
1648639359165350031,111333,10,4,2.33609604836,1.8133174181,0.762562036514,0.0,25.5,0.7813030262073578,0.6064606749498327,0.25503747040602004,25.5,0.0,1.2604219086409745,3.0540081312073215
1648639359165504401,111334,10,5,3.82936882973,-1.00345981121,0.663255035877,0.0,25.5,1.2807253611137122,-0.3356052880301003,0.2218244267147157,25.5,0.0,1.8420493507377762,4.01383911852948
1648639359165508269,111335,10,6,0.982367932796,-0.567172944546,0.00295316963457,-0.121715031564,25.5,0.3285511480923077,-0.18968994800869562,0.0009876821520301002,25.5,-0.01644797723837838,0.5018704914627763,1.1343459021047138
1648639359265462193,111336,11,0,0.0272369924933,0.081803791225,0.0134214758873,0.0,25.2000007629,0.009109362037892976,0.0273591275,0.004488787922173913,25.2000007629,0.0,0.0302404168462683,0.08725737810556104
1648639359265467474,111337,11,1,0.0697235539556,0.0272679310292,-0.0448211506009,0.0,25.2000007629,0.023318914366421403,0.00911970937431438,-0.01499035137153846,25.2000007629,0.0,0.034215678183092416,0.08725737550488916
1648639359265477487,111338,11,2,0.212491348386,-0.081803791225,-0.129151895642,0.0,25.2000007629,0.0710673405973244,-0.0273591275,-0.0431946139270903,25.2000007629,0.0,0.10416168036621473,0.2617721252265143
1648639359265612554,111339,11,3,0.86453050375,-0.839852273464,0.198871284723,0.0,25.2000007629,0.28914063670568557,-0.2808870479812709,0.06651213535886287,25.2000007629,0.0,0.49608683646391105,1.221603299375151
1648639359265624417,111340,11,4,2.3382422924,1.8133174181,0.755955696106,0.0,25.2000007629,0.7820208335785952,0.6064606749498327,0.25282799200869566,25.2000007629,0.0,1.261311903758356,3.0540082009103977
1648639359265673314,111341,11,5,3.83055448532,-1.00345981121,0.656373023987,0.0,25.2000007629,1.2811219014448159,-0.3356052880301003,0.21952275049732442,25.2000007629,0.0,1.8426007603593697,4.0138391602475325
1648639359265686341,111342,11,6,0.937856137753,-0.638069570065,0.00579545460641,-0.243430063128,25.2000007629,0.3136642601180602,-0.2134011940016722,0.001938279132578595,25.2000007629,-0.03289595447675676,0.49225055180483,1.1343458461412916
1648639359365366619,111343,12,0,0.0273063629866,0.081803791225,0.013279770501,0.0,32.0999984741,0.009132562871772575,0.0273591275,0.004441394816387959,32.0999984741,0.0,0.030254409046864793,0.08725737804276826
1648639359365372187,111344,12,1,0.0697204917669,0.0272679310292,-0.0448259189725,0.0,32.0999984741,0.023317890223043477,0.00911970937431438,-0.01499194614464883,32.0999984741,0.0,0.03421428222219152,0.08725737817835644
1648639359365380587,111345,12,2,0.212341293693,-0.081803791225,-0.129398450255,0.0,32.0999984741,0.0710171550812709,-0.0273591275,-0.04327707366387959,32.0999984741,0.0,0.10409320097506763,0.2617721226456247
1648639359365384293,111346,12,3,0.849958002567,-0.681698262691,0.0502286441624,0.0,32.0999984741,0.28426689049063547,-0.22799272999698994,0.016798877646287624,32.0999984741,0.0,0.46216448910524294,1.0907172154953846
1648639359365388064,111347,12,4,2.42715382576,1.71787965298,0.696261227131,0.0,32.0999984741,0.811757132361204,0.5745416899598662,0.2328632866658863,32.0999984741,0.0,1.2837435247667306,3.0540081683633487
1648639359365396892,111348,12,5,3.82046842575,-1.00345981121,0.712736606598,0.0,32.0999984741,1.2777486373745819,-0.3356052880301003,0.23837344702274246,32.0999984741,0.0,1.8379102453544809,4.013839066934688
1648639359365399961,111349,12,6,0.88604092598,-0.801677167416,0.254086136818,0.121715031564,32.0999984741,0.29633475785284275,-0.26811945398528425,0.08497864107625418,32.0999984741,0.01644797723837838,0.49751042102530163,1.2216032777423005
1648639359465408283,111350,13,0,0.0272350292653,0.081803791225,0.013425459154,0.0,28.2000007629,0.009108705439899665,0.0273591275,0.0044901201183946485,28.2000007629,0.0,0.030240021282118366,0.08725737809125861
1648639359465450751,111351,13,1,0.0697070583701,0.0272679310292,-0.0448468029499,0.0,28.2000007629,0.023313397448193978,0.00911970937431438,-0.014998930752474915,28.2000007629,0.0,0.03420815838695314,0.08725737667414082
1648639359465455267,111352,13,2,0.211301133037,-0.081803791225,-0.131090119481,0.0,28.2000007629,0.07066927526321069,-0.0273591275,-0.04384284932474916,28.2000007629,0.0,0.10361860252877444,0.2617721308830377
1648639359465457778,111353,13,3,2.42702531815,1.71787965298,0.696709394455,0.0,28.2000007629,0.8117141532274247,0.5745416899598662,0.23301317540301003,28.2000007629,0.0,1.2836891705554618,3.054008247759925
1648639359465461374,111354,13,4,3.8276450634,-1.00345981121,0.673132300377,0.0,28.2000007629,1.2801488506354515,-0.3356052880301003,0.22512785965785953,28.2000007629,0.0,1.84124769352749,4.0138392366778755
1648639359465478463,111355,13,5,0.848668992519,-0.736234128475,-0.671443521976,0.121715031564,28.2000007629,0.28383578345117055,-0.24623214999163878,-0.22456305082809364,28.2000007629,0.01644797723837838,0.4709095195726929,1.3088606319994853
1648639359465485400,111356,13,6,0.98610663414,0.858939826488,-0.0541502609849,0.121715031564,28.2000007629,0.32980154987959864,0.2872708449792642,-0.01811045517889632,28.2000007629,0.01644797723837838,0.5477797577321302,1.308860638183794
1648639359465487644,111357,13,7,0.810352444649,-0.916202485561,0.673088014126,0.243430063128,28.2000007629,0.2710208844979933,-0.3064222359735786,0.22511304820267555,28.2000007629,0.03289595447675676,0.4907129775818006,1.396118030059367
1648639359465492162,111358,13,8,0.886395812035,-0.830308496952,0.354545146227,0.365145087242,28.2000007629,0.2964534488411371,-0.27769514948227425,0.11857697198227424,28.2000007629,0.04934393070837838,0.5028756215065432,1.265231993121025
1648639359465496759,111359,13,9,0.819174706936,-0.744414508343,0.248073250055,0.486860126257,28.2000007629,0.2739714738916388,-0.2489680629909699,0.08296764215886288,28.2000007629,0.06579190895364864,0.46054949071971557,1.1343458458988962
1648639359565488433,111360,14,0,0.0272636115551,0.081803791225,0.0133673232049,0.0,40.5,0.009118264734147157,0.0273591275,0.0044706766571571905,40.5,0.0,0.030245782533854862,0.08725737850448538
1648639359565493685,111361,14,1,0.0697249174118,0.0272679310292,-0.0448190309107,0.0,40.5,0.02331937037183946,0.00911970937431438,-0.014989642445050166,40.5,0.0,0.0342162997436895,0.08725737620665557
1648639359565499402,111362,14,2,0.212442234159,-0.081803791225,-0.129232659936,0.0,40.5,0.07105091443444815,-0.0273591275,-0.043221625396655514,40.5,0.0,0.10413926608875157,0.26177212133339295
1648639359565509730,111363,14,3,2.42695331573,1.71787965298,0.696959495544,0.0,40.5,0.8116900721505016,0.5745416899598662,0.2330968212521739,40.5,0.0,1.283658716309484,3.0540080938472434
1648639359565604099,111364,14,4,3.83163285255,-1.00345981121,0.650048851967,0.0,40.5,1.2814825593812709,-0.3356052880301003,0.21740764279832775,40.5,0.0,1.8431022785918616,4.013839236865083
1648639359565609774,111365,14,5,0.936332702637,-0.830308496952,0.186228096485,0.243430063128,40.5,0.3131547500458194,-0.27769514948227425,0.06228364430936454,40.5,0.03289595447675676,0.5227297494867705,1.2652320079964088
1648639359565617675,111366,14,6,0.827455580235,-0.773045837879,0.324563533068,0.365145087242,40.5,0.2767409967341137,-0.25854375848795985,0.10854967661137123,40.5,0.04934393070837838,0.469058667545822,1.1779745717636134
1648639359565626538,111367,14,7,0.664505422115,-0.992552638054,0.256098389626,0.852005243301,40.5,0.2222426160919732,-0.3319574040314381,0.08565163532642141,40.5,0.11513584368932432,0.45714251487484714,1.2216032827793233
1648639359665533715,111368,15,0,0.0272224619985,0.081803791225,0.0134509233758,0.0,28.8999996185,0.00910450234063545,0.0273591275,0.004498636580535117,28.8999996185,0.0,0.030237489699089258,0.0872573781161502
1648639359665542379,111369,15,1,0.0697070583701,0.0272679310292,-0.0448468029499,0.0,28.8999996185,0.023313397448193978,0.00911970937431438,-0.014998930752474915,28.8999996185,0.0,0.03420815838695314,0.08725737667414082
1648639359665557205,111370,15,2,0.212095037103,-0.081803791225,-0.129801690578,0.0,28.8999996185,0.07093479501772575,-0.0273591275,-0.04341193664816054,28.8999996185,0.0,0.10398082585734159,0.2617721220821904
1648639359665647398,111371,15,3,0.949425935745,0.899841725826,-0.0446256697178,0.0,28.8999996185,0.31753375777424747,0.3009504099752508,-0.014924973149765885,28.8999996185,0.0,0.5405798034672961,1.3088606455236345
1648639359665657090,111372,15,4,2.34222269058,1.8133174181,0.743531227112,0.0,28.8999996185,0.7833520704280935,0.6064606749498327,0.24867265120802676,28.8999996185,0.0,1.262962977584287,3.054008165795131
1648639359665660855,111373,15,5,3.82791662216,-1.00345981121,0.671586215496,0.0,28.8999996185,1.2802396729632106,-0.3356052880301003,0.2246107744133779,28.8999996185,0.0,1.8413739842334211,4.013839222461043
1648639359665664464,111374,15,6,0.819818556309,-0.809857547283,0.244238451123,0.243430063128,28.8999996185,0.2741868081301003,-0.2708553669842809,0.08168510071003343,28.8999996185,0.03289595447675676,0.47298989558904364,1.177974589355293
1648639359665742152,111375,15,7,0.9369135499,-0.899841725826,0.159981176257,0.365145087242,28.8999996185,0.31334901334448156,-0.3009504099752508,0.053505410119397995,28.8999996185,0.04934393070837838,0.5356737417422957,1.308860614534759
1648639359665896935,111376,15,8,0.833348631859,-0.944833815098,0.696914494038,0.365145087242,28.8999996185,0.278711917009699,-0.315997931470903,0.2330817705812709,28.8999996185,0.04934393070837838,0.5051884381696915,1.439746745915458
1648639359765462023,111377,16,0,0.02726659365,0.081803791225,0.0133612379432,0.0,27.1000003815,0.009119262090301002,0.0273591275,0.0044686414525752505,27.1000003815,0.0,0.030246383911212565,0.08725737829795494
1648639359765537513,111378,16,1,0.069769218564,0.0272679310292,-0.0447500348091,0.0,27.1000003815,0.02333418681070234,0.00911970937431438,-0.014966566825785952,27.1000003815,0.0,0.03423649583858528,0.08725737525882882
1648639359765540429,111379,16,2,0.212442234159,-0.081803791225,-0.129232659936,0.0,27.1000003815,0.07105091443444815,-0.0273591275,-0.043221625396655514,27.1000003815,0.0,0.10413926608875157,0.26177212133339295
1648639359765544350,111380,16,3,0.949015676975,0.899841725826,-0.052633356303,0.0,27.1000003815,0.31739654748327756,0.3009504099752508,-0.01760312919832776,27.1000003815,0.0,0.5404186210456488,1.3088606330994719
1648639359765550169,111381,16,4,2.42611050606,1.71787965298,0.699887692928,0.0,27.1000003815,0.8114081960066889,0.5745416899598662,0.23407615148093644,27.1000003815,0.0,1.2833022537951055,3.054008099604432
1648639359765555770,111382,16,5,3.83693361282,-1.00345981121,0.617991626263,0.0,27.1000003815,1.2832553889030098,-0.3356052880301003,0.20668616262976586,27.1000003815,0.0,1.8455675808951013,4.01383915871485
1648639359765704481,111383,16,6,2.43211936951,-2.45956730843,0.913349330425,0.243430063128,27.1000003815,0.8134178493344482,-0.8225977620167224,0.30546800348662206,27.1000003815,0.03289595447675676,1.4142009310231267,3.5775526511333293
1648639359765708645,111384,16,7,2.77862238884,1.22978365421,1.88832509518,0.243430063128,27.1000003815,0.9293051467692307,0.41129888100668893,0.6315468545752507,27.1000003815,0.03289595447675676,1.3770921832400755,3.5775524987079597
1648639359765710739,111385,16,8,0.956640005112,-0.929836452007,0.222421944141,0.365145087242,27.1000003815,0.3199464900040134,-0.3109820909722408,0.074388610080602,27.1000003815,0.04934393070837838,0.5490367691122732,1.3524893523045258
