%time,field.header.seq,field.header.frame_id,field.point_id,field.x,field.y,field.z,field.velocity,field.intensity,normalized_x,normalized_y,normalized_z,normalized_intensity,normalized_velocity,normalized_range,range
1648639587068438147,133447,0,0,0.0272478125989,0.081803791225,0.0133994966745,0.0,13.5,0.00911298080230769,0.0273591275,0.0044814370148829425,13.5,0.0,0.030242597371385172,0.08725737826303342
1648639587068443721,133448,0,1,0.0697471052408,0.0272679310292,-0.0447844937444,0.0,13.5,0.02332679105043478,0.00911970937431438,-0.014978091553311037,13.5,0.0,0.03422641466021888,0.08725737580300384
1648639587068461170,133449,0,2,0.212129473686,-0.081803791225,-0.129745408893,0.0,13.5,0.07094631226956521,-0.0273591275,-0.04339311334214047,13.5,0.0,0.10399653987927952,0.26177212417271345
1648639587068487728,133450,0,3,0.948810398579,0.899841725826,-0.0562123320997,0.0,13.5,0.31732789250133775,0.3009504099752508,-0.01880011107013378,13.5,0.0,0.5403379794008123,1.308860622934788
1648639587068492241,133451,0,4,2.42229247093,1.71787965298,0.712990045547,0.0,13.5,0.810131261180602,0.5745416899598662,0.23845820921304345,13.5,0.0,1.2816877444159651,3.05400820593134
1648639587068498391,133452,0,5,3.82021045685,-1.00345981121,0.714119195938,0.0,13.5,1.2776623601505015,-0.3356052880301003,0.2388358514842809,13.5,0.0,1.8377902824981054,4.0138392784648005
1648639587068502337,133453,0,6,1.27844381332,-1.80786371231,0.219353884459,0.365145087242,13.5,0.4275731817123746,-0.6046366930802676,0.07336250316354515,13.5,0.04934393070837838,0.8551158880867132,2.225063125560875
1648639587168466444,133454,1,0,0.0272034537047,0.081803791225,0.0134893273935,0.0,18.7000007629,0.009098145051739129,0.0273591275,0.00451148073361204,18.7000007629,0.0,0.030233662436533002,0.08725737851767135
1648639587168472709,133455,1,1,0.0697292611003,0.0272679310292,-0.0448122732341,0.0,18.7000007629,0.023320823110468226,0.00911970937431438,-0.014987382352541805,18.7000007629,0.0,0.03421827991251833,0.08725737647107353
1648639587168476140,133456,1,2,0.21123957634,-0.081803791225,-0.131189286709,0.0,18.7000007629,0.07064868773913044,-0.0273591275,-0.04387601562173913,18.7000007629,0.0,0.1035905208794877,0.2617721295674967
1648639587168480626,133457,1,3,0.948409616947,0.899841725826,-0.062611989677,0.0,18.7000007629,0.3171938518217391,0.3009504099752508,-0.020940464774916387,18.7000007629,0.0,0.540180551789209,1.3088606473977213
1648639587168485493,133458,1,4,2.4211230278,1.71787965298,0.716951131821,0.0,18.7000007629,0.8097401430769231,0.5745416899598662,0.23978298723110367,18.7000007629,0.0,1.2811933312823678,3.054008209433226
1648639587168526436,133459,1,5,3.82201266289,-1.00345981121,0.704409778118,0.0,18.7000007629,1.278265104645485,-0.3356052880301003,0.23558855455451502,18.7000007629,0.0,1.8386283650761053,4.013839249834673
1648639587268536748,133460,2,0,0.0272793006152,0.081803791225,0.0133352754638,0.0,15.3999996185,0.009123511911438127,0.0273591275,0.00445995834909699,15.3999996185,0.0,0.03024894703551783,0.08725737832718368
1648639587268548118,133461,2,1,0.0698095485568,0.0272679310292,-0.0446871072054,0.0,15.3999996185,0.02334767510260869,0.00911970937431438,-0.014945520804481603,15.3999996185,0.0,0.034254882344943255,0.08725738182357029
1648639587268563179,133462,2,2,0.212943807244,-0.081803791225,-0.1284044981,0.0,15.3999996185,0.07121866463010033,-0.0273591275,-0.042944648193979924,15.3999996185,0.0,0.10436818596177029,0.26177211546432155
1648639587268706120,133463,2,3,0.948400139809,0.899841725826,-0.0627546012402,0.0,15.3999996185,0.31719068221036784,0.3009504099752508,-0.020988160949899665,15.3999996185,0.0,0.5401768294053612,1.3088606101124982
1648639587268709647,133464,2,4,1.10330271721,-1.19160854816,0.333754867315,0.0,15.3999996185,0.36899756428428093,-0.39853128701003343,0.1116237014431438,15.3999996185,0.0,0.656616776835117,1.6578902645553493
1648639587268710652,133465,2,5,2.42250394821,1.71787965298,0.712271034718,0.0,15.3999996185,0.810201989367893,0.5745416899598662,0.23821773736387958,15.3999996185,0.0,1.2817771571741017,3.0540081709311084
1648639587268712524,133466,2,6,3.81369543076,-1.00345981121,0.748130977154,0.0,15.3999996185,1.2754834216588629,-0.3356052880301003,0.25021102914849497,15.3999996185,0.0,1.8347607002568393,4.013839108670241
1648639587268713627,133467,2,7,0.950931787491,-1.17797458172,0.418320506811,0.365145087242,15.3999996185,0.31803738712073576,-0.3939714320133779,0.13990652401705686,15.3999996185,0.04934393070837838,0.5979206038060916,1.5706328107033323
1648639587368432424,133468,3,0,0.0272077526897,0.081803791225,0.0134806521237,0.0,29.2999992371,0.009099582839364549,0.0273591275,0.004508579305585284,29.2999992371,0.0,0.03023452783263155,0.08725737818022888
1648639587368436711,133469,3,1,0.0697576329112,0.0272679310292,-0.0447680912912,0.0,29.2999992371,0.023330312010434784,0.00911970937431438,-0.014972605783010032,29.2999992371,0.0,0.034231214060860195,0.08725737452985942
1648639587368438743,133470,3,2,0.213279739022,-0.081803791225,-0.12784576416,0.0,29.2999992371,0.07133101639531772,-0.0273591275,-0.0427577806555184,29.2999992371,0.0,0.10452152724457975,0.2617721275264618
1648639587368446641,133471,3,3,0.948570609093,0.899841725826,-0.0601236522198,0.0,29.2999992371,0.3172476953488294,0.3009504099752508,-0.020108244889565214,29.2999992371,0.0,0.5402437872595657,1.308860644044593
1648639587368538122,133472,3,4,1.17592787743,-1.13979947567,0.258168250322,0.0,29.2999992371,0.39328691552842804,-0.3812038380167224,0.08634389642876254,29.2999992371,0.0,0.674288930630193,1.657890244596715
1648639587368544333,133473,3,5,2.41972637177,1.71787965298,0.721650838852,0.0,29.2999992371,0.8092730340367892,0.5745416899598662,0.24135479560267556,29.2999992371,0.0,1.2806029207916712,3.054008210463372
1648639587368586836,133474,3,6,3.82439088821,-1.00345981121,0.691381514072,0.0,29.2999992371,1.279060497729097,-0.3356052880301003,0.23123127560936452,29.2999992371,0.0,1.839734334912456,4.013839266405391
1648639587468428068,133475,4,0,0.0272279996425,0.081803791225,0.013439710252,0.0,14.6999998093,0.00910635439548495,0.0273591275,0.004494886371906354,14.6999998093,0.0,0.03023860509867465,0.08725737811195729
1648639587468433273,133476,4,1,0.0698256790638,0.0272679310292,-0.0446618869901,0.0,14.6999998093,0.02335306992100334,0.00911970937431438,-0.01493708594986622,14.6999998093,0.0,0.03426223647899389,0.0872573760140108
1648639587468444975,133477,4,2,0.212255358696,-0.081803791225,-0.129539385438,0.0,14.6999998093,0.07098841427959866,-0.0273591275,-0.04332420917658863,14.6999998093,0.0,0.10405398493774812,0.26177213360784934
1648639587468451292,133478,4,3,0.948573350906,0.899841725826,-0.0600802749395,0.0,14.6999998093,0.3172486123431438,0.3009504099752508,-0.020093737437959867,14.6999998093,0.0,0.5402448642343323,1.308860639267358
1648639587468457645,133479,4,4,2.3330950737,1.8133174181,0.771695017815,0.0,14.6999998093,0.7802993557525083,0.6064606749498327,0.2580919792023411,14.6999998093,0.0,1.2591777950059975,3.054008166693166
1648639587468460331,133480,4,5,3.8216946125,-1.00345981121,0.706132888794,0.0,14.6999998093,1.2781587332775919,-0.3356052880301003,0.23616484575050167,14.6999998093,0.0,1.838480460668898,4.013839179708337
1648639587468466003,133481,4,6,1.16511166096,-1.13979947567,0.303268760443,-0.121715031564,14.6999998093,0.389669451826087,-0.3812038380167224,0.10142767907792641,14.6999998093,-0.01644797723837838,0.6700753162828532,1.6578902159983968
1648639587568633336,133482,5,0,0.0272593144327,0.081803791225,0.0133760813624,0.0,22.3999996185,0.009116827569464882,0.0273591275,0.004473605806822743,22.3999996185,0.0,0.03024491605913242,0.08725737811060873
1648639587568642788,133483,5,1,0.0697471052408,0.0272679310292,-0.0447844937444,0.0,22.3999996185,0.02332679105043478,0.00911970937431438,-0.014978091553311037,22.3999996185,0.0,0.03422641466021888,0.08725737580300384
1648639587568647179,133484,5,2,0.21126870811,-0.081803791225,-0.131142348051,0.0,22.3999996185,0.07065843080602006,-0.0273591275,-0.04386031707391304,22.3999996185,0.0,0.10360381047770158,0.261772119863024
1648639587568653093,133485,5,3,0.948646187782,0.899841725826,-0.058918800205,0.0,22.3999996185,0.31727297250234116,0.3009504099752508,-0.019705284349498326,22.3999996185,0.0,0.5402734746637246,1.308860629000824
1648639587568656616,133486,5,4,2.41987872124,1.71787965298,0.721140027046,0.0,22.3999996185,0.8093239870367892,0.5745416899598662,0.24118395553377925,22.3999996185,0.0,1.2806673203795702,3.054008262307214
1648639587568782955,133487,5,5,3.82736611366,-1.00345981121,0.67471653223,0.0,22.3999996185,1.2800555564080267,-0.3356052880301003,0.2256577030869565,22.3999996185,0.0,1.8411179658935197,4.013839229412526
1648639587568787042,133488,5,6,1.15006506443,-1.13979947567,0.356100380421,-0.121715031564,22.3999996185,0.3846371452943143,-0.3812038380167224,0.11909711719765885,22.3999996185,-0.01644797723837838,0.6642347726512053,1.6578902189517761
1648639587668486882,133489,6,0,0.0271991547197,0.081803791225,0.0134979914874,0.0,20.6000003815,0.009096707264113713,0.0273591275,0.004514378423879598,20.6000003815,0.0,0.030232797152417352,0.08725737820060542
1648639587668499185,133490,6,1,0.0698466077447,0.0272679310292,-0.0446291528642,0.0,20.6000003815,0.023360069479832775,0.00911970937431438,-0.01492613808167224,20.6000003815,0.0,0.03427177835008255,0.08725737769055018
1648639587668604860,133491,6,2,0.211841985583,-0.081803791225,-0.13021427393,0.0,20.6000003815,0.07085016240234113,-0.0273591275,-0.04354992439130435,20.6000003815,0.0,0.10386535939589041,0.26177212275116013
1648639587668612489,133492,6,3,0.948464632034,0.899841725826,-0.0617725588381,0.0,20.6000003815,0.31721225151638793,0.3009504099752508,-0.02065971867494983,20.6000003815,0.0,0.5402021605736725,1.30886062618688
1648639587668617140,133493,6,4,2.41954374313,1.71787965298,0.722262442112,0.0,20.6000003815,0.8092119542240803,0.5745416899598662,0.24155934518795985,20.6000003815,0.0,1.280525722982654,3.05400809794732
1648639587668696289,133494,6,5,3.82128667831,-1.00345981121,0.708336889744,0.0,20.6000003815,1.278022300438127,-0.3356052880301003,0.2369019698140468,20.6000003815,0.0,1.8382907577932526,4.013839137274348
1648639587668869812,133495,6,6,1.01469969749,-1.09753417969,0.312321782112,-0.608575165272,20.6000003815,0.3393644473210702,-0.3670682875217391,0.10445544552240803,20.6000003815,-0.0822398871989189,0.6042148491349852,1.5270041412045072
1648639587668968816,133496,6,7,1.16317725182,-1.13979947567,0.310605376959,-0.121715031564,20.6000003815,0.38902249224749164,-0.3812038380167224,0.10388139697625416,20.6000003815,-0.01644797723837838,0.6693230647957523,1.657890184567415
1648639587768744164,133497,7,0,0.0272593144327,0.081803791225,0.0133760813624,0.0,21.5,0.009116827569464882,0.0273591275,0.004473605806822743,21.5,0.0,0.03024491605913242,0.08725737811060873
1648639587768750333,133498,7,1,0.0698152408004,0.0272679310292,-0.0446782074869,0.0,21.5,0.02334957886301003,0.00911970937431438,-0.014942544309999998,21.5,0.0,0.034257477508301847,0.08725737868440428
1648639587768754113,133499,7,2,0.212594375014,-0.081803791225,-0.128982231021,0.0,21.5,0.07110179766354514,-0.0273591275,-0.04313786990668896,21.5,0.0,0.10420869982653408,0.2617721231635089
1648639587768758698,133500,7,3,0.948398828506,0.899841725826,-0.0627748891711,0.0,21.5,0.3171902436474916,0.3009504099752508,-0.02099494621107023,21.5,0.0,0.5401763143591004,1.3088606328251726
1648639587768760850,133501,7,4,2.33303642273,1.8133174181,0.771872282028,0.0,21.5,0.7802797400434781,0.6064606749498327,0.25815126489230766,21.5,0.0,1.259153483776002,3.0540081578693856
1648639587768762825,133502,7,5,3.82468962669,-1.00345981121,0.689725995064,0.0,21.5,1.279160410264214,-0.3356052880301003,0.230677590322408,21.5,0.0,1.8398732618657163,4.013839095117133
1648639587768872786,133503,7,6,0.968268752098,-1.03481793404,0.253925591707,-0.973720252514,21.5,0.32383570304280934,-0.3460929545284281,0.08492494705919733,21.5,-0.13158381790729728,0.5740378544178752,1.4397467621161653
1648639587768878175,133504,7,7,1.41381704807,-1.60335421562,0.0242924597114,-0.486860126257,21.5,0.47284851106020065,-0.5362388681003344,0.00812456846535117,21.5,-0.06579190895364864,0.8571601673463515,2.1378057698861754
1648639587868674711,133505,8,0,0.0272034537047,0.081803791225,0.0134893273935,0.0,13.1000003815,0.009098145051739129,0.0273591275,0.00451148073361204,13.1000003815,0.0,0.030233662436533002,0.08725737851767135
1648639587868677535,133506,8,1,0.0697397887707,0.0272679310292,-0.0447958856821,0.0,13.1000003815,0.023324344070468225,0.00911970937431438,-0.014981901565919732,13.1000003815,0.0,0.03422307922597162,0.08725737547301565
1648639587868687771,133507,8,2,0.211948633194,-0.081803791225,-0.130040600896,0.0,13.1000003815,0.07088583049966556,-0.0273591275,-0.04349183976454849,13.1000003815,0.0,0.1039140211367835,0.26177211702735054
1648639587868692772,133508,8,3,0.949027717113,0.899841725826,-0.0524158515036,0.0,13.1000003815,0.3174005742852843,0.3009504099752508,-0.01753038511826087,13.1000003815,0.0,0.5404233510661138,1.3088606346265723
1648639587868700345,133509,8,4,1.25094890594,-1.08799040318,-0.00193742488045,0.0,13.1000003815,0.41837756051505015,-0.36387638902341135,-0.0006479681874414716,13.1000003815,0.0,0.6946118288467062,1.6578902365052488
1648639587868822133,133510,8,5,2.42073917389,1.71787965298,0.718246102333,0.0,13.1000003815,0.8096117638428093,0.5745416899598662,0.2402160877367893,13.1000003815,0.0,1.2810310573156565,3.054008204580477
1648639587868829030,133511,8,6,3.82480072975,-1.00345981121,0.68910998106,0.0,13.1000003815,1.2791975684782608,-0.3356052880301003,0.23047156557190634,13.1000003815,0.0,1.8399249299238152,4.013839157341292
1648639587868833822,133512,8,7,1.27127730846,-1.14525306225,0.343204945326,0.486860126257,13.1000003815,0.42517635734448156,-0.38302778001672233,0.1147842626508361,13.1000003815,0.06579190895364864,0.7129236634829729,1.7451476172789875
1648639587868842440,133513,8,8,1.17421531677,-1.70151877403,0.33410987258,-0.730290174484,13.1000003815,0.3927141527658863,-0.5690698240903009,0.11174243230100335,13.1000003815,-0.09868786141675676,0.7951661941100249,2.094176963742379
1648639587869125507,133514,8,9,4.88283014297,0.957104325294,1.1394816637,-0.243430063128,13.1000003815,1.6330535595217388,0.3201017810347826,0.38109754638795984,13.1000003815,-0.03289595447675676,2.3315644976613625,5.104556528877061
1648639587968765318,133515,9,0,0.0272468049079,0.081803791225,0.0134015455842,0.0,13.6999998093,0.009112643781906354,0.0273591275,0.00448212226896321,13.6999998093,0.0,0.030242394266213272,0.0872573782583338
1648639587968770341,133516,9,1,0.0697637349367,0.0272679310292,-0.0447585843503,0.0,13.6999998093,0.023332352821638796,0.00911970937431438,-0.014969426204113711,13.6999998093,0.0,0.0342339959025941,0.08725737589438652
1648639587968796025,133517,9,2,0.206304013729,-0.0899841710925,-0.133664309978,0.0,13.6999998093,0.06899799790267558,-0.030095040499163877,-0.04470378260133779,13.6999998093,0.0,0.10211346087466412,0.26177212397387656
1648639587968880052,133518,9,3,0.948495447636,0.899841725826,-0.0612979196012,0.0,13.6999998093,0.3172225577377926,0.3009504099752508,-0.020500976455250834,13.6999998093,0.0,0.5402142644726127,1.3088606421889097
1648639587969053109,133519,9,4,2.33444929123,1.8133174181,0.767588675022,0.0,13.6999998093,0.7807522713143812,0.6064606749498327,0.25671862040869564,13.6999998093,0.0,1.2597391668856441,3.054008173880864
1648639587969060595,133520,9,5,3.82833266258,-1.00345981121,0.669209837914,0.0,13.6999998093,1.2803788169163879,-0.3356052880301003,0.22381599930234114,13.6999998093,0.0,1.8415674679387082,4.013839106796803
1648639587969063201,133521,9,6,1.27057921886,-1.06344926357,0.387131601572,0.486860126257,13.6999998093,0.4249428825618729,-0.3556686500234113,0.1294754520307692,13.6999998093,0.06579190895364864,0.6983216275395338,1.7015189580260823
1648639587969067694,133522,9,7,0.155808776617,-0.899841725826,-1.11304950714,-0.852005243301,13.6999998093,0.0521099587347826,-0.3009504099752508,-0.3722573602474916,13.6999998093,-0.11513584368932432,0.3098419675624221,1.4397467526454077
1648639587969073521,133523,9,8,1.36000216007,-0.35993668437,0.306121528149,-0.852005243301,13.6999998093,0.45485022075919734,-0.12038016199665551,0.1023817819896321,13.6999998093,-0.11513584368932432,0.6544225164614388,1.4397467423636054
1648639587969077037,133524,9,9,1.14232861996,-1.10980474949,0.263170987368,-0.121715031564,13.6999998093,0.3820497056722408,-0.3711721570200669,0.08801705263143812,13.6999998093,-0.01644797723837838,0.6555095158389547,1.6142615112064487
1648639588068844986,133525,10,0,0.0272425357252,0.081803791225,0.013410220854,0.0,18.7000007629,0.00911121596160535,0.0273591275,0.004485023696989966,18.7000007629,0.0,0.030241533859235392,0.08725737811139665
1648639588068853399,133526,10,1,0.069820009172,0.0272679310292,-0.0446707569063,0.0,18.7000007629,0.0233511736361204,0.00911970937431438,-0.014940052477023411,18.7000007629,0.0,0.034259651478677454,0.0872573794356278
1648639588068863415,133527,10,2,0.212021917105,-0.081803791225,-0.129921093583,0.0,18.7000007629,0.07091034016889632,-0.0273591275,-0.04345187076354515,18.7000007629,0.0,0.10394746049470587,0.2617721225598049
1648639588068865477,133528,10,3,0.948225617409,0.899841725826,-0.0653393641114,0.0,18.7000007629,0.3171323135147157,0.3009504099752508,-0.02185263013759197,18.7000007629,0.0,0.540108283416079,1.3088606440529393
1648639588068893559,133529,10,4,2.42447304726,1.71787965298,0.705539464951,0.0,18.7000007629,0.8108605509230769,0.5745416899598662,0.2359663762377926,18.7000007629,0.0,1.282609769021151,3.054008185256912
1648639588068996566,133530,10,5,3.83472728729,-1.00345981121,0.631538629532,0.0,18.7000007629,1.2825174873879597,-0.3356052880301003,0.21121693295384614,18.7000007629,0.0,1.844541439020988,4.0138393093385405
1648639588069002629,133531,10,6,1.22217977047,-1.43974673748,0.344252347946,-0.973720252514,18.7000007629,0.40875577607692304,-0.48152064798662203,0.11513456453043477,18.7000007629,-0.13158381790729728,0.7523461327008677,1.9196624022199162
1648639588069005520,133532,10,7,1.25093924999,-1.08799040318,0.00529585173354,-0.121715031564,18.7000007629,0.41837433110033445,-0.36387638902341135,0.0017711878707491638,18.7000007629,-0.01644797723837838,0.6946079385783188,1.6578902770156132
1648639588168790183,133533,11,0,0.0272034537047,0.081803791225,0.0134893273935,0.0,15.3999996185,0.009098145051739129,0.0273591275,0.00451148073361204,15.3999996185,0.0,0.030233662436533002,0.08725737851767135
1648639588168795303,133534,11,1,0.0696277245879,0.0272679310292,-0.0449698790908,0.0,15.3999996185,0.023286864410668892,0.00911970937431438,-0.01504009334140468,15.3999996185,0.0,0.0341719944872071,0.08725737859541068
1648639588168805305,133535,11,2,0.211505174637,-0.081803791225,-0.130760654807,0.0,15.3999996185,0.07073751660100334,-0.0273591275,-0.043732660470568556,15.3999996185,0.0,0.10371168867256816,0.2617721299194524
1648639588168815233,133536,11,3,0.948321819305,0.899841725826,-0.0639279335737,0.0,15.3999996185,0.3171644880618729,0.3009504099752508,-0.021380579790535113,15.3999996185,0.0,0.5401460675033851,1.30886064391839
1648639588168830618,133537,11,4,2.42434000969,1.71787965298,0.705996692181,0.0,15.3999996185,0.8108160567525082,0.5745416899598662,0.2361192950438127,15.3999996185,0.0,1.2825535112724584,3.054008237395064
1648639588168835360,133538,11,5,3.81551980972,-1.00345981121,0.738770365715,0.0,15.3999996185,1.2760935818461538,-0.3356052880301003,0.24708038987123743,15.3999996185,0.0,1.8356090456880134,4.013839142808046
1648639588169108589,133539,11,6,5.08189868927,0.989825844765,1.03108799458,0.121715031564,15.3999996185,1.6996316686521737,0.3310454330317726,0.3448454831371237,15.3999996185,0.01644797723837838,2.4263319428515833,5.279071125068869
1648639588169114908,133540,11,7,1.11565160751,-1.07981002331,0.237106055021,-0.243430063128,15.3999996185,0.3731276279297659,-0.36114047602341137,0.0792996839535117,15.3999996185,-0.03289595447675676,0.6394301344724096,1.5706328269547951
1648639588268772093,133541,12,0,0.0272864997387,0.081803791225,0.0133205354214,0.0,31.7999992371,0.009125919645050166,0.0273591275,0.0044550285690301,31.7999992371,0.0,0.030250399605576808,0.08725737785818592
1648639588268780854,133542,12,1,0.0697471052408,0.0272679310292,-0.0447844937444,0.0,31.7999992371,0.02332679105043478,0.00911970937431438,-0.014978091553311037,31.7999992371,0.0,0.03422641466021888,0.08725737580300384
1648639588268790849,133543,12,2,0.212660387158,-0.081803791225,-0.128873363137,0.0,31.7999992371,0.07112387530367893,-0.0273591275,-0.04310145924314381,31.7999992371,0.0,0.10423882738206429,0.2617721227541522
1648639588268799224,133544,12,3,0.94831430912,0.899841725826,-0.064039029181,0.0,31.7999992371,0.31716197629431436,0.3009504099752508,-0.021417735512040133,31.7999992371,0.0,0.5401431177735231,1.3088606334051391
1648639588268822270,133545,12,4,2.34063339233,1.8133174181,0.748518943787,0.0,31.7999992371,0.7828205325518394,0.6064606749498327,0.2503407838752508,31.7999992371,0.0,1.262303657061207,3.054008078784845
1648639588269004506,133546,12,5,3.82175350189,-1.00345981121,0.70581394434,0.0,31.7999992371,1.2781784287257525,-0.3356052880301003,0.23605817536454848,31.7999992371,0.0,1.8385078462365705,4.013839152973979
1648639588269009739,133547,12,6,4.76110363007,1.09753417969,1.14043867588,0.243430063128,31.7999992371,1.5923423511939798,0.3670682875217391,0.3814176173511706,31.7999992371,0.03289595447675676,2.2816326291750135,5.017299016930968
1648639588269012335,133548,12,7,0.922221302986,-1.41793239117,0.429552704096,-0.973720252514,31.7999992371,0.3084352183899665,-0.4742248799899665,0.14366311173779264,31.7999992371,-0.13158381790729728,0.6443243008672191,1.7451475362290878
1648639588269015455,133549,12,8,1.07146728039,-1.00209641457,0.423676878214,-0.243430063128,31.7999992371,0.358350261,-0.33514930253177255,0.14169795257993312,31.7999992371,-0.03289595447675676,0.6075811666806912,1.5270040779819656
1648639588368676532,133550,13,0,0.0272550564259,0.081803791225,0.0133847566321,0.0,30.3999996185,0.009115403486923076,0.0273591275,0.004476507234816053,30.3999996185,0.0,0.030244057581946163,0.08725737831073614
1648639588368679787,133551,13,1,0.0697292611003,0.0272679310292,-0.0448122732341,0.0,30.3999996185,0.023320823110468226,0.00911970937431438,-0.014987382352541805,30.3999996185,0.0,0.03421827991251833,0.08725737647107353
1648639588368681901,133552,13,2,0.210553824902,-0.081803791225,-0.132287070155,0.0,30.3999996185,0.07041933943210701,-0.0273591275,-0.044243167275919724,30.3999996185,0.0,0.10327772552525477,0.26177211916061527
1648639588368869170,133553,13,3,0.948234438896,0.899841725826,-0.0652107968926,0.0,30.3999996185,0.31713526384481605,0.3009504099752508,-0.021809631067759194,30.3999996185,0.0,0.5401117480782229,1.308860623090669
1648639588368873344,133554,13,4,2.33881378174,1.8133174181,0.75418561697,0.0,30.3999996185,0.7822119671371236,0.6064606749498327,0.25223599229765886,30.3999996185,0.0,1.2615489183244792,3.054008171123029
1648639588368876198,133555,13,5,3.82282996178,-1.00345981121,0.699960112572,0.0,30.3999996185,1.2785384487558529,-0.3356052880301003,0.23410037209765883,30.3999996185,0.0,1.8390084391453487,4.013839143337497
1648639588369040338,133556,13,6,4.81231403351,1.1070779562,1.10860359669,0.243430063128,30.3999996185,1.609469576424749,0.37026018602006683,0.37077043367558526,30.3999996185,0.03289595447675676,2.3060523064807827,5.06092776996622
1648639588369049027,133557,13,7,5.08260011673,1.16434061527,1.06893515587,0.243430063128,30.3999996185,1.6998662597759195,0.3894115770133779,0.3575033966120401,30.3999996185,0.03289595447675676,2.4353094215235145,5.322700008680364
1648639588369055233,133558,13,8,1.73263204098,-1.00345981121,0.137043043971,0.608575165272,30.3999996185,0.5794755989899665,-0.3356052880301003,0.04583379397023411,30.3999996185,0.0822398871989189,0.8855590601441145,2.006919574383828
1648639588369059046,133559,13,9,0.949626505375,-1.07981002331,0.0713484585285,-0.730290174484,30.3999996185,0.3176008379180602,-0.36114047602341137,0.023862360711872907,30.3999996185,-0.09868786141675676,0.5763358638111323,1.4397467793629097
1648639588369065717,133560,13,10,0.947997570038,-1.32931160927,0.478955030441,-0.608575165272,30.3999996185,0.3170560434909699,-0.4445858224983277,0.16018562891003343,30.3999996185,-0.0822398871989189,0.6314314079888727,1.7015189298161477
1648639588369070929,133561,13,11,1.1080673933,-1.00209641457,0.315802276134,-0.243430063128,30.3999996185,0.37059110143812707,-0.33514930253177255,0.1056194903458194,30.3999996185,-0.03289595447675676,0.6220937099165864,1.5270041420376441
1648639588369073726,133562,13,12,1.18315815926,-1.17388439178,0.649501979351,-0.243430063128,30.3999996185,0.395705069986622,-0.39260347551170566,0.2172247422578595,30.3999996185,-0.03289595447675676,0.6835952704708432,1.7887762901685271
1648639588468616726,133563,14,0,0.0272405538708,0.081803791225,0.0134142460302,0.0,18.7999992371,0.009110553134046821,0.0273591275,0.004486369909765886,18.7999992371,0.0,0.030241134475707702,0.08725737808649811
1648639588468620445,133564,14,1,0.0697397887707,0.0272679310292,-0.0447958856821,0.0,18.7999992371,0.023324344070468225,0.00911970937431438,-0.014981901565919732,18.7999992371,0.0,0.03422307922597162,0.08725737547301565
1648639588468625718,133565,14,2,0.211399048567,-0.081803791225,-0.130932152271,0.0,18.7999992371,0.07070202293210702,-0.0273591275,-0.043790017481939794,18.7999992371,0.0,0.10366327194790655,0.2617721270344353
1648639588468631349,133566,14,3,0.948485374451,0.899841725826,-0.0614530146122,0.0,18.7999992371,0.31721918877959865,0.3009504099752508,-0.020552847696387957,18.7999992371,0.0,0.5402103078655986,1.3088606152260427
1648639588468745542,133567,14,4,2.4224190712,1.71787965298,0.712559401989,0.0,18.7999992371,0.8101736024080267,0.5745416899598662,0.23831418126722406,18.7999992371,0.0,1.2817412709199691,3.05400811393799
1648639588468765061,133568,14,5,3.82464194298,-1.00345981121,0.689990103245,0.0,18.7999992371,1.279144462535117,-0.3356052880301003,0.23076592081772573,18.7999992371,0.0,1.839851086751934,4.013839050994881
1648639588468775727,133569,14,6,4.79116535187,1.1070779562,1.19670438766,0.486860126257,18.7999992371,1.6023964387525083,0.37026018602006683,0.40023558115719066,18.7999992371,0.06579190895364864,2.2961797184029513,5.060927624606802
1648639588468779985,133570,14,7,5.10445737839,1.17388439178,1.16790270805,0.486860126257,18.7999992371,1.7071763807324414,0.39260347551170566,0.3906029123913043,18.7999992371,0.06579190895364864,2.4460253226091724,5.366328952695254
1648639588468781946,133571,14,8,1.02150571346,-1.17797458172,0.189180880785,-0.365145087242,18.7999992371,0.34164070684280934,-0.3939714320133779,0.06327119758695651,18.7999992371,-0.04934393070837838,0.623418185800495,1.570632816244593
1648639588468784690,133572,14,9,1.04408740997,-1.01982057095,0.265047669411,-0.243430063128,18.7999992371,0.3491931137023411,-0.34107711403010027,0.08864470548862875,18.7999992371,-0.03289595447675676,0.6001710248165719,1.483375469546011
1648639588568537146,133573,15,0,0.0272107571363,0.081803791225,0.0134745873511,0.0,32.5999984741,0.009100587671003343,0.0273591275,0.00450655095354515,32.5999984741,0.0,0.0302351327014864,0.08725737829545713
1648639588568543088,133574,15,1,0.0697175487876,0.0272679310292,-0.0448305010796,0.0,32.5999984741,0.0233169059490301,0.00911970937431438,-0.0149934786219398,32.5999984741,0.0,0.03421294060942128,0.08725738076869263
1648639588568552341,133575,15,2,0.211841985583,-0.081803791225,-0.13021427393,0.0,32.5999984741,0.07085016240234113,-0.0273591275,-0.04354992439130435,32.5999984741,0.0,0.10386535939589041,0.26177212275116013
1648639588568575726,133576,15,3,0.94800812006,0.899841725826,-0.0684224888682,0.0,32.5999984741,0.31705957192642137,0.3009504099752508,-0.02288377554120401,32.5999984741,0.0,0.5400228639276328,1.3088606359044221
1648639588568580559,133577,15,4,2.42768859863,1.71787965298,0.694393932819,0.0,32.5999984741,0.8119359861638795,0.5745416899598662,0.2322387735180602,32.5999984741,0.0,1.283969721121866,3.054008082500211
1648639588568582737,133578,15,5,3.81959295273,-1.00345981121,0.717414438725,0.0,32.5999984741,1.2774558370334448,-0.3356052880301003,0.2399379393729097,32.5999984741,0.0,1.8375031266627562,4.01383923371993
1648639588568634009,133579,15,6,4.87825918198,1.11662173271,1.00610089302,0.486860126257,32.5999984741,1.6315248100267556,0.3734520845183947,0.33648859298327755,32.5999984741,0.06579190895364864,2.3373516789085924,5.1045563712695055
1648639588568640267,133580,15,7,5.12885284424,1.01436698437,1.39052820206,0.486860126257,32.5999984741,1.7153353994113711,0.3392531720301003,0.4650595993511705,32.5999984741,0.06579190895364864,2.449457854236325,5.409957537501828
1648639588568648613,133581,15,8,1.53050792217,-1.22705686092,0.0799278616905,-0.608575165272,32.5999984741,0.5118755592541806,-0.410386910006689,0.026731726317892973,32.5999984741,-0.0822398871989189,0.8321361620722888,1.9632909878136737
1648639588568666998,133582,15,9,1.00241029263,-1.06617605686,0.242579728365,-0.243430063128,32.5999984741,0.3352542784715719,-0.35658062102341137,0.0811303439347826,32.5999984741,-0.03289595447675676,0.5932458189961648,1.4833754425652792
1648639588668526885,133583,16,0,0.0272750630975,0.081803791225,0.0133439395577,0.0,39.0,0.009122094681438127,0.0273591275,0.004462856039364548,39.0,0.0,0.030248092176458,0.08725737819047479
1648639588668532210,133584,16,1,0.0698304921389,0.0272679310292,-0.044654365629,0.0,39.0,0.023354679645117053,0.00911970937431438,-0.014934570444481604,39.0,0.0,0.03426443085364249,0.0872573782823126
1648639588668536536,133585,16,2,0.206789776683,-0.0899841710925,-0.13291156292,0.0,39.0,0.06916046042909699,-0.030095040499163877,-0.04445202773244147,39.0,0.0,0.10233303492116168,0.26177212675463835
1648639588668539005,133586,16,3,0.948237895966,0.899841725826,-0.0651602447033,0.0,39.0,0.3171364200555184,0.3009504099752508,-0.021792723981036786,39.0,0.0,0.5401131058542571,1.3088606099861568
1648639588668545720,133587,16,4,2.34271645546,1.8133174181,0.741974115372,0.0,39.0,0.7835172091839465,0.6064606749498327,0.2481518780508361,39.0,0.0,1.2631678370016421,3.0540081920895332
1648639588668553369,133588,16,5,3.82407188416,-1.00345981121,0.693143606186,0.0,39.0,1.278953807411371,-0.3356052880301003,0.23182060407558527,39.0,0.0,1.8395859839479785,4.013839237778857
1648639588668577043,133589,16,6,4.90517711639,1.12616550922,1.0838804245,0.486860126257,39.0,1.640527463675585,0.3766439830167224,0.3625018142140468,39.0,0.06579190895364864,2.3504300474786306,5.148184929849272
1648639588668585140,133590,16,7,5.16498661041,1.19297194481,1.28114521503,0.486860126257,39.0,1.7274202710401336,0.3989872725117057,0.4284766605451505,39.0,0.06579190895364864,2.4753085523277836,5.45358614205484
1648639588668713769,133591,16,8,0.917439818382,-1.07981002331,0.255314081907,-0.121715031564,39.0,0.30683605965953176,-0.36114047602341137,0.08538932505250836,39.0,-0.01644797723837838,0.5645521928371119,1.4397467788515987
