%time,field.header.seq,field.header.frame_id,field.point_id,field.x,field.y,field.z,field.velocity,field.intensity,normalized_x,normalized_y,normalized_z,normalized_intensity,normalized_velocity,normalized_range,range
1648639237563606781,100501,0,0,0.0272733978927,0.081803791225,0.0133473407477,0.0,26.6000003815,0.009121537756755851,0.0273591275,0.004463993561103679,26.6000003815,0.0,0.030247756274757,0.08725737789111092
1648639237563611657,100502,0,1,0.0697249174118,0.0272679310292,-0.0448190309107,0.0,26.6000003815,0.02331937037183946,0.00911970937431438,-0.014989642445050166,26.6000003815,0.0,0.0342162997436895,0.08725737620665557
1648639237563620295,100503,0,2,0.21253439784,-0.081803791225,-0.129081040621,0.0,26.6000003815,0.07108173840802676,-0.0273591275,-0.04317091659565218,26.6000003815,0.0,0.10418132715499236,0.26177212527653715
1648639237563633320,100504,0,3,0.961888492107,0.68715184927,0.308070600033,0.0,26.6000003815,0.3217018368250836,0.22981667199665548,0.10303364549598662,26.6000003815,0.0,0.5097056467814377,1.2216033029620343
1648639237563645038,100505,0,4,1.74725568295,-2.02873396873,0.38502779603,0.0,26.6000003815,0.5843664491471572,-0.6785063440568562,0.12877183813712373,26.6000003815,0.0,1.069270383347035,2.704978806052973
1648639237563796172,100506,0,5,3.83238196373,-1.00345981121,0.645617425442,0.0,26.6000003815,1.2817330982374582,-0.3356052880301003,0.21592556034849494,26.6000003815,0.0,1.8434506718620256,4.013839180718502
1648639237563817111,100507,0,6,0.361881047487,-0.981645464897,0.0425275862217,0.121715031564,26.6000003815,0.12103045066454848,-0.32830952003244146,0.014223272983846152,26.6000003815,0.01644797723837838,0.3702484043450552,1.047088490469158
1648639237663710573,100508,1,0,0.0272333621979,0.081803791225,0.0134288398549,0.0,28.5,0.009108147892274246,0.0273591275,0.004491250787591973,28.5,0.0,0.030239685408686642,0.0872573779988486
1648639237663737054,100509,1,1,0.0697413980961,0.0272679310292,-0.0447933785617,0.0,28.5,0.02332488230638796,0.00911970937431438,-0.014981063064113712,28.5,0.0,0.03422381288351223,0.08725737466818305
1648639237663739976,100510,1,2,0.212159082294,-0.081803791225,-0.12969699502,0.0,28.5,0.07095621481404682,-0.0273591275,-0.04337692141137124,28.5,0.0,0.10401005095199008,0.2617721279583324
1648639237663742385,100511,1,3,0.966830670834,0.531724631786,0.26314997673,0.0,28.5,0.32335473940936454,0.17783432501204013,0.08801002566220735,28.5,0.0,0.490654279660826,1.1343458645255773
1648639237663763292,100512,1,4,3.83257579803,-1.00345981121,0.644465386868,0.0,28.5,1.2817979257625418,-0.3356052880301003,0.21554026316655517,28.5,0.0,1.8435408198171461,4.013839119251022
1648639237663857828,100513,1,5,0.340925574303,-0.981645464897,0.128593325615,0.121715031564,28.5,0.11402193120501672,-0.32830952003244146,0.0430078012090301,28.5,0.01644797723837838,0.3657719816161091,1.0470884916564611
1648639237763674969,100514,2,0,0.0272376146168,0.081803791225,0.0134202167392,0.0,26.3999996185,0.009109570105953176,0.0273591275,0.004488366802408027,26.3999996185,0.0,0.03024054220069157,0.08725737863426684
1648639237763781488,100515,2,1,0.0697413980961,0.0272679310292,-0.0447933785617,0.0,26.3999996185,0.02332488230638796,0.00911970937431438,-0.014981063064113712,26.3999996185,0.0,0.03422381288351223,0.08725737466818305
1648639237763790716,100516,2,2,0.212434381247,-0.081803791225,-0.129245579243,0.0,26.3999996185,0.07104828804247491,-0.0273591275,-0.04322594623511706,26.3999996185,0.0,0.10413568228563264,0.26177212675996986
1648639237763795414,100517,2,3,0.943267464638,0.531724631786,0.338017731905,0.0,26.3999996185,0.31547406844080267,0.17783432501204013,0.1130494086638796,26.3999996185,0.0,0.4802841064096046,1.1343458824250912
1648639237763972835,100518,2,4,0.918987095356,0.763502061367,0.254640668631,0.0,26.3999996185,0.30735354359732436,0.2553518599889632,0.08516410322107022,26.3999996185,0.0,0.5041199995273822,1.2216032699953612
1648639237763986845,100519,2,5,0.94809627533,0.899841725826,0.0671901777387,0.0,26.3999996185,0.31708905529431436,0.3009504099752508,0.022471631350735783,26.3999996185,0.0,0.5400574851246421,1.308860649120712
1648639237764006718,100520,2,6,3.83531117439,-1.00345981121,0.627981722355,0.0,26.3999996185,1.282712767354515,-0.3356052880301003,0.21002733189130435,26.3999996185,0.0,1.8448129976835925,4.01383911495296
1648639237863771793,100521,3,0,0.0272260792553,0.081803791225,0.0134436003864,0.0,15.8000001907,0.009105712125518394,0.0273591275,0.004496187420200669,15.8000001907,0.0,0.030238218270706392,0.0872573781507815
1648639237863776989,100522,3,1,0.0698329880834,0.0272679310292,-0.04465046525,0.0,15.8000001907,0.023355514409163877,0.00911970937431438,-0.014933265969899665,15.8000001907,0.0,0.03426556880755492,0.08725737982721549
1648639237863790183,100523,3,2,0.212407797575,-0.081803791225,-0.129289269447,0.0,15.8000001907,0.07103939718227424,-0.0273591275,-0.04324055834347826,15.8000001907,0.0,0.1041235504657956,0.26177212976859193
1648639237863891921,100524,3,3,0.949825227261,0.725326955318,0.253075927496,0.0,15.8000001907,0.31766730008729094,0.2425842659926421,0.08464077842675585,15.8000001907,0.0,0.5105606263674147,1.2216032823835448
1648639237863894553,100525,3,4,1.61551630497,-2.07917976379,0.387172341347,0.0,15.8000001907,0.5403064565117057,-0.6953778474214046,0.1294890773735786,15.8000001907,0.0,1.0331565634408455,2.661350003979537
1648639237863896366,100526,3,5,3.83462190628,-1.00345981121,0.632177591324,0.0,15.8000001907,1.28248224290301,-0.3356052880301003,0.21143063254983274,15.8000001907,0.0,1.8444924277634855,4.013839217483466
1648639237864041741,100527,3,6,0.327626496553,-0.940743565559,0.120805509388,0.121715031564,15.8000001907,0.10957407911471571,-0.3146299550364548,0.04040318039732441,15.8000001907,0.01644797723837838,0.35072063844877666,1.0034597891708206
1648639237963812337,100528,4,0,0.0273056551814,0.081803791225,0.0132812270895,0.0,21.7000007629,0.009132326147625418,0.0273591275,0.004441881969732441,21.7000007629,0.0,0.030254266133794457,0.08725737823629456
1648639237963817275,100529,4,1,0.0697886645794,0.0272679310292,-0.0447197109461,0.0,21.7000007629,0.023340690494782608,0.00911970937431438,-0.014956425065585283,21.7000007629,0.0,0.03424536121313992,0.08725737970791894
1648639237963833237,100530,4,2,0.212264195085,-0.081803791225,-0.129524901509,0.0,21.7000007629,0.07099136959364548,-0.0273591275,-0.04331936505317726,21.7000007629,0.0,0.10405801733227671,0.26177213160453594
1648639237963849609,100531,4,3,0.984581708908,0.68715184927,0.225246116519,0.0,21.7000007629,0.32929154144080264,0.22981667199665548,0.07533314933745819,21.7000007629,0.0,0.5193087147897077,1.221603298324898
1648639237963923735,100532,4,4,3.83125281334,-1.00345981121,0.652285218239,0.0,21.7000007629,1.281355455966555,-0.3356052880301003,0.21815559138428092,21.7000007629,0.0,1.8429255325227558,4.013839274108067
1648639237963926034,100533,4,5,0.329948544502,-0.940743565559,0.114311240613,0.243430063128,21.7000007629,0.11035068377993311,-0.3146299550364548,0.03823118415150502,21.7000007629,0.03289595447675676,0.3512072827087149,1.003459793858295
1648639237963928077,100534,4,6,1.10749697685,-0.613528430462,-0.331887602806,0.365145087242,21.7000007629,0.3704003267056856,-0.20519345500401337,-0.11099919826287624,21.7000007629,0.04934393070837838,0.562580801328877,1.3088605997635379
1648639238063852659,100535,5,0,0.0271942690015,0.081803791225,0.0135078318417,0.0,19.2000007629,0.00909507324464883,0.0273591275,0.004517669512274247,19.2000007629,0.0,0.0302318139087338,0.08725737817728067
1648639238063873525,100536,5,1,0.0698329880834,0.0272679310292,-0.04465046525,0.0,19.2000007629,0.023355514409163877,0.00911970937431438,-0.014933265969899665,19.2000007629,0.0,0.03426556880755492,0.08725737982721549
1648639238063881258,100537,5,2,0.213408097625,-0.081803791225,-0.127631381154,0.0,19.2000007629,0.07137394569397992,-0.0273591275,-0.042686080653511704,19.2000007629,0.0,0.10458012289826231,0.26177212580025117
1648639238064012083,100538,5,3,0.95362085104,0.602621257305,0.11914447695,0.0,19.2000007629,0.31893673947826084,0.20154557100501672,0.03984765115384615,19.2000007629,0.0,0.4940262187068479,1.134345852763522
1648639238064016613,100539,5,4,0.967881679535,0.725326955318,0.17152364552,0.0,19.2000007629,0.3237062473361204,0.2425842659926421,0.05736576773244147,19.2000007629,0.0,0.5180913000968613,1.2216032492846616
1648639238064021475,100540,5,5,3.83687210083,-1.00345981121,0.61837375164,0.0,19.2000007629,1.2832348163311036,-0.3356052880301003,0.2068139637591973,19.2000007629,0.0,1.845538971965211,4.013839210476493
1648639238064139990,100541,5,6,0.345895975828,-0.981645464897,0.114553265274,0.365145087242,19.2000007629,0.11568427285217392,-0.32830952003244146,0.0383121288541806,19.2000007629,0.04934393070837838,0.36681445297943827,1.0470884850058217
1648639238064145104,100542,5,7,1.11268699169,-0.633979380131,-0.435000181198,0.486860126257,19.2000007629,0.37213611762207355,-0.21203323750200667,-0.1454850104341137,19.2000007629,0.06579190895364864,0.5673875870013741,1.3524893173514243
1648639238163784315,100543,6,0,0.0272745937109,0.081803791225,0.0133448969573,0.0,24.2999992371,0.009121937695953175,0.0273591275,0.004463176239899665,24.2999992371,0.0,0.030247997491056482,0.08725737788679538
1648639238163790838,100544,6,1,0.0698048174381,0.0272679310292,-0.0446944907308,0.0,24.2999992371,0.023346092788662207,0.00911970937431438,-0.014947990210969899,24.2999992371,0.0,0.03425272538157524,0.08725737849526105
1648639238163808744,100545,6,2,0.212159082294,-0.081803791225,-0.12969699502,0.0,24.2999992371,0.07095621481404682,-0.0273591275,-0.04337692141137124,24.2999992371,0.0,0.10401005095199008,0.2617721279583324
1648639238163946906,100546,6,3,0.954013943672,0.602621257305,0.115955069661,0.0,24.2999992371,0.31906820858595314,0.20154557100501672,0.038780959752842806,24.2999992371,0.0,0.49419597393365805,1.1343458743507415
1648639238163956922,100547,6,4,0.918461680412,0.801677167416,0.0778230726719,0.0,24.2999992371,0.30717781953578593,0.26811945398528425,0.02602778350230769,24.2999992371,0.0,0.5104943361437879,1.2216032783933874
1648639238163962843,100548,6,5,3.83893704414,-1.00345981121,0.605422377586,0.0,24.2999992371,1.2839254328227425,-0.3356052880301003,0.2024824005304348,24.2999992371,0.0,1.8464993754268912,4.013839244023838
1648639238164081648,100549,6,6,0.431908965111,-0.98846244812,0.161433175206,0.486860126257,24.2999992371,0.1444511589,-0.33058944753177255,0.053991028496989966,24.2999992371,0.06579190895364864,0.38861505044770034,1.0907172115373123
1648639238164094421,100550,6,7,0.570983469486,-1.06890285015,0.154075115919,0.486860126257,24.2999992371,0.1909643710655518,-0.3574925920234113,0.051530139103344474,24.2999992371,0.06579190895364864,0.448035417555957,1.2216032771855667
1648639238164097792,100551,6,8,1.09840261936,-0.6544303298,-0.560694336891,0.486860126257,24.2999992371,0.36735873557190635,-0.21887302,-0.18752318959565217,24.2999992371,0.06579190895364864,0.5637466452990209,1.396118014424527
1648639238164138273,100552,6,9,2.77336883545,1.57063281536,-5.41403150558,-0.243430063128,24.2999992371,0.9275481055016721,0.5252952559732441,-1.8107128781204012,24.2999992371,-0.03289595447675676,1.413020198718857,6.282531279790321
1648639238164265025,100553,6,10,4.15568447113,-1.17797458172,-4.56211185455,-0.243430063128,24.2999992371,1.389861027133779,-0.3939714320133779,-1.525789917909699,24.2999992371,-0.03289595447675676,2.004654792909093,6.282531505069837
1648639238263725046,100554,7,0,0.0272703841329,0.081803791225,0.0133534995839,0.0,13.5,0.009120529810334448,0.0273591275,0.004466053372541806,13.5,0.0,0.03024714838796634,0.08725737825924253
1648639238263734493,100555,7,1,0.0696903839707,0.0272679310292,-0.0448727123439,0.0,13.5,0.02330782072598662,0.00911970937431438,-0.015007596101638794,13.5,0.0,0.034200557203961174,0.08725737787542784
1648639238263740415,100556,7,2,0.212787047029,-0.081803791225,-0.128664121032,0.0,13.5,0.07116623646454849,-0.0273591275,-0.043031478606020065,13.5,0.0,0.10429663600815378,0.26177212166890956
1648639238263744430,100557,7,3,0.909623682499,0.579443514347,0.162769809365,0.0,13.5,0.3042219673909699,0.19379381750735786,0.05443806333277591,13.5,0.0,0.4718665643913964,1.0907172140030439
1648639238263944250,100558,7,4,0.934451341629,0.763502061367,0.190209999681,0.0,13.5,0.3125255323173913,0.2553518599889632,0.06361538450869565,13.5,0.0,0.5104399955923915,1.2216032709364126
1648639238263965972,100559,7,5,0.98752361536,0.858939826488,-0.011646267958,0.0,13.5,0.3302754566421404,0.2872708449792642,-0.003895072895652174,13.5,0.0,0.5483505201013756,1.3088606312278899
1648639238264055707,100560,7,6,3.8360478878,-1.00345981121,0.623465895653,0.0,13.5,1.282959159799331,-0.3356052880301003,0.20851702195752508,13.5,0.0,1.8451556359233703,4.013839148901067
1648639238264285213,100561,7,7,0.540148019791,-0.992552638054,0.0990952700377,0.365145087242,13.5,0.18065151163578594,-0.3319574040314381,0.03314223078183946,13.5,0.04934393070837838,0.4188862081805516,1.1343458445888264
1648639238264376960,100562,7,8,0.563900709152,-1.15888702869,0.734438300133,0.486860126257,13.5,0.18859555490033442,-0.3875876350133779,0.24563153850602007,13.5,0.06579190895364864,0.47048989518542644,1.4833754655347096
1648639238363949414,100563,8,0,0.0272401142865,0.081803791225,0.0134151410311,0.0,19.7999992371,0.009110406115886286,0.0273591275,0.004486669241170568,19.7999992371,0.0,0.03024104589385117,0.08725737845024495
1648639238363953419,100564,8,1,0.0697309374809,0.0272679310292,-0.0448096692562,0.0,19.7999992371,0.02332138377287625,0.00911970937431438,-0.014986511456923077,19.7999992371,0.0,0.03421904413094423,0.08725737884802882
1648639238363958446,100565,8,2,0.212787047029,-0.081803791225,-0.128664121032,0.0,19.7999992371,0.07116623646454849,-0.0273591275,-0.043031478606020065,19.7999992371,0.0,0.10429663600815378,0.26177212166890956
1648639238363963126,100566,8,3,0.915087640285,0.579443514347,0.128545388579,0.0,19.7999992371,0.3060493780217391,0.19379381750735786,0.04299176875551839,19.7999992371,0.0,0.47422408972875035,1.0907172377138346
1648639238364011377,100567,8,4,0.921749830246,0.801677167416,0.00234283856116,0.0,19.7999992371,0.3082775351993311,0.26811945398528425,0.0007835580472107022,19.7999992371,0.0,0.5118184434176993,1.2216032576934275
1648639238364134924,100568,8,5,0.987204670906,0.858939826488,0.0276666339487,0.0,19.7999992371,0.33016878625618723,0.2872708449792642,0.009253054832341137,19.7999992371,0.0,0.5482220291185572,1.3088606229923454
1648639238364220107,100569,8,6,3.840487957,-1.00345981121,0.595504641533,0.0,19.7999992371,1.2844441327759197,-0.3356052880301003,0.1991654319508361,19.7999992371,0.0,1.847220714965793,4.0138391994028595
1648639238364225970,100570,8,7,0.724048852921,-1.02800095081,-0.14063885808,0.243430063128,19.7999992371,0.24215680699698994,-0.34381302702675587,-0.047036407384615384,19.7999992371,0.03289595447675676,0.4852702709864428,1.2652319884845336
1648639238364284446,100571,8,8,0.456196337938,-1.20524251461,0.734627842903,0.365145087242,19.7999992371,0.15257402606622072,-0.40309114201003343,0.24569493073678927,19.7999992371,0.04934393070837838,0.4572090721180678,1.4833754364083938
1648639238364334563,100572,8,9,1.12352728844,-0.695332229137,-0.674242019653,0.365145087242,19.7999992371,0.3757616349297659,-0.23255258499565215,-0.22549900322842809,19.7999992371,0.04934393070837838,0.5800640631502191,1.483375467577823
1648639238463800917,100573,9,0,0.0272703841329,0.081803791225,0.0133534995839,0.0,14.8999996185,0.009120529810334448,0.0273591275,0.004466053372541806,14.8999996185,0.0,0.03024714838796634,0.08725737825924253
1648639238463805702,100574,9,1,0.0698225572705,0.0272679310292,-0.0446667708457,0.0,14.8999996185,0.02335202584297659,0.00911970937431438,-0.014938719346387958,14.8999996185,0.0,0.03426081319837652,0.08725737782094839
1648639238463809153,100575,9,2,0.212242543697,-0.081803791225,-0.129560381174,0.0,14.8999996185,0.07098412832675584,-0.0273591275,-0.04333123116187291,14.8999996185,0.0,0.10404813696640577,0.26177213370354857
1648639238463815648,100576,9,3,0.95468300581,0.602621257305,0.110310927033,0.0,14.8999996185,0.31929197518729097,0.20154557100501672,0.03689328663311036,14.8999996185,0.0,0.4944849320553069,1.1343458564129176
1648639238463977283,100577,9,4,0.919026494026,0.801677167416,0.0708418861032,0.0,14.8999996185,0.30736672041003343,0.26811945398528425,0.023692938496053507,14.8999996185,0.0,0.5107216886295375,1.221603270421507
1648639238464135241,100578,9,5,0.98329615593,0.858939826488,0.0920174047351,0.0,14.8999996185,0.3288615906120401,0.2872708449792642,0.030775051750869566,14.8999996185,0.0,0.5466483604062694,1.3088606337452944
1648639238464139586,100579,9,6,3.84016633034,-1.00345981121,0.59757488966,0.0,14.8999996185,1.2843365653311036,-0.3356052880301003,0.19985782262876253,14.8999996185,0.0,1.8470711235485109,4.013839157981141
1648639238464148074,100580,9,7,0.678593814373,-1.06753945351,-0.026113955304,0.243430063128,14.8999996185,0.22695445296755853,-0.35703660652508357,-0.008733764315719064,14.8999996185,0.03289595447675676,0.48009560073234875,1.2652319899399265
1648639238464153043,100581,9,8,0.63809466362,-1.24069082737,0.620695650578,0.243430063128,14.8999996185,0.21340958649498326,-0.4149467650066889,0.20759051858795985,14.8999996185,0.03289595447675676,0.5130966000719902,1.5270041321184507
1648639238464155672,100582,9,9,1.06926178932,-0.715783178806,-0.822237968445,0.243430063128,14.8999996185,0.35761263856856185,-0.23939236749364545,-0.27499597606856185,14.8999996185,0.03289595447675676,0.5595375806343577,1.527004128977388
1648639238563837552,100583,10,0,0.027186928317,0.081803791225,0.0135226026177,0.0,16.7000007629,0.009092618166220735,0.0273591275,0.004522609571137123,16.7000007629,0.0,0.030230336878616336,0.08725737855134837
1648639238563855403,100584,10,1,0.0697532370687,0.0272679310292,-0.0447749495506,0.0,16.7000007629,0.023328841828996652,0.00911970937431438,-0.014974899515250835,16.7000007629,0.0,0.03422921005861288,0.08725737935231752
1648639238563858922,100585,10,2,0.212660625577,-0.081803791225,-0.128872990608,0.0,16.7000007629,0.07112395504247492,-0.0273591275,-0.043101334651505015,16.7000007629,0.0,0.10423893619626613,0.2617721330429082
1648639238563867555,100586,10,3,0.951835751534,0.602621257305,0.132653266191,0.0,16.7000007629,0.318339716232107,0.20154557100501672,0.04436564086655519,16.7000007629,0.0,0.49325547848271795,1.1343458761265428
1648639238563872487,100587,10,4,0.956784069538,0.725326955318,0.2253434062,0.0,16.7000007629,0.3199946720862876,0.2425842659926421,0.0753656876923077,16.7000007629,0.0,0.5134591575134388,1.221603290168455
1648639238563876415,100588,10,5,3.83924221992,-1.00345981121,0.603484094143,0.0,16.7000007629,1.2840274983010032,-0.3356052880301003,0.20183414519832774,16.7000007629,0.0,1.8466413138831352,4.013839242896189
1648639238563994676,100589,10,6,0.414827316999,-1.28840970993,0.706866502762,0.243430063128,16.7000007629,0.13873823311003344,-0.4309062575016722,0.23641020159264214,16.7000007629,0.03289595447675676,0.4734731221590993,1.5270041048725036
1648639238564000222,100590,10,7,1.08905589581,-0.715783178806,-0.795834958553,0.243430063128,16.7000007629,0.3642327410735786,-0.23939236749364545,-0.26616553797759196,16.7000007629,0.03289595447675676,0.5680138070101446,1.5270041206608445
1648639238663823786,100591,11,0,0.0272942688316,0.081803791225,0.0133046098053,0.0,17.6000003815,0.009128518003879598,0.0273591275,0.004449702276020067,17.6000003815,0.0,0.030251967530320473,0.08725737797978074
1648639238663828958,100592,11,1,0.0697144493461,0.0272679310292,-0.0448353178799,0.0,17.6000003815,0.023315869346521734,0.00911970937431438,-0.014995089591939799,17.6000003815,0.0,0.034211527674748776,0.0872573792847048
1648639238663835650,100593,11,2,0.212434381247,-0.081803791225,-0.129245579243,0.0,17.6000003815,0.07104828804247491,-0.0273591275,-0.04322594623511706,17.6000003815,0.0,0.10413568228563264,0.26177212675996986
1648639238663841080,100594,11,3,0.949673950672,0.602621257305,0.147335007787,0.0,17.6000003815,0.3176167059103679,0.20154557100501672,0.0492759223367893,17.6000003815,0.0,0.4923224156367903,1.1343458894272147
1648639238664030005,100595,11,4,0.970944404602,0.68715184927,0.278215557337,0.0,17.6000003815,0.3247305701010033,0.22981667199665548,0.09304868138361203,17.6000003815,0.0,0.5135324615288342,1.2216032895860467
1648639238664050059,100596,11,5,3.84064936638,-1.00345981121,0.594462096691,0.0,17.6000003815,1.2844981158461537,-0.3356052880301003,0.19881675474615385,17.6000003815,0.0,1.8472957880584269,4.01383910148264
1648639238664071872,100597,11,6,3.76709842682,1.53791129589,-4.61373376846,-0.243430063128,17.6000003815,1.2598991394046821,0.5143516039765886,-1.5430547720602006,17.6000003815,-0.03289595447675676,1.854521300891043,6.151645389455076
1648639238664074031,100598,11,7,3.2257232666,-1.15343344212,-5.10950469971,-0.243430063128,17.6000003815,1.078837212909699,-0.3857636930167224,-1.708864448063545,17.6000003815,-0.03289595447675676,1.5737195082883846,6.151645111223822
1648639238763633379,100599,12,0,0.0272703841329,0.081803791225,0.0133534995839,0.0,11.6000003815,0.009120529810334448,0.0273591275,0.004466053372541806,11.6000003815,0.0,0.03024714838796634,0.08725737825924253
1648639238763775503,100600,12,1,0.0697532370687,0.0272679310292,-0.0447749495506,0.0,11.6000003815,0.023328841828996652,0.00911970937431438,-0.014974899515250835,11.6000003815,0.0,0.03422921005861288,0.08725737935231752
1648639238763786524,100601,12,2,0.212020590901,-0.081803791225,-0.129923269153,0.0,11.6000003815,0.07090989662240803,-0.0273591275,-0.043452598378929765,11.6000003815,0.0,0.10394685534234523,0.2617721281805904
1648639238763790173,100602,12,3,0.951164960861,0.602621257305,0.137380316854,0.0,11.6000003815,0.318115371525418,0.20154557100501672,0.04594659426555184,11.6000003815,0.0,0.4929659180848588,1.1343458528969337
1648639238763796287,100603,12,4,0.961419343948,0.725326955318,0.204666048288,0.0,11.6000003815,0.3215449310862876,0.2425842659926421,0.06845018337391304,11.6000003815,0.0,0.5153924829891874,1.2216032655285873
1648639238763938176,100604,12,5,0.556005358696,-1.0307277441,0.347524136305,0.0,11.6000003815,0.18595496946354514,-0.3447249980267558,0.11622880812876253,11.6000003815,0.0,0.4335825476203151,1.2216033180499628
1648639238764063828,100605,12,6,3.83527517319,-1.00345981121,0.628201603889,0.0,11.6000003815,1.282700726819398,-0.3356052880301003,0.21010087086588627,11.6000003815,0.0,1.8447962539315257,4.013839122577025
1648639238764067325,100606,12,7,0.656739413738,-1.06753945351,0.172814413905,0.121715031564,11.6000003815,0.2196452888755853,-0.35703660652508357,0.0577974628444816,11.6000003815,0.01644797723837838,0.4732475507062091,1.2652319803145549
1648639238764074172,100607,12,8,3.37424659729,1.73015022278,-4.84394264221,-0.243430063128,11.6000003815,1.1285105676555183,0.578645559458194,-1.6200477064247492,11.6000003815,-0.03289595447675676,1.697616825464759,6.151645325742474
1648639238863835521,100608,13,0,0.0273228790611,0.081803791225,0.0132457567379,0.0,12.0,0.009138086642508361,0.0273591275,0.0044300189758862876,12.0,0.0,0.03025774467030277,0.08725737820110405
1648639238863846060,100609,13,1,0.0696238428354,0.0272679310292,-0.0449758805335,0.0,12.0,0.02328556616568562,0.00911970937431438,-0.015042100512876253,12.0,0.0,0.034170225085372256,0.08725737437916266
1648639238863856739,100610,13,2,0.211776033044,-0.081803791225,-0.130321517587,0.0,12.0,0.07082810469698997,-0.0273591275,-0.04358579183511706,12.0,0.0,0.10383526706999313,0.2617721268141731
1648639238863998721,100611,13,3,0.950576603413,0.602621257305,0.141393914819,0.0,12.0,0.3179185964591973,0.20154557100501672,0.04728893472207357,12.0,0.0,0.49271196975607373,1.1343458457895006
1648639238864001906,100612,13,4,3.82917189598,-1.00345981121,0.664391458035,0.0,12.0,1.2806594969832776,-0.3356052880301003,0.22220450101505015,12.0,0.0,1.8419577638427789,4.013839186014625
1648639238864003937,100613,13,5,0.696205973625,-1.02800095081,0.243563637137,0.121715031564,12.0,0.23284480723244147,-0.34381302702675587,0.08145941041371237,12.0,0.01644797723837838,0.4760680687291749,1.2652319779047645
1648639238963778715,100614,14,0,0.0272016003728,0.081803791225,0.0134930610657,0.0,27.6000003815,0.009097525208294313,0.0273591275,0.004512729453411371,27.6000003815,0.0,0.030233289390874378,0.08725737801783646
1648639238963785690,100615,14,1,0.0697070583701,0.0272679310292,-0.0448468029499,0.0,27.6000003815,0.023313397448193978,0.00911970937431438,-0.014998930752474915,27.6000003815,0.0,0.03420815838695314,0.08725737667414082
1648639238963789713,100616,14,2,0.212159007788,-0.081803791225,-0.129697099328,0.0,27.6000003815,0.07095618989565217,-0.0273591275,-0.04337695629698996,27.6000003815,0.0,0.10401001695306543,0.26177211925350097
1648639238963793468,100617,14,3,0.952377915382,0.602621257305,0.128702953458,0.0,27.6000003815,0.3185210419337792,0.20154557100501672,0.04304446603946488,27.6000003815,0.0,0.49348953940372325,1.1343458571758593
1648639238963795720,100618,14,4,3.83618760109,-1.00345981121,0.622606158257,0.0,27.6000003815,1.2830058866521739,-0.3356052880301003,0.20822948436688962,27.6000003815,0.0,1.8452206154609339,4.013839225949365
1648639238963803717,100619,14,5,0.742571234703,-1.06344926357,0.175441712141,0.121715031564,27.6000003815,0.24835158351270903,-0.3556686500234113,0.05867615790668895,27.6000003815,0.01644797723837838,0.4998571862802575,1.3088606377895542
1648639238963913800,100620,14,6,4.93073940277,1.31976783276,1.34707570076,-0.243430063128,27.6000003815,1.6490767233344479,0.44139392399999994,0.4505269902207358,27.6000003815,-0.03289595447675676,2.37354938331417,5.279071048394284
1648639239063785901,100621,15,0,0.0272406358272,0.081803791225,0.0134140793234,0.0,11.6999998093,0.009110580544214045,0.0273591275,0.004486314154983277,11.6999998093,0.0,0.030241150991099516,0.08725737804419742
1648639239063794413,100622,15,1,0.0697070583701,0.0272679310292,-0.0448468029499,0.0,11.6999998093,0.023313397448193978,0.00911970937431438,-0.014998930752474915,11.6999998093,0.0,0.03420815838695314,0.08725737667414082
1648639239063799625,100623,15,2,0.211881443858,-0.081803791225,-0.130150049925,0.0,11.6999998093,0.07086335914983277,-0.0273591275,-0.0435284447909699,11.6999998093,0.0,0.10388336343013559,0.261772118464924
1648639239063981060,100624,15,3,0.971978366375,0.68715184927,0.274581611156,0.0,11.6999998093,0.3250763767140468,0.22981667199665548,0.09183331476789297,11.6999998093,0.0,0.513969847483959,1.2216033193476594
1648639239064005180,100625,15,4,3.83416342735,-1.00345981121,0.634952008724,0.0,11.6999998093,1.2823289054682274,-0.3356052880301003,0.2123585313458194,11.6999998093,0.0,1.8442791960417628,4.013839163908359
1648639239064115472,100626,15,5,4.94656181335,1.47246825695,0.879331767559,-0.365145087242,11.6999998093,1.6543684994481604,0.49246429998327756,0.2940908921602006,11.6999998093,-0.04934393070837838,2.3908976035561906,5.2354427604985085
1648639239163887936,100627,16,0,0.0272703841329,0.081803791225,0.0133534995839,0.0,12.6000003815,0.009120529810334448,0.0273591275,0.004466053372541806,12.6000003815,0.0,0.03024714838796634,0.08725737825924253
1648639239163895358,100628,16,1,0.0697354078293,0.0272679310292,-0.0448027104139,0.0,12.6000003815,0.023322878872675586,0.00911970937431438,-0.014984184084916388,12.6000003815,0.0,0.03422108205318692,0.08725737807293883
1648639239163931189,100629,16,2,0.212132364511,-0.081803791225,-0.129740685225,0.0,12.6000003815,0.07094727910066889,-0.0273591275,-0.04339153352006689,12.6000003815,0.0,0.10399785902189368,0.2617721255872437
1648639239163941051,100630,16,3,0.964197635651,0.68715184927,0.300765395164,0.0,12.6000003815,0.3224741256357859,0.22981667199665548,0.10059043316521739,12.6000003815,0.0,0.5106807477639506,1.22160327745071
1648639239163944286,100631,16,4,3.83260631561,-1.00345981121,0.644284844398,0.0,12.6000003815,1.2818081323110366,-0.3356052880301003,0.21547988106956523,12.6000003815,0.0,1.8435550128681222,4.0138392747951706
1648639239164018636,100632,16,5,0.70376509428,-1.14116287231,0.178015515208,0.121715031564,12.6000003815,0.2353729412307692,-0.3816598235150501,0.059536961608026746,12.6000003815,0.01644797723837838,0.5064237986240235,1.3524893835888385
1648639239164032239,100633,16,6,0.694115519524,-0.633979380131,-0.972368896008,0.121715031564,12.6000003815,0.2321456587036789,-0.21203323750200667,-0.3252069886314381,12.6000003815,0.01644797723837838,0.39082132428452815,1.35248936365473
1648639239164039438,100634,16,7,4.86660432816,1.29795348644,1.25952768326,-0.365145087242,12.6000003815,1.6276268656053512,0.43409815599999996,0.4212467168093645,12.6000003815,-0.04934393070837838,2.3423875931030715,5.191813837641495
