%time,field.header.seq,field.header.frame_id,field.point_id,field.x,field.y,field.z,field.velocity,field.intensity,normalized_x,normalized_y,normalized_z,normalized_intensity,normalized_velocity,normalized_range,range
1648639583868461855,133208,0,0,0.0272750630975,0.081803791225,0.0133439395577,0.0,15.0,0.009122094681438127,0.0273591275,0.004462856039364548,15.0,0.0,0.030248092176458,0.08725737819047479
1648639583868465922,133209,0,1,0.0697354078293,0.0272679310292,-0.0448027104139,0.0,15.0,0.023322878872675586,0.00911970937431438,-0.014984184084916388,15.0,0.0,0.03422108205318692,0.08725737807293883
1648639583868492189,133210,0,2,0.211685016751,-0.081803791225,-0.130469307303,0.0,15.0,0.07079766446521739,-0.0273591275,-0.04363521983377926,15.0,0.0,0.10379373991248347,0.2617721274768939
1648639583868735007,133211,0,3,0.948228061199,0.899841725826,-0.0653034821153,0.0,15.0,0.3171331308357859,0.3009504099752508,-0.021840629469999998,15.0,0.0,0.5401092432200054,1.308860623733143
1648639583868741150,133212,0,4,1.12458300591,-1.19160854816,0.252946704626,0.0,15.0,0.37611471769565213,-0.39853128701003343,0.08459756007558528,15.0,0.0,0.6646440765254994,1.6578901967894941
1648639583868750079,133213,0,5,2.42003083229,1.71787965298,0.720628559589,0.0,15.0,0.8093748602976588,0.5745416899598662,0.24101289618361202,15.0,0.0,1.2807316199991505,3.0540080635538986
1648639583868755287,133214,0,6,3.8224978447,-1.00345981121,0.701771140099,0.0,15.0,1.2784273728093645,-0.3356052880301003,0.23470606692274246,15.0,0.0,1.8388539921511642,4.013839072325347
1648639583968339390,133215,1,0,0.0272593144327,0.081803791225,0.0133760813624,0.0,15.0,0.009116827569464882,0.0273591275,0.004473605806822743,15.0,0.0,0.03024491605913242,0.08725737811060873
1648639583968344446,133216,1,1,0.0698022097349,0.0272679310292,-0.0446985661983,0.0,15.0,0.023345220647123747,0.00911970937431438,-0.014949353243578593,15.0,0.0,0.03425153650856766,0.08725738001264985
1648639583968357377,133217,1,2,0.211733445525,-0.081803791225,-0.130390703678,0.0,15.0,0.07081386137959866,-0.0273591275,-0.04360893099598662,15.0,0.0,0.10381583590444805,0.261772129567522
1648639583968374174,133218,1,3,0.948436379433,0.899841725826,-0.0622044466436,0.0,15.0,0.3172028024859531,0.3009504099752508,-0.020804162757056856,15.0,0.0,0.5401910634897218,1.3088606077622353
1648639583968386496,133219,1,4,1.08588480949,-1.16025042534,0.283748835325,0.0,15.0,0.3631721770869565,-0.3880436205150501,0.09489927602842808,15.0,0.0,0.6437126003447405,1.6142615248252306
1648639583968389707,133220,1,5,2.42689847946,1.71787965298,0.69715064764,0.0,15.0,0.8116717322608695,0.5745416899598662,0.23316075171906353,15.0,0.0,1.283635522804141,3.054008146228955
1648639583968419997,133221,1,6,3.82579994202,-1.00345981121,0.683540523052,0.0,15.0,1.2795317531839465,-0.3356052880301003,0.22860887058595314,15.0,0.0,1.8403896120565704,4.013839114330325
1648639584068354316,133222,2,0,0.0272034537047,0.081803791225,0.0134893273935,0.0,14.6000003815,0.009098145051739129,0.0273591275,0.00451148073361204,14.6000003815,0.0,0.030233662436533002,0.08725737851767135
1648639584068374586,133223,2,1,0.0696382820606,0.0272679310292,-0.0449535250664,0.0,14.6000003815,0.023290395337993312,0.00911970937431438,-0.015034623768026754,14.6000003815,0.0,0.03417680688818074,0.08725737680483149
1648639584068530142,133224,2,2,0.211663976312,-0.081803791225,-0.130503445864,0.0,14.6000003815,0.07079062752909698,-0.0273591275,-0.04364663741270903,14.6000003815,0.0,0.10378414016355265,0.2617721308874729
1648639584068540976,133225,2,3,0.948288142681,0.899841725826,-0.0644253566861,0.0,14.6000003815,0.31715322497692305,0.3009504099752508,-0.021546942035484948,14.6000003815,0.0,0.5401328405964565,1.308860634166612
1648639584068544428,133226,2,4,2.42451548576,1.71787965298,0.705393075943,0.0,14.6000003815,0.8108747444013378,0.5745416899598662,0.23591741670334448,14.6000003815,0.0,1.2826277151682826,3.054008060631318
1648639584068553622,133227,2,5,3.82943749428,-1.00345981121,0.662859380245,0.0,14.6000003815,1.2807483258461538,-0.3356052880301003,0.22169210041638795,14.6000003815,0.0,1.8420812842188095,4.013839268492185
1648639584068585945,133228,2,6,1.2038782835,-1.13979947567,0.0115854172036,-0.121715031564,14.6000003815,0.4026348774247491,-0.3812038380167224,0.00387472147277592,14.6000003815,-0.01644797723837838,0.6852343067567217,1.6578902219725813
1648639584168690215,133229,3,0,0.0272593144327,0.081803791225,0.0133760813624,0.0,15.3000001907,0.009116827569464882,0.0273591275,0.004473605806822743,15.3000001907,0.0,0.03024491605913242,0.08725737811060873
1648639584168694213,133230,3,1,0.0698183476925,0.0272679310292,-0.044673345983,0.0,15.3000001907,0.02335061795735786,0.00911970937431438,-0.014940918388963208,15.3000001907,0.0,0.03425889398467096,0.0872573754959479
1648639584168696578,133231,3,2,0.212594375014,-0.081803791225,-0.128982231021,0.0,15.3000001907,0.07110179766354514,-0.0273591275,-0.04313786990668896,15.3000001907,0.0,0.10420869982653408,0.2617721231635089
1648639584168698864,133232,3,3,0.948362290859,0.899841725826,-0.0633244141936,0.0,15.3000001907,0.3171780236986622,0.3009504099752508,-0.021178733844013378,15.3000001907,0.0,0.5401619633952855,1.308860629591175
1648639584168703784,133233,3,4,2.42166900635,1.71787965298,0.715104937553,0.0,15.3000001907,0.8099227445986622,0.5745416899598662,0.23916553095418058,15.3000001907,0.0,1.2814241522378134,3.05400824330118
1648639584168711099,133234,3,5,3.82491135597,-1.00345981121,0.68849593401,0.0,15.3000001907,1.2792345672140466,-0.3356052880301003,0.2302661986655518,15.3000001907,0.0,1.839976376278887,4.013839200178574
1648639584168714963,133235,3,6,0.936117291451,-1.26114177704,0.372888922691,0.243430063128,15.3000001907,0.313082706170903,-0.4217865475050167,0.12471201427792641,15.3000001907,0.03289595447675676,0.6115107958677375,1.6142615382319
1648639584168718285,133236,3,7,1.09612429142,-1.10980474949,0.415554076433,-0.121715031564,15.3000001907,0.36659675298327754,-0.3711721570200669,0.13898129646588628,15.3000001907,-0.01644797723837838,0.6376167569494183,1.6142615137181593
1648639584268500997,133237,4,0,0.0272107571363,0.081803791225,0.0134745873511,0.0,12.6000003815,0.009100587671003343,0.0273591275,0.00450655095354515,12.6000003815,0.0,0.0302351327014864,0.08725737829545713
1648639584268515962,133238,4,1,0.0697187483311,0.0272679310292,-0.0448286235332,0.0,12.6000003815,0.023317307134147158,0.00911970937431438,-0.01499285068,12.6000003815,0.0,0.03421348744352522,0.08725737458432863
1648639584268518735,133239,4,2,0.212660387158,-0.081803791225,-0.128873363137,0.0,12.6000003815,0.07112387530367893,-0.0273591275,-0.04310145924314381,12.6000003815,0.0,0.10423882738206429,0.2617721227541522
1648639584268727884,133240,4,3,0.948347747326,0.899841725826,-0.063541918993,0.0,12.6000003815,0.31717315964080267,0.3009504099752508,-0.02125147792408027,12.6000003815,0.0,0.5401562511508422,1.3088606330947254
1648639584268730801,133241,4,4,1.12330532074,-1.13979947567,0.43317720294,0.0,12.6000003815,0.3756873982408026,-0.3812038380167224,0.1448753187090301,12.6000003815,0.0,0.6539100920712009,1.6578902790858394
1648639584268732983,133242,4,5,2.42579889297,1.71787965298,0.700967133045,0.0,12.6000003815,0.8113039775819397,0.5745416899598662,0.2344371682424749,12.6000003815,0.0,1.283170464740555,3.054008135690946
1648639584268736240,133243,4,6,3.82548761368,-1.00345981121,0.685286641121,0.0,12.6000003815,1.2794272955451504,-0.3356052880301003,0.22919285656220734,12.6000003815,0.0,1.8402443638076227,4.0138391666372994
1648639584268834245,133244,4,7,1.01812672615,-1.16025042534,0.472310453653,0.243430063128,12.6000003815,0.3405106107525083,-0.3880436205150501,0.1579633624257525,12.6000003815,0.03289595447675676,0.6184438563786697,1.6142615168034176
1648639584368491988,133245,5,0,0.0271991547197,0.081803791225,0.0134979914874,0.0,22.6000003815,0.009096707264113713,0.0273591275,0.004514378423879598,22.6000003815,0.0,0.030232797152417352,0.08725737820060542
1648639584368523712,133246,5,1,0.0697637349367,0.0272679310292,-0.0447585843503,0.0,22.6000003815,0.023332352821638796,0.00911970937431438,-0.014969426204113711,22.6000003815,0.0,0.0342339959025941,0.08725737589438652
1648639584368556051,133247,5,2,0.212362319231,-0.081803791225,-0.129363939166,0.0,22.6000003815,0.07102418703377926,-0.0273591275,-0.04326553149364548,22.6000003815,0.0,0.10410279604880827,0.2617721215952858
1648639584368558141,133248,5,3,0.948229312897,0.899841725826,-0.0652850717306,0.0,22.6000003815,0.31713354946387956,0.3009504099752508,-0.02183447215070234,22.6000003815,0.0,0.5401097348274603,1.3088606121224293
1648639584368605863,133249,5,4,2.42140674591,1.71787965298,0.715992152691,0.0,22.6000003815,0.8098350320769231,0.5745416899598662,0.2394622584250836,22.6000003815,0.0,1.2813132762365342,3.054008168616488
1648639584368607532,133250,5,5,3.82794737816,-1.00345981121,0.671410322189,0.0,22.6000003815,1.280249959250836,-0.3356052880301003,0.2245519472204013,22.6000003815,0.0,1.8413882875909962,4.013839127745102
1648639584468495215,133251,6,0,0.0272077526897,0.081803791225,0.0134806521237,0.0,14.6999998093,0.009099582839364549,0.0273591275,0.004508579305585284,14.6999998093,0.0,0.03023452783263155,0.08725737818022888
1648639584468522252,133252,6,1,0.0697292611003,0.0272679310292,-0.0448122732341,0.0,14.6999998093,0.023320823110468226,0.00911970937431438,-0.014987382352541805,14.6999998093,0.0,0.03421827991251833,0.08725737647107353
1648639584468552893,133253,6,2,0.212421387434,-0.081803791225,-0.129266932607,0.0,14.6999998093,0.07104394228561872,-0.0273591275,-0.04323308782842809,14.6999998093,0.0,0.10412975236946405,0.26177212602527333
1648639584468617410,133254,6,3,0.948569893837,0.899841725826,-0.0601342618465,0.0,14.6999998093,0.3172474561327759,0.3009504099752508,-0.020111793259698998,14.6999998093,0.0,0.5402435063096147,1.3088606130827205
1648639584468624815,133255,6,4,1.14303719997,-1.10980474949,0.260076254606,0.0,14.6999998093,0.38228668895317724,-0.3711721570200669,0.08698202495183945,14.6999998093,0.0,0.6557857845733588,1.614261527979808
1648639584468632435,133256,6,5,2.42739081383,1.71787965298,0.695434808731,0.0,14.6999998093,0.8118363925852843,0.5745416899598662,0.2325868925521739,14.6999998093,0.0,1.283843763919004,3.054008225002624
1648639584468641655,133257,6,6,3.82698321342,-1.00345981121,0.67688447237,0.0,14.6999998093,1.2799274961270903,-0.3356052880301003,0.22638276667892976,14.6999998093,0.0,1.8409398958244378,4.013839146932485
1648639584568572499,133258,7,0,0.0272665377706,0.081803791225,0.0133613524958,0.0,15.1000003815,0.009119243401538461,0.0273591275,0.004468679764481605,15.1000003815,0.0,0.030246372641926204,0.08725737837739549
1648639584568578784,133259,7,1,0.0698273032904,0.0272679310292,-0.0446593500674,0.0,15.1000003815,0.023353613140602004,0.00911970937431438,-0.014936237480735786,15.1000003815,0.0,0.034262976994326615,0.0872573773148454
1648639584568585007,133260,7,2,0.21132054925,-0.081803791225,-0.131058812141,0.0,15.1000003815,0.0706757689799331,-0.0273591275,-0.04383237864247491,15.1000003815,0.0,0.10362746016076534,0.2617721280692713
1648639584568587697,133261,7,3,0.948243677616,0.899841725826,-0.0650763064623,0.0,15.1000003815,0.31713835371772575,0.3009504099752508,-0.021764650990735785,15.1000003815,0.0,0.5401153766204496,1.3088606225794273
1648639584568593513,133262,7,4,2.42038202286,1.71787965298,0.719448208809,0.0,15.1000003815,0.8094923153377926,0.5745416899598662,0.24061813003645482,15.1000003815,0.0,1.280880076620688,3.054008081827065
1648639584568599377,133263,7,5,3.82611465454,-1.00345981121,0.681777715683,0.0,15.1000003815,1.2796370082073578,-0.3356052880301003,0.22801930290401337,15.1000003815,0.0,1.8405359694669163,4.013839283778223
1648639584568701674,133264,7,6,1.28343939781,-1.11662173271,-0.0332559160888,0.121715031564,15.1000003815,0.42924394575585284,-0.3734520845183947,-0.011122379962809363,15.1000003815,0.01644797723837838,0.7127181696626242,1.7015189501636718
1648639584668542916,133265,8,0,0.0272223390639,0.081803791225,0.0134511729702,0.0,11.5,0.009104461225384615,0.0273591275,0.004498720056923076,11.5,0.0,0.03023746493954677,0.08725737823913553
1648639584668551946,133266,8,1,0.0697008743882,0.0272679310292,-0.0448564141989,0.0,11.5,0.02331132922682274,0.00911970937431438,-0.01500214521702341,11.5,0.0,0.03420533934511683,0.08725737703985903
1648639584668555398,133267,8,2,0.212021917105,-0.081803791225,-0.129921093583,0.0,11.5,0.07091034016889632,-0.0273591275,-0.04345187076354515,11.5,0.0,0.10394746049470587,0.2617721225598049
1648639584668564577,133268,8,3,0.948345899582,0.899841725826,-0.0635693818331,0.0,11.5,0.3171725416662207,0.3009504099752508,-0.021260662820434782,11.5,0.0,0.5401555254167938,1.30886062783558
1648639584668673616,133269,8,4,2.33398318291,1.8133174181,0.769004940987,0.0,11.5,0.7805963822441471,0.6064606749498327,0.2571922879555184,11.5,0.0,1.2595459396964874,3.0540082115400353
1648639584668680773,133270,8,5,3.82721829414,-1.00345981121,0.675554096699,0.0,11.5,1.2800061184414715,-0.3356052880301003,0.22593782498294313,11.5,0.0,1.8410492214628515,4.01383915986681
1648639584668684093,133271,8,6,1.17178750038,-1.13979947567,0.276353508234,0.121715031564,11.5,0.3919021740401338,-0.3812038380167224,0.09242592248628763,11.5,0.01644797723837838,0.672674508327353,1.6578902413301233
1648639584768528736,133272,9,0,0.0272478125989,0.081803791225,0.0133994966745,0.0,21.6000003815,0.00911298080230769,0.0273591275,0.0044814370148829425,21.6000003815,0.0,0.030242597371385172,0.08725737826303342
1648639584768536001,133273,9,1,0.0698273032904,0.0272679310292,-0.0446593500674,0.0,21.6000003815,0.023353613140602004,0.00911970937431438,-0.014936237480735786,21.6000003815,0.0,0.034262976994326615,0.0872573773148454
1648639584768537909,133274,9,2,0.21132054925,-0.081803791225,-0.131058812141,0.0,21.6000003815,0.0706757689799331,-0.0273591275,-0.04383237864247491,21.6000003815,0.0,0.10362746016076534,0.2617721280692713
1648639584768545541,133275,9,3,0.948229312897,0.899841725826,-0.0652850717306,0.0,21.6000003815,0.31713354946387956,0.3009504099752508,-0.02183447215070234,21.6000003815,0.0,0.5401097348274603,1.3088606121224293
1648639584768718307,133276,9,4,2.42256236076,1.71787965298,0.712072253227,0.0,21.6000003815,0.8102215253377927,0.5745416899598662,0.2381512552598662,21.6000003815,0.0,1.281801854322008,3.0540081512185795
1648639584768723082,133277,9,5,3.83337068558,-1.00345981121,0.639719724655,0.0,21.6000003815,1.2820637744414713,-0.3356052880301003,0.21395308516889633,21.6000003815,0.0,1.843910505643913,4.013839026653953
1648639584768725539,133278,9,6,1.1235845089,-1.19160854816,0.257346063852,0.121715031564,21.6000003815,0.37578077220735784,-0.39853128701003343,0.08606891767625417,21.6000003815,0.01644797723837838,0.6642661847839237,1.6578902488609297
1648639584868576961,133279,10,0,0.0272622834891,0.081803791225,0.0133700277656,0.0,22.7000007629,0.009117820564916387,0.0273591275,0.0044715811925083605,22.7000007629,0.0,0.030245514729779037,0.08725737792459934
1648639584868588283,133280,10,1,0.0697354078293,0.0272679310292,-0.0448027104139,0.0,22.7000007629,0.023322878872675586,0.00911970937431438,-0.014984184084916388,22.7000007629,0.0,0.03422108205318692,0.08725737807293883
1648639584868593743,133281,10,2,0.212878137827,-0.081803791225,-0.128513365984,0.0,22.7000007629,0.07119670161438127,-0.0273591275,-0.04298105885752508,22.7000007629,0.0,0.104338212075422,0.2617721281191184
1648639584868603495,133282,10,3,0.94852155447,0.899841725826,-0.0608922466636,0.0,22.7000007629,0.3172312891204013,0.3009504099752508,-0.020365299887491636,22.7000007629,0.0,0.5402245189347248,1.3088606253285489
1648639584868607713,133283,10,4,2.4208548069,1.71787965298,0.717855811119,0.0,22.7000007629,0.8096504370903009,0.5745416899598662,0.24008555555819397,22.7000007629,0.0,1.2810799405435127,3.0540080981835724
1648639584868612799,133284,10,5,3.82311558723,-1.00345981121,0.698398292065,0.0,22.7000007629,1.2786339756622072,-0.3356052880301003,0.23357802410200668,22.7000007629,0.0,1.8391412661319004,4.013839129859829
1648639584868753307,133285,10,6,1.1140345335,-1.19160854816,0.295966506004,0.121715031564,22.7000007629,0.3725868005016722,-0.39853128701003343,0.09898545351304347,22.7000007629,0.01644797723837838,0.660658031467127,1.657890239598135
1648639584868772791,133286,10,7,1.32251417637,-1.70424556732,0.324282556772,-0.608575165272,22.7000007629,0.4423124335685618,-0.569981795090301,0.10845570460602007,22.7000007629,-0.0822398871989189,0.8462622669793618,2.181434362307533
1648639584968610107,133287,11,0,0.0272107571363,0.081803791225,0.0134745873511,0.0,16.7999992371,0.009100587671003343,0.0273591275,0.00450655095354515,16.7999992371,0.0,0.0302351327014864,0.08725737829545713
1648639584968623965,133288,11,1,0.0697113797069,0.0272679310292,-0.0448400825262,0.0,16.7999992371,0.02331484271133779,0.00911970937431438,-0.014996683119130433,16.7999992371,0.0,0.034210128330376066,0.08725737518519121
1648639584968629046,133289,11,2,0.212146282196,-0.081803791225,-0.12971791625,0.0,16.7999992371,0.07095193384481606,-0.0273591275,-0.04338391847826087,16.7999992371,0.0,0.10400420996382582,0.26177212056407057
1648639584968637810,133290,11,3,0.948106169701,0.899841725826,-0.06705006212,0.0,16.7999992371,0.317092364448495,0.3009504099752508,-0.02242476993979933,16.7999992371,0.0,0.540061371000876,1.3088606310042759
1648639584968758123,133291,11,4,2.42224550247,1.71787965298,0.713149905205,0.0,16.7999992371,0.8101155526655518,0.5745416899598662,0.23851167398160533,16.7999992371,0.0,1.2816678863274853,3.054008278255435
1648639584968761404,133292,11,5,3.82275700569,-1.00345981121,0.700357913971,0.0,16.7999992371,1.2785140487257525,-0.3356052880301003,0.2342334160438127,16.7999992371,0.0,1.838974511767903,4.013839050700389
1648639584968836524,133293,11,6,1.22983515263,-1.16979420185,0.119388960302,0.243430063128,16.7999992371,0.4113161045585284,-0.39123551901337794,0.03992941816120401,16.7999992371,0.03289595447675676,0.701018621062288,1.7015189394092347
1648639584968976798,133294,11,7,0.780934929848,-0.846669256687,0.246811598539,-0.365145087242,16.7999992371,0.26118225078528423,-0.283166975480602,0.08254568513010033,16.7999992371,-0.04934393070837838,0.4654201029751143,1.1779746007656509
1648639585068595775,133295,12,0,0.0272507946938,0.081803791225,0.0133934319019,0.0,21.0,0.009113978158461537,0.0273591275,0.004479408662842809,21.0,0.0,0.030243198463573328,0.08725737841774676
1648639585068662259,133296,12,1,0.0697050765157,0.0272679310292,-0.0448498912156,0.0,21.0,0.02331273462063545,0.00911970937431438,-0.014999963617257524,21.0,0.0,0.034207254933073875,0.0872573807578703
1648639585068666377,133297,12,2,0.2058981359,-0.0899841710925,-0.134288698435,0.0,21.0,0.06886225280936455,-0.030095040499163877,-0.0449126081722408,21.0,0.0,0.10193003083786438,0.2617721298031277
1648639585068677549,133298,12,3,0.947910368443,0.899841725826,-0.0697637051344,0.0,21.0,0.3170268790779264,0.3009504099752508,-0.02333234285431438,21.0,0.0,0.5399844751287317,1.3088606391412867
1648639585068690078,133299,12,4,2.33903622627,1.8133174181,0.753495693207,0.0,21.0,0.7822863633010033,0.6064606749498327,0.252005248564214,21.0,0.0,1.2616411766718876,3.054008232842497
1648639585068705169,133300,12,5,3.82435560226,-1.00345981121,0.691576063633,0.0,21.0,1.2790486964080265,-0.3356052880301003,0.2312963423521739,21.0,0.0,1.8397179253678837,4.013839161830126
1648639585068707266,133301,12,6,1.12259721756,-1.19160854816,0.261618971825,0.121715031564,21.0,0.37545057443478264,-0.39853128701003343,0.08749798388795986,21.0,0.01644797723837838,0.6638926527780603,1.657890204850794
1648639585068836357,133302,12,7,1.2561429739,-1.19978892803,0.167784571648,0.243430063128,21.0,0.42011470698996656,-0.4012672000100334,0.05611524135384615,21.0,0.03289595447675676,0.7169435820637653,1.7451476456692183
1648639585068841839,133303,12,8,2.08349752426,-2.86313271523,0.944638073444,0.243430063128,21.0,0.6968219144682273,-0.9575694699765885,0.3159324660347826,21.0,0.03289595447675676,1.3740672657470505,3.664809949836124
1648639585068859555,133304,12,9,3.51359081268,0.801677167416,0.665451407433,0.243430063128,21.0,1.1751139841739129,0.26811945398528425,0.22255899914147156,21.0,0.03289595447675676,1.6833519516748545,3.664809988984423
1648639585168611159,133305,13,0,0.0272793006152,0.081803791225,0.0133352754638,0.0,15.1000003815,0.009123511911438127,0.0273591275,0.00445995834909699,15.1000003815,0.0,0.03024894703551783,0.08725737832718368
1648639585168616849,133306,13,1,0.0698273032904,0.0272679310292,-0.0446593500674,0.0,15.1000003815,0.023353613140602004,0.00911970937431438,-0.014936237480735786,15.1000003815,0.0,0.034262976994326615,0.0872573773148454
1648639585168623892,133307,13,2,0.210894867778,-0.081803791225,-0.131742715836,0.0,15.1000003815,0.07053340059464883,-0.0273591275,-0.04406110897525083,15.1000003815,0.0,0.10343327828340196,0.26177213123197157
1648639585168768927,133308,13,3,0.948286831379,0.899841725826,-0.0644450113177,0.0,15.1000003815,0.31715278641438127,0.3009504099752508,-0.021553515490869563,15.1000003815,0.0,0.5401323255694699,1.30886065170746
1648639585168773829,133309,13,4,2.33802318573,1.8133174181,0.756633222103,0.0,15.1000003815,0.7819475537558528,0.6064606749498327,0.253054589332107,15.1000003815,0.0,1.26122103689644,3.054008236496077
1648639585168780845,133310,13,5,3.82503652573,-1.00345981121,0.687800467014,0.0,15.1000003815,1.2792764300100332,-0.3356052880301003,0.23003360100802675,15.1000003815,0.0,1.8400345861184777,4.0138392466947295
1648639585168807747,133311,13,6,1.06326198578,-1.24341762066,0.268303006887,0.121715031564,15.1000003815,0.3556060153110368,-0.41585873600668893,0.08973344711939799,15.1000003815,0.01644797723837838,0.6525716547352235,1.657890205434971
1648639585168816214,133312,13,7,1.63703811169,-0.762138664722,0.508677899837,-0.973720252514,15.1000003815,0.547504385180602,-0.25489587448896317,0.17012638790535115,15.1000003815,-0.13158381790729728,0.8151650203581304,1.8760336695199196
1648639585168843814,133313,13,8,0.982531487942,-1.69333839417,0.441546291113,-0.730290174484,15.1000003815,0.3286058488100334,-0.5663339110936454,0.14767434485384615,15.1000003815,-0.09868786141675676,0.732596551042216,2.0069195721710926
1648639585268679329,133314,14,0,0.0272107571363,0.081803791225,0.0134745873511,0.0,25.1000003815,0.009100587671003343,0.0273591275,0.00450655095354515,25.1000003815,0.0,0.0302351327014864,0.08725737829545713
1648639585268683685,133315,14,1,0.0697113797069,0.0272679310292,-0.0448400825262,0.0,25.1000003815,0.02331484271133779,0.00911970937431438,-0.014996683119130433,25.1000003815,0.0,0.034210128330376066,0.08725737518519121
1648639585268686504,133316,14,2,0.212878137827,-0.081803791225,-0.128513365984,0.0,25.1000003815,0.07119670161438127,-0.0273591275,-0.04298105885752508,25.1000003815,0.0,0.104338212075422,0.2617721281191184
1648639585268778134,133317,14,3,0.948245823383,0.899841725826,-0.0650454089046,0.0,25.1000003815,0.3171390713655518,0.3009504099752508,-0.021754317359397993,25.1000003815,0.0,0.5401162193801262,1.308860641290884
1648639585268896865,133318,14,4,2.42464733124,1.71787965298,0.704940199852,0.0,25.1000003815,0.8109188398795987,0.5745416899598662,0.23576595312775916,25.1000003815,0.0,1.282683469623464,3.0540081644257793
1648639585268900946,133319,14,5,3.82875728607,-1.00345981121,0.666775941849,0.0,25.1000003815,1.2805208314615384,-0.3356052880301003,0.2230019872404682,25.1000003815,0.0,1.8417649440055226,4.013839073128909
1648639585268903991,133320,14,6,1.14155936241,-1.22296667099,0.310421526432,0.121715031564,25.1000003815,0.3817924288996655,-0.40901895350836115,0.1038199085056856,25.1000003815,0.01644797723837838,0.6773680106554244,1.7015189626714895
1648639585268967640,133321,14,7,1.34846627712,-1.17388439178,0.0579203367233,0.243430063128,25.1000003815,0.4509920659264214,-0.39260347551170566,0.019371350074682273,25.1000003815,0.03289595447675676,0.7489493814945264,1.788776294342228
1648639585368628911,133322,15,0,0.0272395499051,0.081803791225,0.0134162846953,0.0,24.7000007629,0.009110217359565216,0.0273591275,0.004487051737558528,24.7000007629,0.0,0.030240932165498856,0.08725737809974102
1648639585368761867,133323,15,1,0.0698022097349,0.0272679310292,-0.0446985661983,0.0,24.7000007629,0.023345220647123747,0.00911970937431438,-0.014949353243578593,24.7000007629,0.0,0.03425153650856766,0.08725738001264985
1648639585368770239,133324,15,2,0.20747821033,-0.0899841710925,-0.131834313273,0.0,24.7000007629,0.06939070579598662,-0.030095040499163877,-0.04409174356956521,24.7000007629,0.0,0.10264429630708496,0.26177212411772866
1648639585368777594,133325,15,3,0.948316037655,0.899841725826,-0.0640134364367,0.0,24.7000007629,0.31716255439966556,0.3009504099752508,-0.02140917606578595,24.7000007629,0.0,0.5401437966791003,1.308860633855121
1648639585368782436,133326,15,4,2.34172964096,1.8133174181,0.745082855225,0.0,24.7000007629,0.7831871708896321,0.6064606749498327,0.24919159037625416,24.7000007629,0.0,1.2627584248591723,3.054008223840555
1648639585368860629,133327,15,5,3.82036972046,-1.00345981121,0.713265538216,0.0,24.7000007629,1.2777156255719062,-0.3356052880301003,0.23855034722943144,24.7000007629,0.0,1.8378643445627267,4.01383907521562
1648639585368862862,133328,15,6,1.14199984074,-1.22296667099,0.308796793222,0.121715031564,24.7000007629,0.38193974606688963,-0.40901895350836115,0.10327651947224079,24.7000007629,0.01644797723837838,0.6775340903455376,1.70151890207154
1648639585368863840,133329,15,7,1.34968936443,-1.17388439178,0.00740023748949,0.243430063128,24.7000007629,0.45140112522742476,-0.39260347551170566,0.002474995815882943,24.7000007629,0.03289595447675676,0.7494420862862192,1.7887763161544425
1648639585468646938,133330,16,0,0.0271961353719,0.081803791225,0.0135040767491,0.0,20.3999996185,0.009095697448795986,0.0273591275,0.0045164136284615375,20.3999996185,0.0,0.030232189495987945,0.08725737863811679
1648639585468670791,133331,16,1,0.0696840211749,0.0272679310292,-0.0448825880885,0.0,20.3999996185,0.02330569270063545,0.00911970937431438,-0.015010899026254179,20.3999996185,0.0,0.0341976566972777,0.0872573755234426
1648639585468684668,133332,16,2,0.206714615226,-0.0899841710925,-0.133028432727,0.0,20.3999996185,0.06913532281806019,-0.030095040499163877,-0.04449111462441471,20.3999996185,0.0,0.10229905759566459,0.2617721282127635
1648639585468693944,133333,16,3,0.948282599449,0.899841725826,-0.0645074248314,0.0,20.3999996185,0.3171513710531772,0.3009504099752508,-0.021574389575719062,20.3999996185,0.0,0.5401306634381089,1.3088606601978858
1648639585468779494,133334,16,4,2.42451572418,1.71787965298,0.705392360687,0.0,20.3999996185,0.8108748241404682,0.5745416899598662,0.23591717748729094,20.3999996185,0.0,1.2826278159901296,3.054008084703499
1648639585468969516,133335,16,5,3.82024145126,-1.00345981121,0.713952720165,0.0,20.3999996185,1.277672726173913,-0.3356052880301003,0.2387801739682274,20.3999996185,0.0,1.837804695763705,4.013839162855149
1648639585468975060,133336,16,6,1.14812648296,-1.22296667099,0.285174816847,0.121715031564,20.3999996185,0.3839887902876254,-0.40901895350836115,0.09537619292541806,20.3999996185,0.01644797723837838,0.6798465168419875,1.7015189024486863
