%time,field.header.seq,field.header.frame_id,field.point_id,field.x,field.y,field.z,field.velocity,field.intensity,normalized_x,normalized_y,normalized_z,normalized_intensity,normalized_velocity,normalized_range,range
1648639364565357761,111764,0,0,0.0272593703121,0.081803791225,0.0133759668097,0.0,29.7999992371,0.009116846258227423,0.0273591275,0.004473567494882942,29.7999992371,0.0,0.030244927325975956,0.08725737800719079
1648639364565364254,111765,0,1,0.0698048174381,0.0272679310292,-0.0446944907308,0.0,29.7999992371,0.023346092788662207,0.00911970937431438,-0.014947990210969899,29.7999992371,0.0,0.03425272538157524,0.08725737849526105
1648639364565380919,111766,0,2,0.211301133037,-0.081803791225,-0.131090119481,0.0,29.7999992371,0.07066927526321069,-0.0273591275,-0.04384284932474916,29.7999992371,0.0,0.10361860252877444,0.2617721308830377
1648639364565400309,111767,0,3,0.945863246918,0.899841725826,-0.0935077890754,0.0,29.7999992371,0.3163422230494983,0.3009504099752508,-0.031273508051973244,29.7999992371,0.0,0.5391808170104613,1.3088606190215768
1648639364565402987,111768,0,4,2.34277939796,1.8133174181,0.741775691509,0.0,29.7999992371,0.7835382601872909,0.6064606749498327,0.24808551555484948,29.7999992371,0.0,1.2631939520973254,3.05400827484215
1648639364565405264,111769,0,5,3.80717658997,-1.00345981121,0.780628085136,0.0,29.7999992371,1.273303207347826,-0.3356052880301003,0.2610796271357859,29.7999992371,0.0,1.8317295174338073,4.013839232858275
1648639364565413646,111770,0,6,0.785624682903,-0.715783178806,0.24517826736,-0.243430063128,29.7999992371,0.26275073006789296,-0.23939236749364545,0.08199942052173913,29.7999992371,-0.03289595447675676,0.44202330019653274,1.0907172338574802
1648639364565530258,111771,0,7,0.914788484573,-0.801677167416,0.113094381988,-0.121715031564,29.7999992371,0.30594932594414714,-0.26811945398528425,0.03782420802274247,29.7999992371,-0.01644797723837838,0.5090167204490663,1.2216032872830502
1648639364665511849,111772,1,0,0.0272350292653,0.081803791225,0.013425459154,0.0,28.6000003815,0.009108705439899665,0.0273591275,0.0044901201183946485,28.6000003815,0.0,0.030240021282118366,0.08725737809125861
1648639364665522733,111773,1,1,0.0696965903044,0.0272679310292,-0.0448630712926,0.0,28.6000003815,0.02330989642287625,0.00911970937431438,-0.015004371669765884,28.6000003815,0.0,0.034203386404892656,0.08725737750171902
1648639364665528921,111774,1,2,0.948480665684,0.899841725826,-0.0615263469517,0.0,28.6000003815,0.3172176139411371,0.3009504099752508,-0.02057737356244147,28.6000003815,0.0,0.540208458331863,1.3088606480764478
1648639364665545364,111775,1,3,0.90205270052,1.58290338516,0.447459757328,0.0,28.6000003815,0.3016898663946488,0.5293991254715719,0.14965209275183944,28.6000003815,0.0,0.679924249472327,1.8760336979101535
1648639364665550786,111776,1,4,2.34451460838,1.8133174181,0.736272454262,0.0,28.6000003815,0.7841185981204013,0.6064606749498327,0.246244967980602,28.6000003815,0.0,1.2639139615089365,3.0540081752669006
1648639364665553630,111777,1,5,3.8233294487,-1.00345981121,0.697227299213,0.0,28.6000003815,1.2787055012374582,-0.3356052880301003,0.2331863876966555,28.6000003815,0.0,1.8392407202820529,4.013839255971533
1648639364665557961,111778,1,6,0.715958833694,-0.71987336874,0.256084948778,-0.121715031564,28.6000003815,0.2394511149478261,-0.24076032399331102,0.08564714005953177,28.6000003815,-0.01644797723837838,0.4154987442927814,1.0470884487741137
1648639364665626459,111779,1,7,0.827063381672,-0.809857547283,0.218451544642,-0.121715031564,28.6000003815,0.2766098266461538,-0.2708553669842809,0.0730607172715719,28.6000003815,-0.01644797723837838,0.4758031338890277,1.177974601402949
1648639364765454232,111780,2,0,0.0272593703121,0.081803791225,0.0133759668097,0.0,24.3999996185,0.009116846258227423,0.0273591275,0.004473567494882942,24.3999996185,0.0,0.030244927325975956,0.08725737800719079
1648639364765471022,111781,2,1,0.0697917491198,0.0272679310292,-0.0447148941457,0.0,24.3999996185,0.023341722113645484,0.00911970937431438,-0.014954814095551838,24.3999996185,0.0,0.03424676746107946,0.08725737829132542
1648639364765477656,111782,2,2,0.72302287817,-0.71987336874,0.235402837396,0.0,24.3999996185,0.24181367162876252,-0.24076032399331102,0.07873004595183945,24.3999996185,0.0,0.41822629900871855,1.0470884610348805
1648639364765484436,111783,2,3,0.813614070415,-0.773045837879,0.35784971714,0.0,24.3999996185,0.2721117292357859,-0.25854375848795985,0.11968217964548494,24.3999996185,0.0,0.4636102473290036,1.1779745935700345
1648639364765549552,111784,2,4,2.34068059921,1.8133174181,0.748371481895,0.0,24.3999996185,0.7828363208060201,0.6064606749498327,0.2502914655167224,24.3999996185,0.0,1.2623232393514818,3.0540081206861016
1648639364765563692,111785,2,5,3.82806658745,-1.00345981121,0.670731008053,0.0,24.3999996185,1.2802898285785953,-0.3356052880301003,0.2243247518571906,24.3999996185,0.0,1.8414437269917818,4.013839243894615
1648639364865556338,111786,3,0,0.0272593703121,0.081803791225,0.0133759668097,0.0,14.6000003815,0.009116846258227423,0.0273591275,0.004473567494882942,14.6000003815,0.0,0.030244927325975956,0.08725737800719079
1648639364865562342,111787,3,1,0.0698312073946,0.0272679310292,-0.0446532443166,0.0,14.6000003815,0.02335491886107023,0.00911970937431438,-0.014934195423612039,14.6000003815,0.0,0.0342647569535566,0.08725737686178066
1648639364865569540,111788,3,2,0.707872450352,-0.71987336874,0.277656555176,0.0,14.6000003815,0.23674663891371234,-0.24076032399331102,0.09286172413913044,14.6000003815,0.0,0.4123875309502501,1.04708845644512
1648639364865572400,111789,3,3,0.882607400417,-0.839852273464,0.0892573669553,0.0,14.6000003815,0.29518642154414715,-0.2808870479812709,0.029851962192408023,14.6000003815,0.0,0.5031576101498523,1.2216032670508445
1648639364865576665,111790,3,4,2.42599654198,1.71787965298,0.700283050537,0.0,14.6000003815,0.8113700809297658,0.5745416899598662,0.23420837810602005,14.6000003815,0.0,1.283254055110635,3.0540081982029794
1648639364865580466,111791,3,5,3.82442092896,-1.00345981121,0.691214203835,0.0,14.6000003815,1.2790705448026756,-0.3356052880301003,0.2311753190083612,14.6000003815,0.0,1.839748305208458,4.013839073775147
1648639364965469250,111792,4,0,0.027232022956,0.081803791225,0.0134315546602,0.0,14.6999998093,0.00910769998528428,0.0273591275,0.004492158749230769,14.6999998093,0.0,0.030239415596290065,0.0872573778751656
1648639364965485050,111793,4,1,0.0697974562645,0.0272679310292,-0.0447059832513,0.0,14.6999998093,0.023343630857692307,0.00911970937431438,-0.014951833863311035,14.6999998093,0.0,0.034249369371017135,0.08725737735041957
1648639364965492211,111794,4,2,0.211968272924,-0.081803791225,-0.130008593202,0.0,14.6999998093,0.07089239897123745,-0.0273591275,-0.043481134850167226,14.6999998093,0.0,0.10392298264270264,0.2617721209210978
1648639364965495244,111795,4,3,0.710647583008,-0.71987336874,0.270474761724,0.0,14.6999998093,0.2376747769257525,-0.24076032399331102,0.09045978652976587,14.6999998093,0.0,0.4134539064790373,1.047088463782236
1648639364965498897,111796,4,4,0.884996831417,-0.773045837879,0.0824918448925,0.0,14.6999998093,0.2959855623468227,-0.25854375848795985,0.027589245783444814,14.6999998093,0.0,0.4919957126729971,1.1779746022533522
1648639364965502961,111797,4,5,2.33894276619,1.8133174181,0.753785848618,0.0,14.6999998093,0.7822551057491639,0.6064606749498327,0.2521022905076923,14.6999998093,0.0,1.2616024140757967,3.0540082560258637
1648639364965529420,111798,4,6,3.8243792057,-1.00345981121,0.691445350647,0.0,14.6999998093,1.279056590535117,-0.3356052880301003,0.23125262563444812,14.6999998093,0.0,1.839728902022361,4.013839131633893
1648639365065509275,111799,5,0,0.0272636115551,0.081803791225,0.0133673232049,0.0,14.5,0.009118264734147157,0.0273591275,0.0044706766571571905,14.5,0.0,0.030245782533854862,0.08725737850448538
1648639365065521084,111800,5,1,0.0698207914829,0.0272679310292,-0.0446695275605,0.0,14.5,0.02335143527856187,0.00911970937431438,-0.01493964132458194,14.5,0.0,0.034260008146666944,0.08725737606867444
1648639365065528376,111801,5,2,0.710936129093,-0.75259488821,0.156732350588,0.0,14.5,0.23777128063311034,-0.2517039759899665,0.05241884635050167,14.5,0.0,0.42003006477748267,1.047088475311614
1648639365065531415,111802,5,3,2.34778237343,1.8133174181,0.725785195827,0.0,14.5,0.7852114961304347,0.6064606749498327,0.24273752368795984,14.5,0.0,1.265270223142629,3.0540082321852196
1648639365065534750,111803,5,4,3.81939077377,-1.00345981121,0.718490183353,0.0,14.5,1.277388218652174,-0.3356052880301003,0.2402977201849498,14.5,0.0,1.837409108406866,4.013839261735281
1648639365065603969,111804,5,5,0.876014471054,-0.736234128475,0.279610514641,0.121715031564,14.5,0.2929814284461538,-0.24623214999163878,0.09351522228795986,14.5,0.01644797723837838,0.48198185289303414,1.1779745690485712
1648639365165516112,111805,6,0,0.0272793248296,0.081803791225,0.0133352233097,0.0,21.7999992371,0.009123520009899666,0.0273591275,0.00445994090625418,21.7999992371,0.0,0.030248951920741576,0.08725737792680792
1648639365165522448,111806,6,1,0.069713100791,0.0272679310292,-0.0448374189436,0.0,21.7999992371,0.023315418324749163,0.00911970937431438,-0.01499579228882943,21.7999992371,0.0,0.03421091291368963,0.08725738147591432
1648639365165525660,111807,6,2,0.950439929962,0.899841725826,-0.00805605575442,0.0,21.7999992371,0.3178728862749164,0.3009504099752508,-0.0026943330282341135,21.7999992371,0.0,0.5409782739831271,1.30886060833001
1648639365165533228,111808,6,3,2.42791032791,1.71787965298,0.693618476391,0.0,21.7999992371,0.8120101431137122,0.5745416899598662,0.23197942354214046,21.7999992371,0.0,1.2840635103222278,3.0540081292108083
1648639365165536441,111809,6,4,3.81969237328,-1.00345981121,0.716884195805,0.0,21.7999992371,1.2774890880535117,-0.3356052880301003,0.2397606006036789,21.7999992371,0.0,1.837549359757542,4.013839106068153
1648639365165549422,111810,6,5,0.710013151169,-0.71987336874,0.272135913372,0.121715031564,21.7999992371,0.23746259236421402,-0.24076032399331102,0.09101535564280935,21.7999992371,0.01644797723837838,0.41320999401518577,1.0470884858505616
1648639365165555408,111811,6,6,0.911180436611,-0.801677167416,0.139206662774,0.121715031564,21.7999992371,0.30474262094013377,-0.26811945398528425,0.04655741229899665,21.7999992371,0.01644797723837838,0.5075669134609653,1.2216032759367619
1648639365265512700,111812,7,0,0.0271832365543,0.081803791225,0.0135300187394,0.0,22.2000007629,0.009091383462976589,0.0273591275,0.004525089879397993,22.2000007629,0.0,0.03022959417694893,0.08725737800002321
1648639365265641636,111813,7,1,0.0698152408004,0.0272679310292,-0.0446782074869,0.0,22.2000007629,0.02334957886301003,0.00911970937431438,-0.014942544309999998,22.2000007629,0.0,0.034257477508301847,0.08725737868440428
1648639365265645129,111814,7,2,0.949434638023,0.899841725826,-0.0444396808743,0.0,22.2000007629,0.317536668235117,0.3009504099752508,-0.014862769523177258,22.2000007629,0.0,0.5405832226512298,1.3088606299570587
1648639365265647208,111815,7,3,1.00739228725,1.52427732944,0.425725013018,0.0,22.2000007629,0.33692049740802676,0.5097917489765886,0.14238294749765884,22.2000007629,0.0,0.6977954359781623,1.87603368417646
1648639365265648351,111816,7,4,2.42669439316,1.71787965298,0.697860956192,0.0,22.2000007629,0.8116034759732441,0.5745416899598662,0.23339831310769227,22.2000007629,0.0,1.2835492035468075,3.054008201379636
1648639365265649516,111817,7,5,3.82935357094,-1.00345981121,0.663343131542,0.0,22.2000007629,1.2807202578394647,-0.3356052880301003,0.22185389014782605,22.2000007629,0.0,1.8420422544107224,4.013839119116321
1648639365265777697,111818,7,6,0.789387106895,-0.715783178806,0.232779726386,0.121715031564,22.2000007629,0.26400906585117057,-0.23939236749364545,0.07785275129966554,22.2000007629,0.01644797723837838,0.44352032570946287,1.0907171790203092
1648639365265784507,111819,7,7,0.949744522572,-0.763502061367,0.0858168005943,0.243430063128,22.2000007629,0.31764030855250835,-0.2553518599889632,0.028701271101772573,22.2000007629,0.03289595447675676,0.5167158828935767,1.2216032822203027
1648639365365482060,111820,8,0,0.0272267311811,0.081803791225,0.0134422788396,0.0,32.0999984741,0.00910593016090301,0.0273591275,0.004495745431304348,32.0999984741,0.0,0.03023834958710119,0.08725737796881608
1648639365365487804,111821,8,1,0.0697070583701,0.0272679310292,-0.0448468029499,0.0,32.0999984741,0.023313397448193978,0.00911970937431438,-0.014998930752474915,32.0999984741,0.0,0.03420815838695314,0.08725737667414082
1648639365365495968,111822,8,2,0.949228107929,0.899841725826,-0.0486511997879,0.0,32.0999984741,0.3174675946250836,0.3009504099752508,-0.016271304276889633,32.0999984741,0.0,0.5405020781998385,1.308860600545675
1648639365365501222,111823,8,3,1.00647449493,1.52427732944,0.427890062332,0.0,32.0999984741,0.33661354345484945,0.5097917489765886,0.14310704425819398,32.0999984741,0.0,0.6974990914682748,1.8760336328093428
1648639365365504667,111824,8,4,2.42578339577,1.71787965298,0.701020658016,0.0,32.0999984741,0.8112987945719062,0.5745416899598662,0.23445506957056855,32.0999984741,0.0,1.2831639106714292,3.054008112019564
1648639365365508747,111825,8,5,3.82019948959,-1.00345981121,0.714177310467,0.0,32.0999984741,1.2776586921705686,-0.3356052880301003,0.2388552877816053,32.0999984741,0.0,1.8377851824170806,4.013839180107143
1648639365365641943,111826,8,6,0.79613339901,-0.715783178806,0.20854280889,0.243430063128,32.0999984741,0.2662653508394649,-0.23939236749364545,0.06974675882608694,32.0999984741,0.03289595447675676,0.4462097934038867,1.0907172187237941
1648639365365645389,111827,8,7,0.938058614731,-0.830308496952,0.177329584956,0.243430063128,32.0999984741,0.313731978170903,-0.27769514948227425,0.05930755349698997,32.0999984741,0.03289595447675676,0.5234215359536122,1.265231973387647
1648639365365648307,111828,8,8,0.84702193737,-0.916202485561,0.626316547394,0.365145087242,32.0999984741,0.2832849288862876,-0.3064222359735786,0.20947041718862874,32.0999984741,0.04934393070837838,0.5043761379836139,1.3961180374430104
1648639365365655373,111829,8,9,0.64660102129,-0.992552638054,0.29843083024,-0.121715031564,32.0999984741,0.21625452217056854,-0.3319574040314381,0.09980964222073578,32.0999984741,-0.01644797723837838,0.45136211051630515,1.2216032827718504
1648639365465491956,111830,9,0,0.027216212824,0.081803791225,0.0134635614231,0.0,17.8999996185,0.009102412315719063,0.0273591275,0.004502863352207357,17.8999996185,0.0,0.03023623120516121,0.08725737782822858
1648639365465526692,111831,9,1,0.0698385164142,0.0272679310292,-0.0446418076754,0.0,17.8999996185,0.023357363349230765,0.00911970937431438,-0.014930370459999998,17.8999996185,0.0,0.034268089300804834,0.08725737464579766
1648639365465539386,111832,9,2,0.948554337025,0.899841725826,-0.0603798516095,0.0,17.8999996185,0.3172422531856187,0.3009504099752508,-0.0201939303041806,17.8999996185,0.0,0.5402373956668012,1.3088606451058251
1648639365465542554,111833,9,3,2.42598891258,1.71787965298,0.700308918953,0.0,17.8999996185,0.8113675292909698,0.5745416899598662,0.2342170297501672,17.8999996185,0.0,1.283250828434334,3.054008069414502
1648639365465545387,111834,9,4,3.82746124268,-1.00345981121,0.674176216125,0.0,17.8999996185,1.280087372133779,-0.3356052880301003,0.22547699535953175,17.8999996185,0.0,1.8411622063105941,4.013839150653618
1648639365465680313,111835,9,5,0.910737752914,-0.869846999645,0.121387399733,0.365145087242,17.8999996185,0.3045945661919732,-0.2909187289782609,0.04059779255284281,17.8999996185,0.04934393070837838,0.519797466690325,1.2652319780135932
1648639365465685143,111836,9,6,0.985665678978,-0.95437759161,0.670349299908,0.365145087242,17.8999996185,0.32965407323678925,-0.31918982996989964,0.22419709027023407,17.8999996185,0.04934393070837838,0.5650006757159024,1.5270041263760916
1648639365465694085,111837,9,7,0.83936715126,-0.708966195583,0.282081961632,0.486860126257,17.8999996185,0.28072479975250836,-0.23711243999431436,0.09434179318795986,17.8999996185,0.06579190895364864,0.46242311316826407,1.1343458529795565
1648639365465698232,111838,9,8,0.937318861485,-0.880754172802,0.738991260529,0.486860126257,17.8999996185,0.3134845690585284,-0.2945666129772575,0.2471542677354515,17.8999996185,0.06579190895364864,0.5322730873870254,1.4833754225218618
1648639365565562524,111839,10,0,0.0272350292653,0.081803791225,0.013425459154,0.0,14.5,0.009108705439899665,0.0273591275,0.0044901201183946485,14.5,0.0,0.030240021282118366,0.08725737809125861
1648639365565569664,111840,10,1,0.0697990953922,0.0272679310292,-0.0447034277022,0.0,14.5,0.023344179060936453,0.00911970937431438,-0.014950979164615385,14.5,0.0,0.034250116658634686,0.0872573792209488
1648639365565580200,111841,10,2,0.948485374451,0.899841725826,-0.0614533275366,0.0,14.5,0.31721918877959865,0.3009504099752508,-0.020552952353377927,14.5,0.0,0.5402103078655986,1.308860629918361
1648639365565586539,111842,10,3,2.4250831604,1.71787965298,0.703439176083,0.0,14.5,0.8110646021404682,0.5745416899598662,0.23526393848929764,14.5,0.0,1.2828677761922664,3.0540081059857496
1648639365565739832,111843,10,4,3.82778215408,-1.00345981121,0.672351717949,0.0,14.5,1.280194700361204,-0.3356052880301003,0.22486679530066886,14.5,0.0,1.8413114486744475,4.013839140328858
1648639365565753216,111844,10,5,0.701082229614,-0.954377532005,0.299936324358,0.365145087242,14.5,0.23447566207826087,-0.31918981003511704,0.10031315195919732,14.5,0.04934393070837838,0.46026058602093195,1.2216032764141882
1648639365565762565,111845,10,6,0.960819780827,-0.929836452007,0.203609704971,0.486860126257,14.5,0.3213444083033445,-0.3109820909722408,0.06809689129464883,14.5,0.06579190895364864,0.5506671575472067,1.3524893310735535
1648639365565779107,111846,10,7,0.861322939396,-1.01982057095,0.646909177303,0.486860126257,14.5,0.2880678727076923,-0.34107711403010027,0.21635758438227423,14.5,0.06579190895364864,0.5313189214471591,1.4833754368134164
1648639365565811406,111847,10,8,0.882166624069,-0.736234128475,0.2595487535,0.730290174484,14.5,0.29503900470535116,-0.24623214999163878,0.08680560317725752,14.5,0.09868786141675676,0.48448560379494593,1.1779746177214698
1648639365665491863,111848,11,0,0.0272339992225,0.081803791225,0.0134275499731,0.0,34.0999984741,0.009108360943979932,0.0273591275,0.004490819388996655,34.0999984741,0.0,0.030239813751623774,0.08725737831676252
1648639365665498865,111849,11,1,0.0697070583701,0.0272679310292,-0.0448468029499,0.0,34.0999984741,0.023313397448193978,0.00911970937431438,-0.014998930752474915,34.0999984741,0.0,0.03420815838695314,0.08725737667414082
1648639365665508025,111850,11,2,0.948453605175,0.899841725826,-0.0619416944683,0.0,34.0999984741,0.3172085636036789,0.3009504099752508,-0.02071628577535117,34.0999984741,0.0,0.5401978294211205,1.3088606290283824
1648639365665513926,111851,11,3,0.908056080341,1.58290338516,0.435147643089,0.0,34.0999984741,0.3036976857327759,0.5293991254715719,0.14553432879230768,34.0999984741,0.0,0.6817096175711128,1.8760336998788587
1648639365665516840,111852,11,4,2.42609381676,1.71787965298,0.699945926666,0.0,34.0999984741,0.8114026143010032,0.5745416899598662,0.23409562764749162,34.0999984741,0.0,1.2832951953821632,3.054008187628205
1648639365665519433,111853,11,5,3.83107662201,-1.00345981121,0.653318941593,0.0,34.0999984741,1.2812965291003344,-0.3356052880301003,0.2185013182585284,34.0999984741,0.0,1.842843590846194,4.013839223968663
1648639365665531838,111854,11,6,0.749539852142,-1.04981529713,0.817202210426,0.365145087242,34.0999984741,0.25068222479665553,-0.35110879502675585,0.27331177606220736,34.0999984741,0.04934393070837838,0.4989594588773143,1.5270041259807854
1648639365665737796,111855,11,7,0.948532283306,-0.929836452007,0.254790335894,0.486860126257,34.0999984741,0.3172348773598662,-0.3109820909722408,0.08521415916187292,34.0999984741,0.06579190895364864,0.5458807523008352,1.352489347543868
1648639365665741129,111856,11,8,0.927536070347,-0.790769994259,0.339369475842,0.608575165272,34.0999984741,0.3102127325575251,-0.26447156998628757,0.11350149693712373,34.0999984741,0.0822398871989189,0.5122588117471724,1.2652319893001471
1648639365765303043,111857,12,0,0.027232022956,0.081803791225,0.0134315546602,0.0,31.2999992371,0.00910769998528428,0.0273591275,0.004492158749230769,31.2999992371,0.0,0.030239415596290065,0.0872573778751656
1648639365765308454,111858,12,1,0.0697070583701,0.0272679310292,-0.0448468029499,0.0,31.2999992371,0.023313397448193978,0.00911970937431438,-0.014998930752474915,31.2999992371,0.0,0.03420815838695314,0.08725737667414082
1648639365765318500,111859,12,2,0.94797617197,0.899841725826,-0.0688637346029,0.0,31.2999992371,0.31704888694648825,0.3009504099752508,-0.023031349365518393,31.2999992371,0.0,0.540010317209112,1.3088606373880558
1648639365765321648,111860,12,3,2.42739987373,1.71787965298,0.695402741432,0.0,31.2999992371,0.8118394226521739,0.5745416899598662,0.23257616770301,31.2999992371,0.0,1.2838475960355922,3.0540081240720767
1648639365765509520,111861,12,4,3.8178768158,-1.00345981121,0.726491093636,0.0,31.2999992371,1.27688187819398,-0.3356052880301003,0.24297360991170566,31.2999992371,0.0,1.8367050854925344,4.013839095239019
1648639365765514774,111862,12,5,0.939330101013,-0.858939826488,0.304954916239,0.365145087242,31.2999992371,0.3141572244190635,-0.2872708449792642,0.10199161078227424,31.2999992371,0.04934393070837838,0.5290690519057792,1.3088606362537853
1648639365765520575,111863,12,6,0.94818264246,-1.03481793404,0.320892989635,0.365145087242,31.2999992371,0.31711794062207355,-0.3460929545284281,0.10732207011204013,31.2999992371,0.04934393070837838,0.5664873429327318,1.4397467801214665
1648639365765526954,111864,12,7,0.97666066885,-1.0307277441,0.671283721924,0.365145087242,31.2999992371,0.3266423641638796,-0.3447249980267558,0.2245096059946488,31.2999992371,0.04934393070837838,0.5763903125467013,1.5706328596639454
1648639365865356690,111865,13,0,0.0272636115551,0.081803791225,0.0133673232049,0.0,21.3999996185,0.009118264734147157,0.0273591275,0.0044706766571571905,21.3999996185,0.0,0.030245782533854862,0.08725737850448538
1648639365865459956,111866,13,1,0.0696343630552,0.0272679310292,-0.044959589839,0.0,21.3999996185,0.023289084633846154,0.00911970937431438,-0.01503665212006689,21.3999996185,0.0,0.03417502048626827,0.08725737389589332
1648639365865468890,111867,13,2,2.42766261101,1.71787965298,0.69448530674,0.0,21.3999996185,0.811927294652174,0.5745416899598662,0.23226933335785951,21.3999996185,0.0,1.2839587287387142,3.0540082017401864
1648639365865475146,111868,13,3,3.83044958115,-1.00345981121,0.656985342503,0.0,21.3999996185,1.281086816438127,-0.3356052880301003,0.2197275392986622,21.3999996185,0.0,1.8425519726338568,4.013839225319021
1648639365865486467,111869,13,4,0.973566114902,-0.887571156025,0.305963873863,0.243430063128,21.3999996185,0.32560739628829427,-0.2968465404765886,0.10232905480367892,21.3999996185,0.03289595447675676,0.5478669743908676,1.352489345319283
1648639365865497402,111870,13,5,0.925861895084,-1.11253154278,0.324739843607,0.243430063128,21.3999996185,0.3096528077204013,-0.37208412802006685,0.10860864334682273,21.3999996185,0.03289595447675676,0.5746445170561616,1.483375423982372
1648639365865630465,111871,13,6,0.995175123215,-1.0307277441,0.643517136574,0.243430063128,21.3999996185,0.3328344893695652,-0.3447249980267558,0.21522312259999998,21.3999996185,0.03289595447675676,0.5834320173699291,1.5706328385042334
1648639365965387161,111872,14,0,0.0272678919137,0.081803791225,0.0133585855365,0.0,21.2999992371,0.009119696292207357,0.0273591275,0.004467754360033444,21.2999992371,0.0,0.03024664573941146,0.0872573778871254
1648639365965514662,111873,14,1,0.0698048174381,0.0272679310292,-0.0446944907308,0.0,21.2999992371,0.023346092788662207,0.00911970937431438,-0.014947990210969899,21.2999992371,0.0,0.03425272538157524,0.08725737849526105
1648639365965520475,111874,14,2,0.211702868342,-0.081803791225,-0.130440324545,0.0,21.2999992371,0.07080363489698996,-0.0273591275,-0.04362552660367893,21.2999992371,0.0,0.10380188479412966,0.2617721203459576
1648639365965526152,111875,14,3,0.998683333397,-0.887571156025,0.209944084287,0.0,21.2999992371,0.33400780381170564,-0.2968465404765886,0.07021541280501672,21.2999992371,0.0,0.5578891418616755,1.352489362597579
1648639365965529898,111876,14,4,2.4265666008,1.71787965298,0.698304712772,0.0,21.2999992371,0.8115607360535118,0.5745416899598662,0.23354672667959864,21.2999992371,0.0,1.2834951539095791,3.054008094638968
1648639365965532060,111877,14,5,3.82769823074,-1.00345981121,0.672829270363,0.0,21.2999992371,1.2801666323545149,-0.3356052880301003,0.2250265118270903,21.2999992371,0.0,1.8412724194267305,4.013839130481058
1648639365965534464,111878,14,6,1.08598840237,-0.944833815098,-0.0280877873302,0.121715031564,21.2999992371,0.363206823535117,-0.315997931470903,-0.009393908806086955,21.2999992371,0.01644797723837838,0.6030697190365545,1.4397467388509317
1648639366065426473,111879,15,0,0.0272835548967,0.081803791225,0.013326568529,0.0,21.1000003815,0.0091249347480602,0.0273591275,0.004457046330769231,21.1000003815,0.0,0.03024980538572057,0.08725737822867911
1648639366065432181,111880,15,1,0.0697974562645,0.0272679310292,-0.0447059832513,0.0,21.1000003815,0.023343630857692307,0.00911970937431438,-0.014951833863311035,21.1000003815,0.0,0.034249369371017135,0.08725737735041957
1648639366065435589,111881,15,2,0.212095037103,-0.081803791225,-0.129801690578,0.0,21.1000003815,0.07093479501772575,-0.0273591275,-0.04341193664816054,21.1000003815,0.0,0.10398082585734159,0.2617721220821904
1648639366065438555,111882,15,3,0.946897625923,0.899841725826,-0.0823767259717,0.0,21.1000003815,0.3166881692050167,0.3009504099752508,-0.027550744472140464,21.1000003815,0.0,0.5395868255370233,1.308860638302621
1648639366065444013,111883,15,4,1.00085055828,-0.989825904369,0.302346527576,0.0,21.1000003815,0.33473262818729094,-0.3310454529662207,0.10111923999197324,21.1000003815,0.0,0.5776529725327764,1.4397467081770186
1648639366065446786,111884,15,5,2.42622232437,1.71787965298,0.699500322342,0.0,21.1000003815,0.8114455934347825,0.5745416899598662,0.23394659610100332,21.1000003815,0.0,1.283349545412859,3.0540081811204454
1648639366065449734,111885,15,6,3.83045625687,-1.00345981121,0.656945466995,0.0,21.1000003815,1.2810890491204012,-0.3356052880301003,0.2197142030083612,21.1000003815,0.0,1.8425550773060202,4.013839069408914
1648639366165391318,111886,16,0,0.0272224619985,0.081803791225,0.0134509233758,0.0,14.1999998093,0.00910450234063545,0.0273591275,0.004498636580535117,14.1999998093,0.0,0.030237489699089258,0.0872573781161502
1648639366165442417,111887,16,1,0.0698489397764,0.0272679310292,-0.0446255020797,0.0,14.1999998093,0.02336084942354515,0.00911970937431438,-0.014924917083511706,14.1999998093,0.0,0.034272841589968246,0.08725737726041088
1648639366165467318,111888,16,2,0.211918726563,-0.081803791225,-0.130089357495,0.0,14.1999998093,0.07087582828193979,-0.0273591275,-0.04350814631939799,14.1999998093,0.0,0.10390037500828998,0.2617721296477699
1648639366165473648,111889,16,3,0.933333337307,0.899841725826,-0.17969378829,0.0,14.1999998093,0.31215161782842804,0.3009504099752508,-0.06009825695317725,14.1999998093,0.0,0.5342737259964049,1.3088606142810424
1648639366165479242,111890,16,4,0.868061542511,-0.899841725826,0.3871306777,0.0,14.1999998093,0.29032158612408027,-0.3009504099752508,0.12947514304347824,14.1999998093,0.0,0.5090622712433863,1.3088606246428809
1648639366165501508,111891,16,5,1.05614495277,-1.01982057095,0.211958423257,0.0,14.1999998093,0.35322573671237456,-0.34107711403010027,0.07088910476822742,14.1999998093,0.0,0.6048722508655043,1.483375384514629
1648639366165510071,111892,16,6,2.42076039314,1.71787965298,0.718174397945,0.0,14.1999998093,0.8096188605819398,0.5745416899598662,0.2401921063361204,14.1999998093,0.0,1.2810400276033282,3.054008161250011
1648639366165513624,111893,16,7,3.8273332119,-1.00345981121,0.674902319908,0.0,14.1999998093,1.2800445524749162,-0.3356052880301003,0.2257198394341137,14.1999998093,0.0,1.8411026647080775,4.013839091075224
