%time,field.header.seq,field.header.frame_id,field.point_id,field.x,field.y,field.z,field.velocity,field.intensity,normalized_x,normalized_y,normalized_z,normalized_intensity,normalized_velocity,normalized_range,range
1648639183163014140,95890,0,0,0.0272478945553,0.081803791225,0.0133993299678,0.0,14.5,0.009113008212474915,0.0273591275,0.004481381260133779,14.5,0.0,0.030242613890378703,0.08725737825574477
1648639183163033280,95891,0,1,0.0698329880834,0.0272679310292,-0.04465046525,0.0,14.5,0.023355514409163877,0.00911970937431438,-0.014933265969899665,14.5,0.0,0.03426556880755492,0.08725737982721549
1648639183163049984,95892,0,2,0.211647063494,-0.081803791225,-0.130530878901,0.0,14.5,0.07078497106822743,-0.0273591275,-0.043655812341471575,14.5,0.0,0.10377642369932027,0.26177213390864235
1648639183163063667,95893,0,3,0.429753392935,-0.948923945427,0.106064327061,0.0,14.5,0.1437302317508361,-0.3173658680357859,0.03547301908394648,14.5,0.0,0.37687909630597183,1.0470884749718103
1648639183163066091,95894,0,4,3.83314752579,-1.00345981121,0.641056537628,0.0,14.5,1.2819891390602005,-0.3356052880301003,0.21440017980869563,14.5,0.0,1.8438067183656737,4.013839188559901
1648639183163068770,95895,0,5,0.647768199444,-0.957104325294,0.227973237634,0.243430063128,14.5,0.21664488275719063,-0.3201017810347826,0.07624522997792642,14.5,0.03289595447675676,0.4430972361360355,1.1779745866463898
1648639183163079234,95896,0,6,0.652958273888,-0.818037867546,0.0292204897851,0.365145087242,14.5,0.21838069360802673,-0.27359126004882944,0.009772739058561873,14.5,0.04934393070837838,0.412592331795626,1.0470884858507825
1648639183163082242,95897,0,7,0.962857961655,0.68715184927,0.305027127266,-0.121715031564,14.5,0.322026074132107,0.22981667199665548,0.10201576162742475,14.5,-0.01644797723837838,0.5101149748532118,1.22160331803976
1648639183262931613,95898,1,0,0.0272363927215,0.081803791225,0.0134226921946,0.0,23.2999992371,0.009109161445317725,0.0273591275,0.004489194713913043,23.2999992371,0.0,0.030240295997807,0.08725737798612873
1648639183262945076,95899,1,1,0.0697249174118,0.0272679310292,-0.0448190309107,0.0,23.2999992371,0.02331937037183946,0.00911970937431438,-0.014989642445050166,23.2999992371,0.0,0.0342162997436895,0.08725737620665557
1648639183262962349,95900,1,2,0.212264195085,-0.081803791225,-0.129524901509,0.0,23.2999992371,0.07099136959364548,-0.0273591275,-0.04331936505317726,23.2999992371,0.0,0.10405801733227671,0.26177213160453594
1648639183262971438,95901,1,3,3.8353509903,-1.00345981121,0.62773835659,0.0,23.2999992371,1.2827260837123744,-0.3356052880301003,0.20994593865886285,23.2999992371,0.0,1.844831515620312,4.013839091922235
1648639183262974527,95902,1,4,0.442093074322,-0.948923945427,0.0221665110439,0.121715031564,23.2999992371,0.14785721549230768,-0.3173658680357859,0.007413548844113713,23.2999992371,0.01644797723837838,0.3800586882843034,1.0470884846946227
1648639183263043894,95903,1,5,0.935970783234,0.662610709667,0.269313663244,-0.121715031564,23.2999992371,0.31303370676722403,0.22160893299899664,0.09007145927892976,23.2999992371,-0.01644797723837838,0.49506638174068185,1.1779745790308784
1648639183362952441,95904,2,0,0.0272406358272,0.081803791225,0.0134140793234,0.0,28.8999996185,0.009110580544214045,0.0273591275,0.004486314154983277,28.8999996185,0.0,0.030241150991099516,0.08725737804419742
1648639183362961646,95905,2,1,0.0697990953922,0.0272679310292,-0.0447034277022,0.0,28.8999996185,0.023344179060936453,0.00911970937431438,-0.014950979164615385,28.8999996185,0.0,0.034250116658634686,0.0872573792209488
1648639183362963681,95906,2,2,0.211275219917,-0.081803791225,-0.131131872535,0.0,28.8999996185,0.07066060866789296,-0.0273591275,-0.04385681355685618,28.8999996185,0.0,0.10360678111106182,0.2617721276306849
1648639183362966541,95907,2,3,0.909140586853,0.673517882824,0.081102013588,0.0,28.8999996185,0.30406039694080267,0.2252568169979933,0.027124419260200667,28.8999996185,0.0,0.4854339126798461,1.1343458386908152
1648639183362972225,95908,2,4,3.83964896202,-1.00345981121,0.600890338421,0.0,28.8999996185,1.2841635324481604,-0.3356052880301003,0.20096666836822744,28.8999996185,0.0,1.8468304918138108,4.01383917752849
1648639183362999970,95909,2,5,3.28628993034,2.67225718498,0.583260595798,0.0,28.8999996185,1.099093622187291,0.8937314999933109,0.19507043337725752,28.8999996185,0.0,1.792977851158751,4.27561140558189
1648639183363010813,95910,2,6,3.08500146866,-0.400838553905,-2.93307828903,0.0,28.8999996185,1.0317730664414715,-0.1340597170250836,-0.9809626384715718,28.8999996185,0.0,1.4652929157669874,4.275611518544471
1648639183363095924,95911,2,7,0.370437413454,-1.02254736423,0.0826859250665,0.243430063128,28.8999996185,0.12389211152307691,-0.34198908502675585,0.027654155540635446,28.8999996185,0.03289595447675676,0.3842590856085653,1.0907171730491425
1648639183363100453,95912,2,8,0.680049180984,-1.02800095081,0.285585641861,0.608575165272,28.8999996185,0.2274411976535117,-0.34381302702675587,0.09551359259565216,28.8999996185,0.0822398871989189,0.4708146071793316,1.265231995430258
1648639183363115998,95913,2,9,0.694845318794,-0.992552638054,0.156025066972,0.730290174484,28.8999996185,0.2323897387270903,-0.3319574040314381,0.05218229664615384,28.8999996185,0.09868786141675676,0.4671249291384287,1.2216032817087172
1648639183462909264,95914,3,0,0.0272204782814,0.081803791225,0.0134549383074,0.0,28.7999992371,0.009103838890100333,0.0273591275,0.004499979367023411,28.7999992371,0.0,0.03023709018134951,0.0872573782640041
1648639183462916616,95915,3,1,0.0697322636843,0.0272679310292,-0.0448075979948,0.0,28.7999992371,0.023321827319163876,0.00911970937431438,-0.014985818727357858,28.7999992371,0.0,0.034219648713593696,0.08725737504196168
1648639183462923364,95916,3,2,0.212285220623,-0.081803791225,-0.129490420222,0.0,28.7999992371,0.07099840154615385,-0.0273591275,-0.04330783285016722,28.7999992371,0.0,0.10406761216526042,0.26177212243286974
1648639183462929967,95917,3,3,0.933402895927,0.662610709667,0.278083086014,0.0,28.7999992371,0.3121748815809364,0.22160893299899664,0.09300437659331103,28.7999992371,0.0,0.49398059938128863,1.1779745843681795
1648639183463137639,95918,3,4,0.903637349606,0.940743625164,0.107504159212,0.0,28.7999992371,0.30221984936655516,0.31462997497123746,0.03595456829832776,28.7999992371,0.0,0.530721862987279,1.3088606389289654
1648639183463144067,95919,3,5,1.19515550137,-0.531724631786,-0.0445922277868,0.0,28.7999992371,0.39971755898662203,-0.17783432501204013,-0.014913788557458193,28.7999992371,0.0,0.5925987690477725,1.308860658466715
1648639183463155403,95920,3,6,3.83790278435,-1.00345981121,0.611944973469,0.0,28.7999992371,1.2835795265384615,-0.3356052880301003,0.20466387072541806,28.7999992371,0.0,1.8460183399010879,4.013839312352834
1648639183463165860,95921,3,7,0.46147570014,-1.02800095081,0.130364060402,0.365145087242,28.7999992371,0.15433969904347825,-0.34381302702675587,0.04360002020133779,28.7999992371,0.04934393070837838,0.40724548242425435,1.134345875353044
1648639183463180819,95922,3,8,0.759732961655,-1.09889757633,0.210849225521,0.730290174484,28.7999992371,0.25409129152341137,-0.36752427302006685,0.0705181356257525,28.7999992371,0.09868786141675676,0.5140027822055042,1.3524893538182958
1648639183563116104,95923,4,0,0.0272131823003,0.081803791225,0.0134696885943,0.0,31.0,0.009101398762642139,0.0273591275,0.004504912573344481,31.0,0.0,0.030235620986421033,0.08725737825834652
1648639183563120262,95924,4,1,0.0696977749467,0.0272679310292,-0.0448612309992,0.0,31.0,0.02331029262431438,0.00911970937431438,-0.01500375618702341,31.0,0.0,0.034203926434464925,0.08725737757861872
1648639183563126355,95925,4,2,0.211731374264,-0.081803791225,-0.130394071341,0.0,31.0,0.07081316865016722,-0.0273591275,-0.04361005730468227,31.0,0.0,0.10381489086886961,0.2617721317241146
1648639183563132324,95926,4,3,0.967891454697,0.625799000263,0.243281587958,0.0,31.0,0.3237095166210702,0.20929732450267555,0.08136507958461538,31.0,0.0,0.5033697173510462,1.1779746125638748
1648639183563298891,95927,4,4,0.948869287968,0.899841725826,0.0552093833685,0.0,31.0,0.31734758794916385,0.3009504099752508,0.01846467671187291,31.0,0.0,0.5403611129777717,1.308860624053739
1648639183563305882,95928,4,5,3.83420085907,-1.00345981121,0.634726583958,0.0,31.0,1.282341424438127,-0.3356052880301003,0.2122831384474916,31.0,0.0,1.8442966049455753,4.0138392664367775
1648639183563311126,95929,4,6,0.597902297974,-1.1070779562,-0.133053451777,0.365145087242,31.0,0.19996732373712373,-0.37026018602006683,-0.044499482199665555,31.0,0.04934393070837838,0.4659039240839143,1.2652319866555435
1648639183563406134,95930,4,7,0.725840687752,-1.17797458172,0.186216801405,0.730290174484,31.0,0.24275608286020064,-0.3939714320133779,0.06227986669063545,31.0,0.09868786141675676,0.5225653268003234,1.396118016608988
1648639183662885512,95931,5,0,0.0272406358272,0.081803791225,0.0134140793234,0.0,30.8999996185,0.009110580544214045,0.0273591275,0.004486314154983277,30.8999996185,0.0,0.030241150991099516,0.08725737804419742
1648639183662891030,95932,5,1,0.0698048174381,0.0272679310292,-0.0446944907308,0.0,30.8999996185,0.023346092788662207,0.00911970937431438,-0.014947990210969899,30.8999996185,0.0,0.03425272538157524,0.08725737849526105
1648639183662900080,95933,5,2,0.211908280849,-0.081803791225,-0.13010635972,0.0,30.8999996185,0.07087233473210702,-0.0273591275,-0.043513832682274246,30.8999996185,0.0,0.10389560875379143,0.26177212340268796
1648639183662904296,95934,5,3,0.959864854813,0.588987290859,0.34551051259,0.0,30.8999996185,0.321025035054515,0.1969857160063545,0.11555535538127089,30.8999996185,0.0,0.4948914209945868,1.1779745678955935
1648639183662905958,95935,5,4,0.862773180008,0.981645464897,-0.0714900046587,0.0,30.8999996185,0.28855290301270897,0.32830952003244146,-0.02390970055474916,30.8999996185,0.0,0.5237486960537999,1.3088606494428905
1648639183662908406,95936,5,5,1.62972259521,-2.07917976379,0.322178930044,0.0,30.8999996185,0.5450577241505017,-0.6953778474214046,0.10775215051638795,30.8999996185,0.0,1.0381359236615768,2.6613499376174032
1648639183662914498,95937,5,6,3.83596587181,-1.00345981121,0.623970687389,0.0,30.8999996185,1.282931729702341,-0.3356052880301003,0.20868584862508358,30.8999996185,0.0,1.8451174909766175,4.013839207183736
1648639183663031064,95938,5,7,0.832760751247,-1.16979420185,0.104698456824,0.730290174484,30.8999996185,0.2785153014204013,-0.39123551901337794,0.03501620629565217,30.8999996185,0.09868786141675676,0.5551637394393308,1.439746752161877
1648639183763045814,95939,6,0,0.0272333621979,0.081803791225,0.0134288398549,0.0,26.1000003815,0.009108147892274246,0.0273591275,0.004491250787591973,26.1000003815,0.0,0.030239685408686642,0.0872573779988486
1648639183763052803,95940,6,1,0.0697605237365,0.0272679310292,-0.0447635836899,0.0,26.1000003815,0.023331278841638797,0.00911970937431438,-0.014971098224046821,26.1000003815,0.0,0.03423253195199797,0.08725737309457963
1648639183763057921,95941,6,2,0.212264195085,-0.081803791225,-0.129524901509,0.0,26.1000003815,0.07099136959364548,-0.0273591275,-0.04331936505317726,26.1000003815,0.0,0.10405801733227671,0.26177213160453594
1648639183763066997,95942,6,3,0.968801796436,0.588987290859,0.319595277309,0.0,26.1000003815,0.3240139787411371,0.1969857160063545,0.10688805261170568,26.1000003815,0.0,0.4987719811194893,1.1779745713933139
1648639183763070905,95943,6,4,0.936536073685,0.899841725826,0.16217648983,0.0,26.1000003815,0.3132227671187291,0.3009504099752508,0.05423962870568561,26.1000003815,0.0,0.5355260525383417,1.3088606353254002
1648639183763074002,95944,6,5,1.62532520294,-2.07917976379,0.34367570281,0.0,26.1000003815,0.5435870243946488,-0.6953778474214046,0.11494170662541804,26.1000003815,0.0,1.0365925220957768,2.6613499383147157
1648639183763090943,95945,6,6,3.8348441124,-1.00345981121,0.630827844143,0.0,26.1000003815,1.2825565593311035,-0.3356052880301003,0.21097921208795983,26.1000003815,0.0,1.8445957728240199,4.013839150746907
1648639183863030255,95946,7,0,0.0272333621979,0.081803791225,0.0134288398549,0.0,14.6000003815,0.009108147892274246,0.0273591275,0.004491250787591973,14.6000003815,0.0,0.030239685408686642,0.0872573779988486
1648639183863039947,95947,7,1,0.0697260946035,0.0272679310292,-0.0448172017932,0.0,14.6000003815,0.023319764081438127,0.00911970937431438,-0.014989030700066889,14.6000003815,0.0,0.034216836392335005,0.08725737738347314
1648639183863042560,95948,7,2,0.212264195085,-0.081803791225,-0.129524901509,0.0,14.6000003815,0.07099136959364548,-0.0273591275,-0.04331936505317726,14.6000003815,0.0,0.10405801733227671,0.26177213160453594
1648639183863045660,95949,7,3,0.941378653049,0.662610709667,0.24975463748,0.0,14.6000003815,0.3148423588792642,0.22160893299899664,0.08352997909030101,14.6000003815,0.0,0.49735494475703423,1.1779745752453747
1648639183863050153,95950,7,4,1.72324573994,-1.99601244926,0.359363436699,0.0,14.6000003815,0.5763363678729096,-0.6675626920602006,0.12018844036755852,14.6000003815,0.0,1.053549792699205,2.6613499689928752
1648639183863068789,95951,7,5,3.84076023102,-1.00345981121,0.593745112419,0.0,14.6000003815,1.28453519432107,-0.3356052880301003,0.1985769606752508,14.6000003815,0.0,1.8473473523549127,4.0138390604781184
1648639183963094381,95952,8,0,0.0271920114756,0.081803791225,0.0135123776272,0.0,14.3999996185,0.009094318219264213,0.0273591275,0.004519189841872909,14.3999996185,0.0,0.03023135963379316,0.0872573784617244
1648639183963098387,95953,8,1,0.0697427392006,0.0272679310292,-0.0447912923992,0.0,14.3999996185,0.02332533083632107,0.00911970937431438,-0.01498036535090301,14.3999996185,0.0,0.03422442426571437,0.08725737566880377
1648639183963100442,95954,8,2,0.212264195085,-0.081803791225,-0.129524901509,0.0,14.3999996185,0.07099136959364548,-0.0273591275,-0.04331936505317726,14.3999996185,0.0,0.10405801733227671,0.26177213160453594
1648639183963102225,95955,8,3,0.961293816566,0.662610709667,0.156478121877,0.0,14.3999996185,0.3215029486842809,0.22160893299899664,0.05233382002575251,14.3999996185,0.0,0.5058051118863159,1.1779745994543283
1648639183963103885,95956,8,4,1.62708413601,-2.07917976379,0.335249960423,0.0,14.3999996185,0.5441752963244146,-0.6953778474214046,0.11212373258294313,14.3999996185,0.0,1.0372096494653118,2.661349997984645
1648639183963207982,95957,8,5,3.83488488197,-1.00345981121,0.630580604076,0.0,14.3999996185,1.282570194638796,-0.3356052880301003,0.21089652310234114,14.3999996185,0.0,1.844614734221042,4.01383925299862
1648639184063012622,95958,9,0,0.0272532720119,0.081803791225,0.0133883869275,0.0,14.5,0.009114806692943143,0.0273591275,0.004477721380434782,14.5,0.0,0.030243697850307567,0.08725737790386813
1648639184063022731,95959,9,1,0.0697340294719,0.0272679310292,-0.0448048524559,0.0,14.5,0.02332241788357859,0.00911970937431438,-0.014984900486923075,14.5,0.0,0.03422045369284999,0.0872573763792838
1648639184063179439,95960,9,2,0.212787047029,-0.081803791225,-0.128664121032,0.0,14.5,0.07116623646454849,-0.0273591275,-0.043031478606020065,14.5,0.0,0.10429663600815378,0.26177212166890956
1648639184063182803,95961,9,3,0.959232151508,0.662610709667,0.168656095862,0.0,14.5,0.3208134285979933,0.22160893299899664,0.056406721024080266,14.5,0.0,0.5049287386577964,1.1779745972318267
1648639184063184480,95962,9,4,1.6207177639,-2.07917976379,0.364786654711,0.0,14.5,0.5420460748829431,-0.6953778474214046,0.12200222565585284,14.5,0.0,1.0349774129305607,2.661350007764875
1648639184063187335,95963,9,5,3.83576655388,-1.00345981121,0.625194430351,0.0,14.5,1.2828650681872908,-0.3356052880301003,0.20909512720769227,14.5,0.0,1.8450247899971781,4.013839150279937
1648639184063188816,95964,9,6,0.675032138824,-1.21478629112,0.376160293818,0.243430063128,14.5,0.22576325713177256,-0.40628304050836117,0.12580611833377925,14.5,0.03289595447675676,0.5167243032277583,1.4397467444601615
1648639184063189917,95965,9,7,5.07292318344,1.70424568653,1.05004715919,-0.243430063128,14.5,1.6966298272374583,0.5699818349598662,0.3511863408662207,14.5,-0.03289595447675676,2.466168046489904,5.453586161569479
1648639184163119315,95966,10,0,0.0273086484522,0.081803791225,0.0132750691846,0.0,11.3999996185,0.009133327241538461,0.0273591275,0.004439822469765886,11.3999996185,0.0,0.030254870526302262,0.08725737791685668
1648639184163127162,95967,10,1,0.0698329880834,0.0272679310292,-0.04465046525,0.0,11.3999996185,0.023355514409163877,0.00911970937431438,-0.014933265969899665,11.3999996185,0.0,0.03426556880755492,0.08725737982721549
1648639184163131227,95968,10,2,0.212379544973,-0.081803791225,-0.129335671663,0.0,11.3999996185,0.07102994815150501,-0.0273591275,-0.04325607747926421,11.3999996185,0.0,0.10411065712198841,0.26177212866583266
1648639184163206747,95969,10,3,0.93163216114,0.662610709667,0.283959060907,0.0,11.3999996185,0.31158266258862877,0.22160893299899664,0.09496958558762542,11.3999996185,0.0,0.49323222769461483,1.177974611147022
1648639184163211521,95970,10,4,0.986336231232,0.858939826488,0.0497930161655,0.0,11.3999996185,0.32987833820468226,0.2872708449792642,0.01665318266404682,11.3999996185,0.0,0.547872224527276,1.3088606232242754
1648639184163214622,95971,10,5,1.62775623798,-2.07917976379,0.331970781088,0.0,11.3999996185,0.5444000795919732,-0.6953778474214046,0.11102701708628761,11.3999996185,0.0,1.0374455378495393,2.661349931882844
1648639184163217299,95972,10,6,3.83299517632,-1.00345981121,0.64196652174,0.0,11.3999996185,1.2819381860602006,-0.3356052880301003,0.21470452232107023,11.3999996185,0.0,1.843735863705103,4.013839138460951
1648639184163227013,95973,10,7,0.513532698154,-1.14661645889,0.149555325508,0.243430063128,11.3999996185,0.1717500662722408,-0.38348376551505015,0.050018503514381266,11.3999996185,0.03289595447675676,0.45393388168613297,1.265231967371428
1648639184163240234,95974,10,8,0.13485006988,-1.20524251461,0.854171335697,0.365145087242,11.3999996185,0.045100357819397995,-0.40309114201003343,0.2856760320056856,11.3999996185,0.04934393070837838,0.408106056458157,1.4833754518315563
1648639184163247103,95975,10,9,1.17156124115,-0.695332229137,-0.586822032928,0.365145087242,11.3999996185,0.39182650205685615,-0.23255258499565215,-0.19626154947424745,11.3999996185,0.04934393070837838,0.6009465202631453,1.4833754578566103
1648639184163249683,95976,10,10,5.12052536011,1.70424568653,0.78572934866,-0.365145087242,11.3999996185,1.7125502876622074,0.5699818349598662,0.26278573533779265,11.3999996185,-0.04934393070837838,2.4880788306900636,5.4535863367999795
1648639184263054445,95977,11,0,0.0272291190922,0.081803791225,0.0134374424815,0.0,12.6000003815,0.009106728793377926,0.0273591275,0.004494127920234113,12.6000003815,0.0,0.030238830602282447,0.08725737817379238
1648639184263059499,95978,11,1,0.0697070583701,0.0272679310292,-0.0448468029499,0.0,12.6000003815,0.023313397448193978,0.00911970937431438,-0.014998930752474915,12.6000003815,0.0,0.03420815838695314,0.08725737667414082
1648639184263062656,95979,11,2,0.212264195085,-0.081803791225,-0.129524901509,0.0,12.6000003815,0.07099136959364548,-0.0273591275,-0.04331936505317726,12.6000003815,0.0,0.10405801733227671,0.26177213160453594
1648639184263068213,95980,11,3,0.950699687004,0.662610709667,0.211521267891,0.0,12.6000003815,0.3179597615397993,0.22160893299899664,0.07074289896020067,12.6000003815,0.0,0.5013056344206056,1.1779745728177349
1648639184263079258,95981,11,4,1.62796795368,-2.07917976379,0.330931454897,0.0,12.6000003815,0.5444708875183946,-0.6953778474214046,0.1106794163535117,12.6000003815,0.0,1.037519853012251,2.6613499913019956
1648639184263082254,95982,11,5,3.83629107475,-1.00345981121,0.621967434883,0.0,12.6000003815,1.2830404932274246,-0.3356052880301003,0.20801586450936452,12.6000003815,0.0,1.8452687402859,4.013839096547725
1648639184263086697,95983,11,6,0.505589842796,-1.14661645889,0.174532338977,0.243430063128,12.6000003815,0.1690935929083612,-0.38348376551505015,0.058372019724749154,12.6000003815,0.03289595447675676,0.45193482355193554,1.265231966986572
1648639184263166743,95984,11,7,0.377939164639,-1.28840970993,0.727257847786,0.365145087242,12.6000003815,0.1264010584076923,-0.4309062575016722,0.24323004942675583,12.6000003815,0.04934393070837838,0.46651329872498504,1.5270041159002345
1648639184363087251,95985,12,0,0.0272406358272,0.081803791225,0.0134140793234,0.0,15.0,0.009110580544214045,0.0273591275,0.004486314154983277,15.0,0.0,0.030241150991099516,0.08725737804419742
1648639184363095210,95986,12,1,0.0697413980961,0.0272679310292,-0.0447933785617,0.0,15.0,0.02332488230638796,0.00911970937431438,-0.014981063064113712,15.0,0.0,0.03422381288351223,0.08725737466818305
1648639184363101868,95987,12,2,0.213006421924,-0.081803791225,-0.128300637007,0.0,15.0,0.07123960599464882,-0.0273591275,-0.042909912042474914,15.0,0.0,0.10439676614774455,0.2617721327720934
1648639184363113952,95988,12,3,0.820116341114,0.715783178806,0.0687581822276,0.0,15.0,0.2742864017103679,0.23939236749364545,0.022996047567759192,15.0,0.0,0.4558231739837886,1.0907172225866246
1648639184363275406,95989,12,4,0.955513775349,0.662610709667,0.188585847616,0.0,15.0,0.31956982453143806,0.22160893299899664,0.06307218983812708,15.0,0.0,0.5033490485607994,1.1779745962320876
1648639184363289027,95990,12,5,3.83465886116,-1.00345981121,0.631953597069,0.0,15.0,1.2824946023946486,-0.3356052880301003,0.21135571808327758,15.0,0.0,1.8445096149645255,4.013839249775079
1648639184363294436,95991,12,6,0.56722086668,-1.14525306225,0.282439410686,0.243430063128,15.0,0.18970597547826087,-0.38302778001672233,0.09446134136655517,15.0,0.03289595447675676,0.4676398128141526,1.3088606147710564
1648639184363297066,95992,12,7,0.559471845627,-1.28840970993,0.598943412304,0.243430063128,15.0,0.1871143296411371,-0.4309062575016722,0.20031552250969897,15.0,0.03289595447675676,0.5056715806412316,1.5270041053754726
1648639184363298585,95993,12,8,1.10268867016,-0.715783178806,-0.776835620403,0.243430063128,15.0,0.3687921973779264,-0.23939236749364545,-0.2598112442819398,15.0,0.03289595447675676,0.5738676461588433,1.5270040744830269
1648639184363301723,95994,12,9,5.10421609879,1.52155053616,0.948419630527,-0.243430063128,15.0,1.7070956852140469,0.508879777979933,0.31719720084515046,15.0,-0.03289595447675676,2.4672474511872005,5.409957283824408
1648639184463056564,95995,13,0,0.0272333621979,0.081803791225,0.0134288398549,0.0,16.6000003815,0.009108147892274246,0.0273591275,0.004491250787591973,16.6000003815,0.0,0.030239685408686642,0.0872573779988486
1648639184463062034,95996,13,1,0.0697144493461,0.0272679310292,-0.0448353178799,0.0,16.6000003815,0.023315869346521734,0.00911970937431438,-0.014995089591939799,16.6000003815,0.0,0.034211527674748776,0.0872573792847048
1648639184463067027,95997,13,2,0.212264195085,-0.081803791225,-0.129524901509,0.0,16.6000003815,0.07099136959364548,-0.0273591275,-0.04331936505317726,16.6000003815,0.0,0.10405801733227671,0.26177213160453594
1648639184463069186,95998,13,3,0.956229150295,0.662610709667,0.184924393892,0.0,16.6000003815,0.3198090803662207,0.22160893299899664,0.06184762337525083,16.6000003815,0.0,0.503652871484249,1.1779746057940412
1648639184463075112,95999,13,4,3.83684253693,-1.00345981121,0.618557155132,0.0,16.6000003815,1.2832249287391304,-0.3356052880301003,0.20687530271973245,16.6000003815,0.0,1.845525221943298,4.013839209544154
1648639184463080013,96000,13,5,0.630095899105,-1.14525306225,-0.0670127719641,0.121715031564,16.6000003815,0.21073441441638793,-0.38302778001672233,-0.022412298315752508,16.6000003815,0.01644797723837838,0.48531254579227034,1.3088606229344104
1648639184463085456,96001,13,6,0.904161691666,0.940743625164,0.103001020849,0.121715031564,16.6000003815,0.30239521460401336,0.31462997497123746,0.03444850195618729,16.6000003815,0.01644797723837838,0.5309216070016515,1.3088606278970132
1648639184463090439,96002,13,7,0.60608959198,-0.957104325294,0.0578552894294,0.365145087242,16.6000003815,0.20270554915719063,-0.3201017810347826,0.01934959512688963,16.6000003815,0.04934393070837838,0.42970248956676566,1.134345854454419
1648639184463244127,96003,13,8,5.34242153168,1.41793239117,1.2714227438,-0.243430063128,16.6000003815,1.7867630540735786,0.4742248799899665,0.4252249979264214,16.6000003815,-0.03289595447675676,2.5709791246928053,5.671729531768866
1648639184563103435,96004,14,0,0.0272605195642,0.081803791225,0.0133736263961,0.0,13.1999998093,0.00911723062347826,0.0273591275,0.004472784747859532,13.1999998093,0.0,0.030245159051402522,0.08725737830508078
1648639184563132800,96005,14,1,0.0698329880834,0.0272679310292,-0.04465046525,0.0,13.1999998093,0.023355514409163877,0.00911970937431438,-0.014933265969899665,13.1999998093,0.0,0.03426556880755492,0.08725737982721549
1648639184563158505,96006,14,2,0.211555480957,-0.081803791225,-0.130679234862,0.0,13.1999998093,0.07075434145719063,-0.0273591275,-0.04370542971973244,13.1999998093,0.0,0.10373463996005725,0.2617721226675001
1648639184563217074,96007,14,3,0.951877534389,0.662610709667,0.206156164408,0.0,13.1999998093,0.3183536904311037,0.22160893299899664,0.06894854996923076,13.1999998093,0.0,0.501805404123112,1.1779745995407989
1648639184563219687,96008,14,4,3.83206415176,-1.00345981121,0.647501111031,0.0,13.1999998093,1.2816268066086955,-0.3356052880301003,0.21655555552876254,13.1999998093,0.0,1.843302865019683,4.01383917773297
1648639184563221588,96009,14,5,0.70211738348,-1.10435116291,0.0235765073448,0.121715031564,13.1999998093,0.23482186738461536,-0.3693482150200669,0.007885119513311037,13.1999998093,0.01644797723837838,0.49668976508732826,1.308860635401665
1648639184563224578,96010,14,6,0.768617331982,-0.883480906487,0.127722620964,0.365145087242,13.1999998093,0.25706265283678925,-0.29547856404247486,0.042716595640133775,13.1999998093,0.04934393070837838,0.46847624995892606,1.1779746105312001
1648639184563227397,96011,14,7,5.33756637573,1.23114705086,1.29235649109,-0.365145087242,13.1999998093,1.7851392560969899,0.4117548665083612,0.4322262512006689,13.1999998093,-0.04934393070837838,2.557926190766721,5.628101205222523
1648639184663101490,96012,15,0,0.0272363927215,0.081803791225,0.0134226921946,0.0,14.1000003815,0.009109161445317725,0.0273591275,0.004489194713913043,14.1000003815,0.0,0.030240295997807,0.08725737798612873
1648639184663113649,96013,15,1,0.0697427392006,0.0272679310292,-0.0447912923992,0.0,14.1000003815,0.02332533083632107,0.00911970937431438,-0.01498036535090301,14.1000003815,0.0,0.03422442426571437,0.08725737566880377
1648639184663117202,96014,15,2,0.212395519018,-0.081803791225,-0.129309430718,0.0,14.1000003815,0.07103529064147157,-0.0273591275,-0.04324730124347825,14.1000003815,0.0,0.10411794701490197,0.26177212538832745
1648639184663125548,96015,15,3,1.01999080181,0.496276319027,-0.00831771176308,0.0,14.1000003815,0.3411340474280936,0.16597870201571904,-0.0027818433990234115,14.1000003815,0.0,0.5101899706503142,1.1343458929854549
1648639184663296402,96016,15,4,0.994896531105,0.68715184927,0.174120306969,0.0,14.1000003815,0.33274131475083607,0.22981667199665548,0.05823421637759197,14.1000003815,0.0,0.5236881398426436,1.221603312396836
1648639184663299387,96017,15,5,3.82993769646,-1.00345981121,0.659961879253,0.0,14.1000003815,1.2809156175451504,-0.3356052880301003,0.22072303653946487,14.1000003815,0.0,1.8423139113343074,4.013839064230913
1648639184663303375,96018,15,6,0.761404931545,-0.846669256687,0.30172470212,0.486860126257,14.1000003815,0.25465047877759195,-0.283166975480602,0.10091127161204014,14.1000003815,0.06579190895364864,0.45812363908244846,1.1779745735241343
1648639184663311736,96019,15,7,0.8041203022,-1.05663228035,0.25718909502,0.486860126257,14.1000003815,0.2689365559197324,-0.3533887225250836,0.08601641973913042,14.1000003815,0.06579190895364864,0.5191698483423756,1.3524893592502185
1648639184663317382,96020,15,8,5.10473775864,1.33067500591,0.708584070206,-0.365145087242,14.1000003815,1.7072701533913042,0.4450418079966555,0.23698463886488294,14.1000003815,-0.04934393070837838,2.4551181161374838,5.3226999671584165
1648639184763102557,96021,16,0,0.0272363927215,0.081803791225,0.0134226921946,0.0,14.8999996185,0.009109161445317725,0.0273591275,0.004489194713913043,14.8999996185,0.0,0.030240295997807,0.08725737798612873
1648639184763109109,96022,16,1,0.0697500556707,0.0272679310292,-0.044779907912,0.0,14.8999996185,0.023327777816287625,0.00911970937431438,-0.014976557830100332,14.8999996185,0.0,0.03422775970997984,0.08725738066940904
1648639184763114413,96023,16,2,0.211908280849,-0.081803791225,-0.13010635972,0.0,14.8999996185,0.07087233473210702,-0.0273591275,-0.043513832682274246,14.8999996185,0.0,0.10389560875379143,0.26177212340268796
1648639184763207658,96024,16,3,0.863846063614,0.501729905605,0.094702847302,0.0,14.8999996185,0.288911726961204,0.16780264401505016,0.03167319307759197,14.8999996185,0.0,0.4416986521259174,1.0034597894718607
1648639184763209665,96025,16,4,0.88176047802,0.662610709667,0.4136056602,0.0,14.8999996185,0.2949031699063545,0.22160893299899664,0.13832965224080265,14.8999996185,0.0,0.472277755591544,1.177974590266251
1648639184763211813,96026,16,5,3.8322198391,-1.00345981121,0.646578788757,0.0,14.8999996185,1.2816788759531772,-0.3356052880301003,0.21624708654080266,14.8999996185,0.0,1.8433752714743046,4.013839137032737
1648639184763226091,96027,16,6,0.997068166733,0.496276319027,0.215186774731,0.121715031564,14.8999996185,0.33346761429197325,0.16597870201571904,0.07196882098026755,14.8999996185,0.01644797723837838,0.49995022660859284,1.134345829964753
1648639184763230472,96028,16,7,0.817010879517,-1.02254736423,-0.00250425492413,0.121715031564,14.8999996185,0.2732477857916388,-0.34198908502675585,-0.0008375434528862876,14.8999996185,0.01644797723837838,0.5160283317391635,1.3088606345350857
1648639184763349345,96029,16,8,0.744127392769,-0.531724631786,0.936300992966,0.121715031564,14.8999996185,0.24887203771538458,-0.17783432501204013,0.3131441448046823,14.8999996185,0.01644797723837838,0.39433441324046714,1.3088606534487406
1648639184763357403,96030,16,9,0.716755449772,-1.14116287231,0.115049675107,0.243430063128,14.8999996185,0.23971754172976587,-0.3816598235150501,0.038478152209698996,14.8999996185,0.03289595447675676,0.510483320502701,1.3524893728450873
1648639184763369977,96031,16,10,0.885997891426,-0.869846999645,0.243281587958,0.608575165272,14.8999996185,0.29632036502541803,-0.2909187289782609,0.08136507958461538,14.8999996185,0.0822398871989189,0.5101423569239479,1.2652319935261251
