%time,field.header.seq,field.header.frame_id,field.point_id,field.x,field.y,field.z,field.velocity,field.intensity,normalized_x,normalized_y,normalized_z,normalized_intensity,normalized_velocity,normalized_range,range
1648639676569800627,142371,0,0,0.0272622834891,0.081803791225,0.0133700277656,0.0,17.7000007629,0.009117820564916387,0.0273591275,0.0044715811925083605,17.7000007629,0.0,0.030245514729779037,0.08725737792459934
1648639676569813639,142372,0,1,0.069820009172,0.0272679310292,-0.0446707569063,0.0,17.7000007629,0.0233511736361204,0.00911970937431438,-0.014940052477023411,17.7000007629,0.0,0.034259651478677454,0.0872573794356278
1648639676569836370,142373,0,2,0.211757957935,-0.081803791225,-0.130350887775,0.0,17.7000007629,0.07082205951003344,-0.0273591275,-0.043595614640468225,17.7000007629,0.0,0.10382702000946908,0.261772127911501
1648639676569844774,142374,0,3,0.948662698269,0.899841725826,-0.0586529299617,0.0,17.7000007629,0.3172784944043478,0.3009504099752508,-0.019616364535685615,17.7000007629,0.0,0.5402799601014746,1.3088606544692318
1648639676569849497,142375,0,4,2.33754134178,1.8133174181,0.758120417595,0.0,17.7000007629,0.7817864019331103,0.6064606749498327,0.25355197912876254,17.7000007629,0.0,1.261021215822971,3.0540082106782083
1648639676569851514,142376,0,5,3.82164597511,-1.00345981121,0.706395566463,0.0,17.7000007629,1.2781424665919732,-0.3356052880301003,0.23625269781371233,17.7000007629,0.0,1.8384578426402365,4.013839090958512
1648639676569919056,142377,0,6,0.923889517784,-0.579443514347,-0.0183667466044,-0.608575165272,17.7000007629,0.3089931497605351,-0.19379381750735786,-0.006142724616856186,17.7000007629,-0.0822398871989189,0.47802675333285277,1.0907171790940053
1648639676569929803,142378,0,7,0.921468853951,-0.725326955318,0.342214107513,-0.486860126257,17.7000007629,0.30818356319431434,-0.2425842659926421,0.11445287876688963,17.7000007629,-0.06579190895364864,0.49879990312095773,1.2216032646868493
1648639676569934527,142379,0,8,0.620626807213,-0.783952951431,0.0846857279539,-0.365145087242,17.7000007629,0.20756749405117056,-0.2621916225521739,0.028322985937759195,17.7000007629,-0.04934393070837838,0.3935898577325222,1.0034597831541932
1648639676569947527,142380,0,9,0.547193825245,-1.22569346428,0.165776610374,-0.365145087242,17.7000007629,0.18300796830936455,-0.40993092450836116,0.0554436823993311,17.7000007629,-0.04934393070837838,0.48479603525371623,1.352489347578034
1648639676669839546,142381,1,0,0.0272979177535,0.081803791225,0.0132971210405,0.0,17.8999996185,0.00912973837909699,0.0273591275,0.004447197672408026,17.8999996185,0.0,0.03025270406596358,0.08725737791399617
1648639676669844552,142382,1,1,0.0697219073772,0.0272679310292,-0.0448237136006,0.0,17.8999996185,0.023318363671304344,0.00911970937431438,-0.014991208562073578,17.8999996185,0.0,0.03421492755635133,0.08725737637516198
1648639676669849780,142383,1,2,0.211373344064,-0.081803791225,-0.130973652005,0.0,17.8999996185,0.0706934261083612,-0.0273591275,-0.043803896991638794,17.8999996185,0.0,0.10365154532103178,0.2617721306004678
1648639676669861890,142384,1,3,0.948377490044,0.899841725826,-0.0630966126919,0.0,17.8999996185,0.3171831070381271,0.3009504099752508,-0.021102546050802674,17.8999996185,0.0,0.5401679331883664,1.3088606410511636
1648639676669881707,142385,1,4,2.3391187191,1.8133174181,0.753239393234,0.0,17.8999996185,0.7823139528762542,0.6064606749498327,0.251919529509699,17.8999996185,0.0,1.261675390895117,3.0540081899609244
1648639676669885595,142386,1,5,3.82257461548,-1.00345981121,0.701353490353,0.0,17.8999996185,1.2784530486555183,-0.3356052880301003,0.2345663847334448,17.8999996185,0.0,1.838889693425613,4.013839184877243
1648639676669887851,142387,1,6,0.875431656837,-0.556265771389,-0.143464699388,-0.486860126257,17.8999996185,0.29278650730334443,-0.186042064009699,-0.04798150481204013,17.8999996185,-0.06579190895364864,0.4539378011344414,1.0470884939592562
1648639676669893278,142388,1,7,0.550651729107,-1.18615496159,-0.0541778802872,-0.486860126257,17.8999996185,0.1841644578953177,-0.3967073450133779,-0.018119692403745818,17.8999996185,-0.06579190895364864,0.4745627594863674,1.3088606352035794
1648639676669902852,142389,1,8,0.878486573696,-0.736234128475,0.271743863821,-0.365145087242,17.8999996185,0.29380821862742473,-0.24623214999163878,0.0908842353916388,17.8999996185,-0.04934393070837838,0.4829873811556013,1.177974566626906
1648639676669980252,142390,1,9,0.590846955776,-0.749868094921,0.0993659943342,-0.243430063128,17.8999996185,0.19760767751705685,-0.250792004990301,0.03323277402481605,17.8999996185,-0.03289595447675676,0.3754919682156004,0.9598311756555112
1648639676770220444,142391,2,0,0.0272325836122,0.081803791225,0.0134304212406,0.0,38.0999984741,0.009107887495719063,0.0273591275,0.004491779679130435,38.0999984741,0.0,0.03023952854841834,0.0872573783910496
1648639676770263063,142392,2,1,0.0698273032904,0.0272679310292,-0.0446593500674,0.0,38.0999984741,0.023353613140602004,0.00911970937431438,-0.014936237480735786,38.0999984741,0.0,0.034262976994326615,0.0872573773148454
1648639676770283392,142393,2,2,0.211709693074,-0.081803791225,-0.130429267883,0.0,38.0999984741,0.07080591741605351,-0.0273591275,-0.04362182872341137,38.0999984741,0.0,0.10380499862636305,0.26177213052723175
1648639676770350238,142394,2,3,0.893686711788,1.58290338516,0.463943392038,0.0,38.0999984741,0.2988918768521739,0.5293991254715719,0.15516501405953176,38.0999984741,0.0,0.6774482579108867,1.8760337248016519
1648639676770364243,142395,2,4,2.33817338943,1.8133174181,0.75616902113,0.0,38.0999984741,0.7819977891070233,0.6064606749498327,0.25289933817056853,38.0999984741,0.0,1.2612833284385994,3.0540082590491022
1648639676770379442,142396,2,5,3.83022236824,-1.00345981121,0.658308148384,0.0,38.0999984741,1.2810108254983277,-0.3356052880301003,0.22016994929230768,38.0999984741,0.0,1.8424463030008718,4.013839134931595
1648639676770397051,142397,2,6,0.846705019474,-0.533088028431,-0.0764156803489,-0.365145087242,38.0999984741,0.28317893627892976,-0.1782903105120401,-0.025557083728729096,38.0999984741,-0.04934393070837838,0.4383697694031969,1.0034598109850252
1648639676770420585,142398,2,7,0.816746532917,-0.708966195583,0.342100292444,-0.243430063128,38.0999984741,0.27315937555752506,-0.23711243999431436,0.11441481352642138,38.0999984741,-0.03289595447675676,0.4532707779131712,1.134345880056715
1648639676770875432,142399,2,8,0.634245038033,-0.71987336874,0.0281335562468,-0.121715031564,38.0999984741,0.2121220862986622,-0.24076032399331102,0.009409216136053512,38.0999984741,-0.01644797723837838,0.3846519109542526,0.9598311998875894
1648639676770901364,142400,2,9,0.718341886997,-0.749868094921,0.333686649799,-0.121715031564,38.0999984741,0.24024812274147153,-0.250792004990301,0.11160088622040132,38.0999984741,-0.01644797723837838,0.42229723031137384,1.0907171982915373
1648639676771170723,142401,2,10,0.385882228613,-0.909385502338,0.790521860123,-0.121715031564,38.0999984741,0.12905760154280935,-0.30414230847424745,0.2643885819809364,38.0999984741,-0.01644797723837838,0.35470307700386444,1.2652319540519834
1648639676870271362,142402,3,0,0.0271902270615,0.081803791225,0.0135159660131,0.0,11.6000003815,0.009093721425250835,0.0273591275,0.004520389970936454,11.6000003815,0.0,0.030231000583529954,0.08725737816200181
1648639676870309777,142403,3,1,0.0698377713561,0.0272679310292,-0.0446429774165,0.0,11.6000003815,0.02335711416591973,0.00911970937431438,-0.014930761677759197,11.6000003815,0.0,0.03426774961084509,0.08725737678391575
1648639676870324313,142404,3,2,0.206933259964,-0.0899841710925,-0.132688060403,0.0,11.6000003815,0.06920844814849497,-0.030095040499163877,-0.04437727772675585,11.6000003815,0.0,0.1023979006273671,0.26177212704954456
1648639676870337179,142405,3,3,2.42316818237,1.71787965298,0.710008025169,0.0,11.6000003815,0.8104241412608695,0.5745416899598662,0.2374608779829431,11.6000003815,0.0,1.2820580060897302,3.0540081758203264
1648639676870348285,142406,3,4,3.83401012421,-1.00345981121,0.63587719202,0.0,11.6000003815,1.28227763351505,-0.3356052880301003,0.21266795719732443,11.6000003815,0.0,1.8442078972230003,4.01383918818251
1648639676870374836,142407,3,5,0.562532484531,-0.715783178806,0.10314372927,-0.121715031564,11.6000003815,0.18813795469264213,-0.23939236749364545,0.03449623052508361,11.6000003815,-0.01644797723837838,0.357911281752998,0.9162024798601917
1648639676870442784,142408,3,6,0.883759498596,-0.673517882824,0.228217840195,-0.121715031564,11.6000003815,0.29557173866086955,-0.2252568169979933,0.07632703685451504,11.6000003815,-0.01644797723837838,0.47483253784264423,1.134345878656791
1648639676970157108,142409,4,0,0.0272296071053,0.081803791225,0.0134364543483,0.0,21.2999992371,0.009106892008461539,0.0273591275,0.00449379744090301,21.2999992371,0.0,0.0302389289107405,0.08725737829746172
1648639676970216517,142410,4,1,0.0697280466557,0.0272679310292,-0.0448141656816,0.0,21.2999992371,0.023320416941705682,0.00911970937431438,-0.01498801527812709,21.2999992371,0.0,0.03421772627954617,0.08725737790451062
1648639676970283511,142411,4,2,0.211373344064,-0.081803791225,-0.130973652005,0.0,21.2999992371,0.0706934261083612,-0.0273591275,-0.043803896991638794,21.2999992371,0.0,0.10365154532103178,0.2617721306004678
1648639676970302954,142412,4,3,0.597107410431,-0.68715184927,0.103499129415,0.0,21.2999992371,0.19970147506053512,-0.22981667199665548,0.034615093449832775,21.2999992371,0.0,0.3641113305162659,0.91620248489974
1648639676970325193,142413,4,4,0.833765566349,-0.708966195583,0.298232197762,0.0,21.2999992371,0.27885135998294314,-0.23711243999431436,0.09974320995384614,21.2999992371,0.0,0.46015048748070586,1.134345859908103
1648639676970385536,142414,4,5,2.42281031609,1.71787965298,0.711228370667,0.0,21.2999992371,0.810304453541806,0.5745416899598662,0.2378690202899665,21.2999992371,0.0,1.2819066925331613,3.054008206458595
1648639676970426426,142415,4,6,3.83174300194,-1.00345981121,0.649398684502,0.0,21.2999992371,1.2815193986421405,-0.3356052880301003,0.21719019548561871,21.2999992371,0.0,1.8431535062348967,4.013839144393146
1648639677070084845,142416,5,0,0.0271896328777,0.081803791225,0.0135171627626,0.0,15.1999998093,0.009093522701571906,0.0273591275,0.004520790221605351,15.1999998093,0.0,0.030230881029326015,0.08725737839265006
1648639677070163270,142417,5,1,0.0697292611003,0.0272679310292,-0.0448122732341,0.0,15.1999998093,0.023320823110468226,0.00911970937431438,-0.014987382352541805,15.1999998093,0.0,0.03421827991251833,0.08725737647107353
1648639677070217039,142418,5,2,0.206304013729,-0.0899841710925,-0.133664309978,0.0,15.1999998093,0.06899799790267558,-0.030095040499163877,-0.04470378260133779,15.1999998093,0.0,0.10211346087466412,0.26177212397387656
1648639677070235555,142419,5,3,0.589433729649,-0.68715184927,0.140773683786,0.0,15.1999998093,0.19713502663846152,-0.22981667199665548,0.04708149959397993,15.1999998093,0.0,0.3613033907716785,0.9162024970768153
1648639677070274549,142420,5,4,2.33314394951,1.8133174181,0.771547198296,0.0,15.1999998093,0.7803157021772575,0.6064606749498327,0.2580425412361204,15.1999998093,0.0,1.2591980544733143,3.054008157670568
1648639677070294766,142421,5,5,3.81653285027,-1.00345981121,0.733518898487,0.0,15.1999998093,1.2764323913946487,-0.3356052880301003,0.2453240463167224,15.1999998093,0.0,1.836080120516719,4.013839130351544
1648639677070302750,142422,5,6,0.864359438419,-0.501729905605,-0.0898968055844,0.243430063128,15.1999998093,0.2890834242204013,-0.16780264401505016,-0.030065821265685615,15.1999998093,0.03289595447675676,0.44192327349487565,1.0034598011961866
1648639677070364447,142423,5,7,0.854820787907,-0.673517882824,0.319993138313,0.243430063128,15.1999998093,0.2858932401026756,-0.2252568169979933,0.10702111649264213,15.1999998093,0.03289595447675676,0.4628288269726505,1.134345858408744
1648639677170119842,142424,6,0,0.0272266287357,0.081803791225,0.0134424874559,0.0,24.2999992371,0.009105895898227424,0.0273591275,0.00449581520264214,24.2999992371,0.0,0.030238328951513942,0.08725737814131858
1648639677170221498,142425,6,1,0.0697354078293,0.0272679310292,-0.0448027104139,0.0,24.2999992371,0.023322878872675586,0.00911970937431438,-0.014984184084916388,24.2999992371,0.0,0.03422108205318692,0.08725737807293883
1648639677170286010,142426,6,2,0.206448659301,-0.0899841710925,-0.133440807462,0.0,24.2999992371,0.06904637434816054,-0.030095040499163877,-0.04462903259598661,24.2999992371,0.0,0.10217883872847135,0.26177213195925814
1648639677170302621,142427,6,3,2.33998727798,1.8133174181,0.75053691864,0.0,24.2999992371,0.7826044407959867,0.6064606749498327,0.2510156918528428,24.2999992371,0.0,1.262035645997293,3.0540082164484637
1648639677170458094,142428,6,4,3.82800388336,-1.00345981121,0.671088039875,0.0,24.2999992371,1.2802688573110368,-0.3356052880301003,0.224444160493311,24.2999992371,0.0,1.8414145658582108,4.013839119969324
1648639677170488908,142429,6,5,0.617368221283,-0.71987336874,0.148036241531,0.121715031564,24.2999992371,0.20647766598093642,-0.24076032399331102,0.04951044867257525,24.2999992371,0.01644797723837838,0.3784594915010514,0.9598311916570724
1648639677170503282,142430,6,6,0.906104624271,-0.699422419071,0.278220951557,0.243430063128,24.2999992371,0.30304502483979934,-0.2339205414953177,0.09305048547056856,24.2999992371,0.03289595447675676,0.48825341155364377,1.1779746212502638
1648639677170546370,142431,6,7,0.864412844181,-0.501729905605,-0.0893815979362,0.486860126257,24.2999992371,0.2891012856792642,-0.16780264401505016,-0.029893511015451502,24.2999992371,0.06579190895364864,0.441946641690203,1.003459781661984
1648639677270155813,142432,7,0,0.0271975435317,0.081803791225,0.0135012371466,0.0,34.5999984741,0.009096168405250836,0.0273591275,0.004515463928628762,34.5999984741,0.0,0.03023247288718909,0.08725737812604065
1648639677270277160,142433,7,1,0.0698256790638,0.0272679310292,-0.0446618869901,0.0,34.5999984741,0.02335306992100334,0.00911970937431438,-0.01493708594986622,34.5999984741,0.0,0.03426223647899389,0.0872573760140108
1648639677270297140,142434,7,2,0.207340866327,-0.0899841710925,-0.132050216198,0.0,34.5999984741,0.06934477134682274,-0.030095040499163877,-0.04416395190568562,34.5999984741,0.0,0.10258219187038542,0.2617721251286579
1648639677270310760,142435,7,3,2.34115123749,1.8133174181,0.746898114681,0.0,34.5999984741,0.7829937249130434,0.6064606749498327,0.24979870056220732,34.5999984741,0.0,1.2625184738319721,3.054008180948414
1648639677270335093,142436,7,4,3.81961798668,-1.00345981121,0.717280626297,0.0,34.5999984741,1.277464209591973,-0.3356052880301003,0.23989318605250834,34.5999984741,0.0,1.8375147680850499,4.013839141488358
1648639677270352888,142437,7,5,0.589970588684,-0.749868094921,0.104443527758,0.121715031564,34.5999984741,0.19731457815518394,-0.250792004990301,0.03493094573846154,34.5999984741,0.01644797723837838,0.37518357542964426,0.9598311860859343
1648639677270372601,142438,7,6,0.890845060349,-0.699422419071,0.323770791292,0.365145087242,34.5999984741,0.2979414917555184,-0.2339205414953177,0.10828454558260868,34.5999984741,0.04934393070837838,0.4819305808438285,1.177974603775986
1648639677369862846,142439,8,0,0.0272612795234,0.081803791225,0.0133720766753,0.0,30.8999996185,0.009117484790434782,0.0273591275,0.004472266446588629,30.8999996185,0.0,0.030245312287507885,0.08725737822468904
1648639677369899279,142440,8,1,0.0697292611003,0.0272679310292,-0.0448122732341,0.0,30.8999996185,0.023320823110468226,0.00911970937431438,-0.014987382352541805,30.8999996185,0.0,0.03421827991251833,0.08725737647107353
1648639677369921107,142441,8,2,0.212049618363,-0.081803791225,-0.129875868559,0.0,30.8999996185,0.07091960480367893,-0.0273591275,-0.043436745337458185,30.8999996185,0.0,0.10396010075303531,0.2617721187228158
1648639677369940519,142442,8,3,0.981941342354,0.858939826488,-0.105497322977,0.0,30.8999996185,0.3284084757036789,0.2872708449792642,-0.035283385611036784,30.8999996185,0.0,0.5461032797952492,1.3088606153852
1648639677369946615,142443,8,4,2.33876800537,1.8133174181,0.754327952862,0.0,30.8999996185,0.7821966573143811,0.6064606749498327,0.25228359627491637,30.8999996185,0.0,1.2615299329338918,3.0540082681938165
1648639677369949512,142444,8,5,3.82243895531,-1.00345981121,0.702091813087,0.0,30.8999996185,1.2784076773612039,-0.3356052880301003,0.23481331541371234,30.8999996185,0.0,1.8388266064058085,4.013839069243908
1648639677370024158,142445,8,6,0.621112525463,-0.71987336874,0.131443858147,0.243430063128,30.8999996185,0.2077299416264214,-0.24076032399331102,0.04396115657090301,30.8999996185,0.03289595447675676,0.3798275804961996,0.9598311956550851
1648639677370030067,142446,8,7,0.761188864708,-0.899841725826,0.569203436375,0.243430063128,30.8999996185,0.25457821562140465,-0.3009504099752508,0.19036904226588627,30.8999996185,0.03289595447675676,0.4692454421752313,1.3088606385991124
1648639677370054910,142447,8,8,0.981295764446,-0.567172944546,-0.0459781102836,0.608575165272,30.8999996185,0.3281925633598662,-0.18968994800869562,-0.015377294409230769,30.8999996185,0.0822398871989189,0.501401030777741,1.1343458524497236
1648639677470069368,142448,9,0,0.0272018592805,0.081803791225,0.0134925413877,0.0,31.6000003815,0.009097611799498327,0.0273591275,0.004512555648060201,31.6000003815,0.0,0.030233341503545366,0.08725737837110573
1648639677470105588,142449,9,1,0.0697113797069,0.0272679310292,-0.0448400825262,0.0,31.6000003815,0.02331484271133779,0.00911970937431438,-0.014996683119130433,31.6000003815,0.0,0.034210128330376066,0.08725737518519121
1648639677470190732,142450,9,2,0.211466342211,-0.081803791225,-0.130823433399,0.0,31.6000003815,0.07072452916755852,-0.0273591275,-0.04375365665518394,31.6000003815,0.0,0.10369397238753528,0.26177212394215266
1648639677470240495,142451,9,3,0.949036180973,0.899841725826,-0.0522620081902,0.0,31.6000003815,0.3174034050076923,0.3009504099752508,-0.01747893250508361,31.6000003815,0.0,0.5404266761413854,1.3088606197121997
1648639677470278168,142452,9,4,0.892642974854,1.58290338516,0.465948343277,0.0,31.6000003815,0.298542800954515,0.5293991254715719,0.15583556631337792,31.6000003815,0.0,0.6771403414755315,1.8760337059631331
1648639677470305758,142453,9,5,2.33827447891,1.8133174181,0.755856335163,0.0,31.6000003815,0.7820315982976588,0.6064606749498327,0.25279476092408026,31.6000003815,0.0,1.2613252521584541,3.0540082509568838
1648639677470340247,142454,9,6,3.82191848755,-1.00345981121,0.70491951704,0.0,31.6000003815,1.2782336078762542,-0.3356052880301003,0.23575903579933108,31.6000003815,0.0,1.8385845702502939,4.013839065495027
1648639677470369005,142455,9,7,0.909058630466,-0.790769994259,0.386144012213,0.243430063128,31.6000003815,0.3040329867779264,-0.26447156998628757,0.1291451545862876,31.6000003815,0.03289595447675676,0.5047943397357237,1.2652319848996278
1648639677470408594,142456,9,8,0.801816344261,-0.316307991743,-0.926202893257,0.243430063128,31.6000003815,0.2681660014250836,-0.10578862600100333,-0.309766853932107,31.6000003815,0.03289595447675676,0.3937222904939674,1.2652319925777258
1648639677470570075,142457,9,9,0.595747888088,-0.783952951431,0.193478107452,0.486860126257,31.6000003815,0.19924678531371237,-0.2621916225521739,0.06470839714113712,31.6000003815,0.06579190895364864,0.3848935045596883,1.0034597920603974
1648639677570062978,142458,10,0,0.0272296071053,0.081803791225,0.0134364543483,0.0,36.4000015259,0.009106892008461539,0.0273591275,0.00449379744090301,36.4000015259,0.0,0.0302389289107405,0.08725737829746172
1648639677570102928,142459,10,1,0.0697292611003,0.0272679310292,-0.0448122732341,0.0,36.4000015259,0.023320823110468226,0.00911970937431438,-0.014987382352541805,36.4000015259,0.0,0.03421827991251833,0.08725737647107353
1648639677570131899,142460,10,2,0.211709693074,-0.081803791225,-0.130429267883,0.0,36.4000015259,0.07080591741605351,-0.0273591275,-0.04362182872341137,36.4000015259,0.0,0.10380499862636305,0.26177213052723175
1648639677570172534,142461,10,3,0.947644650936,0.899841725826,-0.0732843279839,0.0,36.4000015259,0.3169380103464883,0.3009504099752508,-0.024509808690267556,36.4000015259,0.0,0.5398801293519265,1.3088606147001212
1648639677570194417,142462,10,4,2.33899259567,1.8133174181,0.75363111496,0.0,36.4000015259,0.7822717711270903,0.6064606749498327,0.25205054012040135,36.4000015259,0.0,1.2616230808229676,3.0540082316227943
1648639677570214876,142463,10,5,3.82052373886,-1.00345981121,0.712440729141,0.0,36.4000015259,1.2777671367424748,-0.3356052880301003,0.238274491351505,36.4000015259,0.0,1.8379359675548794,4.013839187666263
1648639677570279012,142464,10,6,0.987473189831,-0.751231491566,0.247709408402,0.365145087242,36.4000015259,0.33025859191672235,-0.251247990490301,0.08284595598729097,36.4000015259,0.04934393070837838,0.5303461396060565,1.2652319967367076
1648639677570302104,142465,10,7,0.57169687748,-1.1834281683,0.319198846817,0.365145087242,36.4000015259,0.19120296905685616,-0.39579537401337794,0.10675546716287625,36.4000015259,0.04934393070837838,0.47934447826453985,1.352489354137613
1648639677570312631,142466,10,8,0.788361012936,-0.815311133862,-0.0222540423274,0.486860126257,36.4000015259,0.2636658906140468,-0.2726793089839465,-0.007442823520869565,36.4000015259,0.06579190895364864,0.46194524490956673,1.134345879402189
1648639677570326115,142467,10,9,2.82435870171,-3.01037955284,0.709169566631,0.852005243301,36.4000015259,0.9446015724782608,-1.006815903959866,0.23718045706722404,36.4000015259,0.11513584368932432,1.672788846783517,4.188353925149802
1648639677670237495,142468,11,0,0.0272223390639,0.081803791225,0.0134511729702,0.0,20.6000003815,0.009104461225384615,0.0273591275,0.004498720056923076,20.6000003815,0.0,0.03023746493954677,0.08725737823913553
1648639677670294065,142469,11,1,0.0697292611003,0.0272679310292,-0.0448122732341,0.0,20.6000003815,0.023320823110468226,0.00911970937431438,-0.014987382352541805,20.6000003815,0.0,0.03421827991251833,0.08725737647107353
1648639677670338495,142470,11,2,0.21220690012,-0.081803791225,-0.129618734121,0.0,20.6000003815,0.07097220739799331,-0.0273591275,-0.043350747197658863,20.6000003815,0.0,0.10403187157524761,0.26177212409355877
1648639677670369484,142471,11,3,0.948478221893,0.899841725826,-0.0615634806454,0.0,20.6000003815,0.3172167966197324,0.3009504099752508,-0.02058979285799331,20.6000003815,0.0,0.5402074984481804,1.3088606232490905
1648639677670404378,142472,11,4,2.33799219131,1.8133174181,0.756728947163,0.0,20.6000003815,0.7819371877290969,0.6064606749498327,0.2530866044023411,20.6000003815,0.0,1.2612081831989455,3.054008226067148
1648639677670426780,142473,11,5,3.82439446449,-1.00345981121,0.691360712051,0.0,20.6000003815,1.2790616938093644,-0.3356052880301003,0.23122431841170568,20.6000003815,0.0,1.8397359980428514,4.0138390908085775
1648639677670448131,142474,11,6,0.960278451443,-0.818037927151,0.348991811275,0.365145087242,20.6000003815,0.321163361686622,-0.273591279983612,0.11671966932274247,20.6000003815,0.04934393070837838,0.5302301370751903,1.3088605880307789
1648639677670460776,142475,11,7,0.654144585133,-0.852122783661,0.188800543547,0.608575165272,20.6000003815,0.2187774532217391,-0.28499089754548496,0.06314399449732441,20.6000003815,0.0822398871989189,0.42065063860662516,1.0907172052996317
1648639677670484337,142476,11,8,2.86109209061,-3.07309579849,0.806899428368,0.852005243301,20.6000003815,0.956886986826087,-1.0277912369531772,0.26986602955451505,20.6000003815,0.11513584368932432,1.6992999258141448,4.2756113510407605
1648639677770258872,142477,12,0,0.0272266287357,0.081803791225,0.0134424874559,0.0,20.7000007629,0.009105895898227424,0.0273591275,0.00449581520264214,20.7000007629,0.0,0.030238328951513942,0.08725737814131858
1648639677770295704,142478,12,1,0.0697175487876,0.0272679310292,-0.0448305010796,0.0,20.7000007629,0.0233169059490301,0.00911970937431438,-0.0149934786219398,20.7000007629,0.0,0.03421294060942128,0.08725738076869263
1648639677770421544,142479,12,2,0.207198351622,-0.0899841710925,-0.132273718715,0.0,20.7000007629,0.06929710756588629,-0.030095040499163877,-0.044238701911371234,20.7000007629,0.0,0.10251775308034382,0.26177212346767026
1648639677770463990,142480,12,3,0.947737455368,0.899841725826,-0.0720748007298,0.0,20.7000007629,0.3169690486180602,0.3009504099752508,-0.024105284525016722,20.7000007629,0.0,0.5399165720997531,1.3088606468013186
1648639677770511476,142481,12,4,2.34018516541,1.8133174181,0.749919116497,0.0,20.7000007629,0.7826706238829431,0.6064606749498327,0.2508090690625418,20.7000007629,0.0,1.2621177287556171,3.0540080793078332
1648639677770538998,142482,12,5,3.82585954666,-1.00345981121,0.683207273483,0.0,20.7000007629,1.2795516878461537,-0.3356052880301003,0.228497415880602,20.7000007629,0.0,1.840417331230514,4.01383918985591
1648639677770559395,142483,12,6,4.9432144165,1.47246825695,0.897956192493,0.243430063128,20.7000007629,1.653248968729097,0.49246429998327756,0.30031979682040133,20.7000007629,0.03289595447675676,2.3893483195142697,5.235442374704866
1648639677770577021,142484,12,7,0.877054154873,-0.959831178188,0.508572220802,0.365145087242,20.7000007629,0.2933291487869565,-0.32101377196923075,0.17009104374648829,20.7000007629,0.04934393070837838,0.5245320017406699,1.3961180412032625
1648639677770592400,142485,12,8,0.71676081419,-0.920292615891,0.164132714272,0.486860126257,20.7000007629,0.2397193358494983,-0.307790172538796,0.05489388437190635,20.7000007629,0.06579190895364864,0.45789246583855353,1.1779745801655082
1648639677870225271,142486,13,0,0.0271779745817,0.081803791225,0.013540587388,0.0,39.0,0.009089623605919733,0.0273591275,0.004528624544481605,39.0,0.0,0.030228535726294168,0.08725737830097226
1648639677870248397,142487,13,1,0.0697459131479,0.0272679310292,-0.0447863563895,0.0,39.0,0.02332639235715719,0.00911970937431438,-0.014978714511538462,39.0,0.0,0.03422587120691072,0.08725737895499111
1648639677870308996,142488,13,2,0.211709693074,-0.081803791225,-0.130429267883,0.0,39.0,0.07080591741605351,-0.0273591275,-0.04362182872341137,39.0,0.0,0.10380499862636305,0.26177213052723175
1648639677870331656,142489,13,3,0.949974000454,0.899841725826,-0.0308293290436,0.0,39.0,0.31771705700802677,0.3009504099752508,-0.010310812389163879,39.0,0.0,0.5407951607512358,1.308860642163775
1648639677870357724,142490,13,4,0.895587027073,1.58290338516,0.46026429534,0.0,39.0,0.2995274338036789,0.5293991254715719,0.15393454693645484,39.0,0.0,0.6780094403856776,1.8760337074203302
1648639677870372650,142491,13,5,2.33870029449,1.8133174181,0.754537284374,0.0,39.0,0.782174011535117,0.6064606749498327,0.25235360681404684,39.0,0.0,1.2615018505347035,3.0540081269935997
1648639677870396468,142492,13,6,3.83756875992,-1.00345981121,0.614035308361,0.0,39.0,1.283467812682274,-0.3356052880301003,0.2053629793849498,39.0,0.0,1.8458629856347974,4.0138391771147885
1648639677870466523,142493,13,7,0.73934596777,-0.954377532005,0.186669826508,0.365145087242,39.0,0.2472728989197324,-0.31918981003511704,0.062431380103010026,39.0,0.04934393070837838,0.47346584661471675,1.2216032734821234
1648639677870473878,142494,13,8,0.812099814415,-1.11253154278,0.550608932972,0.365145087242,39.0,0.27160528910200665,-0.37208412802006685,0.18415014480668895,39.0,0.04934393070837838,0.5347760881535587,1.4833754546040894
1648639677970195237,142495,14,0,0.0271779745817,0.081803791225,0.013540587388,0.0,21.1000003815,0.009089623605919733,0.0273591275,0.004528624544481605,21.1000003815,0.0,0.030228535726294168,0.08725737830097226
1648639677970453809,142496,14,1,0.0697292611003,0.0272679310292,-0.0448122732341,0.0,21.1000003815,0.023320823110468226,0.00911970937431438,-0.014987382352541805,21.1000003815,0.0,0.03421827991251833,0.08725737647107353
1648639677970500821,142497,14,2,0.21179433167,-0.081803791225,-0.130291774869,0.0,21.1000003815,0.07083422463879598,-0.0273591275,-0.043575844437792645,21.1000003815,0.0,0.10384361616353736,0.2617721256834645
1648639677970518453,142498,14,3,0.985854029655,0.858939826488,-0.058568675071,0.0,21.1000003815,0.32971706677424745,0.2872708449792642,-0.019588185642474915,21.1000003815,0.0,0.5476780318942212,1.3088606048826628
1648639677970545495,142499,14,4,1.12976324558,-0.6544303298,-0.0920448675752,0.0,21.1000003815,0.37784723932441466,-0.21887302,-0.03078423664722408,21.1000003815,0.0,0.577444777804842,1.30886068978808
1648639677970619161,142500,14,5,2.33984732628,1.8133174181,0.750972747803,0.0,21.1000003815,0.7825576342073578,0.6064606749498327,0.25116145411471574,21.1000003815,0.0,1.2619775956700026,3.0540081265489953
1648639677970631807,142501,14,6,3.82541918755,-1.00345981121,0.685668349266,0.0,21.1000003815,1.2794044105518394,-0.3356052880301003,0.22932051814916385,21.1000003815,0.0,1.8402125422985156,4.013839139573792
1648639677970646146,142502,14,7,0.822920501232,-0.948923945427,0.152174890041,0.243430063128,21.1000003815,0.2752242479036789,-0.3173658680357859,0.05089461205384615,21.1000003815,0.03289595447675676,0.5022129702251817,1.2652319956085765
1648639677970674153,142503,14,8,1.0128954649,-0.944833815098,0.39268630743,0.243430063128,21.1000003815,0.3387610250501672,-0.315997931470903,0.13133321318729096,21.1000003815,0.03289595447675676,0.5739100599222577,1.4397467475256325
1648639678070259966,142504,15,0,0.0271853078157,0.081803791225,0.0135258585215,0.0,22.5,0.009092076192541805,0.0273591275,0.004523698502173912,22.5,0.0,0.030230010859131812,0.0872573783044241
1648639678070313973,142505,15,1,0.0697354078293,0.0272679310292,-0.0448027104139,0.0,22.5,0.023322878872675586,0.00911970937431438,-0.014984184084916388,22.5,0.0,0.03422108205318692,0.08725737807293883
1648639678070343720,142506,15,2,0.21179433167,-0.081803791225,-0.130291774869,0.0,22.5,0.07083422463879598,-0.0273591275,-0.043575844437792645,22.5,0.0,0.10384361616353736,0.2617721256834645
1648639678070372215,142507,15,3,2.3393805027,1.8133174181,0.752426445484,0.0,22.5,0.7824015059197325,0.6064606749498327,0.2516476406301003,22.5,0.0,1.2617839685110668,3.0540083089378522
1648639678070390983,142508,15,4,3.83302402496,-1.00345981121,0.641794383526,0.0,22.5,1.2819478344347826,-0.3356052880301003,0.21464695101204012,22.5,0.0,1.8437492806175746,4.013839159627561
1648639678070439525,142509,15,5,1.05005204678,-1.01982057095,0.240331843495,0.121715031564,22.5,0.35118797551170566,-0.34107711403010027,0.08037854297491638,22.5,0.01644797723837838,0.6024944696867539,1.4833754389490734
1648639678070468063,142510,15,6,1.00836217403,-0.818037927151,-0.164729118347,0.243430063128,22.5,0.33724487425752503,-0.273591279983612,-0.055093350617725745,22.5,0.03289595447675676,0.5498367020389043,1.308860575731194
1648639678070486583,142511,15,7,0.932165324688,-0.899841725826,-0.185657665133,0.486860126257,22.5,0.3117609781565217,-0.3009504099752508,-0.06209286459297658,22.5,0.06579190895364864,0.5338173510354398,1.3088606085870396
1648639678070503852,142512,15,8,0.779593527317,-1.41247880459,0.0545695535839,0.486860126257,22.5,0.2607336211762542,-0.4724009379899666,0.018250686817357857,22.5,0.06579190895364864,0.5992717986332788,1.6142615269617573
1648639678070537774,142513,15,9,5.00127840042,1.47246825695,0.47844594717,-0.121715031564,22.5,1.6726683613444817,0.49246429998327756,0.16001536694648827,22.5,-0.01644797723837838,2.4162284620547965,5.235442572562171
1648639678170145773,142514,16,0,0.0272223390639,0.081803791225,0.0134511729702,0.0,11.6000003815,0.009104461225384615,0.0273591275,0.004498720056923076,11.6000003815,0.0,0.03023746493954677,0.08725737823913553
1648639678170219256,142515,16,1,0.0697292611003,0.0272679310292,-0.0448122732341,0.0,11.6000003815,0.023320823110468226,0.00911970937431438,-0.014987382352541805,11.6000003815,0.0,0.03421827991251833,0.08725737647107353
1648639678170258193,142516,16,2,0.211841985583,-0.081803791225,-0.13021427393,0.0,11.6000003815,0.07085016240234113,-0.0273591275,-0.04354992439130435,11.6000003815,0.0,0.10386535939589041,0.26177212275116013
1648639678170290413,142517,16,3,0.985456049442,0.858939826488,-0.0649227723479,0.0,11.6000003815,0.3295839630240803,0.2872708449792642,-0.02171330178859532,11.6000003815,0.0,0.547517776643295,1.3088606561733018
1648639678170314100,142518,16,4,1.13136684895,-0.6544303298,-0.0696145445108,0.0,11.6000003815,0.3783835615217391,-0.21887302,-0.023282456358127087,11.6000003815,0.0,0.5781467271754392,1.3088606450927596
1648639678170358692,142519,16,5,2.3380510807,1.8133174181,0.75654655695,0.0,11.6000003815,0.7819568831772575,0.6064606749498327,0.25302560433110366,11.6000003815,0.0,1.2612326052545537,3.054008121727935
1648639678170370258,142520,16,6,3.81938695908,-1.00345981121,0.718510329723,0.0,11.6000003815,1.2773869428361204,-0.3356052880301003,0.24030445810133777,11.6000003815,0.0,1.8374073344825275,4.01383923816371
1648639678170382434,142521,16,7,1.0691934824,-0.973465144634,0.331049203873,0.121715031564,11.6000003815,0.357589793444816,-0.32557362696789294,0.1107187972819398,11.6000003815,0.01644797723837838,0.6014475100362799,1.4833754298925408
1648639678170391615,142522,16,8,0.818449139595,-0.948923945427,0.174631893635,0.243430063128,11.6000003815,0.273728809229097,-0.3173658680357859,0.058405315596989964,11.6000003815,0.03289595447675676,0.5005756847850947,1.2652319734274367
1648639678170404201,142523,16,9,0.80224198103,-1.45065391064,0.0247179288417,0.365145087242,11.6000003815,0.26830835485953175,-0.4851685319866221,0.008266865833344482,11.6000003815,0.04934393070837838,0.6159279592654573,1.6578902076399051
1648639678170413894,142524,16,10,0.982077300549,-0.929836452007,-0.012482855469,0.486860126257,11.6000003815,0.3284539466719063,-0.3109820909722408,-0.004174868049832776,11.6000003815,0.06579190895364864,0.5589936055753858,1.3524893616643485
1648639678170561221,142525,16,11,5.03866004944,1.14525306225,0.842709600925,-0.243430063128,11.6000003815,1.6851705850969898,0.38302778001672233,0.28184267589464884,11.6000003815,-0.03289595447675676,2.413775068645958,5.235442592742936
1648639678170579604,142526,16,12,5.21379899979,1.3852108717,1.26429378986,-0.243430063128,11.6000003815,1.7437454848795986,0.463281227993311,0.4228407323946488,11.6000003815,-0.03289595447675676,2.509168413695454,5.540843614140869
