%time,field.header.seq,field.header.frame_id,field.point_id,field.x,field.y,field.z,field.velocity,field.intensity,normalized_x,normalized_y,normalized_z,normalized_intensity,normalized_velocity,normalized_range,range
1648639192763011132,96715,0,0,0.0272733978927,0.081803791225,0.0133473407477,0.0,15.8000001907,0.009121537756755851,0.0273591275,0.004463993561103679,15.8000001907,0.0,0.030247756274757,0.08725737789111092
1648639192763015497,96716,0,1,0.0696903839707,0.0272679310292,-0.0448727123439,0.0,15.8000001907,0.02330782072598662,0.00911970937431438,-0.015007596101638794,15.8000001907,0.0,0.034200557203961174,0.08725737787542784
1648639192763018554,96717,0,2,0.212264195085,-0.081803791225,-0.129524901509,0.0,15.8000001907,0.07099136959364548,-0.0273591275,-0.04331936505317726,15.8000001907,0.0,0.10405801733227671,0.26177213160453594
1648639192763025279,96718,0,3,0.865430355072,0.588987290859,-0.0227706525475,0.0,15.8000001907,0.2894415903250836,0.1969857160063545,-0.007615602858695651,15.8000001907,0.0,0.4542645052503697,1.0470884541866132
1648639192763028722,96719,0,4,1.00514864922,0.648976743221,0.246616944671,0.0,15.8000001907,0.3361701167959866,0.21704907800033443,0.08248058350200668,15.8000001907,0.0,0.5226193615950807,1.2216032652499687
1648639192763032434,96720,0,5,1.37793731689,-1.25977838039,0.446487337351,0.0,15.8000001907,0.46084860096655517,-0.42133056200334446,0.1493268686792642,15.8000001907,0.0,0.7760684947243487,1.9196624076620477
1648639192763036399,96721,0,6,1.11490368843,1.5597256422,0.0966928899288,0.0,15.8000001907,0.3728774877692308,0.5216473719732442,0.0323387591735117,15.8000001907,0.0,0.7417487596597502,1.9196624256295178
1648639192763090511,96722,0,7,3.82186365128,-1.00345981121,0.705217659473,0.0,15.8000001907,1.278215267986622,-0.3356052880301003,0.23585874898762538,15.8000001907,0.0,1.8385590694840321,4.013839223103172
1648639192763094313,96723,0,8,1.41431450844,-1.37975728512,0.351724743843,0.121715031564,15.8000001907,0.47301488576588624,-0.461457285993311,0.11763369359297658,15.8000001907,0.01644797723837838,0.8126678233500704,2.006919527548879
1648639192863004167,96724,1,0,0.0272016003728,0.081803791225,0.0134930610657,0.0,13.8999996185,0.009097525208294313,0.0273591275,0.004512729453411371,13.8999996185,0.0,0.030233289390874378,0.08725737801783646
1648639192863010945,96725,1,1,0.0697592124343,0.0272679310292,-0.0447656363249,0.0,13.8999996185,0.0233308402790301,0.00911970937431438,-0.014971784724046823,13.8999996185,0.0,0.034231934145227384,0.08725737778342993
1648639192863020613,96726,1,2,0.21262319386,-0.081803791225,-0.128934711218,0.0,13.8999996185,0.07111143607357859,-0.0273591275,-0.04312197699598661,13.8999996185,0.0,0.10422185249962967,0.26177211956753454
1648639192863034618,96727,1,3,0.865332484245,0.588987290859,-0.0262284893543,0.0,13.8999996185,0.2894088576070234,0.1969857160063545,-0.008772070018160534,13.8999996185,0.0,0.4542227933881575,1.0470884732136325
1648639192863103263,96728,1,4,0.960467219353,0.602621257305,0.0330277904868,0.0,13.8999996185,0.3212264947668896,0.20154557100501672,0.011046083774849497,13.8999996185,0.0,0.4969844455032605,1.134345844155116
1648639192863117940,96729,1,5,3.821403265,-1.00345981121,0.70770829916,0.0,13.8999996185,1.2780612926421404,-0.3356052880301003,0.23669173884949832,13.8999996185,0.0,1.8383449743870066,4.013839252282808
1648639192963184106,96730,2,0,0.0272776074708,0.081803791225,0.0133387390524,0.0,15.6999998093,0.009122945642408026,0.0273591275,0.00446111673993311,15.6999998093,0.0,0.03024860545463079,0.08725737841364736
1648639192963207523,96731,2,1,0.0697322636843,0.0272679310292,-0.0448075979948,0.0,15.6999998093,0.023321827319163876,0.00911970937431438,-0.014985818727357858,15.6999998093,0.0,0.034219648713593696,0.08725737504196168
1648639192963209628,96732,2,2,0.211881443858,-0.081803791225,-0.130150049925,0.0,15.6999998093,0.07086335914983277,-0.0273591275,-0.0435284447909699,15.6999998093,0.0,0.10388336343013559,0.261772118464924
1648639192963301276,96733,2,3,0.960080564022,0.602621257305,0.0428192652762,0.0,15.6999998093,0.32109717860267556,0.20154557100501672,0.014320824507090301,15.6999998093,0.0,0.4968172837220292,1.1343458725836024
1648639192963357857,96734,2,4,3.82543158531,-1.00345981121,0.685599863529,0.0,15.6999998093,1.279408556959866,-0.3356052880301003,0.22929761322040135,15.6999998093,0.0,1.840218307864048,4.0138392568053805
1648639192963361352,96735,2,5,1.478687644,-1.4097520113,0.175586864352,0.243430063128,15.6999998093,0.494544362541806,-0.4714889669899665,0.058724703796655515,15.6999998093,0.03289595447675676,0.8434750138783177,2.0505483727080502
1648639193063156365,96736,3,0,0.0272703841329,0.081803791225,0.0133534995839,0.0,22.8999996185,0.009120529810334448,0.0273591275,0.004466053372541806,22.8999996185,0.0,0.03024714838796634,0.08725737825924253
1648639193063169897,96737,3,1,0.0697413980961,0.0272679310292,-0.0447933785617,0.0,22.8999996185,0.02332488230638796,0.00911970937431438,-0.014981063064113712,22.8999996185,0.0,0.03422381288351223,0.08725737466818305
1648639193063177995,96738,3,2,0.211372151971,-0.081803791225,-0.130975559354,0.0,22.8999996185,0.07069302741505017,-0.0273591275,-0.04380453490100334,22.8999996185,0.0,0.1036510014798281,0.26177212234255975
1648639193063182821,96739,3,3,0.886825144291,0.556265771389,-0.0224466118962,0.0,22.8999996185,0.2965970382244147,0.186042064009699,-0.007507228058929766,22.8999996185,0.0,0.4588586446259662,1.047088484967422
1648639193063185502,96740,3,4,1.01421892643,0.648976743221,0.20616453886,0.0,22.8999996185,0.3392036543244146,0.21704907800033443,0.06895135078929765,22.8999996185,0.0,0.526524966620643,1.2216033157510313
1648639193063190432,96741,3,5,3.82908034325,-1.00345981121,0.664918601513,0.0,22.8999996185,1.280628877341137,-0.3356052880301003,0.22238080318160533,22.8999996185,0.0,1.8419151859718752,4.013839136589201
1648639193063345981,96742,3,6,1.28288197517,-1.41111540794,0.466346114874,0.365145087242,22.8999996185,0.4290575167792642,-0.47194495248829427,0.1559686002923077,22.8999996185,0.04934393070837838,0.7687084906443765,1.9632910012526994
1648639193063349075,96743,3,7,1.43839728832,-1.50518977642,0.225818708539,0.486860126257,22.8999996185,0.48106932719732437,-0.503407951979933,0.07552465168528427,22.8999996185,0.06579190895364864,0.8463302908775056,2.0941769531756003
1648639193163218525,96744,4,0,0.0272303316742,0.081803791225,0.0134349875152,0.0,16.5,0.009107134339197324,0.0273591275,0.0044933068612709025,16.5,0.0,0.030239074875161615,0.08725737854991925
1648639193163230329,96745,4,1,0.0697249174118,0.0272679310292,-0.0448190309107,0.0,16.5,0.02331937037183946,0.00911970937431438,-0.014989642445050166,16.5,0.0,0.0342162997436895,0.08725737620665557
1648639193163244787,96746,4,2,0.211127609015,-0.081803791225,-0.131369411945,0.0,16.5,0.07061124047324414,-0.0273591275,-0.043936258175585274,16.5,0.0,0.10353944378787187,0.2617721336237859
1648639193163438736,96747,4,3,0.980191767216,0.567172944546,0.0654177218676,0.0,16.5,0.32782333351705684,0.18968994800869562,0.02187883674501672,16.5,0.0,0.5009177101800382,1.1343458590206745
1648639193163443644,96748,4,4,3.82707595825,-1.00345981121,0.676360249519,0.0,16.5,1.2799585144648828,-0.3356052880301003,0.2262074413107023,16.5,0.0,1.840983027313415,4.013839205805106
1648639193163448969,96749,4,5,1.53620362282,-1.46974146366,0.22394618392,0.243430063128,16.5,0.5137804758595317,-0.49155232898327755,0.074898389270903,16.5,0.03289595447675676,0.8772482242089624,2.137805752181208
1648639193163474551,96750,4,6,5.30805778503,-3.52301669121,1.84132361412,0.243430063128,16.5,1.7752701622173912,-1.178266451909699,0.6158272956923077,16.5,0.03289595447675676,2.773351786091082,6.631560653999764
1648639193163503455,96751,4,7,1.18654942513,-1.60199081898,0.480077564716,0.730290174484,16.5,0.39683927261872903,-0.5357828826020067,0.16056105843344481,16.5,0.09868786141675676,0.775903417877792,2.050548363369221
1648639193263270625,96752,5,0,0.0272333621979,0.081803791225,0.0134288398549,0.0,17.2999992371,0.009108147892274246,0.0273591275,0.004491250787591973,17.2999992371,0.0,0.030239685408686642,0.0872573779988486
1648639193263283746,96753,5,1,0.0698152408004,0.0272679310292,-0.0446782074869,0.0,17.2999992371,0.02334957886301003,0.00911970937431438,-0.014942544309999998,17.2999992371,0.0,0.034257477508301847,0.08725737868440428
1648639193263293503,96754,5,2,0.211908280849,-0.081803791225,-0.13010635972,0.0,17.2999992371,0.07087233473210702,-0.0273591275,-0.043513832682274246,17.2999992371,0.0,0.10389560875379143,0.26177212340268796
1648639193263299183,96755,5,3,0.864082634449,0.588987290859,0.0533804185688,0.0,17.2999992371,0.288990847641806,0.1969857160063545,0.017852982798929766,17.2999992371,0.0,0.453690194242718,1.047088485772014
1648639193263304466,96756,5,4,1.03399503231,0.515363872051,0.229953512549,0.0,17.2999992371,0.34581773655852843,0.17236249901371237,0.076907529280602,17.2999992371,0.0,0.5185447376101502,1.1779746454787474
1648639193263309425,96757,5,5,1.01069259644,0.818037927151,0.149767711759,0.0,17.2999992371,0.3380242797458194,0.273591279983612,0.050089535705351164,17.2999992371,0.0,0.5507930790037499,1.3088605511060605
1648639193263410899,96758,5,6,3.83545279503,-1.00345981121,0.627116978168,0.0,17.2999992371,1.2827601321170568,-0.3356052880301003,0.20973811978862877,17.2999992371,0.0,1.8448788638964089,4.013839239421979
1648639193263416247,96759,5,7,1.32719147205,-1.50518965721,0.0263282638043,0.486860126257,17.2999992371,0.4438767465050167,-0.5034079121103678,0.008805439399431438,17.2999992371,0.06579190895364864,0.8046568573939313,2.0069196010625716
1648639193363180114,96760,6,0,0.0272431503981,0.081803791225,0.0134089719504,0.0,21.6000003815,0.009111421537826087,0.0273591275,0.004484606003478261,21.6000003815,0.0,0.03024165773302083,0.08725737809012771
1648639193363187156,96761,6,1,0.0697354078293,0.0272679310292,-0.0448027104139,0.0,21.6000003815,0.023322878872675586,0.00911970937431438,-0.014984184084916388,21.6000003815,0.0,0.03422108205318692,0.08725737807293883
1648639193363200932,96762,6,2,0.212285220623,-0.081803791225,-0.129490420222,0.0,21.6000003815,0.07099840154615385,-0.0273591275,-0.04330783285016722,21.6000003815,0.0,0.10406761216526042,0.26177212243286974
1648639193363371314,96763,6,3,0.837850511074,0.621708810329,0.0887634009123,0.0,21.6000003815,0.280217562232107,0.20792936800301004,0.029686756157959866,21.6000003815,0.0,0.4475247327743358,1.0470884705167856
1648639193363374180,96764,6,4,1.0364562273,0.515363872051,0.218592807651,0.0,21.6000003815,0.34664087869565213,0.17236249901371237,0.0731079624250836,21.6000003815,0.0,0.5196427894544864,1.1779746377919584
1648639193363463413,96765,6,5,1.00464653969,0.751231491566,0.164767920971,0.0,21.6000003815,0.3360021871872909,0.251247990490301,0.05510632808394648,21.6000003815,0.0,0.5375132485015611,1.2652319516249475
1648639193363467808,96766,6,6,3.83470392227,-1.00345981121,0.631679356098,0.0,21.6000003815,1.2825096729999999,-0.3356052880301003,0.21126399869498325,21.6000003815,0.0,1.8445305722678873,4.013839131443476
1648639193363470931,96767,6,7,1.26342666149,-1.60199081898,0.205248728395,0.365145087242,21.6000003815,0.4225507229063545,-0.5357828826020067,0.0686450596638796,21.6000003815,0.04934393070837838,0.8025967381859218,2.0505483543598144
1648639193463281034,96768,7,0,0.0272703841329,0.081803791225,0.0133534995839,0.0,22.3999996185,0.009120529810334448,0.0273591275,0.004466053372541806,22.3999996185,0.0,0.03024714838796634,0.08725737825924253
1648639193463286148,96769,7,1,0.0697249174118,0.0272679310292,-0.0448190309107,0.0,22.3999996185,0.02331937037183946,0.00911970937431438,-0.014989642445050166,22.3999996185,0.0,0.0342162997436895,0.08725737620665557
1648639193463288975,96770,7,2,0.211523547769,-0.081803791225,-0.130730912089,0.0,22.3999996185,0.070743661461204,-0.0273591275,-0.04372271307324414,22.3999996185,0.0,0.10372007101538322,0.261772120164065
1648639193463301063,96771,7,3,0.968639433384,0.625799000263,0.240286022425,0.0,22.3999996185,0.32395967671705683,0.20929732450267555,0.08036321820234113,22.3999996185,0.0,0.5036914872431518,1.1779745808842712
1648639193463315156,96772,7,4,3.82880806923,-1.00345981121,0.666484773159,0.0,22.3999996185,1.2805378157959866,-0.3356052880301003,0.2229046064076923,22.3999996185,0.0,1.8417885613503193,4.01383915678832
1648639193463338632,96773,7,5,1.37543272972,-1.60335421562,0.328105956316,-0.121715031564,22.3999996185,0.4600109463946488,-0.5362388681003344,0.10973443355050166,22.3999996185,-0.01644797723837838,0.8430731079018763,2.1378057566817135
1648639193563202379,96774,8,0,0.0272389091551,0.081803791225,0.0134175848216,0.0,12.8000001907,0.009110003061906354,0.0273591275,0.004487486562408026,12.8000001907,0.0,0.030240803050467138,0.08725737798712502
1648639193563221944,96775,8,1,0.0697082579136,0.0272679310292,-0.0448449403048,0.0,12.8000001907,0.023313798633311036,0.00911970937431438,-0.01499830779424749,12.8000001907,0.0,0.0342087052152096,0.08725737765314323
1648639193563254566,96776,8,2,0.212159082294,-0.081803791225,-0.12969699502,0.0,12.8000001907,0.07095621481404682,-0.0273591275,-0.04337692141137124,12.8000001907,0.0,0.10401005095199008,0.2617721279583324
1648639193563387909,96777,8,3,0.793019890785,0.6544303298,-0.198077604175,0.0,12.8000001907,0.26522404374080266,0.21887302,-0.06624669035953178,12.8000001907,0.0,0.4342729391066945,1.04708850677414
1648639193563392531,96778,8,4,0.995819985867,0.751231491566,0.211673736572,0.0,12.8000001907,0.3330501624973244,0.251247990490301,0.07079389183010033,12.8000001907,0.0,0.533826164780636,1.265231982257397
1648639193563527888,96779,8,5,3.83285856247,-1.00345981121,0.642782330513,0.0,12.8000001907,1.2818924958093645,-0.3356052880301003,0.2149773680645485,12.8000001907,0.0,1.8436723274428377,4.01383924404465
1648639193563534773,96780,8,6,1.47110283375,-1.63062226772,0.569113135338,-0.365145087242,12.8000001907,0.4920076367056856,-0.5453586179665552,0.1903388412501672,12.8000001907,-0.04934393070837838,0.8840582850377111,2.268691756996936
1648639193563536614,96781,8,7,1.45615506172,-1.53654789925,0.298070788383,-0.243430063128,12.8000001907,0.48700838184615386,-0.5138956184782608,0.09968922688394648,12.8000001907,-0.03289595447675676,0.8593270824709138,2.1378056986895766
1648639193663219804,96782,9,0,0.0272376146168,0.081803791225,0.0134202167392,0.0,33.7000007629,0.009109570105953176,0.0273591275,0.004488366802408027,33.7000007629,0.0,0.03024054220069157,0.08725737863426684
1648639193663226917,96783,9,1,0.0697187483311,0.0272679310292,-0.0448286235332,0.0,33.7000007629,0.023317307134147158,0.00911970937431438,-0.01499285068,33.7000007629,0.0,0.03421348744352522,0.08725737458432863
1648639193663233372,96784,9,2,0.212886750698,-0.081803791225,-0.12849907577,0.0,33.7000007629,0.07119958217324414,-0.0273591275,-0.04297627952173913,33.7000007629,0.0,0.10434214326364177,0.2617721172227478
1648639193663237107,96785,9,3,0.84165763855,0.621708810329,-0.0385345071554,0.0,33.7000007629,0.2814908490133779,0.20792936800301004,-0.012887795035250836,33.7000007629,0.0,0.449120048800625,1.0470885032374162
1648639193663252667,96786,9,4,1.01372027397,0.515363872051,0.307238519192,0.0,33.7000007629,0.33903688092642137,0.17236249901371237,0.10275535758929766,33.7000007629,0.0,0.5095103966779135,1.177974627124245
1648639193663258161,96787,9,5,0.987486422062,0.858939826488,-0.014458835125,0.0,33.7000007629,0.3302630174120401,0.2872708449792642,-0.004835730811036789,33.7000007629,0.0,0.5483355357035613,1.3088606179411229
1648639193663261846,96788,9,6,3.82360696793,-1.00345981121,0.695704221725,0.0,33.7000007629,1.2787983170334447,-0.3356052880301003,0.23267699723244145,33.7000007629,0.0,1.8393697781166536,4.01383933435837
1648639193663350180,96789,9,7,1.38091409206,-1.50518977642,0.461581289768,-0.486860126257,33.7000007629,0.4618441779464883,-0.503407951979933,0.15437501330033443,33.7000007629,-0.06579190895364864,0.8246330429486595,2.094176993416047
1648639193663359378,96790,9,8,1.44543993473,-1.56790602207,0.459380209446,-0.486860126257,33.7000007629,0.48342472733444813,-0.5243832849732442,0.1536388660354515,33.7000007629,-0.06579190895364864,0.8616128849756726,2.1814344078578864
1648639193663363762,96791,9,9,1.29199576378,-1.67016065121,0.333951622248,-0.243430063128,33.7000007629,0.43210560661538455,-0.5585821575953177,0.11168950576856188,33.7000007629,-0.03289595447675676,0.8279157791229366,2.137805730293973
1648639193763131666,96792,10,0,0.0272733978927,0.081803791225,0.0133473407477,0.0,26.7999992371,0.009121537756755851,0.0273591275,0.004463993561103679,26.7999992371,0.0,0.030247756274757,0.08725737789111092
1648639193763140857,96793,10,1,0.0697249174118,0.0272679310292,-0.0448190309107,0.0,26.7999992371,0.02331937037183946,0.00911970937431438,-0.014989642445050166,26.7999992371,0.0,0.0342162997436895,0.08725737620665557
1648639193763151383,96794,10,2,0.212434381247,-0.081803791225,-0.129245579243,0.0,26.7999992371,0.07104828804247491,-0.0273591275,-0.04322594623511706,26.7999992371,0.0,0.10413568228563264,0.26177212675996986
1648639193763174776,96795,10,3,0.842516183853,0.621708810329,-0.00624587712809,0.0,26.7999992371,0.2817779879107023,0.20792936800301004,-0.00208892211641806,26.7999992371,0.0,0.44948002293777084,1.0470885234191147
1648639193763226906,96796,10,4,0.991861701012,0.531724631786,0.142196342349,0.0,26.7999992371,0.3317263214086956,0.17783432501204013,0.04755730513344481,26.7999992371,0.0,0.5017068384855626,1.134345854561037
1648639193763231861,96797,10,5,1.05429971218,0.672154486179,0.193578228354,0.0,26.7999992371,0.3526085993913043,0.2248008314979933,0.06474188239264213,26.7999992371,0.0,0.5469927445328537,1.2652320209693002
1648639193763240090,96798,10,6,3.82942867279,-1.00345981121,0.662910699844,0.0,26.7999992371,1.2807453755150502,-0.3356052880301003,0.2217092641618729,26.7999992371,0.0,1.8420771816512305,4.0138393277095
1648639193763249150,96799,10,7,1.35663866997,-1.44247353077,0.326385974884,-0.608575165272,26.7999992371,0.4537253076822742,-0.48243261898662204,0.10915918892441472,26.7999992371,-0.0822398871989189,0.8027917173993763,2.0069195729851805
1648639193863330009,96800,11,0,0.0272848196328,0.081803791225,0.0133239785209,0.0,32.9000015259,0.009125357736722408,0.0273591275,0.004456180107324415,32.9000015259,0.0,0.03025006058188273,0.0872573781682857
1648639193863339458,96801,11,1,0.0697249174118,0.0272679310292,-0.0448190309107,0.0,32.9000015259,0.02331937037183946,0.00911970937431438,-0.014989642445050166,32.9000015259,0.0,0.0342162997436895,0.08725737620665557
1648639193863346365,96802,11,2,0.213142827153,-0.081803791225,-0.128073900938,0.0,32.9000015259,0.07128522647257525,-0.0273591275,-0.0428340805812709,32.9000015259,0.0,0.10445902969132895,0.26177213206724975
1648639193863351197,96803,11,3,0.833132326603,0.621708810329,-0.12555064261,0.0,32.9000015259,0.2786395741147157,0.20792936800301004,-0.04199018147491639,32.9000015259,0.0,0.44554982505191426,1.047088478750202
1648639193863365984,96804,11,4,1.01886343956,0.496276319027,0.0486577786505,0.0,32.9000015259,0.3407570031973244,0.16597870201571904,0.016273504565384615,32.9000015259,0.0,0.5096857855373893,1.1343458347092492
1648639193863509501,96805,11,5,0.949734866619,0.899841725826,0.0374795682728,0.0,32.9000015259,0.3176370791367893,0.3009504099752508,0.012534972666488294,32.9000015259,0.0,0.5407011904456781,1.3088606367552045
1648639193863513310,96806,11,6,3.82197809219,-1.00345981121,0.704596698284,0.0,32.9000015259,1.2782535425384616,-0.3356052880301003,0.23565106966020063,32.9000015259,0.0,1.8386122884877116,4.01383913941835
1648639193863516678,96807,11,7,1.55946731567,-1.5597256422,0.531300008297,-0.730290174484,32.9000015259,0.5215609751404682,-0.5216473719732442,0.17769231046722406,32.9000015259,-0.09868786141675676,0.903419992177251,2.2686917125064814
1648639193863538198,96808,11,8,1.3260204792,-1.41111540794,0.323936402798,-0.486860126257,32.9000015259,0.4434851101003344,-0.47194495248829427,0.10833993404615384,32.9000015259,-0.06579190895364864,0.7849140869806006,1.9632910632000489
1648639193863540551,96809,11,9,1.19630885124,-1.67016065121,0.591288268566,-0.486860126257,32.9000015259,0.40010329472909695,-0.5585821575953177,0.19775527376789298,32.9000015259,-0.06579190895364864,0.7950970504850321,2.1378057173066867
1648639193863541732,96810,11,10,1.44593834877,-0.868483543396,-1.31347322464,-0.486860126257,32.9000015259,0.483591420993311,-0.2904627235438127,-0.4392887038929766,32.9000015259,-0.06579190895364864,0.7430275356170515,2.1378057174213905
1648639193863542923,96811,11,11,1.71233832836,-1.60880792141,1.05146896839,-0.365145087242,32.9000015259,0.5726884041337792,-0.5380628499698996,0.3516618623377926,32.9000015259,-0.04934393070837838,0.9723454360340877,2.574092552774553
1648639193863544120,96812,11,12,5.38719034195,-3.25033736229,1.63470435143,-0.365145087242,32.9000015259,1.8017359003177258,-1.0870693519364547,0.546723863354515,32.9000015259,-0.04934393070837838,2.7702390302836677,6.500674662347121
1648639193963321372,96813,12,0,0.0272260792553,0.081803791225,0.0134436003864,0.0,12.5,0.009105712125518394,0.0273591275,0.004496187420200669,12.5,0.0,0.030238218270706392,0.0872573781507815
1648639193963328870,96814,12,1,0.0696343630552,0.0272679310292,-0.044959589839,0.0,12.5,0.023289084633846154,0.00911970937431438,-0.01503665212006689,12.5,0.0,0.03417502048626827,0.08725737389589332
1648639193963331039,96815,12,2,0.211881443858,-0.081803791225,-0.130150049925,0.0,12.5,0.07086335914983277,-0.0273591275,-0.0435284447909699,12.5,0.0,0.10388336343013559,0.261772118464924
1648639193963332714,96816,12,3,1.03151631355,0.460828006268,0.101745985448,0.0,12.5,0.34498873362876253,0.15412307901939798,0.034028757674916386,12.5,0.0,0.5116525932192411,1.1343458917083036
1648639193963334882,96817,12,4,0.938349664211,0.97210174799,0.0612002201378,0.0,12.5,0.31382931913411366,0.3251176414682274,0.020468301049431436,12.5,0.0,0.5501628521540013,1.3524893225881767
1648639193963340966,96818,12,5,3.82461237907,-1.00345981121,0.690154790878,0.0,12.5,1.2791345749397993,-0.3356052880301003,0.23082100029364547,12.5,0.0,1.8398373381814517,4.013839194365034
1648639193963519137,96819,12,6,1.19885647297,-1.43974673748,0.41830137372,-0.365145087242,12.5,0.40095534213043477,-0.48152064798662203,0.13990012498996654,12.5,-0.04934393070837838,0.7439035604185024,1.9196623531554737
1648639193963615184,96820,12,7,2.07581853867,-1.42338597775,0.261145591736,-0.365145087242,12.5,0.6942536918628762,-0.4760488219899665,0.08733966278795986,12.5,-0.04934393070837838,1.0911456631671603,2.5304638442832026
1648639193963618413,96821,12,8,5.1601805687,-3.43030571938,1.81631028652,-0.365145087242,12.5,1.7258128992307693,-1.1472594379197325,0.6074616342876253,12.5,-0.04934393070837838,2.6968619809323813,6.457046065107369
1648639193963619566,96822,12,9,1.07028245926,-1.69333839417,0.121764875948,-0.243430063128,12.5,0.35795399975250836,-0.5663339110936454,0.04072403877859532,12.5,-0.03289595447675676,0.7596026795188802,2.006919566097381
1648639194063162936,96823,13,0,0.0272376146168,0.081803791225,0.0134202167392,0.0,13.8000001907,0.009109570105953176,0.0273591275,0.004488366802408027,13.8000001907,0.0,0.03024054220069157,0.08725737863426684
1648639194063168539,96824,13,1,0.0698152408004,0.0272679310292,-0.0446782074869,0.0,13.8000001907,0.02334957886301003,0.00911970937431438,-0.014942544309999998,13.8000001907,0.0,0.034257477508301847,0.08725737868440428
1648639194063171378,96825,13,2,0.2126391083,-0.081803791225,-0.128908470273,0.0,13.8000001907,0.07111675862876253,-0.0273591275,-0.04311320076020067,13.8000001907,0.0,0.10422911576562759,0.2617721229342946
1648639194063175847,96826,13,3,1.0045170784,0.552175581455,0.271425396204,0.0,13.8000001907,0.3359588890969899,0.18467410751003344,0.09077772448294315,13.8000001907,0.0,0.5097462862161867,1.1779746089186036
1648639194063282111,96827,13,4,1.01157164574,0.818037927151,0.143711313605,0.0,13.8000001907,0.33831827616722404,0.273591279983612,0.04806398448327759,13.8000001907,0.0,0.551153971645488,1.308860644370023
1648639194063287432,96828,13,5,3.81921362877,-1.00345981121,0.71943128109,0.0,13.8000001907,1.277328972832776,-0.3356052880301003,0.24061246859197322,13.8000001907,0.0,1.8373267317028388,4.013839272206464
1648639194063325732,96829,13,6,1.52816152573,-1.46974146366,0.27348780632,-0.608575165272,13.8000001907,0.5110908112809365,-0.49155232898327755,0.09146749375250836,13.8000001907,-0.0822398871989189,0.8741002956643454,2.137805697187798
1648639194063329009,96830,13,7,1.19247508049,-1.40702521801,0.343198925257,-0.365145087242,13.8000001907,0.3988210971538461,-0.47057699598996655,0.11478224924983277,13.8000001907,-0.04934393070837838,0.7345469652955733,1.8760336574814642
1648639194163238924,96831,14,0,0.0272406358272,0.081803791225,0.0134140793234,0.0,25.1000003815,0.009110580544214045,0.0273591275,0.004486314154983277,25.1000003815,0.0,0.030241150991099516,0.08725737804419742
1648639194163248466,96832,14,1,0.0698385164142,0.0272679310292,-0.0446418076754,0.0,25.1000003815,0.023357363349230765,0.00911970937431438,-0.014930370459999998,25.1000003815,0.0,0.034268089300804834,0.08725737464579766
1648639194163271220,96833,14,2,0.211908280849,-0.081803791225,-0.13010635972,0.0,25.1000003815,0.07087233473210702,-0.0273591275,-0.043513832682274246,25.1000003815,0.0,0.10389560875379143,0.26177212340268796
1648639194163287595,96834,14,3,0.789608597755,0.68715184927,-0.0271097384393,0.0,25.1000003815,0.2640831430618729,0.22981667199665548,-0.00906680215361204,25.1000003815,0.0,0.43851512588107333,1.047088506059562
1648639194163301526,96835,14,4,0.926866531372,0.68715184927,0.401317089796,0.0,25.1000003815,0.30998880647892973,0.22981667199665548,0.13421976247357859,25.1000003815,0.0,0.49497658834745,1.2216033061084413
1648639194163341176,96836,14,5,1.0141980648,0.818037927151,0.123823471367,0.0,25.1000003815,0.3391966771906354,0.273591279983612,0.04141253222976588,25.1000003815,0.0,0.5522327046792931,1.3088605796504624
1648639194163522490,96837,14,6,3.82318782806,-1.00345981121,0.698003292084,0.0,25.1000003815,1.2786581364749163,-0.3356052880301003,0.23344591708494983,25.1000003815,0.0,1.8391748609908678,4.013839229104705
1648639194163525784,96838,14,7,1.51244354248,-1.31704103947,0.0751219689846,-0.730290174484,25.1000003815,0.5058339606956521,-0.440481953,0.025124404342675582,25.1000003815,-0.09868786141675676,0.8400954365456316,2.0069194998957465
1648639194163527725,96839,14,8,1.40000855923,0.286313265562,-0.538277328014,-0.486860126257,25.1000003815,0.46823028736789296,0.09575694500401337,-0.18002586221204012,25.1000003815,-0.06579190895364864,0.6690654650583461,1.5270041695450371
1648639194163529020,96840,14,9,1.29018974304,-1.34839916229,0.191657349467,-0.365145087242,25.1000003815,0.4315015863010033,-0.45096961949498326,0.06409944798227424,25.1000003815,-0.04934393070837838,0.7587890587429515,1.8760336919988168
1648639194263192626,96841,15,0,0.0272345785052,0.081803791225,0.013426374644,0.0,20.2000007629,0.009108554684013377,0.0273591275,0.004490426302341137,20.2000007629,0.0,0.030239930463289433,0.08725737826235863
1648639194263200061,96842,15,1,0.0697249174118,0.0272679310292,-0.0448190309107,0.0,20.2000007629,0.02331937037183946,0.00911970937431438,-0.014989642445050166,20.2000007629,0.0,0.0342162997436895,0.08725737620665557
1648639194263206658,96843,15,2,0.212539941072,-0.081803791225,-0.12907192111,0.0,20.2000007629,0.07108359233177257,-0.0273591275,-0.043167866591973234,20.2000007629,0.0,0.10418385697957495,0.2617721292053428
1648639194263210970,96844,15,3,0.948959708214,0.725326955318,0.256302267313,0.0,20.2000007629,0.3173778288341137,0.2425842659926421,0.0857198218438127,20.2000007629,0.0,0.5102004494099363,1.221603279364567
1648639194263221523,96845,15,4,0.944026470184,0.899841725826,0.110521748662,0.0,20.2000007629,0.3157279164494983,0.3009504099752508,0.036963795539130435,20.2000007629,0.0,0.5384601969647843,1.308860636153782
1648639194263360632,96846,15,5,3.81928944588,-1.00345981121,0.719028830528,0.0,20.2000007629,1.2773543297257524,-0.3356052880301003,0.24047786974180602,20.2000007629,0.0,1.8373619884747856,4.013839299630022
1648639194263365553,96847,15,6,1.39349746704,-1.31976783276,0.0384897813201,-0.852005243301,20.2000007629,0.4660526645618729,-0.44139392399999994,0.012872836561906355,20.2000007629,-0.11513584368932432,0.7932457175645898,1.9196624146711296
1648639194263367283,96848,15,7,1.36456811428,-1.44247353077,0.291461706161,-0.486860126257,20.2000007629,0.4563772957458193,-0.48243261898662204,0.09747883149197323,20.2000007629,-0.06579190895364864,0.8057925936659044,2.0069195179777455
1648639194263368396,96849,15,8,1.18633377552,-1.37430369854,0.248212590814,-0.365145087242,20.2000007629,0.3967671490033445,-0.45963334399331096,0.08301424441939799,20.2000007629,-0.04934393070837838,0.7253351997297234,1.8324049697048028
1648639194363233950,96850,16,0,0.027241859585,0.081803791225,0.0134115936235,0.0,23.2000007629,0.009110989827759196,0.0273591275,0.00448548281722408,23.2000007629,0.0,0.0302413976007115,0.08725737800297548
1648639194363239118,96851,16,1,0.0698152408004,0.0272679310292,-0.0446782074869,0.0,23.2000007629,0.02334957886301003,0.00911970937431438,-0.014942544309999998,23.2000007629,0.0,0.034257477508301847,0.08725737868440428
1648639194363242972,96852,16,2,0.212787047029,-0.081803791225,-0.128664121032,0.0,23.2000007629,0.07116623646454849,-0.0273591275,-0.043031478606020065,23.2000007629,0.0,0.10429663600815378,0.26177212166890956
1648639194363248270,96853,16,3,0.809918045998,0.6544303298,0.110218174756,0.0,23.2000007629,0.2708756006682274,0.21887302,0.03686226580468227,23.2000007629,0.0,0.4411944933458105,1.047088508122355
1648639194363253384,96854,16,4,0.904478371143,0.699422419071,0.283463090658,0.0,23.2000007629,0.30250112747257524,0.2339205414953177,0.09480370925016722,23.2000007629,0.0,0.48757838752124877,1.1779746041108057
1648639194363261562,96855,16,5,3.82720541954,-1.00345981121,0.675627231598,0.0,23.2000007629,1.2800018125551837,-0.3356052880301003,0.22596228481538458,23.2000007629,0.0,1.841043234050433,4.0138391936083755
1648639194363359420,96856,16,6,1.3303360939,-1.25977838039,0.0295313000679,-0.608575165272,23.2000007629,0.4449284594983277,-0.42133056200334446,0.009876688985919733,23.2000007629,-0.0822398871989189,0.7572596058295755,1.8324049192563476
1648639194363363291,96857,16,7,1.35826551914,-1.37975728512,0.52830940485,-0.486860126257,23.2000007629,0.4542694043946488,-0.461457285993311,0.17669210864548493,23.2000007629,-0.06579190895364864,0.7909893869922974,2.0069195832367894
1648639194363395052,96858,16,8,1.16050064564,-1.34158217907,0.230469286442,-0.365145087242,23.2000007629,0.3881273062341137,-0.4486896919966555,0.07708002891036789,23.2000007629,-0.04934393070837838,0.7089485534177726,1.788776281070987
1648639194363421294,96859,16,9,1.13915157318,-1.53382110596,0.451927244663,-0.243430063128,23.2000007629,0.38098714822073576,-0.5129836474782609,0.15114623567324414,23.2000007629,-0.03289595447675676,0.7439453184198678,1.9632910447092446
