%time,field.header.seq,field.header.frame_id,field.point_id,field.x,field.y,field.z,field.velocity,field.intensity,normalized_x,normalized_y,normalized_z,normalized_intensity,normalized_velocity,normalized_range,range
1648639791271423119,153558,0,0,0.0272470619529,0.081803791225,0.0134010249749,0.0,27.2999992371,0.00911272975013378,0.0273591275,0.004481948152140468,27.2999992371,0.0,0.030242446074337355,0.08725737856609292
1648639791271428551,153559,0,1,0.0698048174381,0.0272679310292,-0.0446944907308,0.0,27.2999992371,0.023346092788662207,0.00911970937431438,-0.014947990210969899,27.2999992371,0.0,0.03425272538157524,0.08725737849526105
1648639791271437919,153560,0,2,0.211800783873,-0.081803791225,-0.130281299353,0.0,27.2999992371,0.07083638256622073,-0.0273591275,-0.04357234092073579,27.2999992371,0.0,0.10384656011489844,0.26177213233861746
1648639791271440981,153561,0,3,2.34365606308,1.8133174181,0.7390011549,0.0,27.2999992371,0.7838314592240803,0.6064606749498327,0.24715757688963208,27.2999992371,0.0,1.2635577007795522,3.054008269101449
1648639791271443191,153562,0,4,3.82695603371,-1.00345981121,0.677038967609,0.0,27.2999992371,1.2799184059230768,-0.3356052880301003,0.22643443732742471,27.2999992371,0.0,1.840927255758659,4.013839289299466
1648639791271533356,153563,0,5,0.414324313402,-1.18615496159,0.148942068219,-0.365145087242,27.2999992371,0.13857000448227424,-0.3967073450133779,0.04981340074214046,27.2999992371,-0.04934393070837838,0.44247034914443506,1.2652319823913583
1648639791271547397,153564,0,6,0.552852153778,-0.779862821102,0.0862808302045,-0.243430063128,27.2999992371,0.18490038587892976,-0.26082368598729094,0.02885646495133779,27.2999992371,-0.03289595447675676,0.3693308822294058,0.9598311858524504
1648639791271549698,153565,0,7,0.886850297451,-0.869846999645,0.240155532956,-0.121715031564,27.2999992371,0.2966054506525083,-0.2909187289782609,0.08031957623946488,27.2999992371,-0.01644797723837838,0.5104735973425872,1.26523196801603
1648639791371542736,153566,1,0,0.0272398274392,0.081803791225,0.0134157231078,0.0,15.1000003815,0.009110310180334447,0.0273591275,0.004486863915652174,15.1000003815,0.0,0.030240988091083717,0.08725737839407015
1648639791371559642,153567,1,1,0.069784373045,0.0272679310292,-0.0447264052927,0.0,15.1000003815,0.023339255198996656,0.00911970937431438,-0.014958663977491638,15.1000003815,0.0,0.034243404701631855,0.08725737856653609
1648639791371564407,153568,1,2,0.212353110313,-0.081803791225,-0.129379078746,0.0,15.1000003815,0.07102110712809365,-0.0273591275,-0.043270594898327755,15.1000003815,0.0,0.1040985935205734,0.26177213322955556
1648639791371732933,153569,1,3,2.32919073105,1.8133174181,0.783400833607,0.0,15.1000003815,0.7789935555351171,0.6064606749498327,0.2620069677615384,15.1000003815,0.0,1.2575597279616955,3.0540082492505203
1648639791371758293,153570,1,4,3.82439875603,-1.00345981121,0.691337168217,0.0,15.1000003815,1.2790631291070234,-0.3356052880301003,0.23121644421973242,15.1000003815,0.0,1.839737993801255,4.013839124578328
1648639791371765303,153571,1,5,0.864985287189,-0.839852273464,-0.196883767843,-0.243430063128,15.1000003815,0.289292738190301,-0.2808870479812709,-0.06584741399431437,15.1000003815,-0.03289595447675676,0.4962641539169607,1.2216032933551475
1648639791371766701,153572,1,6,0.529084980488,-0.744414508343,0.0730964764953,-0.121715031564,15.1000003815,0.1769514984909699,-0.2489680629909699,0.024446982105451504,15.1000003815,-0.01644797723837838,0.35299966292600765,0.916202473084179
1648639791471952886,153573,2,0,0.0272714328021,0.081803791225,0.0133513566107,0.0,27.6000003815,0.009120880535819397,0.0273591275,0.004465336659096989,27.6000003815,0.0,0.030247359902289564,0.08725737807892767
1648639791471981589,153574,2,1,0.069672472775,0.0272679310292,-0.0449005179107,0.0,27.6000003815,0.023301830359531768,0.00911970937431438,-0.015016895622307692,27.6000003815,0.0,0.03419239235971579,0.08725737810549555
1648639791472023666,153575,2,2,0.212309360504,-0.081803791225,-0.129450827837,0.0,27.6000003815,0.07100647508494984,-0.0273591275,-0.043294591249832766,27.6000003815,0.0,0.10407862828429505,0.26177211777438303
1648639791472056418,153576,2,3,0.527999460697,-0.744414508343,0.0805642753839,0.0,27.6000003815,0.17658844839364546,-0.2489680629909699,0.026944573706989966,27.6000003815,0.0,0.35263586970361643,0.9162024848230909
1648639791472258851,153577,2,4,0.993453502655,1.52427732944,0.457308441401,0.0,27.6000003815,0.33225869654013374,0.5097917489765886,0.15294596702374583,27.6000003815,0.0,0.6933103995886016,1.8760336483013407
1648639791472291077,153578,2,5,2.32691287994,1.8133174181,0.790140390396,0.0,27.6000003815,0.7782317324214046,0.6064606749498327,0.26426100013244147,27.6000003815,0.0,1.2566160149209655,3.054008095298809
1648639791472301047,153579,2,6,3.83013272285,-1.00345981121,0.658830523491,0.0,27.6000003815,1.2809808437625418,-0.3356052880301003,0.22034465668595316,27.6000003815,0.0,1.842404611785086,4.01383929997744
1648639791472311077,153580,2,7,0.804617404938,-0.878027379513,0.271980434656,-0.121715031564,27.6000003815,0.2691028110160535,-0.29365464197759195,0.0909633560722408,27.6000003815,-0.01644797723837838,0.4806929316606094,1.221603292537841
1648639791572078566,153581,3,0,0.027254274115,0.081803791225,0.0133863482624,0.0,14.0,0.009115141844481605,0.0273591275,0.00447703955264214,14.0,0.0,0.03024389986842463,0.08725737811853623
1648639791572111880,153582,3,1,0.0697813034058,0.0272679310292,-0.0447311960161,0.0,14.0,0.023338228563812704,0.00911970937431438,-0.0149602662261204,14.0,0.0,0.03424200525765809,0.08725737942808208
1648639791572123981,153583,3,2,0.21189211309,-0.081803791225,-0.130132690072,0.0,14.0,0.07086692745484949,-0.0273591275,-0.04352263882006689,14.0,0.0,0.10388823163064745,0.2617721239435245
1648639791572170773,153584,3,3,0.515299677849,-0.744414508343,0.140499979258,0.0,14.0,0.17234102938093643,-0.2489680629909699,0.0469899596180602,14.0,0.0,0.3484077456165938,0.9162024680136657
1648639791572313530,153585,3,4,0.991120517254,1.52427732944,0.462343037128,0.0,14.0,0.331478433864214,0.5097917489765886,0.1546297783036789,14.0,0.0,0.6925630163088073,1.8760336726048703
1648639791572331447,153586,3,5,2.41952395439,1.71787965298,0.722328722477,0.0,14.0,0.8092053359163879,0.5745416899598662,0.2415815125341137,14.0,0.0,1.2805173582786948,3.0540080961426677
1648639791572339698,153587,3,6,3.82072401047,-1.00345981121,0.711365878582,0.0,14.0,1.2778341172140468,-0.3356052880301003,0.23791500955919728,14.0,0.0,1.83802909976588,4.013839180897301
1648639791572378676,153588,3,7,0.816299438477,-0.744414508343,0.25737670064,-0.121715031564,14.0,0.2730098456444816,-0.2489680629909699,0.08607916409364548,14.0,-0.01644797723837838,0.4594059729989619,1.1343458465220155
1648639791671971550,153589,4,0,0.027254274115,0.081803791225,0.0133863482624,0.0,13.5,0.009115141844481605,0.0273591275,0.00447703955264214,13.5,0.0,0.03024389986842463,0.08725737811853623
1648639791672122349,153590,4,1,0.0697917491198,0.0272679310292,-0.0447148941457,0.0,13.5,0.023341722113645484,0.00911970937431438,-0.014954814095551838,13.5,0.0,0.03424676746107946,0.08725737829132542
1648639791672288217,153591,4,2,0.211466342211,-0.081803791225,-0.130823433399,0.0,13.5,0.07072452916755852,-0.0273591275,-0.04375365665518394,13.5,0.0,0.10369397238753528,0.26177212394215266
1648639791672311621,153592,4,3,0.477483570576,-0.773045837879,0.117628902197,0.0,13.5,0.15969350186488293,-0.25854375848795985,0.03934076996555184,13.5,0.0,0.3432912817547501,0.9162024810401479
1648639791672334363,153593,4,4,2.33390808105,1.8133174181,0.769232809544,0.0,13.5,0.7805712645652174,0.6064606749498327,0.2572684981752508,13.5,0.0,1.2595148067372974,3.0540082031412914
1648639791672341945,153594,4,5,3.82027506828,-1.00345981121,0.713772416115,0.0,13.5,1.2776839693244146,-0.3356052880301003,0.23871987161036787,13.5,0.0,1.837820328620551,4.013839091448736
1648639791672425398,153595,4,6,0.72203451395,-0.846669256687,0.38657656312,-0.121715031564,13.5,0.24148311503344477,-0.283166975480602,0.12928982044147155,13.5,-0.01644797723837838,0.4436346759388221,1.177974578973418
1648639791772131687,153596,5,0,0.0272427815944,0.081803791225,0.0134097216651,0.0,13.8000001907,0.009111298192107022,0.0273591275,0.004484856744180602,13.8000001907,0.0,0.03024158340848312,0.0872573781574889
1648639791772192886,153597,5,1,0.0697070583701,0.0272679310292,-0.0448468029499,0.0,13.8000001907,0.023313397448193978,0.00911970937431438,-0.014998930752474915,13.8000001907,0.0,0.03420815838695314,0.08725737667414082
1648639791772241668,153598,5,2,0.211709693074,-0.081803791225,-0.130429267883,0.0,13.8000001907,0.07080591741605351,-0.0273591275,-0.04362182872341137,13.8000001907,0.0,0.10380499862636305,0.26177213052723175
1648639791772266272,153599,5,3,2.43001413345,1.71787965298,0.686211526394,0.0,13.8000001907,0.8127137570066888,0.5745416899598662,0.22950218274046819,13.8000001907,0.0,1.2849534836552619,3.054008095903713
1648639791772288429,153600,5,4,3.82330060005,-1.00345981121,0.697385251522,0.0,13.8000001907,1.2786958528595318,-0.3356052880301003,0.23323921455585284,13.8000001907,0.0,1.8392273044934107,4.013839217021118
1648639791772313906,153601,5,5,0.524516403675,-0.744414508343,0.100779995322,0.121715031564,13.8000001907,0.17542354637959864,-0.2489680629909699,0.0337056840541806,13.8000001907,0.01644797723837838,0.3514711049834196,0.916202502404795
1648639791772373093,153602,5,6,0.804411232471,-0.809857547283,0.290993958712,-0.121715031564,13.8000001907,0.26903385701371235,-0.2708553669842809,0.0973223942180602,13.8000001907,-0.01644797723837838,0.46703432664370476,1.1779746015189083
1648639791871976330,153603,6,0,0.0272305104882,0.081803791225,0.0134346233681,0.0,27.0,0.009107194143210703,0.0273591275,0.004493185072943143,27.0,0.0,0.030239110897735056,0.08725737828558715
1648639791872022460,153604,6,1,0.0697900801897,0.0272679310292,-0.0447175018489,0.0,27.0,0.023341163943043475,0.00911970937431438,-0.0149556862370903,27.0,0.0,0.03424600659206885,0.08725737978592034
1648639791872067653,153605,6,2,0.210943773389,-0.081803791225,-0.131664395332,0.0,27.0,0.07054975698628763,-0.0273591275,-0.04403491482675585,27.0,0.0,0.1034555860222624,0.2617721314206582
1648639791872121086,153606,6,3,0.761405467987,-0.809857547283,0.389893114567,0.0,27.0,0.2546506581896321,-0.2708553669842809,0.13039903497224078,27.0,0.0,0.4506179593147783,1.1779746068394237
1648639791872131255,153607,6,4,2.34164142609,1.8133174181,0.745359897614,0.0,27.0,0.7831576675886286,0.6064606749498327,0.24928424669364546,27.0,0.0,1.2627218279836332,3.0540081866518975
1648639791872138427,153608,6,5,3.83140707016,-1.00345981121,0.65137809515,0.0,27.0,1.2814070468762542,-0.3356052880301003,0.21785220573578593,27.0,0.0,1.842997273172701,4.013839203658622
1648639791872151709,153609,6,6,0.550049245358,-0.779862821102,0.102643691003,0.121715031564,27.0,0.18396295831371237,-0.26082368598729094,0.03432899364648829,27.0,0.01644797723837838,0.36839345167234216,0.9598311931578358
1648639791872163688,153610,6,7,0.351607173681,-1.18615496159,0.264991998672,0.365145087242,27.0,0.11759437246856186,-0.3967073450133779,0.08862608651237458,27.0,0.04934393070837838,0.43015530969652455,1.2652319774842464
1648639791872179022,153611,6,8,0.386042445898,-1.06344926357,0.0823858380318,0.852005243301,27.0,0.12911118591906354,-0.3556686500234113,0.027553791983879597,27.0,0.11513584368932432,0.39979943130065837,1.134345861071784
1648639791972232556,153612,7,0,0.0272470619529,0.081803791225,0.0134010249749,0.0,19.7000007629,0.00911272975013378,0.0273591275,0.004481948152140468,19.7000007629,0.0,0.030242446074337355,0.08725737856609292
1648639791972381247,153613,7,1,0.0697354078293,0.0272679310292,-0.0448027104139,0.0,19.7000007629,0.023322878872675586,0.00911970937431438,-0.014984184084916388,19.7000007629,0.0,0.03422108205318692,0.08725737807293883
1648639791972400255,153614,7,2,0.211860656738,-0.081803791225,-0.130183905363,0.0,19.7000007629,0.07085640693578595,-0.0273591275,-0.04353976767993311,19.7000007629,0.0,0.10387387864742822,0.26177212866881494
1648639791972410239,153615,7,3,0.812741458416,-0.773045837879,0.359827190638,0.0,19.7000007629,0.2718198857578595,-0.25854375848795985,0.12034354201939798,19.7000007629,0.0,0.46326771486896434,1.17797459769413
1648639791972428316,153616,7,4,0.943950653076,0.899841725826,-0.1111670807,0.0,19.7000007629,0.3157025595571906,0.3009504099752508,-0.03717962565217391,19.7000007629,0.0,0.5384304611425644,1.3088606063334176
1648639791972470919,153617,7,5,0.598337292671,-0.981645464897,0.625684261322,0.0,19.7000007629,0.2001128069133779,-0.32830952003244146,0.20925895027491637,19.7000007629,0.0,0.4334482805657831,1.3088606226102786
1648639791972522901,153618,7,6,2.33951210976,1.8133174181,0.752016484737,0.0,19.7000007629,0.7824455216588627,0.6064606749498327,0.25151053001237456,19.7000007629,0.0,1.2618385550412645,3.054008147306541
1648639791972531372,153619,7,7,3.83465838432,-1.00345981121,0.631955564022,0.0,19.7000007629,1.2824944429163878,-0.3356052880301003,0.2113563759270903,19.7000007629,0.0,1.8445093931928345,4.0138391039063395
1648639791972549401,153620,7,8,0.601409912109,-0.909385502338,0.641978263855,0.121715031564,19.7000007629,0.20114043883244145,-0.30414230847424745,0.21470844944983275,19.7000007629,0.01644797723837838,0.41643426380577586,1.265231980906178
1648639791972613352,153621,7,9,0.530276179314,-0.779862821102,0.178597584367,0.243430063128,19.7000007629,0.17734989274715715,-0.26082368598729094,0.05973163356755852,19.7000007629,0.03289595447675676,0.3618493665696449,0.9598312055912493
1648639791972819584,153622,7,10,0.721116304398,-0.818037867546,0.0216658357531,0.243430063128,19.7000007629,0.24117602153779263,-0.27359126004882944,0.0072460989140802675,19.7000007629,0.03289595447675676,0.4372458396654013,1.0907172345052207
1648639791972830920,153623,7,11,0.397559732199,-1.22705686092,0.22224740684,0.365145087242,19.7000007629,0.1329631211367893,-0.410386910006689,0.07433023640133779,19.7000007629,0.04934393070837838,0.451415328793464,1.3088606459222807
1648639792071865547,153624,8,0,0.027254274115,0.081803791225,0.0133863482624,0.0,23.7000007629,0.009115141844481605,0.0273591275,0.00447703955264214,23.7000007629,0.0,0.03024389986842463,0.08725737811853623
1648639792071948716,153625,8,1,0.0696891695261,0.0272679310292,-0.0448746047914,0.0,23.7000007629,0.02330741455722408,0.00911970937431438,-0.015008229027224079,23.7000007629,0.0,0.03420000359293197,0.08725738116076515
1648639792071977086,153626,8,2,0.211466342211,-0.081803791225,-0.130823433399,0.0,23.7000007629,0.07072452916755852,-0.0273591275,-0.04375365665518394,23.7000007629,0.0,0.10369397238753528,0.26177212394215266
1648639792072223354,153627,8,3,0.871367692947,-0.801677167416,0.300577074289,0.0,23.7000007629,0.2914273220558528,-0.26811945398528425,0.10052744959498326,23.7000007629,0.0,0.4916785633792249,1.2216032558306538
1648639792072243240,153628,8,4,2.33455038071,1.8133174181,0.767281413078,0.0,23.7000007629,0.7807860805050167,0.6064606749498327,0.2566158572167224,23.7000007629,0.0,1.2597810751401926,3.0540082360257363
1648639792072252684,153629,8,5,3.8289077282,-1.00345981121,0.665911853313,0.0,23.7000007629,1.280571146555184,-0.3356052880301003,0.2227129944190635,23.7000007629,0.0,1.8418349090331312,4.0138391323228255
1648639792072293415,153630,8,6,0.564028263092,-0.815311074257,0.15514986217,0.365145087242,23.7000007629,0.18863821508093645,-0.2726792890491639,0.05188958601003345,23.7000007629,0.04934393070837838,0.3814744382710338,1.0034597695493586
1648639792072322902,153631,8,7,0.755148530006,-0.783953011036,0.0695155709982,0.365145087242,23.7000007629,0.25255803679130434,-0.26219164248695653,0.023249354848896318,23.7000007629,0.04934393070837838,0.4430751418052741,1.0907172138065115
1648639792072363515,153632,8,8,0.653392851353,-1.1834281683,0.0424619913101,0.608575165272,23.7000007629,0.218526037241806,-0.39579537401337794,0.014201334886321068,23.7000007629,0.0822398871989189,0.5021565851361546,1.3524893598217753
1648639792171941789,153633,9,0,0.0272398274392,0.081803791225,0.0134157231078,0.0,23.2999992371,0.009110310180334447,0.0273591275,0.004486863915652174,23.2999992371,0.0,0.030240988091083717,0.08725737839407015
1648639792172017623,153634,9,1,0.0697813034058,0.0272679310292,-0.0447311960161,0.0,23.2999992371,0.023338228563812704,0.00911970937431438,-0.0149602662261204,23.2999992371,0.0,0.03424200525765809,0.08725737942808208
1648639792172040681,153635,9,2,0.21189211309,-0.081803791225,-0.130132690072,0.0,23.2999992371,0.07086692745484949,-0.0273591275,-0.04352263882006689,23.2999992371,0.0,0.10388823163064745,0.2617721239435245
1648639792172251077,153636,9,3,2.33881950378,1.8133174181,0.754167795181,0.0,23.2999992371,0.7822138808628761,0.6064606749498327,0.2522300318331103,23.2999992371,0.0,1.2615512915017488,3.0540081521395366
1648639792172443343,153637,9,4,3.83879971504,-1.00345981121,0.606292068958,0.0,23.2999992371,1.2838795033578594,-0.3356052880301003,0.20277326721003344,23.2999992371,0.0,1.8464355032436452,4.013839174379831
1648639792172472958,153638,9,5,0.956922769547,-0.531724631786,-0.297167062759,0.121715031564,23.2999992371,0.32004106004916383,-0.17783432501204013,-0.09938697751137124,23.2999992371,0.01644797723837838,0.4862896332303136,1.1343458617697997
1648639792172519733,153639,9,6,0.811006128788,-0.869846999645,0.431795328856,0.121715031564,23.2999992371,0.27123950795585283,-0.2909187289782609,0.14441315346354516,23.2999992371,0.01644797723837838,0.48143062659389785,1.2652319746769634
1648639792172546377,153640,9,7,0.647447288036,-0.818037867546,0.0895567759871,0.243430063128,23.2999992371,0.2165375545270903,-0.27359126004882944,0.029952098992341136,23.2999992371,0.03289595447675676,0.4106448619138579,1.0470885156707537
1648639792172587472,153641,9,8,0.654679238796,-1.1834281683,0.0109700411558,0.486860126257,23.2999992371,0.2189562671558528,-0.39579537401337794,0.003668910085551839,23.2999992371,0.06579190895364864,0.5025312646433454,1.352489363004147
1648639792271922558,153642,10,0,0.0272427815944,0.081803791225,0.0134097216651,0.0,26.1000003815,0.009111298192107022,0.0273591275,0.004484856744180602,26.1000003815,0.0,0.03024158340848312,0.0872573781574889
1648639792271977844,153643,10,1,0.0699053183198,0.0272679310292,-0.044537127018,0.0,26.1000003815,0.02337970512367893,0.00911970937431438,-0.014895360206688963,26.1000003815,0.0,0.03429854694316241,0.08725737375731199
1648639792272020957,153644,10,2,0.212309360504,-0.081803791225,-0.129450827837,0.0,26.1000003815,0.07100647508494984,-0.0273591275,-0.043294591249832766,26.1000003815,0.0,0.10407862828429505,0.26177211777438303
1648639792272052809,153645,10,3,0.94793587923,0.899841725826,-0.0694157630205,0.0,26.1000003815,0.31703541111371236,0.3009504099752508,-0.023215974254347824,26.1000003815,0.0,0.5399944935500294,1.3088606155067795
1648639792272086837,153646,10,4,2.34055614471,1.8133174181,0.748760998249,0.0,26.1000003815,0.7827946972274247,0.6064606749498327,0.25042173854481603,26.1000003815,0.0,1.262271613510879,3.0540082118133585
1648639792272102773,153647,10,5,3.82412362099,-1.00345981121,0.692857682705,0.0,26.1000003815,1.2789711106989965,-0.3356052880301003,0.23172497749331103,26.1000003815,0.0,1.8396100438296743,4.013839163420804
1648639792272110214,153648,10,6,0.591360449791,-0.850759387016,0.151312798262,0.243430063128,26.1000003815,0.19777941464581938,-0.2845349120454849,0.05060628704414716,26.1000003815,0.03289595447675676,0.3989906137843568,1.0470884772027291
1648639792272137530,153649,10,7,0.865508258343,-0.801677167416,0.317054718733,0.243430063128,26.1000003815,0.2894676449307692,-0.26811945398528425,0.10603836746923076,26.1000003815,0.03289595447675676,0.4893578205453538,1.221603258299083
1648639792272156827,153650,10,8,0.582850575447,-0.343575924635,-1.01713097095,0.243430063128,26.1000003815,0.19493330282508362,-0.11490833599832774,-0.3401775822575251,26.1000003815,0.03289595447675676,0.2986668893307326,1.221603299501677
1648639792272208049,153651,10,9,0.550368487835,-1.05663228035,0.640195429325,0.243430063128,26.1000003815,0.1840697283729097,-0.3533887225250836,0.21411218372073576,26.1000003815,0.03289595447675676,0.4389156171913504,1.3524893478353337
1648639792371939840,153652,11,0,0.0271985866129,0.081803791225,0.0134991360828,0.0,15.8999996185,0.009096517261839463,0.0273591275,0.004514761231705685,15.8999996185,0.0,0.030232682814317735,0.08725737818376601
1648639792371967360,153653,11,1,0.0697175487876,0.0272679310292,-0.0448305010796,0.0,15.8999996185,0.0233169059490301,0.00911970937431438,-0.0149934786219398,15.8999996185,0.0,0.03421294060942128,0.08725738076869263
1648639792372006747,153654,11,2,0.21189211309,-0.081803791225,-0.130132690072,0.0,15.8999996185,0.07086692745484949,-0.0273591275,-0.04352263882006689,15.8999996185,0.0,0.10388823163064745,0.2617721239435245
1648639792372042277,153655,11,3,0.945432782173,0.899841725826,-0.0977642461658,0.0,15.8999996185,0.3161982549073578,0.3009504099752508,-0.032697072296254175,15.8999996185,0.0,0.5390118941889764,1.3088606209116616
1648639792372105716,153656,11,4,2.33767318726,1.8133174181,0.757713794708,0.0,15.8999996185,0.7818304974113712,0.6064606749498327,0.2534159848521739,15.8999996185,0.0,1.26107589130299,3.054008216084229
1648639792372120573,153657,11,5,3.82732772827,-1.00345981121,0.674934327602,0.0,15.8999996185,1.2800427184849497,-0.3356052880301003,0.22573054434849496,15.8999996185,0.0,1.8411001145093786,4.013839244273937
1648639792372127619,153658,11,6,0.662307858467,-0.852122783661,0.157794326544,0.243430063128,15.8999996185,0.2215076449722408,-0.28499089754548496,0.05277402225551839,15.8999996185,0.03289595447675676,0.4234986248455568,1.0907171894266587
1648639792471987737,153659,12,0,0.027254274115,0.081803791225,0.0133863482624,0.0,41.0,0.009115141844481605,0.0273591275,0.00447703955264214,41.0,0.0,0.03024389986842463,0.08725737811853623
1648639792472031815,153660,12,1,0.0697187483311,0.0272679310292,-0.0448286235332,0.0,41.0,0.023317307134147158,0.00911970937431438,-0.01499285068,41.0,0.0,0.03421348744352522,0.08725737458432863
1648639792472070455,153661,12,2,0.211599901319,-0.081803791225,-0.130607306957,0.0,41.0,0.07076919776555184,-0.0273591275,-0.043681373564214046,41.0,0.0,0.10375490620843349,0.2617721282481272
1648639792472152029,153662,12,3,0.947513341904,0.899841725826,-0.0749631971121,0.0,41.0,0.3168940942822742,0.3009504099752508,-0.025071303381973244,41.0,0.0,0.5398285683865178,1.3088606287702553
1648639792472174197,153663,12,4,2.33845496178,1.8133174181,0.755297839642,0.0,41.0,0.7820919604615384,0.6064606749498327,0.2526079731244147,41.0,0.0,1.261400102861004,3.0540082667907473
1648639792472184165,153664,12,5,3.8413939476,-1.00345981121,0.589632332325,0.0,41.0,1.2847471396655517,-0.3356052880301003,0.19720144893812708,41.0,0.0,1.8476421014664608,4.013839227061111
1648639792472199679,153665,12,6,0.656683325768,-0.852122783661,0.179771438241,0.243430063128,41.0,0.21962653035719062,-0.28499089754548496,0.060124226836454846,41.0,0.03289595447675676,0.4215346217776863,1.09071719468574
1648639792472211136,153666,12,7,0.838784456253,-0.869846999645,0.374991625547,0.365145087242,41.0,0.28052991847926423,-0.2909187289782609,0.12541525938026754,41.0,0.04934393070837838,0.49196318682833584,1.2652319495149618
1648639792472418022,153667,12,8,0.735042691231,-1.00345981121,0.633976578712,0.365145087242,41.0,0.24583367599698994,-0.3356052880301003,0.21203230057257522,41.0,0.04934393070837838,0.4832176547500646,1.3961180655664809
1648639792472433105,153668,12,9,1.12862765789,-0.479915589094,-0.667102694511,0.365145087242,41.0,0.37746744411036787,-0.16050688598461538,-0.22311126906722406,41.0,0.04934393070837838,0.5574278457118067,1.3961179634377407
1648639792571923265,153669,13,0,0.0271956119686,0.081803791225,0.013505127281,0.0,17.2999992371,0.009095522397525082,0.0273591275,0.004516764976923077,17.2999992371,0.0,0.030232084164493477,0.08725737809495572
1648639792571968427,153670,13,1,0.0698078945279,0.0272679310292,-0.0446896776557,0.0,17.2999992371,0.023347121915685616,0.00911970937431438,-0.014946380486856186,17.2999992371,0.0,0.034254128255784486,0.0872573749891778
1648639792572009063,153671,13,2,0.21189211309,-0.081803791225,-0.130132690072,0.0,17.2999992371,0.07086692745484949,-0.0273591275,-0.04352263882006689,17.2999992371,0.0,0.10388823163064745,0.2617721239435245
1648639792572023992,153672,13,3,0.94824898243,0.899841725826,-0.0649992227554,0.0,17.2999992371,0.31714012790301,0.3009504099752508,-0.02173887048675585,17.2999992371,0.0,0.5401174601111749,1.308860635505496
1648639792572049011,153673,13,4,2.33918762207,1.8133174181,0.753025710583,0.0,17.2999992371,0.782336997347826,0.6064606749498327,0.2518480637401338,17.2999992371,0.0,1.2617039688845524,3.0540082696072357
1648639792572219657,153674,13,5,3.82554531097,-1.00345981121,0.684964478016,0.0,17.2999992371,1.2794465922976588,-0.3356052880301003,0.2290851097043478,17.2999992371,0.0,1.8402711958942217,4.013839166576296
1648639792572240528,153675,13,6,2.2205221653,-2.38321709633,0.61964315176,0.243430063128,17.2999992371,0.74264955361204,-0.7970625740234114,0.20723851229431436,17.2999992371,0.03289595447675676,1.3184708816917994,3.315780458708215
1648639792572247807,153676,13,7,2.63292455673,1.03618133068,1.7287094593,0.243430063128,17.2999992371,0.8805767748260869,0.34654894002675585,0.5781636987625418,17.2999992371,0.03289595447675676,1.292643446801899,3.315780430932504
1648639792572259091,153677,13,8,0.821553707123,-0.878027379513,0.215480849147,0.365145087242,17.2999992371,0.2747671261280936,-0.29365464197759195,0.07206717362775919,17.2999992371,0.04934393070837838,0.4870595404633515,1.2216032781599442
1648639792672274247,153678,14,0,0.0272058714181,0.081803791225,0.0134844481945,0.0,34.0,0.00909895365153846,0.0273591275,0.004509848894481605,34.0,0.0,0.03023414911432016,0.08725737814942489
1648639792672285804,153679,14,1,0.0696977749467,0.0272679310292,-0.0448612309992,0.0,34.0,0.02331029262431438,0.00911970937431438,-0.01500375618702341,34.0,0.0,0.034203926434464925,0.08725737757861872
1648639792672291598,153680,14,2,0.21156232059,-0.081803791225,-0.130668148398,0.0,34.0,0.07075662895986622,-0.0273591275,-0.0437017218722408,34.0,0.0,0.10373776043991702,0.2617721160818529
1648639792672311305,153681,14,3,0.948528409004,0.899841725826,-0.0607852116227,0.0,34.0,0.31723358160668896,0.3009504099752508,-0.02032950221494983,34.0,0.0,0.5402272113308317,1.3088606175514603
1648639792672318574,153682,14,4,0.993603169918,1.52427732944,0.456983268261,0.0,34.0,0.33230875248093644,0.5097917489765886,0.1528372134652174,34.0,0.0,0.6933583786725893,1.8760336734148302
1648639792672325061,153683,14,5,2.33884072304,1.8133174181,0.754102230072,0.0,34.0,0.7822209776053511,0.6064606749498327,0.25220810370301,34.0,0.0,1.2615600920575876,3.054008212159012
1648639792672356697,153684,14,6,3.82954716682,-1.00345981121,0.66222512722,0.0,34.0,1.280785005625418,-0.3356052880301003,0.22147997565886288,34.0,0.0,1.8421322891213787,4.013839211370361
1648639792672387460,153685,14,7,0.69148927927,-1.29795348644,0.193809434772,0.243430063128,34.0,0.23126731748160534,-0.43409815599999996,0.06481920895384614,34.0,0.03289595447675676,0.5435166541265093,1.4833754660616905
1648639792672512524,153686,14,8,2.10584282875,-2.48683524132,0.612761437893,0.243430063128,34.0,0.704295260451505,-0.8317174720133779,0.2049369357501672,34.0,0.03289595447675676,1.2976199678801303,3.3157804687038013
1648639792672556224,153687,14,9,2.67874407768,0.932563245296,1.71728134155,0.243430063128,34.0,0.8959010293244146,0.31189406197190633,0.5743415858026755,34.0,0.03289595447675676,1.3048199931724018,3.3157803374497608
1648639792672591776,153688,14,10,0.726243078709,-0.920292615891,0.115137688816,0.486860126257,34.0,0.24289066177558524,-0.307790172538796,0.03850758823277592,34.0,0.06579190895364864,0.461222871795215,1.1779746158649245
1648639792672647426,153689,14,11,0.971828460693,-0.929836452007,0.142060101032,0.486860126257,34.0,0.32502624103444816,-0.3109820909722408,0.047511739475585284,34.0,0.06579190895364864,0.5549720494109892,1.352489355521556
1648639792772160716,153690,15,0,0.0272144898772,0.081803791225,0.0134670464322,0.0,25.5,0.009101836079331103,0.0273591275,0.004504028907090301,25.5,0.0,0.03023588427004051,0.08725737824199532
1648639792772209797,153691,15,1,0.0697634667158,0.0272679310292,-0.0447590053082,0.0,25.5,0.02333226311565217,0.00911970937431438,-0.014969566992709028,25.5,0.0,0.03423387362347421,0.08725737737864471
1648639792772350856,153692,15,2,0.211737602949,-0.081803791225,-0.130383938551,0.0,25.5,0.07081525182240801,-0.0273591275,-0.043606668411705685,25.5,0.0,0.10381773277674378,0.2617721226438039
1648639792772364960,153693,15,3,0.948136508465,0.899841725826,-0.0666200518608,0.0,25.5,0.31710251119230765,0.3009504099752508,-0.02228095379959866,25.5,0.0,0.5400732862058691,1.308860650157858
1648639792772375784,153694,15,4,0.995073676109,1.52427732944,0.453772217035,0.0,25.5,0.33280056057157187,0.5097917489765886,0.15176328328929764,25.5,0.0,0.6938299889440598,1.876033641191617
1648639792772438195,153695,15,5,2.3386182785,1.8133174181,0.754791796207,0.0,25.5,0.782146581438127,0.6064606749498327,0.2524387278284281,25.5,0.0,1.2614678354882076,3.054008213306006
1648639792772645615,153696,15,6,3.82691860199,-1.00345981121,0.677250504494,0.0,25.5,1.2799058869531772,-0.3356052880301003,0.22650518544949833,25.5,0.0,1.8409098479470865,4.013839287366658
1648639792772668983,153697,15,7,1.44589686394,-0.777136027813,-0.232469245791,0.243430063128,25.5,0.4835775464682274,-0.2599117149876254,-0.07774891163578596,25.5,0.03289595447675676,0.7316068524038508,1.657890254846542
1648639792772706486,153698,15,8,2.27447295189,-2.41457533836,0.531251132488,0.243430063128,25.5,0.7606932949464882,-0.8075502803879598,0.17767596404280936,25.5,0.03289595447675676,1.3451565088523203,3.3594090312531613
1648639792772754670,153699,15,9,2.7922065258,0.944833815098,1.61136627197,0.243430063128,25.5,0.9338483363879598,0.315997931470903,0.5389184856086956,25.5,0.03289595447675676,1.3579396611937549,3.359409097343645
1648639792772785887,153700,15,10,4.86321640015,1.46019768715,1.08253383636,0.243430063128,25.5,1.626493779314381,0.4883604304849498,0.36205145028762536,25.5,0.03289595447675676,2.3514803716723223,5.191813801275083
1648639792772800517,153701,15,11,2.39074468613,-2.74860739708,0.400412201881,0.365145087242,25.5,0.7995801625852843,-0.9192666879866219,0.13391712437491637,25.5,0.04934393070837838,1.4572947939390002,3.6648100508698835
1648639792772819501,153702,15,12,3.03514170647,1.14525306225,1.7050344944,0.365145087242,25.5,1.0150975606923076,0.38302778001672233,0.5702456503010033,25.5,0.04934393070837838,1.485784774357136,3.664810006267786
1648639792772867797,153703,15,13,0.753981769085,-0.954377532005,0.113972216845,0.608575165272,25.5,0.25216781574749164,-0.31918981003511704,0.03811779827591973,25.5,0.0822398871989189,0.47860145155230766,1.2216033103757802
1648639792772897248,153704,15,14,1.01102507114,-0.989825904369,0.266352713108,0.608575165272,25.5,0.3381354752976588,-0.3310454529662207,0.08908117495250836,25.5,0.0822398871989189,0.5816032077277064,1.4397467774624617
1648639792872114447,153705,16,0,0.0271912924945,0.081803791225,0.0135138230398,0.0,23.7999992371,0.009094077757357858,0.0273591275,0.004519673257458194,23.7999992371,0.0,0.03023121496193956,0.08725737825224793
1648639792872160561,153706,16,1,0.0698095485568,0.0272679310292,-0.0446871072054,0.0,23.7999992371,0.02334767510260869,0.00911970937431438,-0.014945520804481603,23.7999992371,0.0,0.034254882344943255,0.08725738182357029
1648639792872195393,153707,16,2,0.212225466967,-0.081803791225,-0.129588350654,0.0,23.7999992371,0.07097841704581939,-0.0273591275,-0.04334058550301004,23.7999992371,0.0,0.10404034424309536,0.26177213318718373
1648639792872205785,153708,16,3,0.948227822781,0.899841725826,-0.0653072223067,0.0,23.7999992371,0.3171330510973244,0.3009504099752508,-0.021841880370133775,23.7999992371,0.0,0.5401091495807749,1.3088606376230154
1648639792872216655,153709,16,4,0.994000434875,1.52427732944,0.456118434668,0.0,23.7999992371,0.33244161701505015,0.5097917489765886,0.15254797146086957,23.7999992371,0.0,0.6934857495087925,1.876033653221715
1648639792872322473,153710,16,5,2.33892941475,1.8133174181,0.753826975822,0.0,23.7999992371,0.7822506403846153,0.6064606749498327,0.25211604542541804,23.7999992371,0.0,1.2615968765912857,3.0540081819544245
1648639792872331679,153711,16,6,3.8272190094,-1.00345981121,0.675549983978,0.0,23.7999992371,1.2800063576588627,-0.3356052880301003,0.2259364494909699,23.7999992371,0.0,1.8410495540989609,4.013839149676903
1648639792872340628,153712,16,7,2.16624641418,-2.55227828026,0.611489057541,0.243430063128,23.7999992371,0.7244971284882943,-0.8536047760066888,0.20451139048193978,23.7999992371,0.03289595447675676,1.3335791285098149,3.4030378802368673
1648639792872348613,153713,16,8,2.77572154999,0.957104384899,1.72046136856,0.243430063128,23.7999992371,0.9283349665518394,0.3201018009695652,0.575405139986622,23.7999992371,0.03289595447675676,1.3513240851955421,3.4030377969366032
1648639792872690729,153714,16,9,5.20504236221,1.54609167576,0.858198165894,0.243430063128,23.7999992371,1.740816843548495,0.5170875169765886,0.2870227979578595,23.7999992371,0.03289595447675676,2.5156045129903277,5.497214708759232
1648639792872720814,153715,16,10,0.530018746853,-1.47246825695,-0.133434578776,0.365145087242,23.7999992371,0.1772637949341137,-0.49246429998327756,-0.044626949423411374,23.7999992371,0.04934393070837838,0.552599305778524,1.570632810861318
1648639792872748737,153716,16,11,0.717390298843,-0.981645524502,0.994289040565,0.365145087242,23.7999992371,0.23992986583377923,-0.32830953996722406,0.3325381406571906,23.7999992371,0.04934393070837838,0.47214387115742684,1.5706328255949968
1648639792872798372,153717,16,12,0.713156104088,-1.16570401192,-2.07771325111,0.365145087242,23.7999992371,0.23851374718662205,-0.3898675625150501,-0.6948873749531772,23.7999992371,0.04934393070837838,0.5155330556767764,2.4868353033609694
1648639792873138780,153718,16,13,1.26252448559,-2.09826731682,0.433192610741,0.365145087242,23.7999992371,0.42224899183612036,-0.7017616444214047,0.14488047181973243,23.7999992371,0.04934393070837838,0.9214433394377942,2.486835267473481
1648639792873160419,153719,16,14,0.80618751049,-1.02254736423,0.132569491863,0.608575165272,23.7999992371,0.26962792992976586,-0.34198908502675585,0.04433762269665551,23.7999992371,0.0822398871989189,0.5122059892990897,1.3088606053879834
1648639792873204954,153720,16,15,1.01581990719,-1.01982057095,0.358439087868,0.608575165272,23.7999992371,0.3397390993946488,-0.34107711403010027,0.11987929360133778,23.7999992371,0.0822398871989189,0.5892188973803166,1.4833754280315985
