%time,field.header.seq,field.header.frame_id,field.point_id,field.x,field.y,field.z,field.velocity,field.intensity,normalized_x,normalized_y,normalized_z,normalized_intensity,normalized_velocity,normalized_range,range
1648639673369521984,142029,0,0,0.0272180456668,0.081803791225,0.0134598584846,0.0,29.7999992371,0.009103025306622074,0.0273591275,0.004501624911237458,29.7999992371,0.0,0.030236600288842994,0.08725737825037409
1648639673369544536,142030,0,1,0.0697249174118,0.0272679310292,-0.0448190309107,0.0,29.7999992371,0.02331937037183946,0.00911970937431438,-0.014989642445050166,29.7999992371,0.0,0.0342162997436895,0.08725737620665557
1648639673369556018,142031,0,2,0.211841985583,-0.081803791225,-0.13021427393,0.0,29.7999992371,0.07085016240234113,-0.0273591275,-0.04354992439130435,29.7999992371,0.0,0.10386535939589041,0.26177212275116013
1648639673369611206,142032,0,3,0.948495447636,0.899841725826,-0.0612979196012,0.0,29.7999992371,0.3172225577377926,0.3009504099752508,-0.020500976455250834,29.7999992371,0.0,0.5402142644726127,1.3088606421889097
1648639673369616325,142033,0,4,0.897087335587,1.58290338516,0.457333266735,0.0,29.7999992371,0.3000292092264214,0.5293991254715719,0.1529542698110368,29.7999992371,0.0,0.6784530100368991,1.8760337233866766
1648639673369625628,142034,0,5,2.42428064346,1.71787965298,0.706200242043,0.0,29.7999992371,0.8107962018260869,0.5745416899598662,0.23618737192073577,29.7999992371,0.0,1.2825284072070904,3.0540081732436652
1648639673369637919,142035,0,6,3.83177995682,-1.00345981121,0.649181425571,0.0,29.7999992371,1.2815317581337793,-0.3356052880301003,0.21711753363578593,29.7999992371,0.0,1.8431706930082947,4.013839278484814
1648639673369642741,142036,0,7,1.20741653442,-1.73696708679,0.308713674545,0.243430063128,29.7999992371,0.40381823893645485,-0.5809254470869565,0.10324872058361202,29.7999992371,0.03289595447675676,0.8146242785902343,2.137805763167837
1648639673369651692,142037,0,8,1.65254080296,-1.39066445827,0.534852266312,0.243430063128,29.7999992371,0.5526892317591973,-0.46510516998996654,0.17888035662608695,29.7999992371,0.03289595447675676,0.9095348222891408,2.2250630749985847
1648639673369656616,142038,0,9,1.24091458321,-1.43974673748,0.269005566835,0.365145087242,29.7999992371,0.4150215997357859,-0.48152064798662203,0.08996841700167223,29.7999992371,0.04934393070837838,0.7591758629803493,1.919662383310089
1648639673469574431,142039,1,0,0.0272150505334,0.081803791225,0.0134659120813,0.0,33.5,0.009102023589765884,0.0273591275,0.004503649525518395,33.5,0.0,0.030235997162629938,0.08725737804048551
1648639673469581667,142040,1,1,0.0697532370687,0.0272679310292,-0.0447749495506,0.0,33.5,0.023328841828996652,0.00911970937431438,-0.014974899515250835,33.5,0.0,0.03422921005861288,0.08725737935231752
1648639673469594709,142041,1,2,0.212540790439,-0.081803791225,-0.129070520401,0.0,33.5,0.07108387640100335,-0.0273591275,-0.04316739812742475,33.5,0.0,0.10418424461475688,0.2617721281874815
1648639673469601938,142042,1,3,0.948384284973,0.899841725826,-0.0629939511418,0.0,33.5,0.31718537958963205,0.3009504099752508,-0.021068211084214042,33.5,0.0,0.5401706020463438,1.308860619547291
1648639673469606950,142043,1,4,0.895813465118,1.58290338516,0.459823489189,0.0,33.5,0.29960316559130434,0.5293991254715719,0.15378712013010032,33.5,0.0,0.6780763583216319,1.8760337236434883
1648639673469612097,142044,1,5,2.42322635651,1.71787965298,0.709809958935,0.0,33.5,0.8104435974949832,0.5745416899598662,0.2373946350953177,33.5,0.0,1.2820826037908633,3.054008293179755
1648639673469632457,142045,1,6,3.82735586166,-1.00345981121,0.67477440834,0.0,33.5,1.2800521276454848,-0.3356052880301003,0.22567705964548493,33.5,0.0,1.8411131981312914,4.0138391829578035
1648639673469679295,142046,1,7,1.21947717667,-1.77241539955,0.360659509897,0.243430063128,33.5,0.40785189855183945,-0.592781070083612,0.1206219096645485,33.5,0.03289595447675676,0.8270887131101187,2.1814344397804315
1648639673469702832,142047,1,8,1.98776316643,-3.11945128441,1.02870607376,0.243430063128,33.5,0.6648037345919732,-1.0432947439498328,0.3440488541003344,33.5,0.03289595447675676,1.4044187174088134,3.8393247984266363
1648639673469722182,142048,1,9,1.81893360615,-1.67970454693,-2.93436336517,0.243430063128,33.5,0.6083389987123746,-0.5617740959632107,-0.9813924298227423,33.5,0.03289595447675676,1.0274934596405136,3.8393248348389286
1648639673469727123,142049,1,10,5.39056301117,0.714419782162,1.75976073742,0.243430063128,33.5,1.8028638833344481,0.2389363819939799,0.5885487416120401,33.5,0.03289595447675676,2.560805919686985,5.715358523793898
1648639673469730737,142050,1,11,1.32986783981,-1.41111540794,0.307760775089,0.365145087242,33.5,0.4447718527792641,-0.47194495248829427,0.10293002511337793,33.5,0.04934393070837838,0.7863688957662156,1.9632910789207927
1648639673569697648,142051,2,0,0.0272034537047,0.081803791225,0.0134893273935,0.0,33.0999984741,0.009098145051739129,0.0273591275,0.00451148073361204,33.0999984741,0.0,0.030233662436533002,0.08725737851767135
1648639673569713780,142052,2,1,0.0697292611003,0.0272679310292,-0.0448122732341,0.0,33.0999984741,0.023320823110468226,0.00911970937431438,-0.014987382352541805,33.0999984741,0.0,0.03421827991251833,0.08725737647107353
1648639673569724656,142053,2,2,0.21179433167,-0.081803791225,-0.130291774869,0.0,33.0999984741,0.07083422463879598,-0.0273591275,-0.043575844437792645,33.0999984741,0.0,0.10384361616353736,0.2617721256834645
1648639673569730881,142054,2,3,0.948149085045,0.899841725826,-0.0664403066039,0.0,33.0999984741,0.3171067174063545,0.3009504099752508,-0.022220838329063543,33.0999984741,0.0,0.5400782255495389,1.3088606241119811
1648639673569744299,142055,2,4,0.894959151745,1.58290338516,0.461484014988,0.0,33.0999984741,0.2993174420551839,0.5293991254715719,0.15434247992909697,33.0999984741,0.0,0.6778239419546803,1.8760337166833017
1648639673569747331,142056,2,5,2.422986269,1.71787965298,0.710628390312,0.0,33.0999984741,0.8103633006688963,0.5745416899598662,0.23766835796387958,33.0999984741,0.0,1.2819810886451934,3.0540081321114143
1648639673569750335,142057,2,6,3.82445645332,-1.00345981121,0.691018342972,0.0,33.0999984741,1.2790824258595317,-0.3356052880301003,0.23110981370301004,33.0999984741,0.0,1.839764825633748,4.013839197872576
1648639673569762909,142058,2,7,1.30875849724,-1.50518965721,0.221994489431,0.243430063128,33.0999984741,0.43771187198662204,-0.5034079121103678,0.07424564863913043,33.0999984741,0.03289595447675676,0.7978739823627449,2.006919595202456
1648639673569797155,142059,2,8,1.2660946846,-1.70424556732,0.501205682755,0.243430063128,33.0999984741,0.4234430383277592,-0.569981795090301,0.1676273186471572,33.0999984741,0.03289595447675676,0.8267328831919353,2.1814343539350776
1648639673569905427,142060,2,9,3.17485189438,-2.86313271523,0.870292842388,0.365145087242,33.0999984741,1.0618233760468228,-0.9575694699765885,0.2910678402635451,33.0999984741,0.04934393070837838,1.780976432654343,4.362868681014863
1648639673669756503,142061,3,0,0.0272223390639,0.081803791225,0.0134511729702,0.0,14.3999996185,0.009104461225384615,0.0273591275,0.004498720056923076,14.3999996185,0.0,0.03023746493954677,0.08725737823913553
1648639673669830999,142062,3,1,0.0698095485568,0.0272679310292,-0.0446871072054,0.0,14.3999996185,0.02334767510260869,0.00911970937431438,-0.014945520804481603,14.3999996185,0.0,0.034254882344943255,0.08725738182357029
1648639673669846506,142063,3,2,0.206933259964,-0.0899841710925,-0.132688060403,0.0,14.3999996185,0.06920844814849497,-0.030095040499163877,-0.04437727772675585,14.3999996185,0.0,0.1023979006273671,0.26177212704954456
1648639673669852391,142064,3,3,0.948217272758,0.899841725826,-0.0654598250985,0.0,14.3999996185,0.31712952266153843,0.3009504099752508,-0.02189291809314381,14.3999996185,0.0,0.5401050060417344,1.3088606177114734
1648639673669888499,142065,3,4,0.895603597164,1.58290338516,0.460232079029,0.0,14.3999996185,0.29953297564013376,0.5293991254715719,0.15392377225050166,14.3999996185,0.0,0.6780143368998409,1.8760337141350738
1648639673669928753,142066,3,5,2.42172312737,1.71787965298,0.714921057224,0.0,14.3999996185,0.8099408452742474,0.5745416899598662,0.23910403251638795,14.3999996185,0.0,1.2814470333139265,3.054008108342822
1648639673669953040,142067,3,6,3.82739520073,-1.00345981121,0.674551308155,0.0,14.3999996185,1.2800652845250835,-0.3356052880301003,0.22560244419899664,14.3999996185,0.0,1.8411314930352836,4.013839194912804
1648639673669958396,142068,3,7,1.26858627796,-1.50518965721,0.390920937061,0.121715031564,14.3999996185,0.4242763471438126,-0.5034079121103678,0.13074278831471572,14.3999996185,0.01644797723837838,0.7832243378922248,2.006919586787925
1648639673669963807,142069,3,8,1.31457996368,-1.73833048344,0.448321968317,0.243430063128,14.3999996185,0.43965885072909694,-0.5813814325886287,0.14994045763110367,14.3999996185,0.03289595447675676,0.8512368531775789,2.225063131203536
1648639673769788010,142070,4,0,0.0272296071053,0.081803791225,0.0134364543483,0.0,13.8999996185,0.009106892008461539,0.0273591275,0.00449379744090301,13.8999996185,0.0,0.0302389289107405,0.08725737829746172
1648639673769823228,142071,4,1,0.0697532370687,0.0272679310292,-0.0447749495506,0.0,13.8999996185,0.023328841828996652,0.00911970937431438,-0.014974899515250835,13.8999996185,0.0,0.03422921005861288,0.08725737935231752
1648639673769829754,142072,4,2,0.212255358696,-0.081803791225,-0.129539385438,0.0,13.8999996185,0.07098841427959866,-0.0273591275,-0.04332420917658863,13.8999996185,0.0,0.10405398493774812,0.26177213360784934
1648639673769914043,142073,4,3,0.948597967625,0.899841725826,-0.0596898943186,0.0,13.8999996185,0.31725684535953175,0.3009504099752508,-0.019963175357391304,13.8999996185,0.0,0.540254533640612,1.3088606187075689
1648639673769961477,142074,4,4,0.897516727448,1.58290338516,0.456489920616,0.0,13.8999996185,0.3001728185444816,0.5293991254715719,0.1526722142528428,13.8999996185,0.0,0.6785800439417163,1.8760337018358593
1648639673770049388,142075,4,5,2.33510875702,1.8133174181,0.765580534935,0.0,13.8999996185,0.7809728284347826,0.6064606749498327,0.25604700165050165,13.8999996185,0.0,1.2600125665117214,3.0540082713325614
1648639673770054239,142076,4,6,3.82500958443,-1.00345981121,0.687949895859,0.0,13.8999996185,1.279267419541806,-0.3356052880301003,0.23008357721036787,13.8999996185,0.0,1.840022057138465,4.013839181246227
1648639673869871745,142077,5,0,0.0272325836122,0.081803791225,0.0134304212406,0.0,14.8000001907,0.009107887495719063,0.0273591275,0.004491779679130435,14.8000001907,0.0,0.03023952854841834,0.0872573783910496
1648639673869880447,142078,5,1,0.069820009172,0.0272679310292,-0.0446707569063,0.0,14.8000001907,0.0233511736361204,0.00911970937431438,-0.014940052477023411,14.8000001907,0.0,0.034259651478677454,0.0872573794356278
1648639673869890322,142079,5,2,0.212049618363,-0.081803791225,-0.129875868559,0.0,14.8000001907,0.07091960480367893,-0.0273591275,-0.043436745337458185,14.8000001907,0.0,0.10396010075303531,0.2617721187228158
1648639673869963901,142080,5,3,0.948482692242,0.899841725826,-0.0614948309958,0.0,14.8000001907,0.3172182917197324,0.3009504099752508,-0.02056683310896321,14.8000001907,0.0,0.5402092543333944,1.308860635537393
1648639673870079383,142081,5,4,0.899417817593,1.58290338516,0.452732741833,0.0,14.8000001907,0.30080863464648827,0.5293991254715719,0.1514156327200669,14.8000001907,0.0,0.6791429182475762,1.8760337078214688
1648639673870085718,142082,5,5,2.33600258827,1.8133174181,0.76284891367,0.0,14.8000001907,0.7812717686521738,0.6064606749498327,0.25513341594314376,14.8000001907,0.0,1.2603831573162179,3.0540082868709586
1648639673870208640,142083,5,6,3.82157373428,-1.00345981121,0.706787288189,0.0,14.8000001907,1.278118305779264,-0.3356052880301003,0.23638370842441472,14.8000001907,0.0,1.8384242482326758,4.013839268082113
1648639673870214140,142084,5,7,1.58009564877,-1.37430369854,-0.0128212859854,0.243430063128,14.8000001907,0.5284600832006688,-0.45963334399331096,-0.004288055513511705,14.8000001907,0.03289595447675676,0.8773841404900075,2.0941769983592433
1648639673870217370,142085,5,8,1.35431063175,-1.91420865059,0.228351548314,0.608575165272,14.8000001907,0.4529466995819398,-0.6402035620702341,0.07637175528896321,14.8000001907,0.0822398871989189,0.9056390153983871,2.355949166446949
1648639673969713649,142086,6,0,0.0271809846163,0.081803791225,0.0135345440358,0.0,24.0,0.009090630306454848,0.0273591275,0.004526603356454849,24.0,0.0,0.030229141176992227,0.08725737828832547
1648639673969751425,142087,6,1,0.0698361322284,0.0272679310292,-0.044645536691,0.0,24.0,0.023356565962675584,0.00911970937431438,-0.014931617622408026,24.0,0.0,0.034267002293891846,0.08725737432253623
1648639673969757066,142088,6,2,0.206789776683,-0.0899841710925,-0.13291156292,0.0,24.0,0.06916046042909699,-0.030095040499163877,-0.04445202773244147,24.0,0.0,0.10233303492116168,0.26177212675463835
1648639673969765172,142089,6,3,0.948495447636,0.899841725826,-0.0612979196012,0.0,24.0,0.3172225577377926,0.3009504099752508,-0.020500976455250834,24.0,0.0,0.5402142644726127,1.3088606421889097
1648639673969801039,142090,6,4,0.898177683353,1.58290338516,0.45518809557,0.0,24.0,0.3003938740311036,0.5293991254715719,0.15223682126086957,24.0,0.0,0.6787756574604706,1.8760337097112603
1648639673969802961,142091,6,5,2.33616542816,1.8133174181,0.762349426746,0.0,24.0,0.7813262301538462,0.6064606749498327,0.2549663634602007,24.0,0.0,1.260450675795546,3.054008122938576
1648639673969883144,142092,6,6,3.82698750496,-1.00345981121,0.676860272884,0.0,24.0,1.279928931424749,-0.3356052880301003,0.22637467320535115,24.0,0.0,1.8409418916277522,4.013839157819129
1648639673969886040,142093,6,7,1.57741212845,-1.37430369854,0.0929389670491,-0.243430063128,24.0,0.5275625847658862,-0.45963334399331096,0.031083266571605348,24.0,-0.03289595447675676,0.8763032423768609,2.0941770055079
1648639673969887942,142094,6,8,3.00968003273,-1.46019768715,-5.77648735046,-0.243430063128,24.0,1.0065819507458194,-0.4883604304849498,-1.931935568715719,24.0,-0.03289595447675676,1.5049619122084001,6.675189682323361
1648639673969889594,142095,6,9,5.35782241821,-3.54619431496,1.81008267403,-0.243430063128,24.0,1.791913852244147,-1.1860181655384614,0.6053788207458194,24.0,-0.03289595447675676,2.7979545380002393,6.675189470820425
1648639674069785934,142096,7,0,0.0272223390639,0.081803791225,0.0134511729702,0.0,13.3999996185,0.009104461225384615,0.0273591275,0.004498720056923076,13.3999996185,0.0,0.03023746493954677,0.08725737823913553
1648639674069798366,142097,7,1,0.0697471052408,0.0272679310292,-0.0447844937444,0.0,13.3999996185,0.02332679105043478,0.00911970937431438,-0.014978091553311037,13.3999996185,0.0,0.03422641466021888,0.08725737580300384
1648639674069814462,142098,7,2,0.21220690012,-0.081803791225,-0.129618734121,0.0,13.3999996185,0.07097220739799331,-0.0273591275,-0.043350747197658863,13.3999996185,0.0,0.10403187157524761,0.26177212409355877
1648639674069819790,142099,7,3,0.948672413826,0.899841725826,-0.0584953390062,0.0,13.3999996185,0.317281743754515,0.3009504099752508,-0.01956365853050167,13.3999996185,0.0,0.5402837764583377,1.3088606438339467
1648639674069849677,142100,7,4,0.895921647549,1.58290338516,0.459612607956,0.0,13.3999996185,0.29963934700635453,0.5293991254715719,0.1537165912896321,13.3999996185,0.0,0.6781083324947823,1.8760337083032432
1648639674069853584,142101,7,5,2.33768582344,1.8133174181,0.757674813271,0.0,13.3999996185,0.7818347235585285,0.6064606749498327,0.2534029475822742,13.3999996185,0.0,1.2610811314837314,3.054008217173367
1648639674069930768,142102,7,6,3.83082079887,-1.00345981121,0.654816746712,0.0,13.3999996185,1.281210969521739,-0.3356052880301003,0.21900225642541804,13.3999996185,0.0,1.8427246148568799,4.013839129504704
1648639674069938651,142103,7,7,1.64846944809,-1.33612859249,0.259850472212,-0.486860126257,13.3999996185,0.5513275746120401,-0.44686574999665546,0.08690651244548496,13.3999996185,-0.06579190895364864,0.8986730148253382,2.1378057453529906
1648639674169704022,142104,8,0,0.0273050889373,0.081803791225,0.013282392174,0.0,25.3999996185,0.009132136768327758,0.0273591275,0.004442271630100334,25.3999996185,0.0,0.030254151805531482,0.08725737838441622
1648639674169710278,142105,8,1,0.0697113797069,0.0272679310292,-0.0448400825262,0.0,25.3999996185,0.02331484271133779,0.00911970937431438,-0.014996683119130433,25.3999996185,0.0,0.034210128330376066,0.08725737518519121
1648639674169717537,142106,8,2,0.211420103908,-0.081803791225,-0.13089813292,0.0,25.3999996185,0.07070906485217392,-0.0273591275,-0.04377863977257525,25.3999996185,0.0,0.10367287765900554,0.261772118066831
1648639674169723599,142107,8,3,0.948083877563,0.899841725826,-0.0673646181822,0.0,25.3999996185,0.31708490888394647,0.3009504099752508,-0.022529972636187293,25.3999996185,0.0,0.5400526160923145,1.3088606351385321
1648639674169865956,142108,8,4,0.895811676979,1.58290338516,0.459826856852,0.0,25.3999996185,0.299602567551505,0.5293991254715719,0.15378824643879596,25.3999996185,0.0,0.6780758298427789,1.8760336952318595
1648639674169886195,142109,8,5,2.33625531197,1.8133174181,0.762073814869,0.0,25.3999996185,0.7813562916287625,0.6064606749498327,0.25487418557491637,25.3999996185,0.0,1.2604879448833735,3.054008094423111
1648639674169891661,142110,8,6,3.83213686943,-1.00345981121,0.64707159996,0.0,25.3999996185,1.2816511268996655,-0.3356052880301003,0.2164119063411371,25.3999996185,0.0,1.8433366842549768,4.013839338368337
1648639674169897486,142111,8,7,1.4626749754,-1.84058523178,0.152723416686,-0.730290174484,25.3999996185,0.4891889549832775,-0.615580345076923,0.0510780657812709,25.3999996185,-0.09868786141675676,0.9260404033303762,2.3559491762583233
1648639674169900558,142112,8,8,1.51701450348,-1.49973618984,0.456195682287,-0.243430063128,25.3999996185,0.5073627101939799,-0.501584009979933,0.15257380678494983,25.3999996185,-0.03289595447675676,0.8754543725736428,2.181434423360412
1648639674170028667,142113,8,9,1.37749731541,-1.44247353077,0.22247967124,-0.121715031564,25.3999996185,0.46070144328093643,-0.48243261898662204,0.07440791680267558,25.3999996185,-0.01644797723837838,0.81069900181545,2.0069195163356417
1648639674269700602,142114,9,0,0.0272130072117,0.081803791225,0.0134700415656,0.0,17.3999996185,0.00910134020458194,0.0273591275,0.0045050306239464875,17.3999996185,0.0,0.030235585732714614,0.08725737814114297
1648639674269706862,142115,9,1,0.069803699851,0.0272679310292,-0.0446962304413,0.0,17.3999996185,0.023345719013712372,0.00911970937431438,-0.014948572053946486,17.3999996185,0.0,0.034252215864179945,0.08725737556885091
1648639674269716588,142116,9,2,0.211373344064,-0.081803791225,-0.130973652005,0.0,17.3999996185,0.0706934261083612,-0.0273591275,-0.043803896991638794,17.3999996185,0.0,0.10365154532103178,0.2617721306004678
1648639674269726376,142117,9,3,0.948357820511,0.899841725826,-0.0633908882737,0.0,17.3999996185,0.31717652859899664,0.3009504099752508,-0.021200965977826086,17.3999996185,0.0,0.5401602075796511,1.3088606083070942
1648639674269773444,142118,9,4,0.893549442291,1.58290338516,0.464207738638,0.0,17.3999996185,0.29884596732140467,0.5293991254715719,0.15525342429364547,17.3999996185,0.0,0.6774077490098539,1.8760337302887042
1648639674269797372,142119,9,5,2.33748888969,1.8133174181,0.758282423019,0.0,17.3999996185,0.7817688594280936,0.6064606749498327,0.253606161544816,17.3999996185,0.0,1.260999464473959,3.054008284413879
1648639674269831786,142120,9,6,3.82877492905,-1.00345981121,0.666675031185,0.0,17.3999996185,1.2805267321237457,-0.3356052880301003,0.22296823785451506,17.3999996185,0.0,1.8417731490932332,4.013839140678281
1648639674269843386,142121,9,7,1.64247870445,-1.43156635761,0.107413552701,-0.486860126257,17.3999996185,0.5493239814214046,-0.478784734986622,0.0359242651173913,17.3999996185,-0.06579190895364864,0.9125505441264814,2.1814344368136216
1648639674269997294,142122,9,8,1.48395574093,-1.4097520113,0.12338282913,-0.365145087242,17.3999996185,0.49630626786956517,-0.4714889669899665,0.041265160244147156,17.3999996185,-0.04934393070837838,0.8455422337450086,2.0505483893162877
1648639674270001564,142123,9,9,1.27775967121,-1.47246825695,0.23168759048,-0.243430063128,17.3999996185,0.4273443716421404,-0.49246429998327756,0.0774874884548495,17.3999996185,-0.03289595447675676,0.7795944527165719,1.9632910341257321
1648639674270002557,142124,9,10,1.51231133938,-1.46974146366,0.350696027279,-0.243430063128,17.3999996185,0.5057897456120402,-0.49155232898327755,0.11728964123043478,17.3999996185,-0.03289595447675676,0.8679114157916515,2.1378057116510942
1648639674270003526,142125,9,11,1.38658165932,-1.44247353077,0.156165212393,-0.121715031564,17.3999996185,0.46373968539130433,-0.48243261898662204,0.052229168024414706,17.3999996185,-0.01644797723837838,0.8141561419506353,2.0069195695135433
1648639674369745398,142126,10,0,0.0272210333496,0.081803791225,0.0134538151324,0.0,14.1999998093,0.009104024531638796,0.0273591275,0.004499603723210702,14.1999998093,0.0,0.030237201968876325,0.08725737823829122
1648639674369752466,142127,10,1,0.0698361322284,0.0272679310292,-0.044645536691,0.0,14.1999998093,0.023356565962675584,0.00911970937431438,-0.014931617622408026,14.1999998093,0.0,0.034267002293891846,0.08725737432253623
1648639674369755132,142128,10,2,0.212129473686,-0.081803791225,-0.129745408893,0.0,14.1999998093,0.07094631226956521,-0.0273591275,-0.04339311334214047,14.1999998093,0.0,0.10399653987927952,0.26177212417271345
1648639674369761998,142129,10,3,0.947995364666,0.899841725826,-0.0685991123319,0.0,14.1999998093,0.3170553059083612,0.3009504099752508,-0.022942846933745816,14.1999998093,0.0,0.5400178545877539,1.3088606423827027
1648639674369768193,142130,10,4,0.896427154541,1.58290338516,0.458625912666,0.0,14.1999998093,0.2998084128899665,0.5293991254715719,0.15338659286488293,14.1999998093,0.0,0.6782577702682561,1.8760337144940074
1648639674369779446,142131,10,5,2.33807039261,1.8133174181,0.756487607956,0.0,14.1999998093,0.7819633420100335,0.6064606749498327,0.25300588894849496,14.1999998093,0.0,1.2612406141397476,3.054008303946687
1648639674369876928,142132,10,6,3.82884550095,-1.00345981121,0.666270136833,0.0,14.1999998093,1.2805503347658862,-0.3356052880301003,0.22283282168327756,14.1999998093,0.0,1.8418059694473283,4.013839229228561
1648639674369886154,142133,10,7,1.45611941814,-1.37975728512,0.0609300471842,-0.243430063128,14.1999998093,0.4869964609163879,-0.461457285993311,0.020377942202073576,14.1999998093,-0.03289595447675676,0.8290198626610138,2.006919628778381
1648639674369895722,142134,10,8,1.47719168663,-1.46974146366,0.477470338345,-0.243430063128,14.1999998093,0.4940440423511705,-0.49155232898327755,0.15968907636956522,14.1999998093,-0.03289595447675676,0.8542732137286376,2.137805691135074
1648639674469873632,142135,11,0,0.0271902270615,0.081803791225,0.0135159660131,0.0,19.2000007629,0.009093721425250835,0.0273591275,0.004520389970936454,19.2000007629,0.0,0.030231000583529954,0.08725737816200181
1648639674469880455,142136,11,1,0.0698095485568,0.0272679310292,-0.0446871072054,0.0,19.2000007629,0.02334767510260869,0.00911970937431438,-0.014945520804481603,19.2000007629,0.0,0.034254882344943255,0.08725738182357029
1648639674469885126,142137,11,2,0.206998005509,-0.0899841710925,-0.132587015629,0.0,19.2000007629,0.06923010217692308,-0.030095040499163877,-0.04434348348795986,19.2000007629,0.0,0.10242717196867603,0.261772118540751
1648639674469891322,142138,11,3,0.948056101799,0.899841725826,-0.0677543729544,0.0,19.2000007629,0.3170756193307692,0.3009504099752508,-0.02266032540280936,19.2000007629,0.0,0.54004170765993,1.308860633814874
1648639674470013836,142139,11,4,0.902534842491,1.58290338516,0.446486473083,0.0,19.2000007629,0.30185111788996655,0.5293991254715719,0.1493265796264214,19.2000007629,0.0,0.6800673707750653,1.8760336988730608
1648639674470017767,142140,11,5,2.33703804016,1.8133174181,0.759670257568,0.0,19.2000007629,0.781618073632107,0.6064606749498327,0.25407032025685616,19.2000007629,0.0,1.2608125064089974,3.0540081467103484
1648639674470020493,142141,11,6,3.82686305046,-1.00345981121,0.677564203739,0.0,19.2000007629,1.2798873078461537,-0.3356052880301003,0.2266101015849498,19.2000007629,0.0,1.8408840134362394,4.013839265575802
1648639674470025099,142142,11,7,1.2320561409,-1.43974673748,0.307035386562,-0.486860126257,19.2000007629,0.41205890999999994,-0.48152064798662203,0.1026874202548495,19.2000007629,-0.06579190895364864,0.7559412841340474,1.919662400271199
1648639674470028660,142143,11,8,1.32597410679,-1.70424556732,0.309831738472,-0.486860126257,19.2000007629,0.44346960093311033,-0.569981795090301,0.10362265500735786,19.2000007629,-0.06579190895364864,0.8474726076032818,2.1814343886012226
1648639674470030972,142144,11,9,1.39597308636,-1.60335421562,0.225228056312,-0.365145087242,19.2000007629,0.46688063088963205,-0.5362388681003344,0.07532710913444815,19.2000007629,-0.04934393070837838,0.8505922470028336,2.137805715199108
1648639674470282452,142145,11,10,1.53870820999,-1.345672369,0.162146821618,-0.243430063128,19.2000007629,0.5146181304314381,-0.45005764849498325,0.05422970622675585,19.2000007629,-0.03289595447675676,0.8556959315705149,2.050548383223747
1648639674569735690,142146,12,0,0.0272455215454,0.081803791225,0.0134041560814,0.0,20.7999992371,0.00911221456367893,0.0273591275,0.004482995344949833,20.7999992371,0.0,0.030242135606968982,0.08725737850359004
1648639674569753546,142147,12,1,0.0697649121284,0.0272679310292,-0.0447567515075,0.0,20.7999992371,0.023332746531237455,0.00911970937431438,-0.0149688132132107,20.7999992371,0.0,0.03423453257244656,0.0872573769511821
1648639674569759017,142148,12,2,0.206789776683,-0.0899841710925,-0.13291156292,0.0,20.7999992371,0.06916046042909699,-0.030095040499163877,-0.04445202773244147,20.7999992371,0.0,0.10233303492116168,0.26177212675463835
1648639674569765316,142149,12,3,0.948476374149,0.899841725826,-0.061591565609,0.0,20.7999992371,0.31721617864515045,0.3009504099752508,-0.020599185822408023,20.7999992371,0.0,0.5402067726831418,1.3088606055690253
1648639674569785839,142150,12,4,0.895210146904,1.58290338516,0.460996925831,0.0,20.7999992371,0.2994013869244147,0.5293991254715719,0.15417957385652173,20.7999992371,0.0,0.6778980860236967,1.8760337149146604
1648639674569890793,142151,12,5,2.34044623375,1.8133174181,0.749104678631,0.0,20.7999992371,0.78275793770903,0.6064606749498327,0.25053668181638794,20.7999992371,0.0,1.2622260211046175,3.054008259878526
1648639674569896270,142152,12,6,3.83034324646,-1.00345981121,0.657604217529,0.0,20.7999992371,1.2810512529966553,-0.3356052880301003,0.21993452091270901,20.7999992371,0.0,1.8425025196624205,4.013839095595047
1648639674569900301,142153,12,7,1.21989512444,-1.40702521801,0.227240800858,-0.608575165272,20.7999992371,0.4079916804147157,-0.47057699598996655,0.07600026784548494,20.7999992371,-0.0822398871989189,0.7445516313394176,1.876033704474191
1648639674569982092,142154,12,8,1.29915344715,-1.53654789925,0.722103953362,-0.365145087242,20.7999992371,0.43449948065217386,-0.5138956184782608,0.24150633891705683,20.7999992371,-0.04934393070837838,0.8010420114233534,2.1378057080549544
1648639674569984174,142155,12,9,1.26151168346,-1.6360758543,-2.8131840229,-0.365145087242,20.7999992371,0.4219102620267558,-0.5471825599665552,-0.9408642217056855,20.7999992371,-0.04934393070837838,0.8095834066595758,3.490295155890027
1648639674569986352,142156,12,10,1.68704950809,-2.9449365139,0.814477145672,-0.365145087242,20.7999992371,0.5642306047123746,-0.9849285999665551,0.27240038316789295,20.7999992371,-0.04934393070837838,1.2675948475835102,3.4902951357256606
1648639674569988295,142157,12,11,1.9842402935,-3.08400297165,0.979298233986,-0.365145087242,20.7999992371,0.6636255162207357,-1.0314391209531772,0.32752449297190633,20.7999992371,-0.04934393070837838,1.3945122128511958,3.795696102506508
1648639674569990022,142158,12,12,1.44107997417,-1.6606169939,-3.0940182209,-0.365145087242,20.7999992371,0.4819665465451505,-0.5553902989632107,-1.0347887026421403,20.7999992371,-0.04934393070837838,0.8792280069241208,3.795696121088262
1648639674570004052,142159,12,13,1.84432899952,-3.31305360794,1.01988899708,-0.365145087242,20.7999992371,0.6168324413110368,-1.1080446849297658,0.34109999902341137,20.7999992371,-0.04934393070837838,1.4102225161684843,3.926582131309562
1648639674570005885,142160,12,14,1.61743104458,-1.84058535099,-3.06825828552,-0.365145087242,20.7999992371,0.5409468376521739,-0.6155803849464883,-1.0261733396387958,20.7999992371,-0.04934393070837838,0.9819298206402745,3.926582041026554
1648639674669873304,142161,13,0,0.0272325836122,0.081803791225,0.0134304212406,0.0,14.6000003815,0.009107887495719063,0.0273591275,0.004491779679130435,14.6000003815,0.0,0.03023952854841834,0.0872573783910496
1648639674669883528,142162,13,1,0.069820009172,0.0272679310292,-0.0446707569063,0.0,14.6000003815,0.0233511736361204,0.00911970937431438,-0.014940052477023411,14.6000003815,0.0,0.034259651478677454,0.0872573794356278
1648639674669888802,142163,13,2,0.21220690012,-0.081803791225,-0.129618734121,0.0,14.6000003815,0.07097220739799331,-0.0273591275,-0.043350747197658863,14.6000003815,0.0,0.10403187157524761,0.26177212409355877
1648639674669897082,142164,13,3,0.947989940643,0.899841725826,-0.0686736926436,0.0,14.6000003815,0.3170534918538461,0.3009504099752508,-0.02296779018180602,14.6000003815,0.0,0.5400157244541175,1.3088606248027863
1648639674669900192,142165,13,4,0.89675706625,1.58290338516,0.45798048377,0.0,14.6000003815,0.29991875125418055,0.5293991254715719,0.15317073035785952,14.6000003815,0.0,0.6783553263281709,1.876033711353423
1648639674669902194,142166,13,5,2.33803200722,1.8133174181,0.756605565548,0.0,14.6000003815,0.7819505040869564,0.6064606749498327,0.2530453396481605,14.6000003815,0.0,1.2612246952642092,3.0540081380684367
1648639674669980104,142167,13,6,3.82930636406,-1.00345981121,0.663616299629,0.0,14.6000003815,1.280704469585284,-0.3356052880301003,0.22194525071204013,14.6000003815,0.0,1.8420203001555695,4.013839236401641
1648639674669983568,142168,13,7,1.20658397675,-1.28568291664,0.30148845911,-0.486860126257,14.6000003815,0.4035397915551839,-0.42999428650167215,0.10083226057190635,14.6000003815,-0.06579190895364864,0.7145514769146339,1.7887763264495378
1648639674669989091,142169,13,8,1.36216115952,-1.28977310658,0.0224638078362,-0.486860126257,14.6000003815,0.45557229415384615,-0.43136224300334447,0.007512979209431438,14.6000003815,-0.06579190895364864,0.7753487054803623,1.8760336653760765
1648639674669992689,142170,13,9,1.30374121666,-1.44247353077,0.497247427702,-0.486860126257,14.6000003815,0.4360338517257525,-0.48243261898662204,0.1663034875257525,14.6000003815,-0.06579190895364864,0.7829382297243392,2.0069195428184017
1648639674670059339,142171,13,10,2.0268406868,-3.04855465889,0.822338283062,-0.365145087242,14.6000003815,0.6778731393979932,-1.0195834979565217,0.27502952610769227,14.6000003815,-0.04934393070837838,1.3994907986620844,3.752067287469293
1648639674670064706,142172,13,11,1.18666410446,-1.64152944088,-3.15835690498,-0.365145087242,14.6000003815,0.39687762690969897,-0.5490065019665552,-1.0563066571839466,14.6000003815,-0.04934393070837838,0.7851317346054111,3.752067289018749
1648639674670070801,142173,13,12,2.00466394424,-3.15489959717,1.0513125658,-0.365145087242,14.6000003815,0.6704561686421404,-1.0551503669464881,0.3516095537792642,14.6000003815,-0.04934393070837838,1.418578600222034,3.8829534002571138
1648639674670074775,142174,13,13,1.79121422768,-1.69879209995,-2.99716258049,-0.365145087242,14.6000003815,0.5990683035719063,-0.5681578929598662,-1.002395511869565,14.6000003815,-0.04934393070837838,1.0200828672326765,3.8829533273251258
1648639674769718818,142175,14,0,0.0272652469575,0.081803791225,0.0133639844134,0.0,13.8000001907,0.00911881169147157,0.0273591275,0.004469560004481605,13.8000001907,0.0,0.030246112326880844,0.08725737808253493
1648639674769726553,142176,14,1,0.0697459131479,0.0272679310292,-0.0447863563895,0.0,13.8000001907,0.02332639235715719,0.00911970937431438,-0.014978714511538462,13.8000001907,0.0,0.03422587120691072,0.08725737895499111
1648639674769745268,142177,14,2,0.211462676525,-0.081803791225,-0.130829364061,0.0,13.8000001907,0.07072330318561873,-0.0273591275,-0.0437556401541806,13.8000001907,0.0,0.10369230002527263,0.2617721267104385
1648639674769755483,142178,14,3,0.948345899582,0.899841725826,-0.0635693818331,0.0,13.8000001907,0.3171725416662207,0.3009504099752508,-0.021260662820434782,13.8000001907,0.0,0.5401555254167938,1.30886062783558
1648639674769768169,142179,14,4,0.885934948921,1.58290338516,0.4785797894,0.0,13.8000001907,0.2962993140204013,0.5293991254715719,0.1600601302341137,13.8000001907,0.0,0.675166646856897,1.8760337084638938
1648639674769853889,142180,14,5,2.4239218235,1.71787965298,0.707431137562,0.0,13.8000001907,0.8106761951505017,0.5745416899598662,0.23659904266287626,13.8000001907,0.0,1.2823766764368916,3.0540082388485
1648639674769858961,142181,14,6,3.83017063141,-1.00345981121,0.658608555794,0.0,13.8000001907,1.2809935222107023,-0.3356052880301003,0.2202704199979933,13.8000001907,0.0,1.8424222418450469,4.0138390461245885
1648639674769867578,142182,14,7,1.45343959332,-1.31704103947,0.425020307302,-0.486860126257,13.8000001907,0.4861001984347826,-0.440481953,0.14214725996722408,13.8000001907,-0.06579190895364864,0.8164625874805068,2.0069195331894876
1648639674769875547,142183,14,8,1.23938548565,-1.28568291664,0.10326512903,-0.365145087242,13.8000001907,0.41451019586956517,-0.42999428650167215,0.03453683245150502,13.8000001907,-0.04934393070837838,0.7270024012228107,1.7887762943010526
1648639674869805905,142184,15,0,0.0272540505975,0.081803791225,0.0133868055418,0.0,31.6000003815,0.009115067089464883,0.0273591275,0.004477192488896321,31.6000003815,0.0,0.030243854808078747,0.08725737845803325
1648639674869820422,142185,15,1,0.0696945413947,0.0272679310292,-0.0448662601411,0.0,31.6000003815,0.023309211168795984,0.00911970937431438,-0.015005438174280935,31.6000003815,0.0,0.03420245239299376,0.08725738055820617
1648639674869827225,142186,15,2,0.212146282196,-0.081803791225,-0.12971791625,0.0,31.6000003815,0.07095193384481606,-0.0273591275,-0.04338391847826087,31.6000003815,0.0,0.10400420996382582,0.26177212056407057
1648639674869833965,142187,15,3,0.948043107986,0.899841725826,-0.0679356828332,0.0,31.6000003815,0.317071273573913,0.3009504099752508,-0.02272096415826087,31.6000003815,0.0,0.5400366046073524,1.3088606202110604
1648639674869851645,142188,15,4,0.887368023396,1.58290338516,0.475917339325,0.0,31.6000003815,0.2967786031424749,0.5293991254715719,0.15916967870401338,31.6000003815,0.0,0.6755875314246573,1.8760337016074362
1648639674869881545,142189,15,5,2.42367839813,1.71787965298,0.708264827728,0.0,31.6000003815,0.8105947819832775,0.5745416899598662,0.23687786880535117,31.6000003815,0.0,1.282273744041799,3.0540082753459035
1648639674869885298,142190,15,6,3.82876133919,-1.00345981121,0.666753470898,0.0,31.6000003815,1.280522187020067,-0.3356052880301003,0.22299447187224078,31.6000003815,0.0,1.8417668289593763,4.0138392065632305
1648639674869889983,142191,15,7,1.48842120171,-1.19978892803,0.173817545176,-0.608575165272,31.6000003815,0.4977997330133779,-0.4012672000100334,0.05813295825284281,31.6000003815,-0.0822398871989189,0.8103237095015008,1.9196623881647075
1648639674870025023,142192,15,8,1.17031419277,-1.22296667099,0.172869741917,-0.365145087242,31.6000003815,0.39140942902006687,-0.40901895350836115,0.057815967196321066,31.6000003815,-0.04934393070837838,0.6882580813769675,1.7015189495923075
1648639674969733986,142193,16,0,0.0272684954107,0.081803791225,0.0133573580533,0.0,30.0,0.009119898130668895,0.0273591275,0.004467343830535117,30.0,0.0,0.030246767453544723,0.08725737857001443
1648639674969742318,142194,16,1,0.0698126852512,0.0272679310292,-0.0446821972728,0.0,30.0,0.023348724164280937,0.00911970937431438,-0.014943878686555181,30.0,0.0,0.034256312400363684,0.08725737698167269
1648639674969747374,142195,16,2,0.211709693074,-0.081803791225,-0.130429267883,0.0,30.0,0.07080591741605351,-0.0273591275,-0.04362182872341137,30.0,0.0,0.10380499862636305,0.26177213052723175
1648639674969751131,142196,16,3,0.948324501514,0.899841725826,-0.0638876780868,0.0,30.0,0.31716538512173914,0.3009504099752508,-0.021367116416989965,30.0,0.0,0.5401471209801213,1.3088606217319756
1648639674969785206,142197,16,4,0.895992875099,1.58290338516,0.459473729134,0.0,30.0,0.29966316892943146,0.5293991254715719,0.1536701435230769,30.0,0.0,0.6781293856453376,1.8760337061853296
1648639674969861404,142198,16,5,2.42244815826,1.71787965298,0.712461054325,0.0,30.0,0.8101833305217391,0.5745416899598662,0.23828128907190632,30.0,0.0,1.2817535689876327,3.0540082409040488
1648639674969864648,142199,16,6,3.82885622978,-1.00345981121,0.666207909584,0.0,30.0,1.2805539230033445,-0.3356052880301003,0.22281200989431438,30.0,0.0,1.8418109590270868,4.01383913477247
1648639674969866825,142200,16,7,1.43932199478,-1.06208586693,0.00681127235293,-0.852005243301,30.0,0.4813785935719063,-0.3552126645250836,0.0022780175093411368,30.0,-0.11513584368932432,0.7678715633083066,1.7887762819371777
1648639674969869775,142201,16,8,1.11631023884,-1.27613914013,0.143132641912,-0.365145087242,30.0,0.37334790596655515,-0.4268023880033444,0.0478704488,30.0,-0.04934393070837838,0.6789238515360767,1.701518911881811
1648639674969872708,142202,16,9,1.14437246323,-1.34158217907,0.300481975079,-0.365145087242,30.0,0.3827332652943144,-0.4486896919966555,0.10049564383913043,30.0,-0.04934393070837838,0.7030589907182395,1.7887762563117513
1648639674969880178,142203,16,10,1.21920287609,-1.28977310658,0.607891499996,-0.365145087242,30.0,0.4077601592274247,-0.43136224300334447,0.20330819397859531,30.0,-0.04934393070837838,0.7201458738305914,1.8760336871417151
