%time,field.header.seq,field.header.frame_id,field.point_id,field.x,field.y,field.z,field.velocity,field.intensity,normalized_x,normalized_y,normalized_z,normalized_intensity,normalized_velocity,normalized_range,range
1648639460866849585,120948,0,0,0.0272780340165,0.081803791225,0.0133378654718,0.0,32.5999984741,0.009123088299832775,0.0273591275,0.0044608245725083605,32.5999984741,0.0,0.030248691505821334,0.08725737822059837
1648639460866856262,120949,0,1,0.0697427392006,0.0272679310292,-0.0447912923992,0.0,32.5999984741,0.02332533083632107,0.00911970937431438,-0.01498036535090301,32.5999984741,0.0,0.03422442426571437,0.08725737566880377
1648639460866866126,120950,0,2,0.211419865489,-0.081803791225,-0.130898550153,0.0,32.5999984741,0.07070898511337792,-0.0273591275,-0.04377877931538461,32.5999984741,0.0,0.10367276888888932,0.2617721341440446
1648639460866871779,120951,0,3,0.948108375072,0.899841725826,-0.0670191720128,0.0,32.5999984741,0.3170931020307692,0.3009504099752508,-0.022414438800267555,32.5999984741,0.0,0.5400622371312988,1.3088606464541837
1648639460866878398,120952,0,4,0.898853421211,1.58290338516,0.453852295876,0.0,32.5999984741,0.3006198733147157,0.5293991254715719,0.1517900655103679,32.5999984741,0.0,0.6789757363216866,1.8760337166601304
1648639460866881723,120953,0,5,2.34127497673,1.8133174181,0.746510028839,0.0,32.5999984741,0.7830351092742474,0.6064606749498327,0.2496689059662207,32.5999984741,0.0,1.2625698059801969,3.054008153002234
1648639460866999193,120954,0,6,3.82786750793,-1.00345981121,0.671866416931,0.0,32.5999984741,1.280223246799331,-0.3356052880301003,0.22470448726789297,32.5999984741,0.0,1.841351143221903,4.013839275952581
1648639460867074620,120955,0,7,5.21661424637,1.02254736423,1.21775889397,0.243430063128,32.5999984741,1.7446870389197322,0.34198908502675585,0.4072772220635451,32.5999984741,0.03289595447675676,2.4909480648593307,5.453586345824846
1648639460867082090,120956,0,8,0.867107093334,-1.43565654755,0.286674201488,0.365145087242,32.5999984741,0.29000237235250836,-0.4801526914882943,0.0958776593605351,32.5999984741,0.04934393070837838,0.6314660395331003,1.7015188895901527
1648639460867091548,120957,0,9,2.21480846405,-2.38321709633,0.639765620232,0.365145087242,32.5999984741,0.7407386167391303,-0.7970625740234114,0.21396843486020065,32.5999984741,0.04934393070837838,1.316319164779586,3.3157804977859966
1648639460867105887,120958,0,10,3.08388209343,1.13979947567,0.430033802986,0.365145087242,32.5999984741,1.0313986934548496,0.3812038380167224,0.14382401437658862,32.5999984741,0.04934393070837838,1.5076083363524562,3.315780554051551
1648639460867107745,120959,0,11,2.10057425499,-2.82904791832,0.834882497787,0.365145087242,32.5999984741,0.7025331956488294,-0.946169872347826,0.27922491564782603,32.5999984741,0.04934393070837838,1.3719851345097782,3.621181176078957
1648639460867115506,120960,0,12,3.33825063705,1.1316190958,0.82974332571,0.365145087242,32.5999984741,1.116471784966555,0.3784679250167224,0.277506129,32.5999984741,0.04934393070837838,1.6236552785364493,3.6211811719802465
1648639460867122713,120961,0,13,0.961314857006,-1.11253154278,0.196341663599,0.608575165272,32.5999984741,0.32150998562073574,-0.37208412802006685,0.06566610822709029,32.5999984741,0.0822398871989189,0.5875235655121801,1.4833754537694548
1648639460867222984,120962,0,14,1.40664899349,-0.957104384899,0.0213676467538,0.608575165272,32.5999984741,0.4704511683913043,-0.3201018009695652,0.0071463701517725745,32.5999984741,0.0822398871989189,0.7383182014994929,1.7015189598729479
1648639460867232752,120963,0,15,4.22856616974,-2.08054304123,0.636870801449,-0.973720252514,32.5999984741,1.4142361771705683,-0.6958337930535117,0.2130002680431438,32.5999984741,-0.13158381790729728,2.1176195591255955,4.755526849468782
1648639460966801427,120964,1,0,0.0272064637393,0.081803791225,0.0134832523763,0.0,14.5,0.009099151752274246,0.0273591275,0.004509448955284281,14.5,0.0,0.030234268352038674,0.08725737804119622
1648639460966810347,120965,1,1,0.0697813034058,0.0272679310292,-0.0447311960161,0.0,14.5,0.023338228563812704,0.00911970937431438,-0.0149602662261204,14.5,0.0,0.03424200525765809,0.08725737942808208
1648639460966814784,120966,1,2,0.211801379919,-0.081803791225,-0.130280300975,0.0,14.5,0.07083658191270903,-0.0273591275,-0.043572007015050165,14.5,0.0,0.10384683207355498,0.2617721177217172
1648639460966820954,120967,1,3,0.948291420937,0.899841725826,-0.0643773004413,0.0,14.5,0.31715432138361205,0.3009504099752508,-0.02153086971280936,14.5,0.0,0.5401341281652831,1.3088606447488358
1648639460966824596,120968,1,4,0.89751970768,1.58290338516,0.456484079361,0.0,14.5,0.30017381527759196,0.5293991254715719,0.15267026065585282,14.5,0.0,0.6785809257610156,1.8760337062896926
1648639460966832462,120969,1,5,2.33785176277,1.8133174181,0.757162928581,0.0,14.5,0.7818902216622073,0.6064606749498327,0.25323174868929765,14.5,0.0,1.2611499465656564,3.054008288117274
1648639460966953795,120970,1,6,3.82279872894,-1.00345981121,0.700131297112,0.0,14.5,1.2785280029899664,-0.3356052880301003,0.2341576244521739,14.5,0.0,1.8389939146753014,4.013839252871821
1648639460966959266,120971,1,7,4.9366106987,1.13570928574,1.13796770573,0.243430063128,14.5,1.651040367458194,0.3798358815183946,0.38059120592976586,14.5,0.03289595447675676,2.3656170203229925,5.191813871039654
1648639460966961808,120972,1,8,5.18815612793,1.20251572132,1.36248266697,0.243430063128,14.5,1.7351692735551838,0.4021791710100334,0.455679821729097,14.5,0.03289595447675676,2.486638876349834,5.497214484226812
1648639460966964501,120973,1,9,1.21670782566,-1.05935907364,-0.0567500330508,0.365145087242,14.5,0.4069256942006688,-0.3543006935250836,-0.018979944164147156,14.5,0.04934393070837838,0.6758002830968242,1.614261486307888
1648639460966978799,120974,1,10,1.25900948048,-1.19978892803,0.144712761045,0.365145087242,14.5,0.42107340484280936,-0.4012672000100334,0.04839891673745819,14.5,0.04934393070837838,0.7180675388399931,1.7451475946094541
1648639460967169504,120975,1,11,1.30498051643,-1.17388439178,0.344589561224,0.486860126257,14.5,0.43644833325418053,-0.39260347551170566,0.11524734489096988,14.5,0.06579190895364864,0.7315133520207099,1.7887763077677314
1648639460967327719,120976,1,12,1.18080747128,-1.28568291664,0.39042776823,0.486860126257,14.5,0.39491888671571906,-0.42999428650167215,0.13057784890635452,14.5,0.06579190895364864,0.7048524246916145,1.7887763103797143
1648639460967333005,120977,1,13,0.982361912727,-1.14525306225,0.234738200903,0.608575165272,14.5,0.3285491346913043,-0.38302778001672233,0.0785077594993311,14.5,0.0822398871989189,0.6021622273751055,1.5270041018716451
1648639460967341614,120978,1,14,1.20392096043,-1.13979947567,-0.00561108114198,0.608575165272,14.5,0.40264915064548495,-0.3812038380167224,-0.001876615766548495,14.5,0.0822398871989189,0.6852510803710858,1.6578902279499335
1648639461066965113,120979,2,0,0.0272297356278,0.081803791225,0.0134361945093,0.0,21.6000003815,0.00910693499257525,0.0273591275,0.004493710538227424,21.6000003815,0.0,0.030238954801369036,0.0872573783930907
1648639461066972172,120980,2,1,0.0697974562645,0.0272679310292,-0.0447059832513,0.0,21.6000003815,0.023343630857692307,0.00911970937431438,-0.014951833863311035,21.6000003815,0.0,0.034249369371017135,0.08725737735041957
1648639461066980855,120981,2,2,0.212368115783,-0.081803791225,-0.129354432225,0.0,21.6000003815,0.0710261256799331,-0.0273591275,-0.04326235191471572,21.6000003815,0.0,0.10410544133600588,0.26177212608728456
1648639461066991029,120982,2,3,0.948515534401,0.899841725826,-0.0609861761332,0.0,21.6000003815,0.31722927571939796,0.3009504099752508,-0.020396714425819397,21.6000003815,0.0,0.5402221543135557,1.3088606359031807
1648639461067007305,120983,2,4,2.3372130394,1.8133174181,0.759131789207,0.0,21.6000003815,0.7816766018060199,0.6064606749498327,0.2538902305040133,21.6000003815,0.0,1.260885074018493,3.0540081734846187
1648639461067109335,120984,2,5,3.8202278614,-1.00345981121,0.71402579546,0.0,21.6000003815,1.277668181070234,-0.3356052880301003,0.23880461386622073,21.6000003815,0.0,1.8377983760990777,4.013839227262685
1648639461067270533,120985,2,6,2.18809890747,-2.51955676079,0.386892735958,0.243430063128,21.6000003815,0.7318056546722408,-0.8426611240100333,0.12939556386555184,21.6000003815,0.03289595447675676,1.3345998660041842,3.3594090386332938
1648639461067273536,120986,2,7,3.10535860062,1.15479683876,0.555717170238,0.243430063128,21.6000003815,1.038581471779264,0.3862196785150502,0.1858585853638796,21.6000003815,0.03289595447675676,1.5187062214657032,3.359409077583738
1648639461067277316,120987,2,8,1.99675643444,-2.87131309509,0.507092297077,0.243430063128,21.6000003815,0.667811516535117,-0.9603053829732441,0.16959608597892975,21.6000003815,0.03289595447675676,1.3468967561774192,3.5339238455670894
1648639461067279495,120988,2,9,2.98166203499,0.993916094303,1.61568570137,0.243430063128,21.6000003815,0.9972113829397992,0.33241340946588627,0.5403631108260869,21.6000003815,0.03289595447675676,1.4489167537585272,3.533923878499183
1648639461067282760,120989,2,10,0.979927003384,-1.26114177704,0.234744101763,0.365145087242,21.6000003815,0.3277347837404682,-0.4217865475050167,0.07850973303110367,21.6000003815,0.04934393070837838,0.6266770050057882,1.6142615361425399
1648639461067286677,120990,2,11,1.14166426659,-1.25977838039,0.683570742607,0.365145087242,21.6000003815,0.381827513909699,-0.42133056200334446,0.2286189774605351,21.6000003815,0.04934393070837838,0.6849116316978249,1.8324049294451323
1648639461067320840,120991,2,12,0.945012688637,-0.629889190197,-1.43801891804,0.365145087242,21.6000003815,0.31605775539698994,-0.2106652810023411,-0.48094278195317725,21.6000003815,0.04934393070837838,0.4941304181215344,1.8324049176568198
1648639461166807108,120992,3,0,0.0272780340165,0.081803791225,0.0133378654718,0.0,17.8999996185,0.009123088299832775,0.0273591275,0.0044608245725083605,17.8999996185,0.0,0.030248691505821334,0.08725737822059837
1648639461166814944,120993,3,1,0.0697974562645,0.0272679310292,-0.0447059832513,0.0,17.8999996185,0.023343630857692307,0.00911970937431438,-0.014951833863311035,17.8999996185,0.0,0.034249369371017135,0.08725737735041957
1648639461166826436,120994,3,2,0.21288587153,-0.081803791225,-0.128500550985,0.0,17.8999996185,0.07119928813712374,-0.0273591275,-0.04297677290468227,17.8999996185,0.0,0.10434174198290729,0.2617721263987433
1648639461166831026,120995,3,3,0.948479890823,0.899841725826,-0.0615372695029,0.0,17.8999996185,0.317217354790301,0.3009504099752508,-0.02058102658959866,17.8999996185,0.0,0.5402081539782447,1.3088606000529608
1648639461166833989,120996,3,4,0.897707641125,1.58290338516,0.456114411354,0.0,17.8999996185,0.30023666927257525,0.5293991254715719,0.152546625870903,17.8999996185,0.0,0.6786365368898469,1.87603371289804
1648639461167000002,120997,3,5,2.33694410324,1.8133174181,0.759959697723,0.0,17.8999996185,0.7815866566020067,0.6064606749498327,0.2541671229842809,17.8999996185,0.0,1.2607735537427855,3.054008274811365
1648639461167005717,120998,3,6,3.82318425179,-1.00345981121,0.69802325964,0.0,17.8999996185,1.2786569403979933,-0.3356052880301003,0.2334525951973244,17.8999996185,0.0,1.8391731978825925,4.0138392950948
1648639461167015692,120999,3,7,2.03317260742,-2.76087808609,0.855791330338,0.243430063128,17.8999996185,0.6799908386020067,-0.923370597354515,0.2862178362334448,17.8999996185,0.03289595447675676,1.3331872866271095,3.5339238049081794
1648639461167144777,121000,3,8,1.08556854725,-1.16025042534,0.284956157207,0.365145087242,17.8999996185,0.3630664037625418,-0.3880436205150501,0.09530306261103678,17.8999996185,0.04934393070837838,0.6435932554840504,1.6142614818579752
1648639461266903228,121001,4,0,0.0272369924933,0.081803791225,0.0134214758873,0.0,30.7000007629,0.009109362037892976,0.0273591275,0.004488787922173913,30.7000007629,0.0,0.0302404168462683,0.08725737810556104
1648639461266910542,121002,4,1,0.0697309374809,0.0272679310292,-0.0448096692562,0.0,30.7000007629,0.02332138377287625,0.00911970937431438,-0.014986511456923077,30.7000007629,0.0,0.03421904413094423,0.08725737884802882
1648639461266914733,121003,4,2,0.212146282196,-0.081803791225,-0.12971791625,0.0,30.7000007629,0.07095193384481606,-0.0273591275,-0.04338391847826087,30.7000007629,0.0,0.10400420996382582,0.26177212056407057
1648639461266927630,121004,4,3,0.948524653912,0.899841725826,-0.0608438774943,0.0,30.7000007629,0.3172323257230769,0.3009504099752508,-0.02034912290779264,30.7000007629,0.0,0.5402257363654719,1.308860622085077
1648639461267080352,121005,4,4,0.889846503735,1.58290338516,0.471266955137,0.0,30.7000007629,0.2976075263327759,0.5293991254715719,0.15761436626655517,30.7000007629,0.0,0.6763164300162261,1.8760337070437967
1648639461267086203,121006,4,5,2.33743524551,1.8133174181,0.758446991444,0.0,30.7000007629,0.7817509182307691,0.6064606749498327,0.25366120115183943,30.7000007629,0.0,1.2609772188941035,3.0540080917652626
1648639461267094183,121007,4,6,3.81785917282,-1.00345981121,0.726583957672,0.0,30.7000007629,1.2768759775317724,-0.3356052880301003,0.24300466811772575,30.7000007629,0.0,1.8366968811835025,4.013839122803221
1648639461267109996,121008,4,7,1.05851745605,-1.24341762066,0.286449551582,0.243430063128,30.7000007629,0.35401921607023407,-0.41585873600668893,0.09580252561270901,30.7000007629,0.03289595447675676,0.650843836113585,1.6578902043657378
1648639461267130948,121009,4,8,1.23280012608,-1.16979420185,0.0833793357015,0.365145087242,30.7000007629,0.4123077344749163,-0.39123551901337794,0.027886065452006687,30.7000007629,0.04934393070837838,0.7021827163590282,1.7015189505752693
1648639461366907320,121010,5,0,0.0272254683077,0.081803791225,0.0134448381141,0.0,29.7999992371,0.00910550779521739,0.0273591275,0.004496601375953177,29.7999992371,0.0,0.030238095210822817,0.08725737822826973
1648639461366921778,121011,5,1,0.0697990953922,0.0272679310292,-0.0447034277022,0.0,29.7999992371,0.023344179060936453,0.00911970937431438,-0.014950979164615385,29.7999992371,0.0,0.034250116658634686,0.0872573792209488
1648639461366942637,121012,5,2,0.213338956237,-0.081803791225,-0.127746924758,0.0,29.7999992371,0.07135082148394649,-0.0273591275,-0.0427247239993311,29.7999992371,0.0,0.10454855958084384,0.2617721285626147
1648639461367188269,121013,5,3,0.948242247105,0.899841725826,-0.0650972127914,0.0,29.7999992371,0.31713787528595316,0.3009504099752508,-0.02177164307404682,29.7999992371,0.0,0.5401148147811251,1.308860625828993
1648639461367199675,121014,5,4,0.900049269199,1.58290338516,0.451476097107,0.0,29.7999992371,0.3010198224745819,0.5293991254715719,0.15099535020301003,29.7999992371,0.0,0.6793300384167645,1.8760337097172883
1648639461367206054,121015,5,5,2.33757948875,1.8133174181,0.758002817631,0.0,29.7999992371,0.7817991601170567,0.6064606749498327,0.2535126480371237,29.7999992371,0.0,1.2610370350549096,3.0540082181530055
1648639461367211584,121016,5,6,3.81916260719,-1.00345981121,0.719701647758,0.0,29.7999992371,1.2773119087591973,-0.3356052880301003,0.24070289222675587,29.7999992371,0.0,1.8373030054593322,4.0138391939211395
1648639461367325145,121017,5,7,1.06540966034,-1.24341762066,0.259643793106,0.243430063128,29.7999992371,0.3563243011170569,-0.41585873600668893,0.0868373889986622,29.7999992371,0.03289595447675676,0.6533548067062789,1.6578902324979303
1648639461367329854,121018,5,8,1.26412594318,-1.19978892803,0.0896235182881,0.608575165272,29.7999992371,0.42278459638127086,-0.4012672000100334,0.029974420832140466,29.7999992371,0.0822398871989189,0.7200756874651721,1.7451476290200891
1648639461466880706,121019,6,0,0.0272382702678,0.081803791225,0.0134188849479,0.0,24.2000007629,0.00910978938722408,0.0273591275,0.004487921387257525,24.2000007629,0.0,0.030240674313255934,0.0872573784800465
1648639461466886518,121020,6,1,0.0698134377599,0.0272679310292,-0.0446810163558,0.0,24.2000007629,0.023348975839431435,0.00911970937431438,-0.014943483731036787,24.2000007629,0.0,0.03425665547850028,0.08725737434197699
1648639461466889684,121021,6,2,0.212486937642,-0.081803791225,-0.129159167409,0.0,24.2000007629,0.07106586543210702,-0.0273591275,-0.043197045956187285,24.2000007629,0.0,0.10415966741877561,0.2617721326899498
1648639461466892375,121022,6,3,0.948350071907,0.899841725826,-0.0635075941682,0.0,24.2000007629,0.31717393709264213,0.3009504099752508,-0.021239998049565216,24.2000007629,0.0,0.5401571641716567,1.3088606514601007
1648639461466912365,121023,6,4,0.905770659447,1.58290338516,0.439885050058,0.0,24.2000007629,0.30293333091872904,0.5293991254715719,0.14711874583879597,24.2000007629,0.0,0.6810291036461639,1.876033707461188
1648639461466921137,121024,6,5,1.00525331497,-1.40702521801,0.727494478226,0.0,24.2000007629,0.33620512206354514,-0.47057699598996655,0.24330919004214044,24.2000007629,0.0,0.6689622391125433,1.8760336903221069
1648639461466927472,121025,6,6,2.33966946602,1.8133174181,0.751527190208,0.0,24.2000007629,0.7824981491705686,0.6064606749498327,0.2513468863571906,24.2000007629,0.0,1.26190382247275,3.05400824927391
1648639461466949485,121026,6,7,3.82062339783,-1.00345981121,0.711906731129,0.0,24.2000007629,1.277800467501672,-0.3356052880301003,0.2380958966986622,24.2000007629,0.0,1.8379823118976826,4.0138393010416396
1648639461467053555,121027,6,8,1.07880055904,-1.24341762066,0.196728363633,0.243430063128,24.2000007629,0.36080286255518396,-0.41585873600668893,0.06579543934214047,24.2000007629,0.03289595447675676,0.6582521550052919,1.6578902480594155
1648639461467057872,121028,6,9,1.29882764816,-1.22978365421,-0.0199862290174,0.365145087242,24.2000007629,0.4343905177792642,-0.41129888100668893,-0.006684357530903009,24.2000007629,0.04934393070837838,0.7392949434362641,1.788776270285715
1648639461467059973,121029,6,10,1.49336719513,-2.35594916344,0.126253321767,-0.243430063128,24.2000007629,0.4994539114147157,-0.7879428640267558,0.0422251912264214,24.2000007629,-0.03289595447675676,1.058188251789635,2.792236011060183
1648639461566900233,121030,7,0,0.027260992676,0.081803791225,0.0133726596832,0.0,13.6999998093,0.009117388854849497,0.0273591275,0.004472461432508361,13.6999998093,0.0,0.030245254447967933,0.08725737795434262
1648639461566910921,121031,7,1,0.0697974562645,0.0272679310292,-0.0447059832513,0.0,13.6999998093,0.023343630857692307,0.00911970937431438,-0.014951833863311035,13.6999998093,0.0,0.034249369371017135,0.08725737735041957
1648639461566916291,121032,7,2,0.211933240294,-0.081803791225,-0.130065694451,0.0,13.6999998093,0.07088068237257525,-0.0273591275,-0.043500232257859525,13.6999998093,0.0,0.10390699747738386,0.26177212126832494
1648639461567069353,121033,7,3,0.948154211044,0.899841725826,-0.0663672834635,0.0,13.6999998093,0.3171084317872909,0.3009504099752508,-0.022196415874080267,13.6999998093,0.0,0.5400802387474118,1.3088606326772567
1648639461567074301,121034,7,4,1.01342236996,1.52427732944,0.411164224148,0.0,13.6999998093,0.3389372474782609,0.5097917489765886,0.13751311844414715,13.6999998093,0.0,0.6997460559237823,1.8760336607319466
1648639461567086999,121035,7,5,2.3388273716,1.8133174181,0.754143357277,0.0,13.6999998093,0.7822165122408026,0.6064606749498327,0.2522218586210702,13.6999998093,0.0,1.2615545546289062,3.054008142794521
1648639461567218619,121036,7,6,3.82048344612,-1.00345981121,0.712656855583,0.0,13.6999998093,1.2777536609096989,-0.3356052880301003,0.23834677444247487,13.6999998093,0.0,1.837917230260939,4.013839203132084
1648639461567222028,121037,7,7,1.13929092884,-1.3088606596,0.185580119491,0.365145087242,13.6999998093,0.3810337554648829,-0.43774604,0.06206692959565217,13.6999998093,0.04934393070837838,0.6942586269849486,1.7451475661203986
1648639461567223518,121038,7,8,1.27390468121,-1.31704103947,-0.0166678223759,0.365145087242,13.6999998093,0.42605507732775916,-0.440481953,-0.005574522533745819,13.6999998093,0.04934393070837838,0.7463713611549011,1.8324049914687865
1648639461567224559,121039,7,9,1.31945848465,-1.06344926357,0.152550756931,-0.243430063128,13.6999998093,0.44129046309364545,-0.3556686500234113,0.05102032004381271,13.6999998093,-0.03289595447675676,0.718313813207211,1.7015189573856269
1648639461666864977,121040,8,0,0.0272339992225,0.081803791225,0.0134275499731,0.0,22.0,0.009108360943979932,0.0273591275,0.004490819388996655,22.0,0.0,0.030239813751623774,0.08725737831676252
1648639461666870103,121041,8,1,0.0696952193975,0.0272679310292,-0.0448652021587,0.0,22.0,0.02330943792558528,0.00911970937431438,-0.015005084334013376,22.0,0.0,0.03420276146578496,0.08725737810764134
1648639461667033915,121042,8,2,0.212486937642,-0.081803791225,-0.129159167409,0.0,22.0,0.07106586543210702,-0.0273591275,-0.043197045956187285,22.0,0.0,0.10415966741877561,0.2617721326899498
1648639461667038263,121043,8,3,0.948502600193,0.899841725826,-0.0611868277192,0.0,22.0,0.3172249498973244,0.3009504099752508,-0.02046382197966555,22.0,0.0,0.5402170739054732,1.3088606274148271
1648639461667045888,121044,8,4,2.34039306641,1.8133174181,0.749270379543,0.0,22.0,0.7827401559899665,0.6064606749498327,0.2505921001816053,22.0,0.0,1.2622039668211318,3.05400816399455
1648639461667073613,121045,8,5,3.8123421669,-1.00345981121,0.754996836185,0.0,22.0,1.2750308250501672,-0.3356052880301003,0.25250730307190633,22.0,0.0,1.8341314344969901,4.013839136398811
1648639461667077378,121046,8,6,1.29224216938,-1.34839916229,0.177291572094,0.243430063128,22.0,0.4321880165150501,-0.45096961949498326,0.05929484016521739,22.0,0.03289595447675676,0.7595699842317865,1.8760336955193166
1648639461667194567,121047,8,7,1.29337394238,-1.63607573509,0.189782395959,0.365145087242,22.0,0.4325665359130434,-0.5471825200969899,0.06347237323043478,22.0,0.04934393070837838,0.8207535112829633,2.0941770038833405
1648639461667198584,121048,8,8,1.22025239468,-1.28568291664,0.240258663893,0.486860126257,22.0,0.4081111687892976,-0.42999428650167215,0.08035406819163879,22.0,0.06579190895364864,0.7197253216368139,1.7887763120183195
1648639461766932257,121049,9,0,0.0272422805429,0.081803791225,0.013410740532,0.0,30.5,0.009111130616354515,0.0273591275,0.004485197502341137,30.5,0.0,0.030241482433534927,0.08725737831024998
1648639461766942770,121050,9,1,0.0697235539556,0.0272679310292,-0.0448211506009,0.0,30.5,0.023318914366421403,0.00911970937431438,-0.01499035137153846,30.5,0.0,0.034215678183092416,0.08725737550488916
1648639461766951840,121051,9,2,0.206498429179,-0.0899841710925,-0.133363768458,0.0,30.5,0.06906301979230768,-0.030095040499163877,-0.04460326704280936,30.5,0.0,0.10220133496345182,0.26177212807691697
1648639461766955303,121052,9,3,0.948282599449,0.899841725826,-0.0645074248314,0.0,30.5,0.3171513710531772,0.3009504099752508,-0.021574389575719062,30.5,0.0,0.5401306634381089,1.3088606601978858
1648639461766958123,121053,9,4,0.89980340004,1.58290338516,0.451965868473,0.0,30.5,0.30093759198662207,0.5293991254715719,0.1511591533354515,30.5,0.0,0.6792571697019313,1.876033696855972
1648639461767123839,121054,9,5,2.42413568497,1.71787965298,0.706697523594,0.0,30.5,0.8107477207257524,0.5745416899598662,0.23635368682073576,30.5,0.0,1.2824671094519127,3.054008138679651
1648639461767129054,121055,9,6,3.81584000587,-1.00345981121,0.737114369869,0.0,30.5,1.2762006708595317,-0.3356052880301003,0.24652654510668895,30.5,0.0,1.8357579399143025,4.01383907716527
1648639461767132092,121056,9,7,1.32192647457,-0.984372317791,0.179224550724,0.243430063128,30.5,0.44211587778260864,-0.3292215109668896,0.05994132131237458,30.5,0.03289595447675676,0.7066255741609518,1.6578901965403239
1648639461767134219,121057,9,8,1.13630485535,-1.53791117668,0.74053311348,0.243430063128,30.5,0.3800350686789297,-0.5143515641070233,0.24766993761872907,30.5,0.03289595447675676,0.7439158812331801,2.050548415378098
1648639461767294813,121058,9,9,1.24603760242,-1.31704103947,0.265520870686,0.365145087242,30.5,0.4167349840869565,-0.440481953,0.08880296678461538,30.5,0.04934393070837838,0.7357720060199395,1.832405015017873
1648639461866951740,121059,10,0,0.0272708274424,0.081803791225,0.0133525943384,0.0,34.7000007629,0.00912067807438127,0.0273591275,0.004465750614849498,34.7000007629,0.0,0.03024723780172753,0.08725737827681058
1648639461866961838,121060,10,1,0.0697870403528,0.0272679310292,-0.0447222441435,0.0,34.7000007629,0.023340147275183947,0.00911970937431438,-0.014957272288795984,34.7000007629,0.0,0.03424462072686031,0.08725737897190909
1648639461866978810,121061,10,2,0.212079688907,-0.081803791225,-0.129826784134,0.0,34.7000007629,0.07092966184180602,-0.0273591275,-0.04342032914180602,34.7000007629,0.0,0.10397382226092855,0.2617721310305005
1648639461866983632,121062,10,3,0.948550343513,0.899841725826,-0.0604425743222,0.0,34.7000007629,0.31724091756287626,0.3009504099752508,-0.02021490780006689,34.7000007629,0.0,0.5402358270390283,1.3088606459462517
1648639461866988731,121063,10,4,0.89758759737,1.58290338516,0.456350564957,0.0,34.7000007629,0.30019652085953175,0.5293991254715719,0.15262560700903008,34.7000007629,0.0,0.6786010140888382,1.876033704345423
1648639461866996927,121064,10,5,2.42252182961,1.71787965298,0.71221023798,0.0,34.7000007629,0.8102079697692307,0.5745416899598662,0.23819740400668896,34.7000007629,0.0,1.2817847175158144,3.054008176174909
1648639461867004444,121065,10,6,3.82243704796,-1.00345981121,0.702102124691,0.0,34.7000007629,1.2784070394515048,-0.3356052880301003,0.23481676411070232,34.7000007629,0.0,1.8388257194177182,4.013839056542549
1648639461867208183,121066,10,7,1.2331199646,-1.31704103947,0.320197194815,0.243430063128,34.7000007629,0.4124147038795986,-0.440481953,0.10708936281438125,34.7000007629,0.03289595447675676,0.730887218981758,1.8324050290016993
1648639461867218332,121067,10,8,1.15792489052,-1.47383165359,0.831732392311,0.243430063128,34.7000007629,0.38726584967224076,-0.4929202854816053,0.27817136866588626,34.7000007629,0.03289595447675676,0.7368311098779641,2.0505483577884642
1648639461867221558,121068,10,9,1.52397322655,-0.70487600565,-1.17703187466,0.243430063128,34.7000007629,0.5096900423244146,-0.23574448349498325,-0.3936561453712374,34.7000007629,0.03289595447675676,0.7583820541044227,2.0505483687413837
1648639461867226273,121069,10,10,5.11983633041,-3.20670866966,2.15318822861,0.243430063128,34.7000007629,1.712319842946488,-1.0724778159397992,0.7201298423444815,34.7000007629,0.03289595447675676,2.648449953232942,6.413417504738282
1648639461867232505,121070,10,11,1.48028171062,-1.28840970993,0.0572552271187,0.365145087242,34.7000007629,0.4950774951906354,-0.4309062575016722,0.019148905390869563,34.7000007629,0.04934393070837838,0.8221214358247598,1.963291034072736
1648639461867234660,121071,10,12,1.36157286167,-1.09071719646,0.0446702949703,0.730290174484,34.7000007629,0.4553755390200669,-0.36478836002006687,0.014939897983377925,34.7000007629,0.09868786141675676,0.7401380348838741,1.7451475856048762
1648639461966915949,121072,11,0,0.0272051747888,0.081803791225,0.0134858526289,0.0,21.8999996185,0.009098720665150502,0.0273591275,0.004510318604983277,21.8999996185,0.0,0.030234008881491883,0.08725737799865955
1648639461966923489,121073,11,1,0.0697708725929,0.0272679310292,-0.0447474643588,0.0,21.8999996185,0.023334739997625416,0.00911970937431438,-0.01496570714341137,21.8999996185,0.0,0.03423724989810829,0.087257379582073
1648639461966937430,121074,11,2,0.211621820927,-0.081803791225,-0.13057179749,0.0,21.8999996185,0.07077652873812708,-0.0273591275,-0.04366949748829431,21.8999996185,0.0,0.10376490687124965,0.2617721330680793
1648639461966942488,121075,11,3,0.948554098606,0.899841725826,-0.0603839084506,0.0,21.8999996185,0.3172421734468227,0.3009504099752508,-0.02019528710722408,21.8999996185,0.0,0.5402373020171778,1.30886065947431
1648639461967057477,121076,11,4,2.42103838921,1.71787965298,0.71723651886,0.0,21.8999996185,0.8097118358561872,0.5745416899598662,0.23987843440133777,21.8999996185,0.0,1.281157549934095,3.0540081218192014
1648639461967061392,121077,11,5,3.82315826416,-1.00345981121,0.698165118694,0.0,21.8999996185,1.278648248882943,-0.3356052880301003,0.23350003969698996,21.8999996185,0.0,1.8391611125990566,4.013839214329533
1648639461967063484,121078,11,6,1.31754970551,-1.28977310658,0.346483319998,0.243430063128,21.8999996185,0.44065207542140467,-0.43136224300334447,0.11588070902943141,21.8999996185,0.03289595447675676,0.7579062526693251,1.876033737432072
1648639461967121571,121079,11,7,1.39686751366,-1.34976255894,0.285331070423,0.486860126257,21.8999996185,0.46717977045484943,-0.45142560499665546,0.09542845164648828,21.8999996185,0.06579190895364864,0.8001868236175149,1.963291021724406
1648639462066891739,121080,12,0,0.02726659365,0.081803791225,0.0133612379432,0.0,30.7999992371,0.009119262090301002,0.0273591275,0.0044686414525752505,30.7999992371,0.0,0.030246383911212565,0.08725737829795494
1648639462066906395,121081,12,1,0.0698152408004,0.0272679310292,-0.0446782074869,0.0,30.7999992371,0.02334957886301003,0.00911970937431438,-0.014942544309999998,30.7999992371,0.0,0.034257477508301847,0.08725737868440428
1648639462066909606,121082,12,2,0.206447258592,-0.0899841710925,-0.13344296813,0.0,30.7999992371,0.06904590588361204,-0.030095040499163877,-0.044629755227424746,30.7999992371,0.0,0.1021782056077691,0.2617721287125515
1648639462066918923,121083,12,3,0.948646187782,0.899841725826,-0.058918800205,0.0,30.7999992371,0.31727297250234116,0.3009504099752508,-0.019705284349498326,30.7999992371,0.0,0.5402734746637246,1.308860629000824
1648639462066926336,121084,12,4,0.889553844929,1.58290338516,0.471819132566,0.0,30.7999992371,0.2975096471334448,0.5293991254715719,0.15779904099197323,30.7999992371,0.0,0.6762302968109303,1.876033705356673
1648639462066932073,121085,12,5,2.42279267311,1.71787965298,0.711288392544,0.0,30.7999992371,0.8102985528795986,0.5745416899598662,0.23788909449632106,30.7999992371,0.0,1.2818992328180412,3.0540081886540533
1648639462066999016,121086,12,6,3.81876182556,-1.00345981121,0.721825242043,0.0,30.7999992371,1.2771778680802675,-0.3356052880301003,0.241413124429097,30.7999992371,0.0,1.8371166328738848,4.013839203694935
1648639462067006203,121087,12,7,1.34932136536,-1.31976783276,0.350211828947,0.243430063128,30.7999992371,0.45127804861538456,-0.44139392399999994,0.11712770198896319,30.7999992371,0.03289595447675676,0.7759718747920806,1.9196623673290585
1648639462067296117,121088,12,8,1.35711312294,-1.53654789925,0.606199324131,0.243430063128,30.7999992371,0.45388398760535115,-0.5138956184782608,0.20274224887324413,30.7999992371,0.03289595447675676,0.8222591167632155,2.137805673049454
1648639462067300762,121089,12,9,1.45559990406,-1.37975728512,0.0722845420241,0.486860126257,30.7999992371,0.4868227103879599,-0.461457285993311,0.02417543211508361,30.7999992371,0.06579190895364864,0.8288157391696126,2.0069196051553306
1648639462166954442,121090,13,0,0.0272267311811,0.081803791225,0.0134422788396,0.0,31.2000007629,0.00910593016090301,0.0273591275,0.004495745431304348,31.2000007629,0.0,0.03023834958710119,0.08725737796881608
1648639462166962302,121091,13,1,0.0697070583701,0.0272679310292,-0.0448468029499,0.0,31.2000007629,0.023313397448193978,0.00911970937431438,-0.014998930752474915,31.2000007629,0.0,0.03420815838695314,0.08725737667414082
1648639462166969048,121092,13,2,0.211737602949,-0.081803791225,-0.130383938551,0.0,31.2000007629,0.07081525182240801,-0.0273591275,-0.043606668411705685,31.2000007629,0.0,0.10381773277674378,0.2617721226438039
1648639462166973641,121093,13,3,0.94845199585,0.899841725826,-0.0619660355151,0.0,31.2000007629,0.31720802536789294,0.3009504099752508,-0.02072442659367893,31.2000007629,0.0,0.5401971973084155,1.3088606150109419
1648639462166977716,121094,13,4,0.903782069683,1.58290338516,0.443956404924,0.0,31.2000007629,0.30226825073010033,0.5293991254715719,0.14848040298461537,31.2000007629,0.0,0.6804378185028627,1.8760337005780352
1648639462166981237,121095,13,5,2.42425632477,1.71787965298,0.706283986568,0.0,31.2000007629,0.8107880684849498,0.5745416899598662,0.23621538012307688,31.2000007629,0.0,1.2825181236524692,3.054008235089162
1648639462167106722,121096,13,6,3.82327318192,-1.00345981121,0.697535991669,0.0,31.2000007629,1.2786866829163879,-0.3356052880301003,0.2332896293207358,31.2000007629,0.0,1.8392145539575302,4.013839293740588
1648639462167111381,121097,13,7,1.35949122906,-1.31976783276,0.308383256197,0.243430063128,31.2000007629,0.4546793408227425,-0.44139392399999994,0.10313821277491639,31.2000007629,0.03289595447675676,0.7799328189569439,1.9196624096391952
1648639462266954617,121098,14,0,0.0272455215454,0.081803791225,0.0134041560814,0.0,31.6000003815,0.00911221456367893,0.0273591275,0.004482995344949833,31.6000003815,0.0,0.030242135606968982,0.08725737850359004
1648639462266962474,121099,14,1,0.0696903839707,0.0272679310292,-0.0448727123439,0.0,31.6000003815,0.02330782072598662,0.00911970937431438,-0.015007596101638794,31.6000003815,0.0,0.034200557203961174,0.08725737787542784
1648639462266967733,121100,14,2,0.211868330836,-0.081803791225,-0.13017141819,0.0,31.6000003815,0.07085897352374582,-0.0273591275,-0.04353559136789297,31.6000003815,0.0,0.10387738019048746,0.2617721298832479
1648639462266972602,121101,14,3,0.948554098606,0.899841725826,-0.0603839084506,0.0,31.6000003815,0.3172421734468227,0.3009504099752508,-0.02019528710722408,31.6000003815,0.0,0.5402373020171778,1.30886065947431
1648639462266977785,121102,14,4,0.893889307976,1.58290338516,0.46355292201,0.0,31.6000003815,0.29895963477458193,0.5293991254715719,0.15503442207692306,31.6000003815,0.0,0.6775080519810579,1.8760337238889946
1648639462266980035,121103,14,5,2.42518186569,1.71787965298,0.703098773956,0.0,31.6000003815,0.8110976139431437,0.5745416899598662,0.23515009162408024,31.6000003815,0.0,1.28290951831782,3.0540080991596508
1648639462267080159,121104,14,6,3.82168602943,-1.00345981121,0.706179141998,0.0,31.6000003815,1.2781558626856186,-0.3356052880301003,0.23618031504949832,31.6000003815,0.0,1.8384764692508313,4.013839144864562
1648639462267084021,121105,14,7,1.30828857422,-1.37975728512,0.264110654593,0.243430063128,31.6000003815,0.4375547070969899,-0.461457285993311,0.0883313226063545,31.6000003815,0.03289595447675676,0.7719139007698835,1.9196623654033165
1648639462267087521,121106,14,8,1.54249095917,-1.37430369854,0.342911362648,0.243430063128,31.6000003815,0.5158832639364548,-0.45963334399331096,0.11468607446421403,31.6000003815,0.03289595447675676,0.8622841149701953,2.0941769785705833
1648639462267110241,121107,14,9,1.65318059921,-1.33612859249,0.227963581681,0.486860126257,31.6000003815,0.5529032104381271,-0.44686574999665546,0.07624200056220735,31.6000003815,0.06579190895364864,0.9006069724056377,2.1378056749495435
1648639462366967769,121108,15,0,0.0273091439158,0.081803791225,0.0132740493864,0.0,26.5,0.009133492948428093,0.0273591275,0.004439481400133779,26.5,0.0,0.030254970574092908,0.08725737783883865
1648639462366976369,121109,15,1,0.0697309374809,0.0272679310292,-0.0448096692562,0.0,26.5,0.02332138377287625,0.00911970937431438,-0.014986511456923077,26.5,0.0,0.03421904413094423,0.08725737884802882
1648639462366989084,121110,15,2,0.212146282196,-0.081803791225,-0.12971791625,0.0,26.5,0.07095193384481606,-0.0273591275,-0.04338391847826087,26.5,0.0,0.10400420996382582,0.26177212056407057
1648639462367075269,121111,15,3,0.948339939117,0.899841725826,-0.0636583194137,0.0,26.5,0.3171705481996655,0.3009504099752508,-0.021290407830668892,26.5,0.0,0.54015318434202,1.308860631729951
1648639462367078429,121112,15,4,0.895277261734,1.58290338516,0.46086654067,0.0,26.5,0.2994238333558528,0.5293991254715719,0.1541359667792642,26.5,0.0,0.6779179139195926,1.8760337071700097
1648639462367086159,121113,15,5,2.33832859993,1.8133174181,0.755688488483,0.0,26.5,0.7820496989732442,0.6064606749498327,0.2527386249107023,26.5,0.0,1.2613476973415736,3.0540081518655393
1648639462367092943,121114,15,6,3.82261371613,-1.00345981121,0.701140344143,0.0,26.5,1.2784661257959864,-0.3356052880301003,0.23449509837558527,26.5,0.0,1.8389078766945788,4.013839184327615
1648639462367223228,121115,15,7,1.34162831306,-1.41111540794,0.251591980457,0.243430063128,26.5,0.4487051214247491,-0.47194495248829427,0.08414447506923076,26.5,0.03289595447675676,0.7908252715769621,1.9632910506494365
1648639462367227952,121116,15,8,1.66462731361,-1.36339652538,0.358917713165,0.365145087242,26.5,0.5567315430133779,-0.455985459993311,0.12003936895150501,26.5,0.04934393070837838,0.9098476585107117,2.181434414200504
1648639462466926739,121117,16,0,0.0272750630975,0.081803791225,0.0133439395577,0.0,29.0,0.009122094681438127,0.0273591275,0.004462856039364548,29.0,0.0,0.030248092176458,0.08725737819047479
1648639462466943299,121118,16,1,0.0697974562645,0.0272679310292,-0.0447059832513,0.0,29.0,0.023343630857692307,0.00911970937431438,-0.014951833863311035,29.0,0.0,0.034249369371017135,0.08725737735041957
1648639462466950719,121119,16,2,0.21288587153,-0.081803791225,-0.128500550985,0.0,29.0,0.07119928813712374,-0.0273591275,-0.04297677290468227,29.0,0.0,0.10434174198290729,0.2617721263987433
1648639462466955161,121120,16,3,0.948368191719,0.899841725826,-0.0632364153862,0.0,29.0,0.3171799972304348,0.3009504099752508,-0.021149302804749165,29.0,0.0,0.5401642810761081,1.308860650654903
1648639462467121204,121121,16,4,0.905440807343,1.58290338516,0.440563559532,0.0,29.0,0.30282301248929766,0.5293991254715719,0.14734567208428093,29.0,0.0,0.6809309714179931,1.8760336970162443
1648639462467124973,121122,16,5,2.34029388428,1.8133174181,0.749580562115,0.0,29.0,0.78270698470903,0.6064606749498327,0.2506958401722408,29.0,0.0,1.262162825504384,3.0540082748224275
1648639462467127086,121123,16,6,3.82345747948,-1.00345981121,0.69652402401,0.0,29.0,1.278748320896321,-0.3356052880301003,0.23295117859866218,29.0,0.0,1.8393002598118904,4.013839110643107
1648639462467260199,121124,16,7,1.28842496872,-1.50518965721,0.319517314434,0.121715031564,29.0,0.4309113607759197,-0.5034079121103678,0.1068619780715719,29.0,0.01644797723837838,0.7904357833921927,2.006919559528036
1648639462467390641,121125,16,8,1.66625547409,-1.36339652538,0.351281702518,0.243430063128,29.0,0.5572760782909698,-0.455985459993311,0.1174855192367893,29.0,0.03289595447675676,0.9105141375047604,2.1814344420305396
1648639462467395516,121126,16,9,5.28484630585,-3.2721517086,2.04727363586,0.243430063128,29.0,1.7675071257023411,-1.0943651199331104,0.6847069016254179,29.0,0.03289595447675676,2.728698938055152,6.544303371684241
