%time,field.header.seq,field.header.frame_id,field.point_id,field.x,field.y,field.z,field.velocity,field.intensity,normalized_x,normalized_y,normalized_z,normalized_intensity,normalized_velocity,normalized_range,range
1648639535767913630,128476,0,0,0.0272648595273,0.081803791225,0.0133647751063,0.0,28.5,0.009118682116153846,0.0273591275,0.004469824450267558,28.5,0.0,0.030246034196770067,0.08725737812625799
1648639535767919873,128477,0,1,0.0698304921389,0.0272679310292,-0.044654365629,0.0,28.5,0.023354679645117053,0.00911970937431438,-0.014934570444481604,28.5,0.0,0.03426443085364249,0.0872573782823126
1648639535767926393,128478,0,2,0.212660387158,-0.081803791225,-0.128873363137,0.0,28.5,0.07112387530367893,-0.0273591275,-0.04310145924314381,28.5,0.0,0.10423882738206429,0.2617721227541522
1648639535767982177,128479,0,3,0.94886893034,0.899841725826,-0.0552150011063,0.0,28.5,0.3173474683411371,0.3009504099752508,-0.01846655555394649,28.5,0.0,0.5403609724890663,1.308860601763709
1648639535767990725,128480,0,4,2.33997035027,1.8133174181,0.750589370728,0.0,28.5,0.782598779354515,0.6064606749498327,0.2510332343571906,28.5,0.0,1.2620286245386674,3.054008137248068
1648639535767993898,128481,0,5,3.81711435318,-1.00345981121,0.730486750603,0.0,28.5,1.276626873973244,-0.3356052880301003,0.24430995003444814,28.5,0.0,1.8363505275559895,4.013839118695829
1648639535767997087,128482,0,6,0.863737940788,-0.839852273464,0.202285632491,0.243430063128,28.5,0.28887556548093646,-0.2808870479812709,0.06765405768929766,28.5,0.03289595447675676,0.4957778921931619,1.2216032697695385
1648639535768023478,128483,0,7,0.984039366245,-0.887571156025,0.270391196012,0.243430063128,28.5,0.3291101559347826,-0.2968465404765886,0.09043183813110367,28.5,0.03289595447675676,0.5520370078823998,1.3524893456912022
1648639535768092209,128484,0,8,4.80975103378,1.43565654755,0.928268969059,-0.121715031564,28.5,1.6086123858795984,0.4801526914882943,0.310457849183612,28.5,-0.01644797723837838,2.325040692795281,5.10455659273054
1648639535768215474,128485,0,9,5.11538505554,1.52155053616,0.886204004288,-0.121715031564,28.5,1.7108311222541805,0.508879777979933,0.29638929909297657,28.5,-0.01644797723837838,2.472416810771174,5.409957286129608
1648639535867774096,128486,1,0,0.027232022956,0.081803791225,0.0134315546602,0.0,12.8999996185,0.00910769998528428,0.0273591275,0.004492158749230769,12.8999996185,0.0,0.030239415596290065,0.0872573778751656
1648639535867781460,128487,1,1,0.0697576329112,0.0272679310292,-0.0447680912912,0.0,12.8999996185,0.023330312010434784,0.00911970937431438,-0.014972605783010032,12.8999996185,0.0,0.034231214060860195,0.08725737452985942
1648639535867898157,128488,1,2,0.211117476225,-0.081803791225,-0.131385669112,0.0,12.8999996185,0.07060785158026756,-0.0273591275,-0.04394169535518395,12.8999996185,0.0,0.10353482151973528,0.26177212050637627
1648639535867914768,128489,1,3,0.948121666908,0.899841725826,-0.0668310001493,0.0,12.8999996185,0.31709754746086954,0.3009504099752508,-0.02235150506665552,12.8999996185,0.0,0.5400674573381259,1.3088606531555886
1648639535867919116,128490,1,4,1.00084102154,1.52427732944,0.44090616703,0.0,12.8999996185,0.3347294386421405,0.5097917489765886,0.14746025653177258,12.8999996185,0.0,0.6956832767229454,1.8760336818850176
1648639535867939902,128491,1,5,2.34064674377,1.8133174181,0.748477756977,0.0,12.8999996185,0.7828249979163878,0.6064606749498327,0.250327009022408,12.8999996185,0.0,1.2623091954771588,3.0540082171787417
1648639535867987140,128492,1,6,3.82910370827,-1.00345981121,0.664784252644,0.0,12.8999996185,1.2806366917290968,-0.3356052880301003,0.22233587044949832,12.8999996185,0.0,1.841926052196303,4.013839172658032
1648639535867994927,128493,1,7,0.730348289013,-0.850759387016,0.171873122454,0.243430063128,12.8999996185,0.24426364181036786,-0.2845349120454849,0.057482649650167215,12.8999996185,0.03289595447675676,0.4475372270478281,1.1343458591109434
1648639535867999479,128494,1,8,0.794458448887,-1.03481793404,0.608981430531,0.243430063128,12.8999996185,0.2657051668518394,-0.3460929545284281,0.20367271924113708,12.8999996185,0.03289595447675676,0.5108608465695372,1.4397467716061514
1648639535868002485,128495,1,9,0.898563981056,-0.899841725826,0.309812396765,0.365145087242,12.8999996185,0.30052307058729094,-0.3009504099752508,0.1036161862090301,12.8999996185,0.04934393070837838,0.52076806850526,1.3088606040285555
1648639535868009484,128496,1,10,2.81459736824,-3.07309579849,0.956544160843,0.365145087242,12.8999996185,0.9413369124548494,-1.0277912369531772,0.3199144350645485,12.8999996185,0.04934393070837838,1.6818398236032466,4.2756114023193525
1648639535868013083,128497,1,11,0.98149907589,-0.725326955318,0.0536187887192,0.730290174484,12.8999996185,0.32826056049832775,-0.2425842659926421,0.017932705257257524,12.8999996185,0.09868786141675676,0.5237911007878442,1.2216032918208424
1648639535968176467,128498,2,0,0.0272164344788,0.081803791225,0.0134631143883,0.0,24.3999996185,0.009102486447759198,0.0273591275,0.0045027138422408025,24.3999996185,0.0,0.030236275839205726,0.08725737798922593
1648639535968197190,128499,2,1,0.0697532370687,0.0272679310292,-0.0447749495506,0.0,24.3999996185,0.023328841828996652,0.00911970937431438,-0.014974899515250835,24.3999996185,0.0,0.03422921005861288,0.08725737935231752
1648639535968234914,128500,2,2,0.211801379919,-0.081803791225,-0.130280300975,0.0,24.3999996185,0.07083658191270903,-0.0273591275,-0.043572007015050165,24.3999996185,0.0,0.10384683207355498,0.2617721177217172
1648639535968269652,128501,2,3,0.947887480259,0.899841725826,-0.0700732693076,0.0,24.3999996185,0.3170192241668896,0.3009504099752508,-0.02343587602260869,24.3999996185,0.0,0.5399754867093735,1.308860599850391
1648639535968279493,128502,2,4,2.33885192871,1.8133174181,0.754067659378,0.0,24.3999996185,0.7822247253210702,0.6064606749498327,0.2521965415979933,24.3999996185,0.0,1.2615647395468272,3.0540082577057897
1648639535968316388,128503,2,5,3.82863116264,-1.00345981121,0.667501330376,0.0,24.3999996185,1.2804786497123744,-0.3356052880301003,0.22324459209899664,24.3999996185,0.0,1.8417062887692537,4.013839333892857
1648639535968494832,128504,2,6,0.718988239765,-0.920292615891,0.154083013535,0.243430063128,24.3999996185,0.24046429423578594,-0.307790172538796,0.05153278044648829,24.3999996185,0.03289595447675676,0.4586730250582555,1.177974601951969
1648639535968539346,128505,2,7,0.867215037346,-0.909385502338,0.147539973259,0.243430063128,24.3999996185,0.29003847402876254,-0.30414230847424745,0.04934447266187291,24.3999996185,0.03289595447675676,0.5106340927101427,1.2652319773744367
1648639535968585705,128506,2,8,0.992399334908,-0.845305860043,0.360317975283,0.486860126257,24.3999996185,0.3319061320762542,-0.2827109899809364,0.12050768404113713,24.3999996185,0.06579190895364864,0.5479496919203815,1.352489364195119
1648639536068241164,128507,3,0,0.0272034537047,0.081803791225,0.0134893273935,0.0,33.7000007629,0.009098145051739129,0.0273591275,0.00451148073361204,33.7000007629,0.0,0.030233662436533002,0.08725737851767135
1648639536068289357,128508,3,1,0.0698256790638,0.0272679310292,-0.0446618869901,0.0,33.7000007629,0.02335306992100334,0.00911970937431438,-0.01493708594986622,33.7000007629,0.0,0.03426223647899389,0.0872573760140108
1648639536068305859,128509,3,2,0.207387164235,-0.0899841710925,-0.13197748363,0.0,33.7000007629,0.06936025559698997,-0.030095040499163877,-0.04413962663210702,33.7000007629,0.0,0.10260312653913559,0.26177212059718297
1648639536068370994,128510,3,3,2.33966183662,1.8133174181,0.751550853252,0.0,33.7000007629,0.7824955975317724,0.6064606749498327,0.2513548004187291,33.7000007629,0.0,1.261900657965522,3.0540082274847804
1648639536068504593,128511,3,4,3.81902313232,-1.00345981121,0.720441102982,0.0,33.7000007629,1.277265261645485,-0.3356052880301003,0.24095020166622072,33.7000007629,0.0,1.8372381463943057,4.013839142364177
1648639536068540741,128512,3,5,5.02177429199,1.52155053616,1.31693100929,0.243430063128,33.7000007629,1.6795231745785952,0.508879777979933,0.4404451536086956,33.7000007629,0.03289595447675676,2.4291057647476015,5.409957518965378
1648639536068568321,128513,3,6,0.798257768154,-0.916202425957,0.125188663602,0.365145087242,33.7000007629,0.26697584219197323,-0.3064222160391304,0.04186911826153846,33.7000007629,0.04934393070837838,0.4862579306402707,1.2216032708052775
1648639536068587833,128514,3,7,0.980128526688,-1.04981529713,0.518630445004,0.365145087242,33.7000007629,0.327802182838796,-0.35110879502675585,0.17345499832909697,33.7000007629,0.04934393070837838,0.5815375551870225,1.5270041340483618
1648639536068607672,128515,3,8,1.05299544334,-0.845305860043,0.0767209604383,0.608575165272,33.7000007629,0.35217238907692305,-0.2827109899809364,0.02565918409307692,33.7000007629,0.0822398871989189,0.5726921399079059,1.3524893738911277
1648639536168243348,128516,4,0,0.0272395499051,0.081803791225,0.0134162846953,0.0,33.2999992371,0.009110217359565216,0.0273591275,0.004487051737558528,33.2999992371,0.0,0.030240932165498856,0.08725737809974102
1648639536168310140,128517,4,1,0.0697354078293,0.0272679310292,-0.0448027104139,0.0,33.2999992371,0.023322878872675586,0.00911970937431438,-0.014984184084916388,33.2999992371,0.0,0.03422108205318692,0.08725737807293883
1648639536168332785,128518,4,2,0.21132054925,-0.081803791225,-0.131058812141,0.0,33.2999992371,0.0706757689799331,-0.0273591275,-0.04383237864247491,33.2999992371,0.0,0.10362746016076534,0.2617721280692713
1648639536168343215,128519,4,3,0.946620762348,0.899841725826,-0.0854994803667,0.0,33.2999992371,0.31659557269163874,0.3009504099752508,-0.02859514393535117,33.2999992371,0.0,0.5394781390938514,1.3088606344408096
1648639536168362283,128520,4,4,1.00199329853,1.52427732944,0.438281089067,0.0,33.2999992371,0.3351148155618729,0.5097917489765886,0.14658230403578593,33.2999992371,0.0,0.6960542410924204,1.8760336511847338
1648639536168397152,128521,4,5,2.33805131912,1.8133174181,0.756546199322,0.0,33.2999992371,0.7819569629163878,0.6064606749498327,0.2530254847230769,33.2999992371,0.0,1.2612327041301494,3.0540082156621953
1648639536168444630,128522,4,6,3.82304143906,-1.00345981121,0.698804140091,0.0,33.2999992371,1.2786091769431436,-0.3356052880301003,0.2337137592277592,33.2999992371,0.0,1.839106784305961,4.013839142727557
1648639536168469332,128523,4,7,5.1747174263,1.36339652538,1.05121397972,0.243430063128,33.2999992371,1.73067472451505,0.455985459993311,0.3515765818461538,33.2999992371,0.03289595447675676,2.489657153881996,5.453586100780835
1648639536168623716,128524,4,8,0.771258890629,-1.14525306225,0.652147710323,0.365145087242,33.2999992371,0.25794611726722405,-0.38302778001672233,0.2181096021147157,33.2999992371,0.04934393070837838,0.5289448733951504,1.5270040894008141
1648639536168636604,128525,4,9,0.77060931921,-1.08799040318,-2.09923505783,0.365145087242,33.2999992371,0.2577288693010033,-0.36387638902341135,-0.7020853036220736,33.2999992371,0.04934393070837838,0.5150285105031218,2.4868352716429776
1648639536168815462,128526,4,10,1.27167439461,-2.09826731682,0.40554651618,0.365145087242,33.2999992371,0.42530916207692304,-0.7017616444214047,0.13563428634782607,33.2999992371,0.04934393070837838,0.9242538462317497,2.4868352328868606
1648639536168833651,128527,4,11,2.14947628975,-2.28914284706,0.532097756863,0.365145087242,33.2999992371,0.7188883912207357,-0.7655996144013377,0.1779591160076923,33.2999992371,0.04934393070837838,1.272691560290769,3.1848942395787687
1648639536169035716,128528,4,12,2.28827524185,-2.41457533836,0.468243181705,0.365145087242,33.2999992371,0.7653094454347826,-0.8075502803879598,0.15660307080434782,33.2999992371,0.04934393070837838,1.350383112267797,3.359409073675489
1648639536169066049,128529,4,13,0.827784240246,-0.948923945427,0.12299823761,0.486860126257,33.2999992371,0.2768509164702341,-0.3173658680357859,0.04113653431772575,33.2999992371,0.06579190895364864,0.50399797032818,1.2652319823097886
1648639536169094038,128530,4,14,1.12507879734,-0.854849636555,0.276225477457,0.608575165272,33.2999992371,0.37628053422742475,-0.2859028884799331,0.09238310282842808,33.2999992371,0.0822398871989189,0.6040815694242967,1.4397467540295354
1648639536169218235,128531,4,15,3.02954316139,-3.19852828979,0.628417551517,0.852005243301,33.2999992371,1.0132251375886288,-1.0697419029397992,0.21017309415284277,33.2999992371,0.11513584368932432,1.7881829038966495,4.45012624611555
1648639536268352457,128532,5,0,0.0272004343569,0.081803791225,0.0134954117239,0.0,20.1000003815,0.009097135236421404,0.0273591275,0.0045135156267224075,20.1000003815,0.0,0.030233054701447822,0.08725737805816189
1648639536268408282,128533,5,1,0.0697008743882,0.0272679310292,-0.0448564141989,0.0,20.1000003815,0.02331132922682274,0.00911970937431438,-0.01500214521702341,20.1000003815,0.0,0.03420533934511683,0.08725737703985903
1648639536268443640,128534,5,2,0.212079688907,-0.081803791225,-0.129826784134,0.0,20.1000003815,0.07092966184180602,-0.0273591275,-0.04342032914180602,20.1000003815,0.0,0.10397382226092855,0.2617721310305005
1648639536268469162,128535,5,3,0.9476557374,0.899841725826,-0.0731414109468,0.0,20.1000003815,0.3169417181939799,0.3009504099752508,-0.024462010350100333,20.1000003815,0.0,0.5398844827625405,1.308860647341779
1648639536268491748,128536,5,4,0.999159276485,1.52427732944,0.444704055786,0.0,20.1000003815,0.3341669821020067,0.5097917489765886,0.14873045344013375,20.1000003815,0.0,0.6951422668626437,1.8760336708234435
1648639536268515138,128537,5,5,2.33932852745,1.8133174181,0.752587378025,0.0,20.1000003815,0.7823841228929767,0.6064606749498327,0.251701464222408,20.1000003815,0.0,1.2617624109833956,3.054008149905429
1648639536268553595,128538,5,6,3.82507991791,-1.00345981121,0.687558412552,0.0,20.1000003815,1.279290942444816,-0.3356052880301003,0.22995264633846152,20.1000003815,0.0,1.8400547655427153,4.0138391275414875
1648639536268581384,128539,5,7,0.760267019272,-1.32522141933,0.364238709211,0.365145087242,20.1000003815,0.2542699061110368,-0.4432178659966555,0.12181896629130433,20.1000003815,0.04934393070837838,0.5707437665415718,1.5706328622983308
1648639536268648908,128540,5,8,2.13268947601,-2.55227828026,0.719845294952,0.365145087242,20.1000003815,0.7132740722441471,-0.8536047760066888,0.24075093476655518,20.1000003815,0.04934393070837838,1.3214238222057777,3.4030377708211357
1648639536268681680,128541,5,9,2.85856533051,1.06344926357,1.50941896439,0.365145087242,20.1000003815,0.9560419165585283,0.3556686500234113,0.5048223961170568,20.1000003815,0.04934393070837838,1.3980459509770358,3.4030377157829883
1648639536268696662,128542,5,10,5.14980840683,1.37430369854,1.34541237354,0.365145087242,20.1000003815,1.7223439487725751,0.45963334399331096,0.4499706934916388,20.1000003815,0.04934393070837838,2.4787497184382064,5.497214907364656
1648639536268743566,128543,5,11,0.938932716846,-0.97210174799,-0.051487930119,0.486860126257,20.1000003815,0.3140243200153846,-0.3251176414682274,-0.0172200435180602,20.1000003815,0.06579190895364864,0.5503853449321777,1.3524893575022923
1648639536268755325,128544,5,12,0.972246468067,-1.09753417969,0.426494032145,0.486860126257,20.1000003815,0.32516604283177253,-0.3670682875217391,0.14264014453010032,20.1000003815,0.06579190895364864,0.5883919089568537,1.5270041354599724
1648639536268773697,128545,5,13,0.945891737938,-0.477188795805,-1.0996915102,0.486860126257,20.1000003815,0.31635175181872904,-0.15959491498494982,-0.3677898027424749,20.1000003815,0.06579190895364864,0.4750025248844587,1.5270041729959853
1648639536268780989,128546,5,14,1.18358719349,-0.880754172802,-0.154259860516,0.608575165272,20.1000003815,0.39584855969565214,-0.2945666129772575,-0.051591926593979924,20.1000003815,0.0822398871989189,0.6325833177591217,1.4833754285642207
1648639536368298852,128547,6,0,0.0271918345243,0.081803791225,0.0135127315298,0.0,25.5,0.009094259038227425,0.0273591275,0.004519308203946488,25.5,0.0,0.030231324027736838,0.08725737812343866
1648639536368496795,128548,6,1,0.0697471052408,0.0272679310292,-0.0447844937444,0.0,25.5,0.02332679105043478,0.00911970937431438,-0.014978091553311037,25.5,0.0,0.03422641466021888,0.08725737580300384
1648639536368525824,128549,6,2,0.212486937642,-0.081803791225,-0.129159167409,0.0,25.5,0.07106586543210702,-0.0273591275,-0.043197045956187285,25.5,0.0,0.10415966741877561,0.2617721326899498
1648639536368591227,128550,6,3,0.948505163193,0.899841725826,-0.0611475110054,0.0,25.5,0.31722580708795983,0.3009504099752508,-0.020450672577056857,25.5,0.0,0.5402180806206754,1.3088606473736801
1648639536368623114,128551,6,4,0.934759795666,-0.959831178188,-0.39254784584,0.0,25.5,0.3126286942026756,-0.32101377196923075,-0.1312869049632107,25.5,0.0,0.5463728055747773,1.3961180385228644
1648639536368734972,128552,6,5,0.913847565651,1.04708850384,0.13279286027,0.0,25.5,0.30563463734147156,0.35019682402675584,0.04441232784949833,25.5,0.0,0.5562938779495351,1.3961180651573977
1648639536368772022,128553,6,6,2.34022974968,1.8133174181,0.749780774117,0.0,25.5,0.7826855350100335,0.6064606749498327,0.2507628007080267,25.5,0.0,1.2621362223185306,3.0540082759068703
1648639536368811764,128554,6,7,3.81993126869,-1.00345981121,0.715611279011,0.0,25.5,1.2775689861839463,-0.3356052880301003,0.23933487592341135,25.5,0.0,1.837660452388286,4.013839308302833
1648639536368828043,128555,6,8,4.98712253571,1.13570928574,0.890902757645,0.243430063128,25.5,1.667933958431438,0.3798358815183946,0.29796078851003344,25.5,0.03289595447675676,2.389201263239744,5.191814181139582
1648639536368843852,128556,6,9,5.27724647522,1.20251572132,0.961244761944,0.243430063128,25.5,1.764965376327759,0.4021791710100334,0.32148654245618724,25.5,0.03289595447675676,2.528231327403783,5.497214377537814
1648639536368855776,128557,6,10,0.476057261229,-1.31158745289,0.811756134033,0.365145087242,25.5,0.15921647532742472,-0.43865801099999996,0.27149034583043474,25.5,0.04934393070837838,0.49307263424961334,1.614261497926385
1648639536368867126,128558,6,11,1.8672106266,-2.65862321854,1.01287400723,0.365145087242,25.5,0.6244851593979932,-0.8891716449966554,0.3387538485719063,25.5,0.04934393070837838,1.2532316796517442,3.4030378629645175
1648639536368912792,128559,6,12,2.74199128151,0.957104384899,1.77372515202,0.365145087242,25.5,0.9170539403043477,0.3201018009695652,0.5932191143879598,25.5,0.04934393070837838,1.335829712889865,3.4030377468341597
1648639536368945819,128560,6,13,0.90678101778,-1.04708850384,0.174640908837,0.486860126257,25.5,0.30327124340468226,-0.35019682402675584,0.05840833071471572,25.5,0.06579190895364864,0.553700920814541,1.3961180451951172
1648639536368968380,128561,6,14,1.20670831203,-0.981645524502,0.217058897018,0.608575165272,25.5,0.4035813752608695,-0.32830953996722406,0.07259494883545149,25.5,0.0822398871989189,0.6584398278874083,1.5706328186026703
1648639536468377952,128562,7,0,0.02716386877,0.081803791225,0.0135688595474,0.0,27.7000007629,0.009084905943143812,0.0273591275,0.004538080116187291,27.7000007629,0.0,0.030225699157385853,0.0872573777668928
1648639536468434611,128563,7,1,0.0698273032904,0.0272679310292,-0.0446593500674,0.0,27.7000007629,0.023353613140602004,0.00911970937431438,-0.014936237480735786,27.7000007629,0.0,0.034262976994326615,0.0872573773148454
1648639536468451845,128564,7,2,0.211606889963,-0.081803791225,-0.130595982075,0.0,27.7000007629,0.07077153510468227,-0.0273591275,-0.043677585978260866,27.7000007629,0.0,0.10375809471895582,0.26177212737938754
1648639536468479375,128565,7,3,0.948516607285,0.899841725826,-0.0609690137208,0.0,27.7000007629,0.31722963454347824,0.3009504099752508,-0.02039097448856187,27.7000007629,0.0,0.5402225757310121,1.308860613842073
1648639536468499301,128566,7,4,1.00187826157,1.52427732944,0.438544094563,0.0,27.7000007629,0.3350763416622073,0.5097917489765886,0.14667026574013375,27.7000007629,0.0,0.6960171957703816,1.8760336753180484
1648639536468515165,128567,7,5,2.33996486664,1.8133174181,0.750606477261,0.0,27.7000007629,0.7825969453645484,0.6064606749498327,0.2510389556056856,27.7000007629,0.0,1.262026349981826,3.0540081400678307
1648639536468523951,128568,7,6,3.82005500793,-1.00345981121,0.714949071407,0.0,27.7000007629,1.2776103705451505,-0.3356052880301003,0.2391134018083612,27.7000007629,0.0,1.8377179944710775,4.013839063917538
1648639536468530912,128569,7,7,0.859651267529,-1.09071719646,0.143112704158,0.243430063128,27.7000007629,0.2875087851267558,-0.36478836002006687,0.047863780654849496,27.7000007629,0.03289595447675676,0.5462537420066393,1.396118028860452
1648639536468549388,128570,7,8,1.94524037838,-3.04855465889,1.00018179417,0.243430063128,27.7000007629,0.6505820663478261,-1.0195834979565217,0.33450896126086954,27.7000007629,0.03289595447675676,1.3733406567243507,3.752067331393323
1648639536468768772,128571,7,9,3.0792825222,0.938016831875,1.92773270607,0.243430063128,27.7000007629,1.0298603753177258,0.31371800397157185,0.6447266575484949,27.7000007629,0.03289595447675676,1.4898468952597248,3.75206740537256
1648639536468789085,128572,7,10,4.97467136383,1.3088606596,0.974365830421,0.243430063128,27.7000007629,1.6637696868996654,0.43774604,0.32587485967257523,27.7000007629,0.03289595447675676,2.3932991325005957,5.235442691487586
1648639536468842056,128573,7,11,1.17305064201,-1.05935907364,0.327949225903,0.365145087242,27.7000007629,0.3923246294347826,-0.3543006935250836,0.10968201535217391,27.7000007629,0.04934393070837838,0.6583055606286751,1.6142614876140262
1648639536568272355,128574,8,0,0.0272249914706,0.081803791225,0.0134458057582,0.0,24.0,0.00910534831792642,0.0273591275,0.004496925002742474,24.0,0.0,0.030237999165665497,0.08725737855244607
1648639536568330294,128575,8,1,0.0697292611003,0.0272679310292,-0.0448122732341,0.0,24.0,0.023320823110468226,0.00911970937431438,-0.014987382352541805,24.0,0.0,0.03421827991251833,0.08725737647107353
1648639536568372010,128576,8,2,0.212079688907,-0.081803791225,-0.129826784134,0.0,24.0,0.07092966184180602,-0.0273591275,-0.04342032914180602,24.0,0.0,0.10397382226092855,0.2617721310305005
1648639536568400235,128577,8,3,0.948250770569,0.899841725826,-0.0649723857641,0.0,24.0,0.31714072594280934,0.3009504099752508,-0.021729894904381267,24.0,0.0,0.5401181624120187,1.3088605985108175
1648639536568510555,128578,8,4,2.33888173103,1.8133174181,0.753975152969,0.0,24.0,0.7822346926521738,0.6064606749498327,0.2521656029996655,24.0,0.0,1.2615770999181495,3.0540082419380217
1648639536568527825,128579,8,5,3.81824612617,-1.00345981121,0.724548459053,0.0,24.0,1.2770053933678929,-0.3356052880301003,0.24232389934882942,24.0,0.0,1.8368768218732416,4.013839252167667
1648639536568571161,128580,8,6,5.01218557358,1.14525306225,0.988053321838,0.121715031564,24.0,1.6763162453444815,0.38302778001672233,0.33045261599933107,24.0,0.01644797723837838,2.4014126236605358,5.23544249967389
1648639536568595528,128581,8,7,0.832107245922,-1.09071719646,0.258996397257,0.243430063128,24.0,0.27829673776655517,-0.36478836002006687,0.08662086864782609,24.0,0.03289595447675676,0.5366271481290743,1.396118048433428
1648639536568605583,128582,8,8,1.09954953194,-1.13979947567,0.490354865789,0.243430063128,24.0,0.3677423183745819,-0.3812038380167224,0.16399828287257523,24.0,0.03289595447675676,0.6448140751919922,1.6578901991175496
1648639536568638059,128583,8,9,2.07617497444,-2.96538758278,1.14161360264,0.243430063128,24.0,0.6943729011505017,-0.9917684223344481,0.381810569444816,24.0,0.03289595447675676,1.3956761999991578,3.795695938603279
1648639536568769516,128584,8,10,3.16258192062,0.948924005032,1.87214529514,0.243430063128,24.0,1.0577197058929766,0.3173658879705685,0.6261355502140468,24.0,0.03289595447675676,1.529138011860276,3.7956961387963206
1648639536568783604,128585,8,11,0.866189718246,-1.39884483814,0.203834563494,0.730290174484,24.0,0.289695557941806,-0.4678410829899665,0.06817209481404682,24.0,0.09868786141675676,0.6218700117513735,1.6578902371570916
1648639536668323681,128586,9,0,0.0272678472102,0.081803791225,0.0133586796001,0.0,27.7000007629,0.009119681341204012,0.0273591275,0.004467785819431438,27.7000007629,0.0,0.030246636723633678,0.08725737831794127
1648639536668376492,128587,9,1,0.0698377713561,0.0272679310292,-0.0446429774165,0.0,27.7000007629,0.02335711416591973,0.00911970937431438,-0.014930761677759197,27.7000007629,0.0,0.03426774961084509,0.08725737678391575
1648639536668394184,128588,9,2,0.212878137827,-0.081803791225,-0.128513365984,0.0,27.7000007629,0.07119670161438127,-0.0273591275,-0.04298105885752508,27.7000007629,0.0,0.104338212075422,0.2617721281191184
1648639536668424603,128589,9,3,0.948070764542,0.899841725826,-0.0675490424037,0.0,27.7000007629,0.31708052325819397,0.3009504099752508,-0.022591652977826084,27.7000007629,0.0,0.5400474661764942,1.3088606416446418
1648639536668478788,128590,9,4,2.33887600899,1.8133174181,0.753992676735,0.0,27.7000007629,0.7822327789264213,0.6064606749498327,0.2521714637909699,27.7000007629,0.0,1.2615747267262885,3.054008186102953
1648639536668632705,128591,9,5,3.82143139839,-1.00345981121,0.707555532455,0.0,27.7000007629,1.2780707018026756,-0.3356052880301003,0.23664064630602005,27.7000007629,0.0,1.838358057334461,4.0138391045011055
1648639536668648332,128592,9,6,0.940323591232,-1.07981002331,0.150574445724,0.121715031564,27.7000007629,0.31448949539531773,-0.36114047602341137,0.05035934639598662,27.7000007629,0.01644797723837838,0.5729133694114837,1.4397467855054507
1648639536668654893,128593,9,7,1.03075194359,-1.06617605686,0.0349547602236,0.243430063128,27.7000007629,0.34473309150167225,-0.35658062102341137,0.011690555258729097,27.7000007629,0.03289595447675676,0.6040128707585977,1.4833754712473812
1648639536668710638,128594,9,8,0.821030318737,-1.32931160927,0.673800110817,0.365145087242,27.7000007629,0.2745920798451505,-0.4445858224983277,0.22535120763110367,27.7000007629,0.04934393070837838,0.5903034594120938,1.7015189473415742
1648639536668732401,128595,9,9,0.932995021343,-1.47246825695,0.0830516070127,0.730290174484,27.7000007629,0.31203846867658863,-0.49246429998327756,0.02777645719488294,27.7000007629,0.09868786141675676,0.6612541860934268,1.7451475716980465
1648639536668740819,128596,9,10,1.17873704433,-1.0307277441,0.122746877372,-0.486860126257,27.7000007629,0.3942264362307692,-0.3447249980267558,0.041052467348494985,27.7000007629,-0.06579190895364864,0.6554878262111146,1.5706328336176716
1648639536768359106,128597,10,0,0.0272435490042,0.081803791225,0.0134081607684,0.0,25.2999992371,0.009111554850903009,0.0273591275,0.004484334705150502,25.2999992371,0.0,0.03024173806452408,0.08725737789046205
1648639536768398593,128598,10,1,0.0696448981762,0.0272679310292,-0.0449432730675,0.0,25.2999992371,0.023292608085685614,0.00911970937431438,-0.015031195005852841,25.2999992371,0.0,0.034179822731235036,0.08725737618451716
1648639536768425113,128599,10,2,0.212255358696,-0.081803791225,-0.129539385438,0.0,25.2999992371,0.07098841427959866,-0.0273591275,-0.04332420917658863,25.2999992371,0.0,0.10405398493774812,0.26177213360784934
1648639536768507412,128600,10,3,0.948236465454,0.899841725826,-0.0651820898056,0.0,25.2999992371,0.31713594162341135,0.3009504099752508,-0.021800030035317726,25.2999992371,0.0,0.5401125440156034,1.30886066133322
1648639536768543748,128601,10,4,2.33915567398,1.8133174181,0.75312435627,0.0,25.2999992371,0.782326312367893,0.6064606749498327,0.2518810556086956,25.2999992371,0.0,1.2616907181662622,3.054008124073147
1648639536768568161,128602,10,5,3.81524014473,-1.00345981121,0.740213215351,0.0,25.2999992371,1.2760000484046823,-0.3356052880301003,0.2475629482779264,25.2999992371,0.0,1.8354789991746758,4.013839129667913
1648639536768673603,128603,10,6,0.916678726673,-1.07981002331,0.258033424616,0.243430063128,25.2999992371,0.3065815139374582,-0.36114047602341137,0.08629880421939798,25.2999992371,0.03289595447675676,0.5642755468729651,1.4397467911388573
1648639536768774186,128604,10,7,0.778807044029,-1.36339652538,0.761675477028,0.243430063128,25.2999992371,0.26047058328729095,-0.455985459993311,0.2547409622167224,25.2999992371,0.03289595447675676,0.5861847739760515,1.7451475666983802
1648639536768806457,128605,10,8,1.21247839928,-0.708966195583,-1.03576219082,0.243430063128,25.2999992371,0.40551117032775913,-0.23711243999431436,-0.3464087594715719,25.2999992371,0.03289595447675676,0.6205650068455641,1.7451476301826931
1648639536768815928,128606,10,9,0.591600656509,-1.38248407841,0.796186566353,0.365145087242,25.2999992371,0.19785975134080264,-0.46236925699331105,0.26628313255953173,25.2999992371,0.04934393070837838,0.5404463823672382,1.7015189132889492
1648639536768838705,128607,10,10,1.25703012943,-0.691242039204,-0.915000736713,0.365145087242,25.2999992371,0.42041141452508357,-0.23118462849632104,-0.3060203132819398,25.2999992371,0.04934393070837838,0.6379168028661303,1.7015189247384348
1648639536768854406,128608,10,11,0.957686543465,-1.54609167576,0.223930835724,0.365145087242,25.2999992371,0.32029650283110367,-0.5170875169765886,0.07489325609498328,25.2999992371,0.04934393070837838,0.6874294143144328,1.83240497832121
1648639536868226015,128609,11,0,0.0272405538708,0.081803791225,0.0134142460302,0.0,20.2000007629,0.009110553134046821,0.0273591275,0.004486369909765886,20.2000007629,0.0,0.030241134475707702,0.08725737808649811
1648639536868274724,128610,11,1,0.0697459131479,0.0272679310292,-0.0447863563895,0.0,20.2000007629,0.02332639235715719,0.00911970937431438,-0.014978714511538462,20.2000007629,0.0,0.03422587120691072,0.08725737895499111
1648639536868297010,128611,11,2,0.212255358696,-0.081803791225,-0.129539385438,0.0,20.2000007629,0.07098841427959866,-0.0273591275,-0.04332420917658863,20.2000007629,0.0,0.10405398493774812,0.26177213360784934
1648639536868324308,128612,11,3,0.948415398598,0.899841725826,-0.0625239908695,0.0,20.2000007629,0.3171957854842809,0.3009504099752508,-0.020911033735618728,20.2000007629,0.0,0.5401828226834424,1.3088606301931336
1648639536868367200,128613,11,4,2.34003567696,1.8133174181,0.750385820866,0.0,20.2000007629,0.7826206277458193,0.6064606749498327,0.25096515748026754,20.2000007629,0.0,1.2620557215143582,3.054008170975847
1648639536868384246,128614,11,5,3.82089972496,-1.00345981121,0.710421442986,0.0,20.2000007629,1.2778928846020066,-0.3356052880301003,0.2375991448113712,20.2000007629,0.0,1.8381108123251548,4.01383917559826
1648639536868392912,128615,11,6,0.90131932497,-1.15888702869,0.212148696184,0.243430063128,20.2000007629,0.30144459029096987,-0.3875876350133779,0.07095274119866221,20.2000007629,0.03289595447675676,0.5761613114802527,1.4833754548740803
1648639536868411694,128616,11,7,0.89862215519,-1.50927996635,0.338042706251,0.243430063128,20.2000007629,0.30054252681939797,-0.5047759084782608,0.11305776128795987,20.2000007629,0.03289595447675676,0.6598866104369983,1.7887763040339275
1648639536868424574,128617,11,8,1.08312797546,-1.12889230251,0.139008522034,0.608575165272,20.2000007629,0.3622501590167224,-0.3775559540167224,0.04649114449297658,20.2000007629,0.0822398871989189,0.6363952025500811,1.5706328059379393
1648639536868449765,128618,11,9,1.12181615829,-0.899841725826,0.0684413686395,-0.486860126257,20.2000007629,0.37518935059866215,-0.3009504099752508,0.02289008984598662,20.2000007629,-0.06579190895364864,0.610004300697596,1.4397467990863173
1648639536868471720,128619,11,10,5.29696130753,1.21205949783,1.08354043961,-0.243430063128,20.2000007629,1.7715589657290969,0.4053710695083612,0.3623881068929765,20.2000007629,-0.03289595447675676,2.5379456341901117,5.540843546249982
1648639536968206586,128620,12,0,0.0271931067109,0.081803791225,0.0135101722553,0.0,13.1999998093,0.009094684518695651,0.0273591275,0.004518452259297659,13.1999998093,0.0,0.03023158002074091,0.0872573782882666
1648639536968252136,128621,12,1,0.0697397887707,0.0272679310292,-0.0447958856821,0.0,13.1999998093,0.023324344070468225,0.00911970937431438,-0.014981901565919732,13.1999998093,0.0,0.03422307922597162,0.08725737547301565
1648639536968266718,128622,12,2,0.212182357907,-0.081803791225,-0.129658892751,0.0,13.1999998093,0.0709639993,-0.0273591275,-0.04336417817759197,13.1999998093,0.0,0.10402067222846648,0.2617721179483654
1648639536968276220,128623,12,3,0.948413133621,0.899841725826,-0.0625586286187,0.0,13.1999998093,0.3171950279668896,0.3009504099752508,-0.020922618267123744,13.1999998093,0.0,0.5401819330541362,1.3088606440629849
1648639536968359714,128624,12,4,2.34003162384,1.8133174181,0.750398933887,0.0,13.1999998093,0.7826192721872909,0.6064606749498327,0.25096954310602004,13.1999998093,0.0,1.2620540403083127,3.0540082873716736
1648639536968370613,128625,12,5,3.82847237587,-1.00345981121,0.668411314487,0.0,13.1999998093,1.2804255437692307,-0.3356052880301003,0.22354893461103675,13.1999998093,0.0,1.8416324431403859,4.0138393105414085
1648639536968380083,128626,12,6,1.16823780537,-1.10980474949,0.0969233363867,0.243430063128,13.1999998093,0.39071498507357855,-0.3711721570200669,0.03241583156745819,13.1999998093,0.03289595447675676,0.6656464296223804,1.6142615293138238
1648639536968394512,128627,12,7,0.849029362202,-1.3974814415,0.725200235844,0.243430063128,13.1999998093,0.2839563084287625,-0.4673850974916388,0.24254188489765882,13.1999998093,0.03289595447675676,0.6162071076758606,1.7887762910118878
1648639536968535489,128628,12,8,1.30547487736,-0.670791089535,-1.02249467373,0.243430063128,13.1999998093,0.4366136713578595,-0.22434484599832774,-0.34197146278595314,13.1999998093,0.03289595447675676,0.6569578418431363,1.7887763133002066
1648639536968551092,128629,12,9,0.955281734467,-1.11253154278,0.223859578371,0.365145087242,13.1999998093,0.3194922188852843,-0.37208412802006685,0.07486942420434782,13.1999998093,0.04934393070837838,0.5853179940689832,1.4833754537254449
1648639537068251909,128630,13,0,0.0272478125989,0.081803791225,0.0133994966745,0.0,33.5999984741,0.00911298080230769,0.0273591275,0.0044814370148829425,33.5999984741,0.0,0.030242597371385172,0.08725737826303342
1648639537068284429,128631,13,1,0.0698377713561,0.0272679310292,-0.0446429774165,0.0,33.5999984741,0.02335711416591973,0.00911970937431438,-0.014930761677759197,33.5999984741,0.0,0.03426774961084509,0.08725737678391575
1648639537068304700,128632,13,2,0.212255358696,-0.081803791225,-0.129539385438,0.0,33.5999984741,0.07098841427959866,-0.0273591275,-0.04332420917658863,33.5999984741,0.0,0.10405398493774812,0.26177213360784934
1648639537068326297,128633,13,3,0.948252379894,0.899841725826,-0.0649489834905,0.0,33.5999984741,0.3171412641785953,0.3009504099752508,-0.02172206805702341,33.5999984741,0.0,0.5401187944830902,1.3088606029553331
1648639537068462281,128634,13,4,0.885142445564,1.58290338516,0.480043977499,0.0,33.5999984741,0.29603426273043476,0.5293991254715719,0.16054982525050165,33.5999984741,0.0,0.6749340734255229,1.8760337139889216
1648639537068490422,128635,13,5,2.34212231636,1.8133174181,0.743847608566,0.0,33.5999984741,0.7833185004548494,0.6064606749498327,0.24877846440334445,33.5999984741,0.0,1.2629213342763177,3.054008229907991
1648639537068520938,128636,13,6,3.8195297718,-1.00345981121,0.717750787735,0.0,33.5999984741,1.2774347062876255,-0.3356052880301003,0.240050430680602,33.5999984741,0.0,1.8374737459376311,4.013839242380589
1648639537068546825,128637,13,7,1.12022745609,-1.19160854816,0.271586924791,0.243430063128,33.5999984741,0.37465801207023414,-0.39853128701003343,0.09083174742173912,33.5999984741,0.03289595447675676,0.6629965601288691,1.6578902084104632
1648639537068565830,128638,13,8,1.01238918304,-1.17797458172,0.233091384172,0.486860126257,33.5999984741,0.3385917000133779,-0.3939714320133779,0.0779569846729097,33.5999984741,0.06579190895364864,0.6200823879764449,1.5706328554089357
1648639537168324600,128639,14,0,0.027187531814,0.081803791225,0.0135213853791,0.0,31.0,0.009092820004682273,0.0273591275,0.004522202467926421,31.0,0.0,0.03023045829682965,0.08725737795447895
1648639537168373941,128640,14,1,0.0697292611003,0.0272679310292,-0.0448122732341,0.0,31.0,0.023320823110468226,0.00911970937431438,-0.014987382352541805,31.0,0.0,0.03421827991251833,0.08725737647107353
1648639537168394097,128641,14,2,0.210980713367,-0.081803791225,-0.131605193019,0.0,31.0,0.07056211149397992,-0.0273591275,-0.044015114722073576,31.0,0.0,0.10347243601336041,0.2617721308718708
1648639537168403681,128642,14,3,0.947924554348,0.899841725826,-0.069570235908,0.0,31.0,0.3170316235277592,0.3009504099752508,-0.02326763742742475,31.0,0.0,0.5399900461097086,1.308860615190809
1648639537168535763,128643,14,4,2.33887648582,1.8133174181,0.753991186619,0.0,31.0,0.7822329384013378,0.6064606749498327,0.2521709654244147,31.0,0.0,1.2615749244894607,3.054008183388789
1648639537168553706,128644,14,5,3.82478761673,-1.00345981121,0.689182519913,0.0,31.0,1.2791931828528427,-0.3356052880301003,0.2304958260578595,31.0,0.0,1.8399188317608304,4.013839116302296
1648639537168576494,128645,14,6,0.943042576313,-1.37430369854,0.761359333992,0.121715031564,31.0,0.3153988549541806,-0.45963334399331096,0.25463522875986616,31.0,0.01644797723837838,0.6404808243212983,1.8324049748940667
1648639537168591725,128646,14,7,0.830234408379,1.48882901669,0.672165811062,0.121715031564,31.0,0.2776703706953177,0.4979361259832776,0.22480461908428093,31.0,0.01644797723837838,0.634146714162728,1.8324049474270627
1648639537168617238,128647,14,8,1.05719172955,-1.12889230251,0.273560136557,0.486860126257,31.0,0.3535758292809364,-0.3775559540167224,0.09149168446722408,31.0,0.06579190895364864,0.6265622335545618,1.570632780763325
1648639537168643087,128648,14,9,1.20831620693,-1.16979420185,0.258302181959,0.486860126257,31.0,0.4041191327525083,-0.39123551901337794,0.08638868961839465,31.0,0.06579190895364864,0.6925964035792751,1.7015188943459785
1648639537168676602,128649,14,10,4.95086812973,1.13570928574,1.07424449921,-0.365145087242,31.0,1.6558087390401337,0.3798358815183946,0.3592790967257525,31.0,-0.04934393070837838,2.3722732678703378,5.191813947338178
1648639537268372635,128650,15,0,0.0272034537047,0.081803791225,0.0134893273935,0.0,15.8999996185,0.009098145051739129,0.0273591275,0.00451148073361204,15.8999996185,0.0,0.030233662436533002,0.08725737851767135
1648639537268439432,128651,15,1,0.0696934685111,0.0272679310292,-0.0448679216206,0.0,15.8999996185,0.023308852344849498,0.00911970937431438,-0.015005993853043477,15.8999996185,0.0,0.03420196331118945,0.08725737794750196
1648639537268460297,128652,15,2,0.211835950613,-0.081803791225,-0.130224093795,0.0,15.8999996185,0.07084814401772575,-0.0273591275,-0.0435532086270903,15.8999996185,0.0,0.10386260577837471,0.2617721238704109
1648639537268474838,128653,15,3,0.948539733887,0.899841725826,-0.0606089010835,0.0,15.8999996185,0.31723736919297657,0.3009504099752508,-0.020270535479431435,15.8999996185,0.0,0.5402316596509625,1.3088606484994818
1648639537268483824,128654,15,4,2.34039163589,1.8133174181,0.74927508831,0.0,15.8999996185,0.7827396775551839,0.6064606749498327,0.25059367502006685,15.8999996185,0.0,1.2622033734303648,3.0540082229900234
1648639537268508479,128655,15,5,3.81778740883,-1.00345981121,0.726961374283,0.0,15.8999996185,1.2768519761973243,-0.3356052880301003,0.24313089440903007,15.8999996185,0.0,1.836663509626026,4.013839200993722
1648639537268538287,128656,15,6,1.18245172501,-1.13979947567,0.226417630911,0.243430063128,15.8999996185,0.39546880435117054,-0.3812038380167224,0.07572496017090301,15.8999996185,0.03289595447675676,0.676836403090561,1.6578901864430229
1648639537268569115,128657,15,7,1.16710138321,-1.31704103947,0.510867118835,0.243430063128,15.8999996185,0.3903349107725752,-0.440481953,0.1708585681722408,15.8999996185,0.03289595447675676,0.7062202461373949,1.8324049638236868
1648639537268634567,128658,15,8,1.19187092781,-0.95437759161,-0.018677322194,0.852005243301,15.8999996185,0.39861903940133775,-0.31918982996989964,-0.0062465960515050165,15.8999996185,0.11513584368932432,0.6478243779780937,1.5270041710127424
1648639537268658749,128659,15,9,4.93904399872,1.12616550922,0.917280375957,-0.243430063128,15.8999996185,1.6518541801739128,0.3766439830167224,0.30678273443377924,15.8999996185,-0.03289595447675676,2.3662428351838196,5.148184890188444
1648639537268680186,128660,15,10,5.10647678375,1.01436698437,1.47057545185,-0.243430063128,15.8999996185,1.707851767140468,0.3392531720301003,0.4918312547993311,15.8999996185,-0.03289595447675676,2.4389768411737993,5.409957271692768
1648639537368328239,128661,16,0,0.0272310022265,0.081803791225,0.0134336249903,0.0,11.6999998093,0.0091073586041806,0.0273591275,0.004492851167324415,11.6999998093,0.0,0.030239209960770157,0.08725737803431323
1648639537368383676,128662,16,1,0.0697292611003,0.0272679310292,-0.0448122732341,0.0,11.6999998093,0.023320823110468226,0.00911970937431438,-0.014987382352541805,11.6999998093,0.0,0.03421827991251833,0.08725737647107353
1648639537368408720,128663,16,2,0.212594375014,-0.081803791225,-0.128982231021,0.0,11.6999998093,0.07110179766354514,-0.0273591275,-0.04313786990668896,11.6999998093,0.0,0.10420869982653408,0.2617721231635089
1648639537368451640,128664,16,3,0.948201060295,0.899841725826,-0.065694488585,0.0,11.6999998093,0.31712410043311035,0.3009504099752508,-0.021971400864548494,11.6999998093,0.0,0.5400986385978865,1.3088606297511287
1648639537368504290,128665,16,4,2.42377138138,1.71787965298,0.707945942879,0.0,11.6999998093,0.8106258800602005,0.5745416899598662,0.2367712183541806,11.6999998093,0.0,1.2823130617554703,3.054008131842192
1648639537368525972,128666,16,5,3.82755374908,-1.00345981121,0.673650145531,0.0,11.6999998093,1.2801183107290968,-0.3356052880301003,0.22530105201705683,11.6999998093,0.0,1.8412052270949046,4.013839036805526
1648639537368542748,128667,16,6,1.15833353996,-1.13979947567,0.32820802927,0.243430063128,11.6999998093,0.3874025217257525,-0.3812038380167224,0.10976857166220734,11.6999998093,0.03289595447675676,0.6674412287217683,1.6578902089737937
1648639537368552238,128668,16,7,1.2127995491,-1.25432479382,0.0364232584834,0.243430063128,11.6999998093,0.40561857829431436,-0.4195066200066889,0.012181691800468226,11.6999998093,0.03289595447675676,0.7106607252018632,1.7451475835720307
1648639537368566267,128669,16,8,1.04108047485,-1.34839916229,0.785794913769,0.243430063128,11.6999998093,0.3481874497826087,-0.45096961949498326,0.26280766346789297,11.6999998093,0.03289595447675676,0.6677144584923134,1.876033715710756
1648639537368612660,128670,16,9,1.31143951416,-1.17388439178,0.319127559662,0.486860126257,11.6999998093,0.43860853316387954,-0.39260347551170566,0.10673162530501672,11.6999998093,0.06579190895364864,0.7340928958328166,1.7887762755304926
1648639537368634932,128671,16,10,1.3246486187,-1.06344926357,0.0977154374123,0.608575165272,11.6999998093,0.44302629387959863,-0.3556686500234113,0.03268074829842809,11.6999998093,0.0822398871989189,0.7204476266508626,1.7015189114200495
1648639537368655480,128672,16,11,5.18000030518,0.845305860043,1.31175303459,-0.243430063128,11.6999998093,1.732441573638796,0.2827109899809364,0.43871338949498323,11.6999998093,-0.03289595447675676,2.466299478165646,5.409957595253775
