%time,field.header.seq,field.header.frame_id,field.point_id,field.x,field.y,field.z,field.velocity,field.intensity,normalized_x,normalized_y,normalized_z,normalized_intensity,normalized_velocity,normalized_range,range
1648638492954036681,38454,0,0,0.0272006299347,0.081803791225,0.0134950168431,0.0,44.0999984741,0.009097200647056856,0.0273591275,0.004513383559565217,44.0999984741,0.0,0.030233094065723404,0.08725737795294698
1648638492954052575,38455,0,1,0.0697499737144,0.0272679310292,-0.0447800308466,0.0,44.0999984741,0.023327750406153844,0.00911970937431438,-0.014976598945351168,44.0999984741,0.0,0.0342277223474712,0.0872573782461698
1648638492954057993,38456,0,2,0.212346196175,-0.081803791225,-0.129390403628,0.0,44.0999984741,0.07101879470735785,-0.0273591275,-0.043274382484280935,44.0999984741,0.0,0.10409543823306061,0.26177212196830996
1648638492954061896,38457,0,3,0.362649798393,0.981645464897,0.0353781171143,0.0,44.0999984741,0.1212875579909699,0.32830952003244146,0.011832146192073578,44.0999984741,0.0,0.370416636222994,1.0470884901467898
1648638492954073504,38458,0,4,3.84444355965,-1.00345981121,0.569408535957,0.0,44.0999984741,1.28576707680602,-0.3356052880301003,0.1904376374438127,44.0999984741,0.0,1.8490605346906204,4.0138390546792815
1648638492954125923,38459,0,5,4.1796913147,1.30068027973,1.49188327789,-0.486860126257,44.0999984741,1.39789007180602,0.435010127,0.4989576180234113,44.0999984741,-0.06579190895364864,2.0242102450833106,4.62464100132161
1648638492954129190,38460,0,6,1.19368565083,0.355846494436,0.222035467625,-0.243430063128,44.0999984741,0.39922597017725747,0.11901220549698997,0.07425935372073579,44.0999984741,-0.03289595447675676,0.5769979684411399,1.2652319587661716
1648638492954131823,38461,0,7,1.30733537674,0.648976743221,0.264775872231,-0.243430063128,44.0999984741,0.43723591195317724,0.21704907800033443,0.08855380342173913,44.0999984741,-0.03289595447675676,0.6553325779051796,1.483375496303394
1648638492954138766,38462,0,8,1.31120944023,0.556265771389,0.414368093014,-0.243430063128,44.0999984741,0.438531585361204,0.186042064009699,0.13858464649297658,44.0999984741,-0.03289595447675676,0.6474809281359651,1.4833754484537383
1648638493053954053,38463,1,0,0.0271964743733,0.081803791225,0.0135033903643,0.0,16.2999992371,0.009095810827190635,0.0273591275,0.004516184068327759,16.2999992371,0.0,0.030232257718690692,0.08725737807458818
1648638493053969348,38464,1,1,0.0696399956942,0.0272679310292,-0.0449508726597,0.0,16.2999992371,0.02329096845959866,0.00911970937431438,-0.015033736675484948,16.2999992371,0.0,0.03417758801676907,0.08725737800192009
1648638493053977192,38465,1,2,0.212826654315,-0.081803791225,-0.128598600626,0.0,16.2999992371,0.07117948304849497,-0.0273591275,-0.04300956542675585,16.2999992371,0.0,0.10431471359143553,0.2617721244301336
1648638493053982217,38466,1,3,0.258184850216,1.01436698437,0.028187956661,0.0,16.2999992371,0.08634944823277592,0.3392531720301003,0.00942741025451505,16.2999992371,0.0,0.3605622958001773,1.047088514291733
1648638493053993765,38467,1,4,1.61811363697,-2.07917976379,0.376169204712,0.0,16.2999992371,0.5411751294214047,-0.6953778474214046,0.1258090985658863,16.2999992371,0.0,1.0340654679917392,2.661349939950735
1648638493054073391,38468,1,5,2.45837283134,1.71787965298,0.576418638229,0.0,16.2999992371,0.8221982713511705,0.5745416899598662,0.19278215325384612,16.2999992371,0.0,1.2969649757520998,3.0540081739397995
1648638493054076887,38469,1,6,3.84488892555,-1.00345981121,0.566393494606,0.0,16.2999992371,1.28591602861204,-0.3356052880301003,0.1894292624100334,16.2999992371,0.0,1.8492676860412849,4.013839064195603
1648638493054078531,38470,1,7,1.12971711159,0.434923499823,0.367957621813,-0.121715031564,16.2999992371,0.37783180989632104,0.14545936448929764,0.12306274977023411,16.2999992371,-0.01644797723837838,0.553779901997797,1.2652320002149084
1648638493154002107,38471,2,0,0.0272276867181,0.081803791225,0.0134403444827,0.0,34.7999992371,0.009106249738494982,0.0273591275,0.004495098489197324,34.7999992371,0.0,0.030238542064076706,0.08725737815575271
1648638493154091864,38472,2,1,0.0696505606174,0.0272679310292,-0.0449345000088,0.0,34.7999992371,0.0232945018787291,0.00911970937431438,-0.015028260872508359,34.7999992371,0.0,0.03418240387433547,0.08725737761342686
1648638493154106508,38473,2,2,0.213205784559,-0.081803791225,-0.127969056368,0.0,34.7999992371,0.071306282461204,-0.0273591275,-0.0427990155076923,34.7999992371,0.0,0.10448776815702054,0.2617721265068504
1648638493154109373,38474,2,3,0.258656084538,1.01436698437,0.0234737787396,0.0,34.7999992371,0.08650705168494982,0.3392531720301003,0.007850762120267559,34.7999992371,0.0,0.36063784426336903,1.0470885193414798
1648638493154114525,38475,2,4,2.38644814491,1.8133174181,0.58626884222,0.0,34.7999992371,0.798143192277592,0.6064606749498327,0.19607653585953175,34.7999992371,0.0,1.2813507174145324,3.054008179833055
1648638493154118867,38476,2,5,3.80466508865,-1.12889230251,0.600857853889,0.0,34.7999992371,1.2724632403511706,-0.3775559540167224,0.20095580397625418,34.7999992371,0.0,1.8387152836976908,4.01383911337245
1648638493154164742,38477,2,6,1.11194753647,0.419926136732,0.282044947147,-0.121715031564,34.7999992371,0.3718888081839465,0.14044352399063545,0.09432941376153846,34.7999992371,-0.01644797723837838,0.5443592147983356,1.2216033056534836
1648638493253979674,38478,3,0,0.027231823653,0.081803791225,0.0134319607168,0.0,35.5999984741,0.009107633328762542,0.0273591275,0.0044922945541137115,35.5999984741,0.0,0.030239375444337947,0.08725737818058217
1648638493253986105,38479,3,1,0.0696678087115,0.0272679310292,-0.0449077524245,0.0,35.5999984741,0.023300270472073576,0.00911970937431438,-0.015019315192140467,35.5999984741,0.0,0.03419026626418,0.08725737711560867
1648638493253993206,38480,3,2,0.212346196175,-0.081803791225,-0.129390403628,0.0,35.5999984741,0.07101879470735785,-0.0273591275,-0.043274382484280935,35.5999984741,0.0,0.10409543823306061,0.26177212196830996
1648638493253999188,38481,3,3,0.258656084538,1.01436698437,0.0234737787396,0.0,35.5999984741,0.08650705168494982,0.3392531720301003,0.007850762120267559,35.5999984741,0.0,0.36063784426336903,1.0470885193414798
1648638493254001123,38482,3,4,0.801249265671,0.392658174038,-0.547917425632,0.0,35.5999984741,0.2679763430337792,0.13132380402608695,-0.18324997512775917,35.5999984741,0.0,0.4010842584238348,1.047088502796383
1648638493254077185,38483,3,5,1.11017167568,0.419926136732,0.288955688477,0.0,35.5999984741,0.3712948748093645,0.14044352399063545,0.09664069848729095,35.5999984741,0.0,0.5435477454192148,1.2216032497075384
1648638493254081439,38484,3,6,2.38576579094,1.8133174181,0.589039742947,0.0,35.5999984741,0.7979149802474915,0.6064606749498327,0.19700325851070233,35.5999984741,0.0,1.281066423596886,3.0540082329252947
1648638493254086384,38485,3,7,3.83833050728,-1.00345981121,0.609254956245,0.0,35.5999984741,1.2837225776856185,-0.3356052880301003,0.20376419941304347,35.5999984741,0.0,1.846217273853049,4.013839094624876
1648638493353923963,38486,4,0,0.0271931793541,0.081803791225,0.013510026969,0.0,14.8000001907,0.009094708814080267,0.0273591275,0.004518403668561872,14.8000001907,0.0,0.030231594638508153,0.08725737843226065
1648638493353931092,38487,4,1,0.0696433186531,0.0272679310292,-0.0449457205832,0.0,14.8000001907,0.0232920798170903,0.00911970937431438,-0.015032013572976587,14.8000001907,0.0,0.034179102730811525,0.08725737616026237
1648638493354015223,38488,4,2,0.212902337313,-0.081803791225,-0.128473266959,0.0,14.8000001907,0.07120479508795986,-0.0273591275,-0.042967647812374575,14.8000001907,0.0,0.10434925751819206,0.26177212574153175
1648638493354018852,38489,4,3,0.363806039095,0.981645464897,0.0202890522778,0.0,14.8000001907,0.12167426056688961,0.32830952003244146,0.006785636213311037,14.8000001907,0.0,0.37067019345090424,1.0470884864600372
1648638493354021217,38490,4,4,0.816313803196,0.35993668437,-0.548152983189,0.0,14.8000001907,0.27301464989832774,0.12038016199665551,-0.18332875691939796,14.8000001907,0.0,0.40443217171801993,1.0470885039110052
1648638493354026125,38491,4,5,1.16996490955,0.305400818586,0.173858970404,0.0,14.8000001907,0.3912926118896321,0.10214074200200668,0.058146812844147154,14.8000001907,0.0,0.5627188884474565,1.2216032462142845
1648638493354060873,38492,4,6,3.80990767479,-1.12889230251,0.566666185856,0.0,14.8000001907,1.2742166136421402,-0.3775559540167224,0.18952046349698998,14.8000001907,0.0,1.841142160555986,4.013839170580039
1648638493354183896,38493,4,7,1.27471029758,0.169061169028,0.419236809015,0.121715031564,14.8000001907,0.42632451424080264,0.0565421969993311,0.14021297960367893,14.8000001907,0.01644797723837838,0.6055594132096568,1.352489380240261
1648638493453770756,38494,5,0,0.0272015035152,0.081803791225,0.0134932585061,0.0,21.6000003815,0.00909749281444816,0.0273591275,0.004512795486989966,21.6000003815,0.0,0.030233269895582386,0.08725737835497505
1648638493453778972,38495,5,1,0.0696500018239,0.0272679310292,-0.0449353642762,0.0,21.6000003815,0.023294314991270902,0.00911970937431438,-0.0150285499251505,21.6000003815,0.0,0.03418214915562001,0.08725737664700488
1648638493453782773,38496,5,2,0.213821038604,-0.081803791225,-0.126938357949,0.0,21.6000003815,0.07151205304481605,-0.0273591275,-0.0424543003173913,21.6000003815,0.0,0.10476864664073134,0.26177212137136585
1648638493453791319,38497,5,3,0.259714871645,1.01436698437,0.00147103529889,0.0,21.6000003815,0.08686116108528427,0.3392531720301003,0.0004919850497959866,21.6000003815,0.0,0.3608080339219905,1.047088514633943
1648638493453797957,38498,5,4,0.817383229733,0.392658174038,-0.523544251919,0.0,21.6000003815,0.27337231763645486,0.13132380402608695,-0.17509841201304346,21.6000003815,0.0,0.4083023262286607,1.0470885204246259
1648638493453800506,38499,5,5,2.38067412376,1.8133174181,0.609291672707,0.0,21.6000003815,0.7962120815250836,0.6064606749498327,0.20377647916622071,21.6000003815,0.0,1.278945623470216,3.054008134363003
1648638493453806770,38500,5,6,3.85188007355,-1.00345981121,0.516714215279,0.0,21.6000003815,1.2882542052006687,-0.3356052880301003,0.172814118822408,21.6000003815,0.0,1.8525195555751037,4.013839218752609
1648638493453887339,38501,5,7,1.10602176189,0.458101212978,0.243256181479,0.121715031564,21.6000003815,0.36990694377591965,0.15321110801939797,0.08135658243444815,21.6000003815,0.01644797723837838,0.5451017682303135,1.2216032207447387
1648638493453891888,38502,5,8,1.26324522495,0.253591746092,0.411254256964,0.243430063128,21.6000003815,0.4224900417892976,0.08481329300735786,0.13754322975384614,21.6000003815,0.03289595447675676,0.6034807084679649,1.3524893108324283
1648638493453894522,38503,5,9,1.30532360077,0.334032148123,0.718536317348,0.243430063128,21.6000003815,0.43656307718060194,0.11171643749933109,0.24031314961471573,21.6000003815,0.03289595447675676,0.6274194793934392,1.5270041316430187
1648638493553947417,38504,6,0,0.0272047892213,0.081803791225,0.0134866330773,0.0,16.0,0.009098591712809363,0.0273591275,0.00451057962451505,16.0,0.0,0.03023393126727093,0.08725737841077093
1648638493553951221,38505,6,1,0.0696783810854,0.0272679310292,-0.0448913425207,0.0,16.0,0.023303806383076924,0.00911970937431438,-0.015013826929999998,16.0,0.0,0.03419508565498603,0.08725737496971957
1648638493553952459,38506,6,2,0.212372496724,-0.081803791225,-0.129347249866,0.0,16.0,0.07102759087759196,-0.0273591275,-0.04325994978795986,16.0,0.0,0.10410744060493671,0.2617721311970894
1648638493553954929,38507,6,3,0.258645951748,1.01436698437,0.0235849954188,0.0,16.0,0.08650366279197323,0.3392531720301003,0.007887958334046822,16.0,0.0,0.3606362184880211,1.047088515525035
1648638493553956221,38508,6,4,0.812367260456,0.392658174038,-0.531293988228,0.0,16.0,0.27169473593846155,0.13132380402608695,-0.17769029706622072,16.0,0.0,0.40605664700534433,1.0470884916886716
1648638493553959601,38509,6,5,1.15505254269,0.741687715054,-0.25475153327,0.0,16.0,0.38630519822408027,0.24805609199130432,-0.08520118169565216,16.0,0.0,0.5999960309234473,1.396117970208848
1648638493553964607,38510,6,6,2.39022016525,1.8133174181,0.570696294308,0.0,16.0,0.799404737541806,0.6064606749498327,0.19086832585551836,16.0,0.0,1.2829226083708922,3.0540083099902446
1648638493553965647,38511,6,7,3.84676527977,-1.00345981121,0.553507626057,0.0,16.0,1.2865435718294314,-0.3356052880301003,0.18511960737692307,16.0,0.0,1.8501404362331604,4.013839234755277
1648638493553966713,38512,6,8,1.10775375366,0.381751030684,0.345633506775,0.243430063128,16.0,0.3704862052374582,0.12767592999464883,0.11559649056020066,16.0,0.03289595447675676,0.5392784064307623,1.2216033518215723
1648638493553977076,38513,6,9,1.2933754921,0.338122338057,0.205135375261,0.243430063128,16.0,0.4325670542140468,0.11308439399899664,0.0686071489167224,16.0,0.03289595447675676,0.622106576841104,1.3524893349825426
1648638493553978128,38514,6,10,1.3029487133,0.218143448234,0.451534718275,0.365145087242,16.0,0.43576880043478255,0.07295767499464882,0.15101495594481604,16.0,0.04934393070837838,0.6205737000593592,1.396118016252648
1648638493653922112,38515,7,0,0.0272429101169,0.081803791225,0.0134094608948,0.0,30.2999992371,0.009111341176220734,0.0273591275,0.004484769530033445,30.2999992371,0.0,0.030241609309364592,0.08725737820900907
1648638493653930412,38516,7,1,0.0696394518018,0.0272679310292,-0.0449517220259,0.0,30.2999992371,0.023290786555785953,0.00911970937431438,-0.015034020744448158,30.2999992371,0.0,0.034177340093200885,0.08725738148123754
1648638493653949717,38517,7,2,0.212729543447,-0.081803791225,-0.128759175539,0.0,30.2999992371,0.07114700449732442,-0.0273591275,-0.04306326941103678,30.2999992371,0.0,0.10427039059793465,0.2617721226552504
1648638493654066009,38518,7,3,0.257866919041,1.01436698437,0.0309617649764,0.0,30.2999992371,0.0862431167361204,0.3392531720301003,0.01035510534327759,30.2999992371,0.0,0.3605113938576769,1.0470885147904352
1648638493654073170,38519,7,4,0.811612963676,0.392658174038,-0.53244560957,0.0,30.2999992371,0.27144246276789297,0.13132380402608695,-0.1780754547056856,30.2999992371,0.0,0.4057190686803863,1.0470885213754209
1648638493654076630,38520,7,5,1.17155921459,0.741687715054,-0.162769049406,0.0,30.2999992371,0.39182582427759194,0.24805609199130432,-0.05443780916588629,30.2999992371,0.0,0.6071134802618264,1.3961179833371153
1648638493654080275,38521,7,6,3.82665848732,-1.12889230251,0.439536809921,0.0,30.2999992371,1.2798188920802676,-0.3775559540167224,0.14700227756555184,30.2999992371,0.0,1.848897317717943,4.013839261420423
1648638493654086016,38522,7,7,1.18386983871,0.395384997129,0.207207635045,0.365145087242,30.2999992371,0.39594308986956517,0.13223578499297658,0.0693002123896321,30.2999992371,0.04934393070837838,0.5753504702906098,1.2652320320727273
1648638493654089379,38523,7,8,3.09400749207,-2.69134473801,0.0526934154332,0.365145087242,30.2999992371,1.0347851144046822,-0.900115296993311,0.017623215863946485,30.2999992371,0.04934393070837838,1.7180710153740382,4.1010968600887034
1648638493654091016,38524,7,9,3.96034312248,1.02527415752,0.288944303989,0.365145087242,30.2999992371,1.3245294724013377,0.3429010560267558,0.09663689096622073,30.2999992371,0.04934393070837838,1.90429456249389,4.1010966285446955
1648638493654103787,38525,7,10,1.32168233395,0.269952505827,0.503142476082,0.486860126257,30.2999992371,0.44203422540133774,0.0902851190056856,0.16827507561270902,30.2999992371,0.06579190895364864,0.6316169057001183,1.439746817504981
1648638493654109705,38526,7,11,4.01530218124,1.07981002331,1.16927051544,0.608575165272,30.2999992371,1.342910428508361,0.36114047602341137,0.39106037305685615,30.2999992371,0.0822398871989189,1.9331940620163914,4.31924007568331
1648638493754071661,38527,8,0,0.0272429101169,0.081803791225,0.0134094608948,0.0,15.1000003815,0.009111341176220734,0.0273591275,0.004484769530033445,15.1000003815,0.0,0.030241609309364592,0.08725737820900907
1648638493754088113,38528,8,1,0.0696327388287,0.0272679310292,-0.0449621081352,0.0,15.1000003815,0.023288541414280935,0.00911970937431438,-0.01503749435959866,15.1000003815,0.0,0.03417428011650449,0.08725737531785248
1648638493754107583,38529,8,2,0.212592542171,-0.081803791225,-0.128985255957,0.0,15.1000003815,0.07110118467257524,-0.0273591275,-0.043138881590969895,15.1000003815,0.0,0.10420786333693131,0.2617721251390312
1648638493754159833,38530,8,3,0.258888572454,1.01436698437,0.0207527689636,0.0,15.1000003815,0.08658480684080266,0.3392531720301003,0.006940725405886287,15.1000003815,0.0,0.3606751617228487,1.0470885107510322
1648638493754168791,38531,8,4,0.802610099316,0.35993668437,-0.568028986454,0.0,15.1000003815,0.2684314713431438,0.12038016199665551,-0.1899762496501672,15.1000003815,0.0,0.39824903391876687,1.0470884956541482
1648638493754173045,38532,8,5,1.19917750359,0.698059022427,-0.15437746048,0.0,15.1000003815,0.4010627102307692,0.23346455599565216,-0.05163125768561873,15.1000003815,0.0,0.6133582101688596,1.3961180051171669
1648638493754181425,38533,8,6,2.39296197891,1.8133174181,0.559087991714,0.0,15.1000003815,0.8003217320769229,0.6064606749498327,0.18698595040602006,15.1000003815,0.0,1.2840655356833695,3.054008263540311
1648638493754211635,38534,8,7,3.81649374962,-1.12889230251,0.520462632179,0.0,15.1000003815,1.2764193142541806,-0.3775559540167224,0.17406776995953177,15.1000003815,0.0,1.844191158751094,4.013839025552663
1648638493754281043,38535,8,8,1.3648827076,0.572626531124,0.375414192677,0.243430063128,15.1000003815,0.45648251090301,0.19151389000802674,0.12555658617959864,15.1000003815,0.03289595447675676,0.673372211771944,1.5270041799929484
1648638493754333548,38536,8,9,1.28555369377,0.380387634039,0.178561344743,0.365145087242,15.1000003815,0.42995106815050166,0.12721994449464882,0.05971951329197324,15.1000003815,0.04934393070837838,0.6212091083401274,1.352489262630912
1648638493754345472,38537,8,10,1.69391417503,-2.55227828026,0.695758640766,0.365145087242,15.1000003815,0.5665264799431438,-0.8536047760066888,0.232695197580602,15.1000003815,0.04934393070837838,1.1707030445740576,3.1412656268540964
1648638493854045158,38538,9,0,0.0177625920624,0.0845305845141,0.0123660992831,0.0,13.6000003815,0.00594066624160535,0.028271098499698995,0.004135819158227425,13.6000003815,0.0,0.029493016820392955,0.08725737680305388
1648638493854054651,38539,9,1,0.0696611404419,0.0272679310292,-0.0449180901051,0.0,13.6000003815,0.023298040281571904,0.00911970937431438,-0.015022772610401336,13.6000003815,0.0,0.03418722657653662,0.08725737429563879
1648638493854065322,38540,9,2,0.212729543447,-0.081803791225,-0.128759175539,0.0,13.6000003815,0.07114700449732442,-0.0273591275,-0.04306326941103678,13.6000003815,0.0,0.10427039059793465,0.2617721226552504
1648638493854250937,38541,9,3,0.2592869699,1.01436698437,0.0149747272953,0.0,13.6000003815,0.08671805013377926,0.3392531720301003,0.005008269998428093,13.6000003815,0.0,0.36073917886818746,1.0470885130672478
1648638493854256468,38542,9,4,1.18994510174,0.633979380131,-0.106433965266,0.0,13.6000003815,0.3979749504147157,0.21203323750200667,-0.03559664390167224,13.6000003815,0.0,0.6014367931219151,1.352489330290095
1648638493854294537,38543,9,5,1.64373314381,-2.1132645607,0.386217683554,0.0,13.6000003815,0.5497435263578595,-0.7067774450501672,0.1291697938307692,13.6000003815,0.0,1.0506998840660406,2.7049787153801943
1648638493854306816,38544,9,6,3.83214259148,-1.00345981121,0.647036790848,0.0,13.6000003815,1.2816530406287623,-0.3356052880301003,0.21640026449765887,13.6000003815,0.0,1.8433393454433913,4.013839189960098
1648638493854309841,38545,9,7,1.28390169144,0.422652930021,0.0467820838094,0.243430063128,13.6000003815,0.42939855901003343,0.141355494990301,0.01564618187605351,13.6000003815,0.03289595447675676,0.6234962878187322,1.3524894143405999
1648638493854361617,38546,9,8,1.34181249142,0.725326955318,0.649646043777,0.243430063128,13.6000003815,0.44876671953846153,0.2425842659926421,0.21727292434013376,13.6000003815,0.03289595447675676,0.6794337813487149,1.6578902063878462
1648638493854583944,38547,9,9,1.30281877518,0.35993668437,0.49596336484,0.365145087242,13.6000003815,0.4357253428695652,0.12038016199665551,0.16587403506354514,13.6000003815,0.04934393070837838,0.6278570953966686,1.4397467961347228
1648638493854588293,38548,9,10,3.03653430939,-2.87949347496,0.174027770758,0.365145087242,13.6000003815,1.0155633141772573,-0.9630412959732441,0.058203267812040126,13.6000003815,0.04934393070837838,1.7292154949442289,4.188353966588165
1648638493854592528,38549,9,11,4.00219774246,1.17797458172,0.370267927647,0.365145087242,13.6000003815,1.3385276730635451,0.3939714320133779,0.12383542730668895,13.6000003815,0.04934393070837838,1.93352686879611,4.188353999266816
1648638493854595712,38550,9,12,1.36279058456,0.261772125959,0.153045102954,0.486860126257,13.6000003815,0.45578280420066886,0.08754920600635452,0.05118565316187291,13.6000003815,0.06579190895364864,0.6504927306914302,1.3961180561946334
1648638493854597426,38551,9,13,1.37833809853,0.286313265562,0.591566085815,0.486860126257,13.6000003815,0.4609826416488294,0.09575694500401337,0.19784818923578595,13.6000003815,0.06579190895364864,0.6589228970976557,1.5270041367928746
1648638493954064462,38552,10,0,0.027197336778,0.081803791225,0.0135016534477,0.0,28.0,0.009096099256856187,0.0273591275,0.004515603159765885,28.0,0.0,0.03023243127739507,0.08725737809733415
1648638493954265942,38553,10,1,0.0696961507201,0.0272679310292,-0.0448637530208,0.0,28.0,0.02330974940471572,0.00911970937431438,-0.01500459967250836,28.0,0.0,0.03420318601670387,0.08725737689687586
1648638493954268502,38554,10,2,0.212346196175,-0.081803791225,-0.129390403628,0.0,28.0,0.07101879470735785,-0.0273591275,-0.043274382484280935,28.0,0.0,0.10409543823306061,0.26177212196830996
1648638493954349710,38555,10,3,0.258340030909,1.01436698437,0.0267284046859,0.0,28.0,0.08640134813010032,0.3392531720301003,0.008939265781237458,28.0,0.0,0.36058716096095605,1.0470885149628013
1648638493954351660,38556,10,4,1.1848256588,0.633979380131,-0.153250232339,0.0,28.0,0.3962627621404682,0.21203323750200667,-0.05125425830735786,28.0,0.0,0.5991714672144935,1.352489308606208
1648638493954352700,38557,10,5,0.800558805466,0.97210174799,0.493306487799,0.0,28.0,0.2677454198882943,0.3251176414682274,0.1649854474244147,28.0,0.0,0.4990758464764458,1.3524893716251332
1648638493954359533,38558,10,6,1.64404249191,-2.1132645607,0.384898811579,0.0,28.0,0.5498469872608696,-0.7067774450501672,0.12872869952474916,28.0,0.0,1.0508081535805438,2.7049787270644354
1648638493954398560,38559,10,7,3.81238555908,-1.12889230251,0.54974848032,0.0,28.0,1.2750453374849497,-0.3775559540167224,0.183862368,28.0,0.0,1.842289261678984,4.013839168845982
1648638493954469505,38560,10,8,1.35134541988,0.349029511213,-0.0344883836806,0.243430063128,28.0,0.45195498992642136,0.11673227799765887,-0.011534576481806018,28.0,0.03289595447675676,0.6497330610068307,1.396118007955323
1648638493954473030,38561,10,9,1.45427525043,0.238594397902,0.3998721838,0.486860126257,28.0,0.4863796824180602,0.07979745749230768,0.13373651632107023,28.0,0.06579190895364864,0.6924579591285112,1.5270041107018795
1648638494054044414,38562,11,0,0.027197336778,0.081803791225,0.0135016534477,0.0,29.1000003815,0.009096099256856187,0.0273591275,0.004515603159765885,29.1000003815,0.0,0.03023243127739507,0.08725737809733415
1648638494054155998,38563,11,1,0.0695710927248,0.0272679310292,-0.0450574345887,0.0,29.1000003815,0.023267923988227423,0.00911970937431438,-0.015069376116622072,29.1000003815,0.0,0.03414618093602586,0.08725737457230137
1648638494054162555,38564,11,2,0.259717226028,1.01436698437,0.000970870780293,0.0,29.1000003815,0.08686194850434782,0.3392531720301003,0.0003247059465862876,29.1000003815,0.0,0.3608084130510662,1.0470885153919123
1648638494054167538,38565,11,3,1.18485116959,0.633979380131,-0.153053537011,0.0,29.1000003815,0.3962712941772575,0.21203323750200667,-0.051188473916722405,29.1000003815,0.0,0.5991827525750548,1.3524893839515544
1648638494054173970,38566,11,4,0.808064877987,0.97210174799,0.480912476778,0.0,29.1000003815,0.2702558120357859,0.3251176414682274,0.16084029323678928,29.1000003815,0.0,0.5017747389736822,1.3524893588498614
1648638494054318962,38567,11,5,3.83457446098,-1.00345981121,0.632465302944,0.0,29.1000003815,1.282466374909699,-0.3356052880301003,0.21152685717190636,29.1000003815,0.0,1.8444703616219524,4.013839215631552
1648638494054323249,38568,11,6,1.42162775993,0.477188795805,0.288109689951,0.243430063128,29.1000003815,0.47546078927424745,0.15959491498494982,0.09635775583645484,29.1000003815,0.03289595447675676,0.6910835413780552,1.5270042004163176
1648638494054327646,38569,11,7,1.4037309885,0.314944595098,-0.0567446276546,0.365145087242,29.1000003815,0.4694752469899665,0.10533264050100333,-0.0189781363393311,29.1000003815,0.04934393070837838,0.6722417572774646,1.4397467620468154
1648638494054331832,38570,11,8,1.39037764072,0.302674025297,0.762285113335,0.365145087242,29.1000003815,0.4650092443879598,0.10122877100234112,0.254944853958194,29.1000003815,0.04934393070837838,0.6653679123696656,1.6142614854526376
1648638494054334977,38571,11,9,2.27730870247,1.02800095081,0.400407999754,0.365145087242,29.1000003815,0.7616417065117056,0.34381302702675587,0.1339157189812709,29.1000003815,0.04934393070837838,1.1306651032686146,2.5304638799000587
1648638494154084047,38572,12,0,0.0272429101169,0.081803791225,0.0134094608948,0.0,12.3000001907,0.009111341176220734,0.0273591275,0.004484769530033445,12.3000001907,0.0,0.030241609309364592,0.08725737820900907
1648638494154211221,38573,12,1,0.0697571709752,0.0272679310292,-0.0447688139975,0.0,12.3000001907,0.023330157516789296,0.00911970937431438,-0.014972847490802674,12.3000001907,0.0,0.03423100347036817,0.0872573760310224
1648638494154221121,38574,12,2,0.212979987264,-0.081803791225,-0.128344491124,0.0,12.3000001907,0.07123076497123745,-0.0273591275,-0.042924578971237456,12.3000001907,0.0,0.10438470009698066,0.26177212157835966
1648638494154223158,38575,12,3,1.18656849861,0.633979380131,-0.139113903046,0.0,12.3000001907,0.3968456517090301,0.21203323750200667,-0.04652638897859531,12.3000001907,0.0,0.5999425275526915,1.352489310251866
1648638494154226221,38576,12,4,0.807969927788,0.97210174799,0.481071949005,0.0,12.3000001907,0.27022405611638795,0.3251176414682274,0.16089362842976587,12.3000001907,0.0,0.5017405323489905,1.352489346639902
1648638494154296309,38577,12,5,3.84875249863,-1.00345981121,0.539515674114,0.0,12.3000001907,1.287208193521739,-0.3356052880301003,0.18044002478729096,12.3000001907,0.0,1.8510647682598154,4.013839128694492
1648638494154352644,38578,12,6,1.3412116766,0.404928773642,0.331744879484,0.243430063128,12.3000001907,0.44856577812709025,0.13542768349230766,0.11095146471036789,12.3000001907,0.03289595447675676,0.6486626026445617,1.4397467618422521
1648638494154358484,38579,12,7,1.41223752499,0.302674025297,0.720981061459,0.243430063128,12.3000001907,0.4723202424715719,0.10122877100234112,0.2411307897856187,12.3000001907,0.03289595447675676,0.6755886966013074,1.6142614669135593
1648638494154368347,38580,12,8,1.47228693962,0.763502061367,0.543116807938,0.243430063128,12.3000001907,0.4924036587357859,0.2553518599889632,0.18164441737056855,12.3000001907,0.03289595447675676,0.7417056684916192,1.7451475861233186
1648638494253923547,38581,13,0,0.0271931793541,0.081803791225,0.013510026969,0.0,11.6999998093,0.009094708814080267,0.0273591275,0.004518403668561872,11.6999998093,0.0,0.030231594638508153,0.08725737843226065
1648638494253931070,38582,13,1,0.0696427300572,0.0272679310292,-0.0449466332793,0.0,11.6999998093,0.023291882962274243,0.00911970937431438,-0.01503231882250836,11.6999998093,0.0,0.034178834429051556,0.08725737651096963
1648638494253940126,38583,13,2,0.213264137506,-0.081803791225,-0.127871781588,0.0,11.6999998093,0.07132579849698996,-0.0273591275,-0.04276648213645485,11.6999998093,0.0,0.10451440532303519,0.26177212443545367
1648638494253942804,38584,13,3,0.258627533913,1.01436698437,0.0237860847265,0.0,11.6999998093,0.08649750298093643,0.3392531720301003,0.007955212283110368,11.6999998093,0.0,0.3606332635467214,1.047088514932918
1648638494253945584,38585,13,4,1.16792213917,0.676244676113,-0.0887613594532,0.0,11.6999998093,0.3906094110936455,0.22616878799765885,-0.029686073395719062,11.6999998093,0.0,0.5969118400016697,1.352489395177125
1648638494253954058,38586,13,5,3.83133339882,-1.00345981121,0.651810765266,0.0,11.6999998093,1.281382407632107,-0.3356052880301003,0.21799691146020067,11.6999998093,0.0,1.8429630106249764,4.013839119763505
1648638494253978661,38587,13,6,1.30031907558,0.494912952185,0.370272964239,0.243430063128,11.6999998093,0.4348893229364548,0.16552272648327757,0.12383711178561872,11.6999998093,0.03289595447675676,0.6369106839979324,1.4397467126560954
1648638494253988565,38588,13,7,1.48784840107,0.286313265562,0.189930394292,0.243430063128,11.6999998093,0.49760816089297655,0.09575694500401337,0.06352187100066889,11.6999998093,0.03289595447675676,0.7102092340226804,1.5270041602036473
1648638494253990877,38589,13,8,1.42461895943,0.708966195583,0.716496765614,0.243430063128,11.6999998093,0.47646119044481605,0.23711243999431436,0.23963102528896318,11.6999998093,0.03289595447675676,0.7143198451675831,1.7451475184585892
1648638494254085661,38590,13,9,3.0914068222,-2.93948292732,0.288958996534,0.243430063128,11.6999998093,1.0339153251505016,-0.9831046579665551,0.09664180486086955,11.6999998093,0.03289595447675676,1.7619468118185837,4.275611455923983
1648638494353893668,38591,14,0,0.027231823653,0.081803791225,0.0134319607168,0.0,13.6000003815,0.009107633328762542,0.0273591275,0.0044922945541137115,13.6000003815,0.0,0.030239375444337947,0.08725737818058217
1648638494353898752,38592,14,1,0.0696683451533,0.0272679310292,-0.0449069216847,0.0,13.6000003815,0.023300449884046823,0.00911970937431438,-0.015019037352742475,13.6000003815,0.0,0.034190510798610664,0.08725737787836813
1648638494354024782,38593,14,2,0.211969450116,-0.081803791225,-0.130006685853,0.0,13.6000003815,0.07089279268093644,-0.0273591275,-0.043480496940802665,13.6000003815,0.0,0.10392351979107389,0.2617721268732472
1648638494354028225,38594,14,3,0.259228348732,1.01436698437,0.0159575808793,0.0,13.6000003815,0.08669844439197325,0.3392531720301003,0.005336983571672241,13.6000003815,0.0,0.3607297537665295,1.04708851591149
1648638494354042962,38595,14,4,1.23321688175,0.6544303298,0.00653655827045,0.0,13.6000003815,0.4124471176421404,0.21887302,0.0021861398897826084,13.6000003815,0.0,0.6230013231017569,1.3961180682841094
1648638494354047866,38596,14,5,3.83737611771,-1.00345981121,0.615237414837,0.0,13.6000003815,1.2834033838494983,-0.3356052880301003,0.20576502168461538,13.6000003815,0.0,1.8457733882322749,4.01383907725509
1648638494354054551,38597,14,6,1.40976524353,0.417199343443,0.197254896164,0.121715031564,13.6000003815,0.4714933924849498,0.1395315529909699,0.06597153717859532,13.6000003815,0.01644797723837838,0.6812349760501186,1.4833754845268077
1648638494354060310,38598,14,7,1.4911648035,0.490822762251,-0.0490728616714,0.243430063128,13.6000003815,0.49871732558528425,0.16415476998361203,-0.01641232831819398,13.6000003815,0.03289595447675676,0.7241441363335406,1.570632866361046
1648638494354253549,38599,14,8,1.47725653648,0.381751030684,-0.0609988868237,0.365145087242,13.6000003815,0.49406573126421405,0.12767592999464883,-0.020400965492876254,13.6000003815,0.04934393070837838,0.7102837719667284,1.5270041218657249
1648638494454183945,38600,15,0,0.0271931793541,0.081803791225,0.013510026969,0.0,36.0,0.009094708814080267,0.0273591275,0.004518403668561872,36.0,0.0,0.030231594638508153,0.08725737843226065
1648638494454194965,38601,15,1,0.0696611404419,0.0272679310292,-0.0449180901051,0.0,36.0,0.023298040281571904,0.00911970937431438,-0.015022772610401336,36.0,0.0,0.03418722657653662,0.08725737429563879
1648638494454240839,38602,15,2,0.213416188955,-0.081803791225,-0.127617835999,0.0,36.0,0.07137665182441472,-0.0273591275,-0.04268155050133779,36.0,0.0,0.10458381666820496,0.26177211851518356
1648638494454271892,38603,15,3,0.259417325258,1.01436698437,0.0125150959939,0.0,36.0,0.08676164724347825,0.3392531720301003,0.004185650834080267,36.0,0.0,0.36076014413636154,1.047088513570672
1648638494454350851,38604,15,4,1.18673300743,0.633979380131,-0.137704595923,0.0,36.0,0.3969006713812709,0.21203323750200667,-0.04605504880367892,36.0,0.0,0.6000153162140026,1.3524894236530858
1648638494454496140,38605,15,5,3.81076622009,-1.12889230251,0.560864031315,0.0,36.0,1.2745037525384615,-0.3775559540167224,0.18757994358361202,36.0,0.0,1.8415396082850668,4.013839243974311
1648638494454518903,38606,15,6,1.57101273537,0.25904533267,0.461968123913,0.121715031564,36.0,0.5254223195217391,0.08663723500668896,0.15450438926856186,36.0,0.01644797723837838,0.7480930678684393,1.6578902396071153
1648638494454522280,38607,15,7,1.47072911263,0.381751030684,0.151538059115,0.243430063128,36.0,0.4918826463645484,0.12767592999464883,0.05068162512207358,36.0,0.03289595447675676,0.7072469290772363,1.5270041766563918
1648638494454526923,38608,15,8,1.54222869873,0.782589614391,0.456951439381,0.243430063128,36.0,0.5157955514147157,0.2617356569869565,0.1528265683548495,36.0,0.03289595447675676,0.7749810680634818,1.788776252551294
1648638494454549768,38609,15,9,2.84012007713,-3.23942995071,0.30926668644,0.365145087242,36.0,0.9498729354949832,-1.0834213881973243,0.10343367439464882,36.0,0.04934393070837838,1.7257807194354475,4.319240018963462
1648638494554154531,38610,16,0,0.0272285491228,0.081803791225,0.0134385973215,0.0,17.5,0.009106538168160535,0.0273591275,0.004494514154347826,17.5,0.0,0.030238715785852837,0.0872573781641733
1648638494554241029,38611,16,1,0.0696678087115,0.0272679310292,-0.0449077524245,0.0,17.5,0.023300270472073576,0.00911970937431438,-0.015019315192140467,17.5,0.0,0.03419026626418,0.08725737711560867
1648638494554244442,38612,16,2,0.212902337313,-0.081803791225,-0.128473266959,0.0,17.5,0.07120479508795986,-0.0273591275,-0.042967647812374575,17.5,0.0,0.10434925751819206,0.26177212574153175
1648638494554249776,38613,16,3,0.25917249918,1.01436698437,0.0168403256685,0.0,17.5,0.08667976561204013,0.3392531720301003,0.005632215942642141,17.5,0.0,0.3607207760382,1.047088515780646
1648638494554399423,38614,16,4,1.18764877319,0.633979380131,-0.129567936063,0.0,17.5,0.39720694755518393,0.21203323750200667,-0.043333757880602,17.5,0.0,0.6004205294439853,1.3524893023409186
1648638494554403883,38615,16,5,1.64220106602,-2.1132645607,0.392681032419,0.0,17.5,0.5492311257591973,-0.7067774450501672,0.1313314489695652,17.5,0.0,1.0501638042882036,2.704978713034437
1648638494554411049,38616,16,6,3.82394146919,-1.00345981121,0.693862617016,0.0,17.5,1.2789101903645486,-0.3356052880301003,0.2320610759250836,17.5,0.0,1.8395253353488608,4.013839219973426
1648638494554439601,38617,16,7,1.43320572376,0.429469913244,0.305316746235,0.121715031564,17.5,0.47933301797993305,0.1436354224896321,0.10211262415886287,17.5,0.01644797723837838,0.6929295915497308,1.5270040499395414
1648638494554443043,38618,16,8,2.72332048416,-3.40849113464,0.0183853395283,0.365145087242,17.5,0.9108095264749163,-1.139963590180602,0.0061489429860535115,17.5,0.04934393070837838,1.720077025592857,4.362868814790848
