%time,field.header.seq,field.header.frame_id,field.point_id,field.x,field.y,field.z,field.velocity,field.intensity,normalized_x,normalized_y,normalized_z,normalized_intensity,normalized_velocity,normalized_range,range
1648638640855805410,52702,0,0,0.0271890312433,0.081803791225,0.0135183688253,0.0,17.2999992371,0.009093321486053511,0.0273591275,0.004521193587056856,17.2999992371,0.0,0.030230759978186143,0.08725737776503127
1648638640855814342,52703,0,1,0.0696649476886,0.0272679310292,-0.0449121892452,0.0,17.2999992371,0.023299313608227422,0.00911970937431438,-0.015020799078662205,17.2999992371,0.0,0.03418896208282756,0.08725737643239821
1648638640855835372,52704,0,2,0.213314041495,-0.081803791225,-0.1277885288,0.0,17.2999992371,0.07134248879431437,-0.0273591275,-0.04273863839464882,17.2999992371,0.0,0.1045371860741191,0.2617721311572001
1648638640855874468,52705,0,3,0.258719950914,1.01436698437,0.0227587930858,0.0,17.2999992371,0.08652841167692307,0.3392531720301003,0.00761163648354515,17.2999992371,0.0,0.36064809272634035,1.0470885132803018
1648638640855883909,52706,0,4,1.18634855747,0.633979380131,-0.140977233648,0.0,17.2999992371,0.39677209279933107,0.21203323750200667,-0.047149576470903,17.2999992371,0.0,0.5998452142463957,1.3524893103642186
1648638640855888051,52707,0,5,2.38786172867,1.8133174181,0.580484569073,0.0,17.2999992371,0.7986159627658862,0.6064606749498327,0.19414199634548493,17.2999992371,0.0,1.2819397264417596,3.054008190716521
1648638640855900450,52708,0,6,3.81075143814,-1.12889230251,0.560963153839,0.0,17.2999992371,1.274498808742475,-0.3775559540167224,0.18761309492943143,17.2999992371,0.0,1.841532765221801,4.013839061785787
1648638640856013047,52709,0,7,1.48999667168,0.334032148123,-0.00859280209988,0.365145087242,17.2999992371,0.4983266460468227,0.11171643749933109,-0.002873846856147157,17.2999992371,0.04934393070837838,0.7135400862797356,1.527004058228095
1648638640856110007,52710,0,8,1.60264372826,0.207236275077,0.370386689901,0.365145087242,17.2999992371,0.536001246909699,0.06930979099565217,0.12387514712408025,17.2999992371,0.04934393070837838,0.7611823175201623,1.6578902537546694
1648638640856115108,52711,0,9,3.0371670723,0.908022105694,0.61194139719,0.365145087242,17.2999992371,1.0157749405685619,0.3036863229745819,0.20466267464548493,17.2999992371,0.04934393070837838,1.4682720601223578,3.22852291970913
1648638640856117998,52712,0,10,1.95816969872,-2.42139220238,0.851934254169,0.365145087242,17.2999992371,0.6549062537525083,-0.8098301680200668,0.28492784420367895,17.2999992371,0.04934393070837838,1.230296429094915,3.2285229966903337
1648638640856124931,52713,0,11,2.82482361794,-3.20670843124,0.135075673461,0.365145087242,17.2999992371,0.9447570628561872,-1.0724777362006688,0.045175810522073576,17.2999992371,0.04934393070837838,1.7132834880075773,4.275611403415689
1648638640856127180,52714,0,12,1.35112082958,0.404928773642,0.288748621941,0.486860126257,17.2999992371,0.45187987611371233,0.13542768349230766,0.09657144546521738,17.2999992371,0.06579190895364864,0.6532468923226353,1.4397467049870225
1648638640856130417,52715,0,13,1.54101836681,0.708966195583,0.410084336996,0.486860126257,17.2999992371,0.5153907581304347,0.23711243999431436,0.13715195217257525,17.2999992371,0.06579190895364864,0.7664708581104606,1.7451475114656185
1648638640955762853,52716,1,0,0.0271677616984,0.081803791225,0.013561069034,0.0,20.5,0.009086207925886287,0.0273591275,0.004535474593311036,20.5,0.0,0.030226481874444697,0.0872573786440399
1648638640955775651,52717,1,1,0.0697551965714,0.0272679310292,-0.0447718948126,0.0,20.5,0.023329497181070233,0.00911970937431438,-0.014973877863745818,20.5,0.0,0.03423010336699388,0.08725737834956068
1648638640955779547,52718,1,2,0.212112590671,-0.081803791225,-0.129772990942,0.0,20.5,0.07094066577625417,-0.0273591275,-0.043402338107692305,20.5,0.0,0.10398883583884212,0.26177211569985637
1648638640955785379,52719,1,3,0.258973032236,1.01436698437,0.019671054557,0.0,20.5,0.08661305425953177,0.3392531720301003,0.006578948012374581,20.5,0.0,0.36068872600736224,1.0470885162166477
1648638640955789253,52720,1,4,1.18705320358,0.633979380131,-0.134916096926,0.0,20.5,0.39700776039464886,0.21203323750200667,-0.04512244044347826,20.5,0.0,0.6001569939880166,1.3524893773226367
1648638640955801984,52721,1,5,2.39307379723,1.8133174181,0.558608531952,0.0,20.5,0.8003591295083612,0.6064606749498327,0.18682559597056855,20.5,0.0,1.2841121534489774,3.054008145002765
1648638640955805533,52722,1,6,3.83027505875,-1.00345981121,0.658002495766,0.0,20.5,1.2810284477424747,-0.3356052880301003,0.22006772433645483,20.5,0.0,1.8424708076940475,4.013839297085798
1648638640955809257,52723,1,7,1.53673398495,0.29449364543,-0.136416479945,0.121715031564,20.5,0.5139578544983276,0.09849285800334448,-0.045624240784280935,20.5,0.01644797723837838,0.7334890561410683,1.570632771751418
1648638640955815474,52724,1,8,1.51979422569,0.50309330225,0.798024713993,0.243430063128,20.5,0.508292383173913,0.16825862951505016,0.2668978976565217,20.5,0.03289595447675676,0.7382636791766982,1.7887763424623788
1648638640955820948,52725,1,9,1.42095017433,0.429469913244,0.358046889305,0.365145087242,20.5,0.47523417201672236,0.1436354224896321,0.11974812351337792,20.5,0.04934393070837838,0.6872599006915902,1.5270040534495162
1648638640955825678,52726,1,10,1.62472391129,0.265862315893,0.429832458496,0.365145087242,20.5,0.5433859235083612,0.08891716250602007,0.14375667508227424,20.5,0.04934393070837838,0.7735908385717809,1.701518880678725
1648638641055569476,52727,2,0,0.0272205770016,0.081803791225,0.013454740867,0.0,20.8999996185,0.009103871906889632,0.0273591275,0.0044999133334448155,20.8999996185,0.0,0.03023711006289068,0.0872573786156881
1648638641055584366,52728,2,1,0.0696186125278,0.0272679310292,-0.0449839867651,0.0,20.8999996185,0.023283816898929763,0.00911970937431438,-0.015044811627123745,20.8999996185,0.0,0.0341678409888265,0.08725737984945371
1648638641055589069,52729,2,2,0.213849455118,-0.081803791225,-0.12689049542,0.0,20.8999996185,0.07152155689565216,-0.0273591275,-0.042438292782608696,20.8999996185,0.0,0.10478162080783669,0.2617721290377987
1648638641055591890,52730,2,3,0.259281992912,1.01436698437,0.0150609789416,0.0,20.8999996185,0.08671638558929765,0.3392531720301003,0.005037116702876254,20.8999996185,0.0,0.3607383785956636,1.047088517707546
1648638641055596177,52731,2,4,1.1864669323,0.633979380131,-0.139977574348,0.0,20.8999996185,0.39681168304347825,0.21203323750200667,-0.04681524225685619,20.8999996185,0.0,0.5998975890976542,1.3524893186983067
1648638641055770853,52732,2,5,3.81618905067,-1.12889230251,0.522693574429,0.0,20.8999996185,1.276317408250836,-0.3775559540167224,0.17481390449130432,20.8999996185,0.0,1.844050094661677,4.013839218736756
1648638641055779521,52733,2,6,1.42489409447,0.477188795805,0.271494805813,0.243430063128,20.8999996185,0.47655320885284275,0.15959491498494982,0.09080093839899665,20.8999996185,0.03289595447675676,0.692586787792646,1.5270041770999665
1648638641055785545,52734,2,7,1.64707708359,0.218143448234,0.53393882513,0.243430063128,20.8999996185,0.5508619008662207,0.07295767499464882,0.17857485790301003,20.8999996185,0.03289595447675676,0.782445199354253,1.7451476018595
1648638641055988822,52735,2,8,1.53025627136,0.515363872051,0.866270005703,0.243430063128,20.8999996185,0.5117913951036789,0.17236249901371237,0.2897224099341137,20.8999996185,0.03289595447675676,0.7440226443264962,1.8324049496311359
1648638641055994016,52736,2,9,3.05104374886,-2.9694776535,0.727439522743,0.243430063128,20.8999996185,1.0204159695183945,-0.9931363389632105,0.2432908102819398,20.8999996185,0.03289595447675676,1.751804010003853,4.319239950655915
1648638641155574743,52737,3,0,0.0271857883781,0.081803791225,0.0135248908773,0.0,12.3000001907,0.009092236915752509,0.0273591275,0.00452337487535117,12.3000001907,0.0,0.030230107539100843,0.08725737803627323
1648638641155581690,52738,3,1,0.0697196349502,0.0272679310292,-0.0448272526264,0.0,12.3000001907,0.02331760366227425,0.00911970937431438,-0.014992392182742474,12.3000001907,0.0,0.03421389162567989,0.08725737870365717
1648638641155585115,52739,3,2,0.214228361845,-0.081803791225,-0.126249745488,0.0,12.3000001907,0.0716482815535117,-0.0273591275,-0.042223995146488294,12.3000001907,0.0,0.10495462999174371,0.2617721328051564
1648638641155590298,52740,3,3,0.259363591671,1.01436698437,0.0135834533721,0.0,12.3000001907,0.08674367614414714,0.3392531720301003,0.004542960994013378,12.3000001907,0.0,0.3607515009455764,1.0470885167309787
1648638641155595393,52741,3,4,1.18706822395,0.633979380131,-0.134783342481,0.0,12.3000001907,0.3970127839297658,0.21203323750200667,-0.045078040963545146,12.3000001907,0.0,0.6001636401956622,1.3524893242290101
1648638641155601409,52742,3,5,3.81700658798,-1.12889230251,0.5166888237,0.0,12.3000001907,1.2765908321003343,-0.3775559540167224,0.17280562665551838,12.3000001907,0.0,1.8444285845807977,4.013839117837876
1648638641155721812,52743,3,6,1.45439970493,0.490822762251,0.332719296217,0.121715031564,12.3000001907,0.48642130599665545,0.16415476998361203,0.11127735659431438,12.3000001907,0.01644797723837838,0.7072186100233481,1.5706328710807338
1648638641155724761,52744,3,7,1.65853071213,0.218143448234,0.497221380472,0.121715031564,12.3000001907,0.5546925458628762,0.07295767499464882,0.16629477607759197,12.3000001907,0.01644797723837838,0.7878391099788731,1.7451474975727255
1648638641255559964,52745,4,0,0.0272163935006,0.081803791225,0.013463197276,0.0,13.6999998093,0.009102472742675585,0.0273591275,0.004502741563879599,13.6999998093,0.0,0.030236267587510867,0.08725737799667936
1648638641255581163,52746,4,1,0.0697720870376,0.0272679310292,-0.0447455607355,0.0,13.6999998093,0.023335146166421405,0.00911970937431438,-0.014965070480100333,13.6999998093,0.0,0.03423780355525834,0.08725737446044292
1648638641255588269,52747,4,2,0.213001742959,-0.081803791225,-0.128308385611,0.0,13.6999998093,0.07123804112341137,-0.0273591275,-0.04291250354882943,13.6999998093,0.0,0.104394630435492,0.2617721233830225
1648638641255592873,52748,4,3,0.258927226067,1.01436698437,0.0202650856227,0.0,13.6999998093,0.08659773447056857,0.3392531720301003,0.006777620609598662,13.6999998093,0.0,0.3606813690272274,1.0470885163509027
1648638641255616482,52749,4,4,1.18708503246,0.633979380131,-0.134634971619,0.0,13.6999998093,0.39701840550501666,0.21203323750200667,-0.04502841860167224,13.6999998093,0.0,0.6001710776312651,1.352489299146095
1648638641255623487,52750,4,5,3.81835961342,-1.00345981121,0.723950028419,0.0,13.6999998093,1.2770433489698996,-0.3356052880301003,0.24212375532408026,13.6999998093,0.0,1.836929595724964,4.013839231179845
1648638641255781464,52751,4,6,1.4636452198,0.441740483046,0.359854668379,0.121715031564,13.6999998093,0.4895134514381271,0.14773929198862876,0.12035273189933109,13.6999998093,0.01644797723837838,0.7078656204923618,1.5706327916350353
1648638641355698605,52752,5,0,0.0272205770016,0.081803791225,0.013454740867,0.0,25.8999996185,0.009103871906889632,0.0273591275,0.0044999133334448155,25.8999996185,0.0,0.03023711006289068,0.0872573786156881
1648638641355710993,52753,5,1,0.0697446167469,0.0272679310292,-0.0447883680463,0.0,25.8999996185,0.02332595877822742,0.00911970937431438,-0.014979387306454848,25.8999996185,0.0,0.03422528020219977,0.0872573752758814
1648638641355721066,52754,5,2,0.212682873011,-0.081803791225,-0.128836259246,0.0,25.8999996185,0.07113139565585284,-0.0273591275,-0.043089049915050165,25.8999996185,0.0,0.1042490899406811,0.2617721269109816
1648638641355738318,52755,5,3,0.259030848742,1.01436698437,0.0188945326954,0.0,25.8999996185,0.08663239088361203,0.3392531720301003,0.006319241704147157,25.8999996185,0.0,0.36069801362484205,1.0470885172446818
1648638641355751776,52756,5,4,1.16848123074,0.676244676113,-0.0810691490769,0.0,25.8999996185,0.3907963982408027,0.22616878799765885,-0.027113427784916384,25.8999996185,0.0,0.5971565711103731,1.3524893550394008
1648638641355755491,52757,5,5,3.84061789513,-1.00345981121,0.594665467739,0.0,25.8999996185,1.2844875903444815,-0.3356052880301003,0.19888477181906353,25.8999996185,0.0,1.847281150461865,4.013839113321266
1648638641355760344,52758,5,6,1.45081758499,0.441740483046,0.408511072397,0.121715031564,25.8999996185,0.48522327257190634,0.14773929198862876,0.1366257767214047,25.8999996185,0.01644797723837838,0.7019331498711842,1.5706328710264776
1648638641355765931,52759,5,7,1.58143734932,0.458101242781,0.804305434227,0.121715031564,25.8999996185,0.5289088124816054,0.15321111798695652,0.2689984729856187,25.8999996185,0.01644797723837838,0.7635199476871689,1.832404996170019
1648638641455751698,52760,6,0,0.0271325409412,0.081803791225,0.0136313959956,0.0,12.6000003815,0.009074428408428092,0.0273591275,0.00455899531625418,12.6000003815,0.0,0.03021940369101664,0.08725737787429863
1648638641455756795,52761,6,1,0.0697649270296,0.0272679310292,-0.0447567328811,0.0,12.6000003815,0.023332751514916383,0.00911970937431438,-0.014968806983645484,12.6000003815,0.0,0.034234539365757835,0.08725737931114341
1648638641455767131,52762,6,2,0.213497892022,-0.081803791225,-0.127481117845,0.0,12.6000003815,0.07140397726488294,-0.0273591275,-0.04263582536622073,12.6000003815,0.0,0.10462111544066569,0.26177212526094473
1648638641455985307,52763,6,3,0.259154886007,1.01436698437,0.0171093195677,0.0,12.6000003815,0.08667387491872909,0.3392531720301003,0.005722180457424749,12.6000003815,0.0,0.36071794510301236,1.0470885171451643
1648638641455990707,52764,6,4,1.16849660873,0.676244676113,-0.0808481499553,0.0,12.6000003815,0.3908015413812709,0.22616878799765885,-0.027039515035217388,12.6000003815,0.0,0.5971633027541832,1.3524894121344837
1648638641455997244,52765,6,5,1.5328412056,0.454011052847,0.223856911063,0.0,12.6000003815,0.5126559216053511,0.15184316148729096,0.07486853212809365,12.6000003815,0.0,0.7407351305321757,1.6142614764415246
1648638641456002088,52766,6,6,1.63762962818,-2.1132645607,0.411329478025,0.0,12.6000003815,0.5477022167826087,-0.7067774450501672,0.13756838729933107,12.6000003815,0.0,1.0485655884916354,2.70497871379718
1648638641456008567,52767,6,7,3.815928936,-1.12889230251,0.524588406086,0.0,12.6000003815,1.2762304133779263,-0.3775559540167224,0.1754476274535117,12.6000003815,0.0,1.8439296717811835,4.013839118732622
1648638641456019355,52768,6,8,1.55741262436,0.458101242781,0.849892258644,0.121715031564,12.6000003815,0.5208737874113711,0.15321111798695652,0.2842449025565217,12.6000003815,0.01644797723837838,0.7523912888247348,1.832404890425803
1648638641555691472,52769,7,0,0.0272313263267,0.081803791225,0.0134329693392,0.0,11.8999996185,0.009107466998896321,0.0273591275,0.004492631886020066,11.8999996185,0.0,0.030239275253107958,0.08725737824139858
1648638641555704644,52770,7,1,0.0697268545628,0.0272679310292,-0.0448160134256,0.0,11.8999996185,0.023320018248428095,0.00911970937431438,-0.01498863325270903,11.8999996185,0.0,0.03421718283678533,0.08725737429695345
1648638641555709034,52771,7,2,0.213038414717,-0.081803791225,-0.128247499466,0.0,11.8999996185,0.07125030592541805,-0.0273591275,-0.042892140289632105,11.8999996185,0.0,0.10441136933539652,0.26177212900382946
1648638641555711506,52772,7,3,0.259278565645,1.01436698437,0.0151197705418,0.0,11.8999996185,0.08671523934615384,0.3392531720301003,0.00505677944541806,11.8999996185,0.0,0.3607378275177228,1.047088516336634
1648638641555714686,52773,7,4,0.797626078129,0.392658174038,-0.553178608418,0.0,11.8999996185,0.2667645746250836,0.13132380402608695,-0.1850095680327759,11.8999996185,0.0,0.39946541534116026,1.0470885229824558
1648638641555771672,52774,7,5,1.16877889633,0.676244676113,-0.0766584649682,0.0,11.8999996185,0.3908959519498328,0.22616878799765885,-0.0256382825980602,11.8999996185,0.0,0.5972868750992791,1.3524893680649879
1648638641555782248,52775,7,6,1.46513843536,0.441740483046,0.353726059198,0.0,11.8999996185,0.4900128546354515,0.14773929198862876,0.11830302983210701,11.8999996185,0.0,0.7085563448401754,1.5706328068923716
1648638641555788048,52776,7,7,1.63835024834,-2.1132645607,0.408449918032,0.0,11.8999996185,0.5479432268695652,-0.7067774450501672,0.13660532375652173,11.8999996185,0.0,1.0488173895278938,2.704978738416746
1648638641555868804,52777,7,8,3.83613967896,-1.00345981121,0.622901260853,0.0,11.8999996185,1.2829898591839464,-0.3356052880301003,0.20832818088729096,11.8999996185,0.0,1.8451983272514236,4.013839210777781
1648638641555874720,52778,7,9,1.683167696,0.286313265562,0.665341615677,0.121715031564,11.8999996185,0.562932339799331,0.09575694500401337,0.22252227949063544,11.8999996185,0.01644797723837838,0.8018447673336782,1.8324050437734571
1648638641655849075,52779,8,0,0.0271857883781,0.081803791225,0.0135248908773,0.0,13.1999998093,0.009092236915752509,0.0273591275,0.00452337487535117,13.1999998093,0.0,0.030230107539100843,0.08725737803627323
1648638641655869852,52780,8,1,0.0697437748313,0.0272679310292,-0.0447896793485,0.0,13.1999998093,0.023325677201103675,0.00911970937431438,-0.014979825869063544,13.1999998093,0.0,0.034224896389209614,0.08725737542737422
1648638641655877630,52781,8,2,0.213619917631,-0.081803791225,-0.127276539803,0.0,13.1999998093,0.07144478850535116,-0.0273591275,-0.04256740461638796,13.1999998093,0.0,0.10467682392349308,0.26177212810320977
1648638641655885760,52782,8,3,0.259573549032,1.01436698437,0.00869227666408,0.0,13.1999998093,0.0868138959973244,0.3392531720301003,0.0029071159411638795,13.1999998093,0.0,0.3607852821401579,1.0470885167981554
1648638641656009604,52783,8,4,1.16863107681,0.676244676113,-0.0788785889745,0.0,13.1999998093,0.3908465139832775,0.22616878799765885,-0.026380798988127088,13.1999998093,0.0,0.597222166073975,1.35248929291728
1648638641656012472,52784,8,5,1.52708852291,0.403565376997,0.333130419254,0.0,13.1999998093,0.5107319474615384,0.13497169799230768,0.11141485593779263,13.1999998093,0.0,0.7347867742240859,1.6142615173962742
1648638641656014981,52785,8,6,2.46597647667,1.71787965298,0.542968630791,0.0,13.1999998093,0.8247412965451504,0.5745416899598662,0.18159485979632106,13.1999998093,0.0,1.3001902037609305,3.0540080909577703
1648638641656017100,52786,8,7,3.84461855888,-1.00345981121,0.568225800991,0.0,13.1999998093,1.2858256049765886,-0.3356052880301003,0.19004207391003342,13.1999998093,0.0,1.8491419313239823,4.013839062158572
1648638641656018736,52787,8,8,1.67133569717,0.319034785032,0.00450868485495,0.243430063128,13.1999998093,0.5589751495551839,0.10670059700066889,0.0015079213561705685,13.1999998093,0.03289595447675676,0.7976787906424362,1.7015188905605092
1648638641656161624,52788,8,9,2.61891078949,-3.65117573738,-0.0636799484491,0.365145087242,13.1999998093,0.8758898961505016,-1.2211290091571905,-0.02129764162177257,13.1999998093,0.04934393070837838,1.7394028507974495,4.493754902570233
1648638641656165450,52789,8,10,3.09700250626,0.920292675495,0.518279314041,-0.243430063128,13.1999998093,1.0357867913913044,0.30779019247324413,0.1733375632244147,13.1999998093,-0.03289595447675676,1.4968110625673847,3.272151674313597
1648638641656176328,52790,8,11,1.77765452862,-1.32931160927,-2.40413212776,-0.243430063128,13.1999998093,0.5945332871638795,-0.4445858224983277,-0.804057567812709,13.1999998093,-0.03289595447675676,0.9511026299292262,3.272151626283693
1648638641755814042,52791,9,0,0.0271857883781,0.081803791225,0.0135248908773,0.0,17.2000007629,0.009092236915752509,0.0273591275,0.00452337487535117,17.2000007629,0.0,0.030230107539100843,0.08725737803627323
1648638641755906063,52792,9,1,0.0696577429771,0.0272679310292,-0.0449233613908,0.0,17.2000007629,0.023296904005719064,0.00911970937431438,-0.015024535582207356,17.2000007629,0.0,0.034185677872105094,0.087257375722201
1648638641755918758,52793,9,2,0.21313354373,-0.081803791225,-0.12808932364,0.0,17.2000007629,0.07128212164882942,-0.0273591275,-0.042839238675585284,17.2000007629,0.0,0.10445479209245638,0.2617721195090185
1648638641755936977,52794,9,3,0.36374181509,0.981645464897,0.021409586072,0.0,17.2000007629,0.12165278096655517,0.32830952003244146,0.007160396679598662,17.2000007629,0.0,0.37065609286470036,1.0470884858375578
1648638641755955258,52795,9,4,1.16901886463,0.676244676113,-0.0729075148702,0.0,17.2000007629,0.3909762089063545,0.22616878799765885,-0.02438378423752508,17.2000007629,0.0,0.5973919253939584,1.3524893617165863
1648638641755995994,52796,9,5,1.65503394604,0.58626049757,0.660805523396,0.0,17.2000007629,0.5535230588762542,0.19607374500668895,0.22100519177123742,17.2000007629,0.0,0.8069823213035081,1.8760337612384324
1648638641756108990,52797,9,6,1.64341986179,-2.1132645607,0.387548148632,0.0,17.2000007629,0.5496387497625418,-0.7067774450501672,0.12961476542876252,17.2000007629,0.0,1.0505902471052653,2.7049786529923887
1648638641756113711,52798,9,7,2.44833254814,1.71787965298,0.617675364017,0.0,17.2000007629,0.8188403171036788,0.5745416899598662,0.20658038930334446,17.2000007629,0.0,1.2927092029264917,3.054008124369993
1648638641756116202,52799,9,8,3.84288954735,-1.00345981121,0.579805135727,0.0,17.2000007629,1.285247340250836,-0.3356052880301003,0.193914761112709,17.2000007629,0.0,1.8483377290412764,4.013839266993747
1648638641756266080,52800,9,9,1.51715314388,0.353119701147,0.423548310995,0.121715031564,17.2000007629,0.5074090782207358,0.1181002344973244,0.14165495351003343,17.2000007629,0.01644797723837838,0.7272383451867459,1.6142615516296708
1648638641756269131,52801,9,10,3.27985835075,-1.40702521801,-4.35181903839,0.243430063128,17.2000007629,1.0969425922240803,-0.47057699598996655,-1.4554578723712375,17.2000007629,0.03289595447675676,1.621113447734461,5.628100897105014
1648638641756272680,52802,9,11,5.11709594727,2.11053776741,-1.01807463169,0.243430063128,17.2000007629,1.7114033268461537,0.7058654740501671,-0.34049318785618726,17.2000007629,0.03289595447675676,2.521120536931194,5.628100617163998
1648638641756285312,52803,9,12,1.72991418839,-1.41247880459,-2.33145046234,-0.243430063128,17.2000007629,0.5785666181906354,-0.4724009379899666,-0.7797493185083612,17.2000007629,-0.03289595447675676,0.9447969673865899,3.228522995264929
1648638641756287369,52804,9,13,1.72026884556,-2.62317490578,0.763537287712,-0.243430063128,17.2000007629,0.5753407510234113,-0.8773160219999999,0.2553636413752508,17.2000007629,-0.03289595447675676,1.1965439239886977,3.228522986915974
1648638641855956891,52805,10,0,0.0272279679775,0.081803791225,0.0134397726506,0.0,25.5,0.009106343805183945,0.0273591275,0.004494907241003344,25.5,0.0,0.03023859872014046,0.08725737784203104
1648638641855971462,52806,10,1,0.0697623416781,0.0272679310292,-0.0447607561946,0.0,25.5,0.023331886848862875,0.00911970937431438,-0.014970152573444815,25.5,0.0,0.03423336073084614,0.08725737604430699
1648638641855979068,52807,10,2,0.213540151715,-0.081803791225,-0.127410337329,0.0,25.5,0.07141811094147156,-0.0273591275,-0.042612152952842805,25.5,0.0,0.10464040805758518,0.2617721350937456
1648638641855988652,52808,10,3,0.259656757116,1.01436698437,0.00568704586476,0.0,25.5,0.08684172478795986,0.3392531720301003,0.0019020220283478258,25.5,0.0,0.36079867663390947,1.0470885124890603
1648638641856325389,52809,10,4,1.16892766953,0.676244676113,-0.0743554979563,0.0,25.5,0.39094570887290964,0.22616878799765885,-0.02486805951715719,25.5,0.0,0.597352002789489,1.3524893709897843
1648638641856335170,52810,10,5,2.45035123825,1.71787965298,0.609617829323,0.0,25.5,0.8195154642976589,0.5745416899598662,0.20388556164648827,25.5,0.0,1.2935645890128387,3.054008118971605
1648638641856340357,52811,10,6,3.83663129807,-1.00345981121,0.61986553669,0.0,25.5,1.2831542802909697,-0.3356052880301003,0.2073128885250836,25.5,0.0,1.845426975908784,4.013839133998756
1648638641856407126,52812,10,7,1.54356324673,0.302674025297,0.362823665142,0.121715031564,25.5,0.5162418885384615,0.10122877100234112,0.12134570740535115,25.5,0.01644797723837838,0.7370608109526371,1.6142614640237876
1648638641856571818,52813,10,8,1.70411062241,0.171787962317,0.651309430599,0.121715031564,25.5,0.5699366630133779,0.05745416799899665,0.21782924100301004,25.5,0.01644797723837838,0.808057288262476,1.8324050021201148
1648638641856575060,52814,10,9,1.91057884693,0.71987336874,-0.465883970261,-0.243430063128,25.5,0.6389895809130435,0.24076032399331102,-0.15581403687658862,25.5,-0.03289595447675676,0.9351903029010822,2.0941769435994653
1648638641955812051,52815,11,0,0.0272387135774,0.081803791225,0.0134179806337,0.0,14.3999996185,0.009109937651304348,0.0273591275,0.004487618941036789,14.3999996185,0.0,0.030240763640863328,0.08725737779936646
1648638641955818715,52816,11,1,0.0697196349502,0.0272679310292,-0.0448272526264,0.0,14.3999996185,0.02331760366227425,0.00911970937431438,-0.014992392182742474,14.3999996185,0.0,0.03421389162567989,0.08725737870365717
1648638641955825382,52817,11,2,0.212820261717,-0.081803791225,-0.128609165549,0.0,14.3999996185,0.07117734505585284,-0.0273591275,-0.0430130988458194,14.3999996185,0.0,0.10431179586202671,0.26177211753600854
1648638641955899295,52818,11,3,0.259596675634,1.01436698437,0.00797179993242,0.0,14.3999996185,0.08682163064682275,0.3392531720301003,0.0026661538235518392,14.3999996185,0.0,0.36078900458416335,1.047088517067337
1648638641955906121,52819,11,4,0.803640007973,0.392658174038,-0.544404864311,0.0,14.3999996185,0.2687759223989966,0.13132380402608695,-0.18207520545518394,14.3999996185,0.0,0.40215287444794545,1.0470885160000458
1648638641955915836,52820,11,5,1.14577138424,0.718509972095,-0.0133788073435,0.0,14.3999996185,0.38320113185284277,0.240304338493311,-0.004474517506187291,14.3999996185,0.0,0.5928173327470337,1.352489422298429
1648638641955922168,52821,11,6,1.55467128754,0.252228349447,0.35386171937,0.0,14.3999996185,0.519956952354515,0.08435730750735786,0.11834840112709029,14.3999996185,0.0,0.7401531057379154,1.614261462403638
1648638641956038693,52822,11,7,2.4535639286,1.71787965298,0.596556603909,0.0,14.3999996185,0.8205899426755852,0.5745416899598662,0.19951725883244145,14.3999996185,0.0,1.2949261992648768,3.054008224533325
1648638641956042451,52823,11,8,3.8024623394,-1.12889230251,0.614643394947,0.0,14.3999996185,1.2717265349163878,-0.3775559540167224,0.20556635282508362,14.3999996185,0.0,1.8376956379211336,4.013839081997885
1648638641956048489,52824,11,9,1.73747169971,-0.0,0.582151174545,0.243430063128,14.3999996185,0.5810942139498327,-0.0,0.1946993894799331,14.3999996185,0.03289595447675676,0.8217913183843865,1.8324049490539145
1648638641956053052,52825,11,10,1.64440202713,0.42537972331,-0.100800730288,-0.243430063128,14.3999996185,0.5499672331538461,0.14226746598996656,-0.03371261882541806,14.3999996185,-0.03289595447675676,0.7906756268944933,1.7015189458419613
1648638641956146464,52826,11,11,1.2131677866,-1.49291920662,-2.5383002758,-0.121715031564,14.3999996185,0.4057417346488294,-0.49930408248160535,-0.8489298581270903,14.3999996185,-0.01644797723837838,0.7606295269409937,3.184894366547373
1648638641956151668,52827,11,12,2.94517374039,1.19433534145,0.207525864244,-0.121715031564,14.3999996185,0.9850079399297659,0.3994432580100334,0.06940664355986621,14.3999996185,-0.01644797723837838,1.4491501646893026,3.184894386514179
1648638642055629006,52828,12,0,0.0271815750748,0.081803791225,0.0135333584622,0.0,12.8999996185,0.009090827784214045,0.0273591275,0.00452620684354515,12.8999996185,0.0,0.030229259950679117,0.08725737833327779
1648638642055655253,52829,12,1,0.069765791297,0.0272679310292,-0.044755384326,0.0,12.8999996185,0.023333040567558527,0.00911970937431438,-0.014968355961872909,12.8999996185,0.0,0.03423493337698529,0.0872573786225425
1648638642055685698,52830,12,2,0.213540151715,-0.081803791225,-0.127410337329,0.0,12.8999996185,0.07141811094147156,-0.0273591275,-0.042612152952842805,12.8999996185,0.0,0.10464040805758518,0.2617721350937456
1648638642055778053,52831,12,3,0.259656757116,1.01436698437,0.00568704586476,0.0,12.8999996185,0.08684172478795986,0.3392531720301003,0.0019020220283478258,12.8999996185,0.0,0.36079867663390947,1.0470885124890603
1648638642055831050,52832,12,4,1.1694072485,0.676244676113,-0.0663865283132,0.0,12.8999996185,0.39110610317725747,0.22616878799765885,-0.022202852278662203,12.8999996185,0.0,0.597561953733108,1.3524893145444796
1648638642055842416,52833,12,5,1.56905162334,0.252228349447,0.283369451761,0.0,12.8999996185,0.5247664292107023,0.08435730750735786,0.09477239189331102,12.8999996185,0.0,0.746910815146623,1.6142615597114294
1648638642055846156,52834,12,6,2.43345284462,1.71787965298,0.67391628027,0.0,12.8999996185,0.813863827632107,0.5745416899598662,0.22539006029096986,12.8999996185,0.0,1.2864084939699003,3.0540082517774585
1648638642055849773,52835,12,7,3.84077501297,-1.00345981121,0.593649446964,0.0,12.8999996185,1.2845401381170567,-0.3356052880301003,0.19854496553979933,12.8999996185,0.0,1.8473542275972252,4.013839054925967
1648638642055856583,52836,12,8,4.12666463852,-1.74514758587,-3.33338069916,0.121715031564,12.8999996185,1.3801553974983278,-0.5836613999565218,-1.1148430431973244,12.8999996185,0.01644797723837838,2.0372330431952896,5.584472044948538
1648638642055860622,52837,12,9,1.07013607025,2.79223608971,-4.71641349792,0.121715031564,12.8999996185,0.3579050402173913,0.9338582239832774,-1.577395818702341,12.8999996185,0.01644797723837838,1.0622067680669456,5.58447221077257
1648638642155793430,52838,13,0,0.0272583961487,0.081803791225,0.0133779542521,0.0,11.3999996185,0.009116520451070234,0.0273591275,0.004474232191337792,11.3999996185,0.0,0.03024473091020682,0.08725737836626844
1648638642155814941,52839,13,1,0.0697615295649,0.0272679310292,-0.0447620302439,0.0,11.3999996185,0.02333161523909699,0.00911970937431438,-0.014970578676889631,11.3999996185,0.0,0.03423299049750815,0.08725738032627064
1648638642155857463,52840,13,2,0.212435573339,-0.081803791225,-0.129243612289,0.0,11.3999996185,0.0710486867354515,-0.0273591275,-0.043225288390969896,11.3999996185,0.0,0.10413622631546575,0.2617721230310103
1648638642155868532,52841,13,3,0.363342940807,0.981645464897,0.027356762439,0.0,11.3999996185,0.12151937819632107,0.32830952003244146,0.009149418875919732,11.3999996185,0.0,0.3705685624798373,1.0470884890200398
1648638642155871982,52842,13,4,1.14576232433,0.718509972095,-0.0141301350668,0.0,11.3999996185,0.38319810178260866,0.240304338493311,-0.004725797681204013,11.3999996185,0.0,0.5928134154338082,1.3524893879698456
1648638642155892040,52843,13,5,1.55510425568,0.252228349447,0.351954400539,0.0,11.3999996185,0.5201017577525083,0.08435730750735786,0.11771050185250835,11.3999996185,0.0,0.7403565574534939,1.6142615297273153
1648638642155934586,52844,13,6,1.8048350811,-0.0,0.511930406094,0.0,11.3999996185,0.6036237729431437,-0.0,0.17121418264013377,11.3999996185,0.0,0.8536529262670116,1.876033691236064
1648638642155940999,52845,13,7,0.791360139847,1.58290338516,0.622630298138,0.0,11.3999996185,0.26466894309264216,0.5293991254715719,0.2082375579056856,11.3999996185,0.0,0.6483538639706079,1.8760337112773495
1648638642155955725,52846,13,8,3.8401696682,-1.00345981121,0.597554028034,0.0,11.3999996185,1.2843376816722407,-0.3356052880301003,0.19985084549632107,11.3999996185,0.0,1.8470726760147307,4.0138392456221474
1648638642255704292,52847,14,0,0.0271731633693,0.081803791225,0.0135502405465,0.0,16.1000003815,0.009088014504782608,0.0273591275,0.004531853025585284,16.1000003815,0.0,0.030227568093373545,0.08725737839945724
1648638642255708770,52848,14,1,0.0697437748313,0.0272679310292,-0.0447896793485,0.0,16.1000003815,0.023325677201103675,0.00911970937431438,-0.014979825869063544,16.1000003815,0.0,0.034224896389209614,0.08725737542737422
1648638642255722537,52849,14,2,0.212682873011,-0.081803791225,-0.128836259246,0.0,16.1000003815,0.07113139565585284,-0.0273591275,-0.043089049915050165,16.1000003815,0.0,0.1042490899406811,0.2617721269109816
1648638642255813780,52850,14,3,0.259176284075,1.01436698437,0.0167817845941,0.0,16.1000003815,0.0866810314632107,0.3392531720301003,0.00561263698799331,16.1000003815,0.0,0.36072138440011714,1.0470885127347047
1648638642255990161,52851,14,4,1.14577353001,0.718509972095,-0.0131901688874,0.0,16.1000003815,0.38320184950167224,0.240304338493311,-0.004411427721538461,16.1000003815,0.0,0.5928182605332871,1.3524893872510837
1648638642255993979,52852,14,5,1.62033355236,0.25904533267,0.236674323678,0.0,16.1000003815,0.5419175760401337,0.08663723500668896,0.07915529219999999,16.1000003815,0.0,0.7712686490011327,1.6578902378535578
1648638642255995868,52853,14,6,3.83593821526,-1.00345981121,0.62414008379,0.0,16.1000003815,1.282922480020067,-0.3356052880301003,0.20874250293979932,16.1000003815,0.0,1.8451046281540362,4.013839113392447
1648638642355745467,52854,15,0,0.0272131673992,0.081803791225,0.013469719328,0.0,15.6999998093,0.009101393778996655,0.0273591275,0.004504922852173913,15.6999998093,0.0,0.03023561798610993,0.08725737835538819
1648638642355758195,52855,15,1,0.0697543472052,0.0272679310292,-0.0447732210159,0.0,15.6999998093,0.023329213112107023,0.00911970937431438,-0.014974321409999998,15.6999998093,0.0,0.03422971615325155,0.08725737984133738
1648638642355777366,52856,15,2,0.213540151715,-0.081803791225,-0.127410337329,0.0,15.6999998093,0.07141811094147156,-0.0273591275,-0.042612152952842805,15.6999998093,0.0,0.10464040805758518,0.2617721350937456
1648638642355785170,52857,15,3,0.259302347898,1.01436698437,0.0147062335163,0.0,15.6999998093,0.08672319327692307,0.3392531720301003,0.0049184727479264214,15.6999998093,0.0,0.36074165165222877,1.0470885157948868
1648638642355789798,52858,15,4,1.14579999447,0.718509972095,-0.0106372637674,0.0,15.6999998093,0.38321070049163874,0.240304338493311,-0.003557613300133779,15.6999998093,0.0,0.5928297032380317,1.3524893192583323
1648638642355795585,52859,15,5,1.61139452457,0.25904533267,0.291381090879,0.0,15.6999998093,0.538927934638796,0.08663723500668896,0.09745186985919732,15.6999998093,0.0,0.7670675641413088,1.657890146636418
1648638642355799627,52860,15,6,1.63949251175,-2.1132645607,0.4038400352,0.0,15.6999998093,0.5483252547658863,-0.7067774450501672,0.13506355692307692,15.6999998093,0.0,1.0492166253256714,2.704978664171905
1648638642355803242,52861,15,7,2.4393928051,1.71787965298,0.652087271214,0.0,15.6999998093,0.8158504364882941,0.5745416899598662,0.2180893883658863,15.6999998093,0.0,1.2889228149653567,3.054008115407628
1648638642355806362,52862,15,8,3.84393262863,-1.00345981121,0.572848796844,0.0,15.6999998093,1.2855961968662206,-0.3356052880301003,0.19158822636923076,15.6999998093,0.0,1.8488228882582416,4.013839233228651
1648638642355810819,52863,15,9,1.71890568733,0.41038236022,0.629644274712,-0.121715031564,15.6999998093,0.5748848452608695,0.1372516254916388,0.2105833694688963,15.6999998093,-0.01644797723837838,0.8245139048683926,1.876033676721385
1648638642455752062,52864,16,0,0.0271857883781,0.081803791225,0.0135248908773,0.0,12.6999998093,0.009092236915752509,0.0273591275,0.00452337487535117,12.6999998093,0.0,0.030230107539100843,0.08725737803627323
1648638642455758496,52865,16,1,0.0697543472052,0.0272679310292,-0.0447732210159,0.0,12.6999998093,0.023329213112107023,0.00911970937431438,-0.014974321409999998,12.6999998093,0.0,0.03422971615325155,0.08725737984133738
1648638642455771798,52866,16,2,0.213160321116,-0.081803791225,-0.128044784069,0.0,12.6999998093,0.07129107729632106,-0.0273591275,-0.04282434249799331,12.6999998093,0.0,0.10446701518518324,0.2617721327497189
1648638642455776307,52867,16,3,0.364100575447,0.981645464897,0.0140445483848,0.0,12.6999998093,0.12177276770802674,0.32830952003244146,0.0046971733728428085,12.6999998093,0.0,0.37073488486312983,1.0470884858181837
1648638642455942141,52868,16,4,1.14577972889,0.718509972095,-0.0126326372847,0.0,12.6999998093,0.3832039227056856,0.240304338493311,-0.004224962302575251,12.6999998093,0.0,0.5928209408014852,1.3524893162831144
1648638642456005313,52869,16,5,2.44097757339,1.71787965298,0.646130383015,0.0,12.6999998093,0.8163804593277592,0.5745416899598662,0.2160971180652174,12.6999998093,0.0,1.2895938361539827,3.0540082658320897
1648638642456447362,52870,16,6,3.8345720768,-1.00345981121,0.632479429245,0.0,12.6999998093,1.2824655775250835,-0.3356052880301003,0.21153158168729094,12.6999998093,0.0,1.8444692527736153,4.013839163856215
1648638642456463642,52871,16,7,1.53651964664,0.252228349447,0.425826489925,-0.121715031564,12.6999998093,0.513886169444816,0.08435730750735786,0.1424168862625418,12.6999998093,-0.01644797723837838,0.7316243200053039,1.6142614299726408
1648638642456467041,52872,16,8,1.63788425922,0.372207254171,0.271962612867,-0.121715031564,12.6999998093,0.5477873776655519,0.12448403149531771,0.09095739560769231,12.6999998093,-0.01644797723837838,0.784626214421065,1.7015189535986983
1648638642555945212,52873,17,0,0.0271932352334,0.081803791225,0.0135099124163,0.0,13.3999996185,0.009094727502809364,0.0273591275,0.004518365356622074,13.3999996185,0.0,0.03023160588294923,0.08725737811061315
1648638642555971594,52874,17,1,0.0696543231606,0.0272679310292,-0.0449286662042,0.0,13.3999996185,0.023295760254381268,0.00911970937431438,-0.01502630976729097,13.3999996185,0.0,0.03418411898427657,0.08725737702030086
1648638642555997634,52875,17,2,0.212618291378,-0.081803791225,-0.12894281745,0.0,13.3999996185,0.07110979644749163,-0.0273591275,-0.04312468811036789,13.3999996185,0.0,0.10421961504039746,0.26177213040968955
1648638642556060745,52876,17,3,0.259511262178,1.01436698437,0.0103868693113,0.0,13.3999996185,0.0867930642735786,0.3392531720301003,0.0034738693348829426,13.3999996185,0.0,0.36077525794388937,1.0470885164259975
1648638642556067832,52877,17,4,1.16872692108,0.676244676113,-0.0774470791221,0.0,13.3999996185,0.3908785689230769,0.22616878799765885,-0.025902033151204013,13.3999996185,0.0,0.5972641224374984,1.3524893818780455
1648638642556069043,52878,17,5,1.64338958263,-2.1132645607,0.387677133083,0.0,13.3999996185,0.5496286229531773,-0.7067774450501672,0.1296579040411371,13.3999996185,0.0,1.0505796510357766,2.7049787399021867
1648638642556111091,52879,17,6,2.46889877319,1.71787965298,0.52952259779,0.0,13.3999996185,0.8257186532408025,0.5745416899598662,0.17709785879264212,13.3999996185,0.0,1.3014302678674523,3.054008159116809
1648638642556271778,52880,17,7,3.81126642227,-1.12889230251,0.557453632355,0.0,13.3999996185,1.2746710442374583,-0.3775559540167224,0.18643934192474915,13.3999996185,0.0,1.8417711694041423,4.013839075550349
1648638642556273737,52881,17,8,1.67864763737,0.515363872051,0.523688971996,-0.243430063128,13.3999996185,0.5614206145050167,0.17236249901371237,0.1751468133765886,13.3999996185,-0.03289595447675676,0.8124623338030096,1.8324049635529558
1648638642556276141,52882,17,9,3.76695632935,-1.70424568653,-3.55628848076,-0.243430063128,13.3999996185,1.259851615167224,-0.5699818349598662,-1.189394140722408,13.3999996185,-0.03289595447675676,1.8706500144770917,5.453586077588985
1648638642556285658,52883,17,10,1.55695223808,0.252228349447,0.343686968088,-0.121715031564,13.3999996185,0.5207198120668897,0.08435730750735786,0.11494547427692306,13.3999996185,-0.01644797723837838,0.7412249325864887,1.6142614856213975
1648638642556289391,52884,17,11,1.73745441437,0.16360758245,0.00496434513479,-0.121715031564,13.3999996185,0.5810884328996655,0.054718255,0.001660316098591973,13.3999996185,-0.01644797723837838,0.8236028297242689,1.7451475375370273
