%time,field.header.seq,field.header.frame_id,field.point_id,field.x,field.y,field.z,field.velocity,field.intensity,normalized_x,normalized_y,normalized_z,normalized_intensity,normalized_velocity,normalized_range,range
1648638825558058648,70794,0,0,0.027257528156,0.081803791225,0.0133797219023,0.0,15.6000003815,0.009116230152508361,0.0273591275,0.004474823378695651,15.6000003815,0.0,0.030244555905952094,0.08725737824471583
1648638825558064458,70795,0,1,0.0697992891073,0.0272679310292,-0.044703129679,0.0,15.6000003815,0.023344243848595316,0.00911970937431438,-0.014950879491304348,15.6000003815,0.0,0.03425020497452998,0.0872573814963247
1648638825558115776,70796,0,2,0.213079467416,-0.081803791225,-0.128179252148,0.0,15.6000003815,0.07126403592508361,-0.0273591275,-0.042869315099665545,15.6000003815,0.0,0.10443010815959386,0.26177211534899997
1648638825558119813,70797,0,3,0.258796572685,1.01436698437,0.0218704305589,0.0,15.6000003815,0.08655403768729096,0.3392531720301003,0.0073145252705351166,15.6000003815,0.0,0.36066039096694663,1.0470885161944152
1648638825558124675,70798,0,4,1.18720591068,0.633979380131,-0.133565112948,0.0,15.6000003815,0.39705883300334444,0.21203323750200667,-0.04467060633712374,15.6000003815,0.0,0.600224564257027,1.3524893227606742
1648638825558133638,70799,0,5,3.86540937424,-1.00345981121,0.403216511011,0.0,15.6000003815,1.2927790549297657,-0.3356052880301003,0.1348550204050167,15.6000003815,0.0,1.85881313721524,4.013839156957832
1648638825558157588,70800,0,6,1.57473218441,0.51809066534,-0.0200136136264,0.121715031564,15.6000003815,0.5266662824113711,0.17327447001337792,-0.006693516263010033,15.6000003815,0.01644797723837838,0.7647083025680088,1.6578902059121772
1648638825558163432,70801,0,7,1.51008784771,0.504456698895,0.266455233097,-0.121715031564,15.6000003815,0.5050461029130434,0.16871461501505017,0.08911546257424748,15.6000003815,-0.01644797723837838,0.733899007667255,1.614261521596249
1648638825558261357,70802,0,8,1.53272306919,0.403565376997,0.306161999702,-0.121715031564,15.6000003815,0.5126164111003344,0.13497169799230768,0.10239531762608695,15.6000003815,-0.01644797723837838,0.7374066239990666,1.6142615000053342
1648638825558266322,70803,0,9,1.65251076221,0.68715184927,0.393368005753,-0.121715031564,15.6000003815,0.5526791846856187,0.22981667199665548,0.13156120593745818,15.6000003815,-0.01644797723837838,0.8146927427546774,1.832404941906987
1648638825558268765,70804,0,10,0.367697656155,1.48882901669,1.00294291973,-0.121715031564,15.6000003815,0.12297580473411371,0.4979361259832776,0.335432414625418,15.6000003815,-0.01644797723837838,0.5274338656734512,1.8324049518369376
1648638825658035383,70805,1,0,0.027257528156,0.081803791225,0.0133797219023,0.0,12.5,0.009116230152508361,0.0273591275,0.004474823378695651,12.5,0.0,0.030244555905952094,0.08725737824471583
1648638825658040344,70806,1,1,0.0697649121284,0.0272679310292,-0.0447567515075,0.0,12.5,0.023332746531237455,0.00911970937431438,-0.0149688132132107,12.5,0.0,0.03423453257244656,0.0872573769511821
1648638825658045586,70807,1,2,0.212402507663,-0.081803791225,-0.129297971725,0.0,12.5,0.07103762798093645,-0.0273591275,-0.04324346880434782,12.5,0.0,0.10412113635509894,0.26177213566862506
1648638825658048211,70808,1,3,0.259005278349,1.01436698437,0.0192416645586,0.0,12.5,0.08662383891270903,0.3392531720301003,0.006435339317257525,12.5,0.0,0.36069390578222243,1.0470885133776975
1648638825658061614,70809,1,4,1.16868078709,0.676244676113,-0.0781397297978,0.0,12.5,0.39086313949498325,0.22616878799765885,-0.02613368889558528,12.5,0.0,0.5972439269645857,1.3524893572436536
1648638825658066607,70810,1,5,3.81312274933,-1.12889230251,0.544611692429,0.0,12.5,1.2752918894080267,-0.3775559540167224,0.18214437873879596,12.5,0.0,1.8426305394172937,4.013839163152242
1648638825658079145,70811,1,6,1.50367498398,0.504456698895,0.300541311502,-0.121715031564,12.5,0.5029013324347826,0.16871461501505017,0.1005154887966555,12.5,-0.01644797723837838,0.7309474137371553,1.6142614715177452
1648638825658263415,70812,1,7,1.56897222996,0.670791089535,0.536736667156,-0.121715031564,12.5,0.5247398762408026,0.22434484599832774,0.17951059102207356,12.5,-0.01644797723837838,0.7752641390909547,1.7887763398633543
1648638825758264433,70813,2,0,0.0271809641272,0.081803791225,0.0135345859453,0.0,11.6999998093,0.009090623453913042,0.0273591275,0.004526617373010033,11.6999998093,0.0,0.030229137055545002,0.08725737840651777
1648638825758272984,70814,2,1,0.0697196349502,0.0272679310292,-0.0448272526264,0.0,11.6999998093,0.02331760366227425,0.00911970937431438,-0.014992392182742474,11.6999998093,0.0,0.03421389162567989,0.08725737870365717
1648638825758278056,70815,2,2,0.212704077363,-0.081803791225,-0.128801241517,0.0,11.6999998093,0.07113848741237458,-0.0273591275,-0.0430773383,11.6999998093,0.0,0.10425876768983225,0.2617721234240748
1648638825758284734,70816,2,3,0.259603530169,1.01436698437,0.00774549692869,0.0,11.6999998093,0.08682392313344481,0.3392531720301003,0.002590467200230769,11.6999998093,0.0,0.36079010794234573,1.047088518024511
1648638825758299567,70817,2,4,0.799598574638,0.392658174038,-0.550323545933,0.0,11.6999998093,0.2674242724541806,0.13132380402608695,-0.18405469763645485,11.6999998093,0.0,0.40034663043315066,1.0470885002760026
1648638825758345265,70818,2,5,1.16842770576,0.676244676113,-0.0818373560905,0.0,11.6999998093,0.390778496909699,0.22616878799765885,-0.02737035320752508,11.6999998093,0.0,0.5971331408976872,1.3524893782986382
1648638825758357046,70819,2,6,1.4877808094,0.454011052847,0.431535184383,0.0,11.6999998093,0.49758555498327756,0.15184316148729096,0.1443261486230769,11.6999998093,0.0,0.7198882654596394,1.6142615612987352
1648638825758369593,70820,2,7,2.39534378052,1.8133174181,0.548793315887,0.0,11.6999998093,0.8011183212441472,0.6064606749498327,0.18354291501237457,11.6999998093,0.0,1.2850586288285402,3.0540081842102103
1648638825758407751,70821,2,8,3.83357453346,-1.00345981121,0.638498723507,0.0,11.6999998093,1.2821319509899665,-0.3356052880301003,0.21354472358093643,11.6999998093,0.0,1.8440053115033161,4.013839298754589
1648638825858169696,70822,3,0,0.0272303409874,0.081803791225,0.0134349670261,0.0,15.3000001907,0.009107137453979933,0.0273591275,0.004493300008729097,15.3000001907,0.0,0.03023907675132666,0.08725737830158467
1648638825858173012,70823,3,1,0.069695264101,0.0272679310292,-0.0448651313782,0.0,15.3000001907,0.02330945287658863,0.00911970937431438,-0.015005060661605351,15.3000001907,0.0,0.03420278184422679,0.08725737742050522
1648638825858292602,70824,3,2,0.21216340363,-0.081803791225,-0.129689916968,0.0,15.3000001907,0.07095766007692307,-0.0273591275,-0.043374554169899666,15.3000001907,0.0,0.10401202288555675,0.26177212353842494
1648638825858299811,70825,3,3,0.362810373306,0.981645464897,0.0336915142834,0.0,15.3000001907,0.12134126197525083,0.32830952003244146,0.01126806497772575,15.3000001907,0.0,0.37045181152131645,1.0470884890332788
1648638825858308797,70826,3,4,0.786348462105,0.392658174038,-0.569095730782,0.0,15.3000001907,0.2629927966906354,0.13132380402608695,-0.19033302032842808,15.3000001907,0.0,0.39443169716213966,1.0470884854147016
1648638825858313924,70827,3,5,1.18748998642,0.633979380131,-0.13101567328,0.0,15.3000001907,0.3971538416120401,0.21203323750200667,-0.043817950929765884,15.3000001907,0.0,0.6003502657782248,1.3524893452164681
1648638825858316689,70828,3,6,1.61395025253,0.531724631786,0.0871792137623,0.0,15.3000001907,0.5397826931538461,0.17783432501204013,0.029156927679698998,15.3000001907,0.0,0.783808496259977,1.7015189440619873
1648638825858322635,70829,3,7,3.81065917015,-1.12889230251,0.561590671539,0.0,15.3000001907,1.274467949882943,-0.3775559540167224,0.18782296706989965,15.3000001907,0.0,1.8414900512821515,4.013839212533836
1648638825858327004,70830,3,8,1.44657993317,0.539905011654,0.287743926048,-0.121715031564,15.3000001907,0.483805997715719,0.1805702380113712,0.09623542677190634,15.3000001907,-0.01644797723837838,0.7076313289467108,1.5706328315799158
1648638825958143461,70831,4,0,0.0272376835346,0.081803791225,0.0134200714529,0.0,17.3999996185,0.009109593155384614,0.0273591275,0.00448831821167224,17.3999996185,0.0,0.030240556087388945,0.08725737780219704
1648638825958171502,70832,4,1,0.0697268545628,0.0272679310292,-0.0448160134256,0.0,17.3999996185,0.023320018248428095,0.00911970937431438,-0.01498863325270903,17.3999996185,0.0,0.03421718283678533,0.08725737429695345
1648638825958179519,70833,4,2,0.212744548917,-0.081803791225,-0.128734394908,0.0,17.3999996185,0.07115202304916388,-0.0273591275,-0.043054981574581944,17.3999996185,0.0,0.10427723924969798,0.2617721295039067
1648638825958186249,70834,4,3,0.25910821557,1.01436698437,0.0178019609302,0.0,17.3999996185,0.08665826607692308,0.3392531720301003,0.005953833087023411,17.3999996185,0.0,0.360710444666359,1.0470885140085902
1648638825958197972,70835,4,4,1.16850161552,0.676244676113,-0.0807755887508,0.0,17.3999996185,0.3908032158929766,0.22616878799765885,-0.02701524707384615,17.3999996185,0.0,0.5971654944560301,1.352489402243901
1648638825958205236,70836,4,5,1.45094871521,0.539905011654,0.26483553648,0.0,17.3999996185,0.4852671288327759,0.1805702380113712,0.0885737580200669,17.3999996185,0.0,0.7096294691645035,1.5706328206049003
1648638825958223956,70837,4,6,1.62145376205,-2.07917976379,0.361500501633,0.0,17.3999996185,0.5422922281103678,-0.6953778474214046,0.12090317780367893,17.3999996185,0.0,1.0352352737528994,2.661349921618886
1648638825958304896,70838,4,7,2.39042973518,1.8133174181,0.569816708565,0.0,17.3999996185,0.7994748278193979,0.6064606749498327,0.1905741500217391,17.3999996185,0.0,1.2830099574416087,3.054008097398798
1648638825958318945,70839,4,8,3.83923816681,-1.00345981121,0.60350894928,0.0,17.3999996185,1.2840261427458193,-0.3356052880301003,0.20184245795317723,17.3999996185,0.0,1.8466394287632821,4.0138391031611205
1648638825958391196,70840,4,9,1.81868577003,0.41038236022,0.208496183157,-0.243430063128,17.3999996185,0.6082561103779264,0.1372516254916388,0.0697311649354515,17.3999996185,-0.03289595447675676,0.8710849558592235,1.8760336537707392
1648638826058131722,70841,5,0,0.0271735358983,0.081803791225,0.0135494917631,0.0,25.1000003815,0.009088139096421404,0.0273591275,0.004531602596354514,25.1000003815,0.0,0.030227643011539337,0.0872573781352494
1648638826058156979,70842,5,1,0.0697480216622,0.0272679310292,-0.0447830706835,0.0,25.1000003815,0.023327097545886286,0.00911970937431438,-0.014977615613210702,25.1000003815,0.0,0.034226832440390174,0.0872573779588138
1648638826058246123,70843,5,2,0.213079467416,-0.081803791225,-0.128179252148,0.0,25.1000003815,0.07126403592508361,-0.0273591275,-0.042869315099665545,25.1000003815,0.0,0.10443010815959386,0.26177211534899997
1648638826058249851,70844,5,3,0.259631603956,1.01436698437,0.00673805270344,0.0,25.1000003815,0.08683331235986622,0.3392531720301003,0.0022535293322541805,25.1000003815,0.0,0.3607946271818041,1.0470885111139783
1648638826058252989,70845,5,4,1.1685385704,0.676244676113,-0.080237865448,0.0,25.1000003815,0.39081557538461537,0.22616878799765885,-0.026835406504347827,25.1000003815,0.0,0.5971816713452832,1.3524893225217356
1648638826058262627,70846,5,5,1.47534966469,0.605348050594,0.250474691391,0.0,25.1000003815,0.49342798150167216,0.20245754200468224,0.08377079979632106,25.1000003815,0.0,0.7265888811234361,1.6142615855202243
1648638826058267591,70847,5,6,3.81203532219,-1.12889230251,0.552172362804,0.0,25.1000003815,1.2749282014013377,-0.3775559540167224,0.18467303103812707,25.1000003815,0.0,1.8421271226140659,4.013839240245566
1648638826158071034,70848,6,0,0.0272949170321,0.081803791225,0.0133032789454,0.0,13.6000003815,0.009128734793344482,0.0273591275,0.0044492571723745815,13.6000003815,0.0,0.030252098363843995,0.0872573778271599
1648638826158080250,70849,6,1,0.0697992891073,0.0272679310292,-0.044703129679,0.0,13.6000003815,0.023344243848595316,0.00911970937431438,-0.014950879491304348,13.6000003815,0.0,0.03425020497452998,0.0872573814963247
1648638826158097522,70850,6,2,0.212704077363,-0.081803791225,-0.128801241517,0.0,13.6000003815,0.07113848741237458,-0.0273591275,-0.0430773383,13.6000003815,0.0,0.10425876768983225,0.2617721234240748
1648638826158102485,70851,6,3,0.259252548218,1.01436698437,0.0155595215037,0.0,13.6000003815,0.08670653786555182,0.3392531720301003,0.005203853345719063,13.6000003815,0.0,0.3607336443274256,1.0470885165289696
1648638826158111549,70852,6,4,1.16815590858,0.676244676113,-0.0856287777424,0.0,13.6000003815,0.39068759484280935,0.22616878799765885,-0.028638387204816054,13.6000003815,0.0,0.5970141658222594,1.3524893257616486
1648638826158513843,70853,6,5,1.48439180851,0.554902374744,0.307415574789,0.0,13.6000003815,0.49645210986956523,0.18558607850969897,0.10281457350802675,13.6000003815,0.0,0.7262035440043609,1.6142614479355475
1648638826158518091,70854,6,6,1.62216103077,-2.07917976379,0.358313947916,0.0,13.6000003815,0.5425287728327759,-0.6953778474214046,0.11983744077458194,13.6000003815,0.0,1.0354831188326066,2.6613499929873523
1648638826158526678,70855,6,7,3.81310009956,-1.12889230251,0.544769823551,0.0,13.6000003815,1.2752843142341137,-0.3775559540167224,0.18219726540167222,13.6000003815,0.0,1.8426200538029063,4.01383910496953
1648638826258115582,70856,7,0,0.0272303409874,0.081803791225,0.0134349670261,0.0,14.0,0.009107137453979933,0.0273591275,0.004493300008729097,14.0,0.0,0.03023907675132666,0.08725737830158467
1648638826258123949,70857,7,1,0.0698275268078,0.0272679310292,-0.0446589961648,0.0,14.0,0.02335368789558528,0.00911970937431438,-0.014936119118662206,14.0,0.0,0.034263078900191826,0.08725737505308566
1648638826258235854,70858,7,2,0.213079467416,-0.081803791225,-0.128179252148,0.0,14.0,0.07126403592508361,-0.0273591275,-0.042869315099665545,14.0,0.0,0.10443010815959386,0.26177211534899997
1648638826258239344,70859,7,3,0.258694648743,1.01436698437,0.0230447631329,0.0,14.0,0.08651994941237458,0.3392531720301003,0.007707278639765886,14.0,0.0,0.36064403228824476,1.0470885164951451
1648638826258241153,70860,7,4,1.16872465611,0.676244676113,-0.0774815604091,0.0,14.0,0.39087781140802674,0.22616878799765885,-0.025913565354214043,14.0,0.0,0.5972631309285613,1.3524893995791771
1648638826258246839,70861,7,5,1.44017148018,0.539905011654,0.318270564079,0.0,14.0,0.4816627024013378,0.1805702380113712,0.10644500470869565,14.0,0.0,0.7047010207347529,1.5706328233842954
1648638826258248894,70862,7,6,3.82773947716,-1.00345981121,0.672594308853,0.0,14.0,1.2801804271438126,-0.3356052880301003,0.22494792938227423,14.0,0.0,1.8412916014140714,4.013839085218061
1648638826358116253,70863,8,0,0.0272200722247,0.081803791225,0.0134557597339,0.0,12.8999996185,0.009103703085183946,0.0273591275,0.0045002540916053504,12.8999996185,0.0,0.030237008405059385,0.08725737825947853
1648638826358122803,70864,8,1,0.0697268545628,0.0272679310292,-0.0448160134256,0.0,12.8999996185,0.023320018248428095,0.00911970937431438,-0.01498863325270903,12.8999996185,0.0,0.03421718283678533,0.08725737429695345
1648638826358125679,70865,8,2,0.212949737906,-0.081803791225,-0.128394663334,0.0,12.8999996185,0.07122064812909698,-0.0273591275,-0.042941358974581935,12.8999996185,0.0,0.10437089296072227,0.2617721159819523
1648638826358274310,70866,8,3,0.259611457586,1.01436698437,0.0074748811312,0.0,12.8999996185,0.08682657444347826,0.3392531720301003,0.0024999602445484946,12.8999996185,0.0,0.36079138403191197,1.0470885166678798
1648638826358279103,70867,8,4,1.16842448711,0.676244676113,-0.0818832069635,0.0,12.8999996185,0.3907774204381271,0.22616878799765885,-0.02738568794765886,12.8999996185,0.0,0.5971317319594425,1.3524893728351695
1648638826358288631,70868,8,5,1.45152401924,0.539905011654,0.261663854122,0.0,12.8999996185,0.4854595382073579,0.1805702380113712,0.0875129946896321,12.8999996185,0.0,0.7098926238019984,1.5706327936834024
1648638826358388443,70869,8,6,1.58656096458,0.584897100925,0.189436852932,0.0,12.8999996185,0.530622396180602,0.19561775950668897,0.0633568070006689,12.8999996185,0.0,0.7754911749925362,1.7015189197444354
1648638826358395805,70870,8,7,3.84254980087,-1.00345981121,0.582052528858,0.0,12.8999996185,1.2851337126655518,-0.3356052880301003,0.19466639761137122,12.8999996185,0.0,1.8481797066878687,4.013839273218308
1648638826458073433,70871,9,0,0.0272261258215,0.081803791225,0.0134435063228,0.0,14.6999998093,0.009105727699498327,0.0273591275,0.004496155960802675,14.6999998093,0.0,0.030238227650377897,0.08725737818822371
1648638826458087251,70872,9,1,0.0697920545936,0.0272679310292,-0.0447144173086,0.0,14.6999998093,0.023341824278795983,0.00911970937431438,-0.014954654618260867,14.6999998093,0.0,0.03424690672741608,0.0872573782682982
1648638826458113969,70873,9,2,0.212704077363,-0.081803791225,-0.128801241517,0.0,14.6999998093,0.07113848741237458,-0.0273591275,-0.0430773383,14.6999998093,0.0,0.10425876768983225,0.2617721234240748
1648638826458162769,70874,9,3,0.259511262178,1.01436698437,0.0103868693113,0.0,14.6999998093,0.0867930642735786,0.3392531720301003,0.0034738693348829426,14.6999998093,0.0,0.36077525794388937,1.0470885164259975
1648638826458166176,70875,9,4,1.16878151894,0.676244676113,-0.076617591083,0.0,14.6999998093,0.390896829076923,0.22616878799765885,-0.025624612402341134,14.6999998093,0.0,0.5972880231756839,1.3524893183497722
1648638826458169127,70876,9,5,1.43450593948,0.588987290859,0.249347150326,0.0,14.6999998093,0.4797678727357859,0.1969857160063545,0.083393695761204,14.6999998093,0.0,0.7065110018459576,1.5706327771228126
1648638826458174316,70877,9,6,3.83896350861,-1.00345981121,0.605254471302,0.0,14.6999998093,1.2839342838160535,-0.3356052880301003,0.2024262445826087,14.6999998093,0.0,1.8465116841412759,4.013839232976811
1648638826558073824,70878,10,0,0.027250206098,0.081803791225,0.0133946286514,0.0,14.5,0.009113781303678929,0.0273591275,0.004479808913511706,14.5,0.0,0.0302430798177671,0.08725737830049543
1648638826558077481,70879,10,1,0.0697196349502,0.0272679310292,-0.0448272526264,0.0,14.5,0.02331760366227425,0.00911970937431438,-0.014992392182742474,14.5,0.0,0.03421389162567989,0.08725737870365717
1648638826558082361,70880,10,2,0.213034898043,-0.081803791225,-0.128253340721,0.0,14.5,0.07124912978026755,-0.0273591275,-0.04289409388662207,14.5,0.0,0.10440976413368663,0.2617721288622448
1648638826558087475,70881,10,3,0.363241761923,0.981645464897,0.0286687724292,0.0,14.5,0.12148553910468227,0.32830952003244146,0.00958821820374582,14.5,0.0,0.3705463714125975,1.0470884847377369
1648638826558090392,70882,10,4,1.14569699764,0.718509972095,-0.0186884105206,0.0,14.5,0.38317625339130434,0.240304338493311,-0.006250304521939799,14.5,0.0,0.5927851697071225,1.352489351931857
1648638826558352091,70883,10,5,1.44449448586,0.605348050594,0.390934437513,0.0,14.5,0.4831085236989966,0.20245754200468224,0.13074730351605351,14.5,0.0,0.7125845547412781,1.61426153905478
1648638826558359586,70884,10,6,3.80920338631,-1.12889230251,0.57138210535,0.0,14.5,1.2739810656555184,-0.3775559540167224,0.19109769409698996,14.5,0.0,1.8408161259916802,4.0138392816922925
1648638826658135806,70885,11,0,0.0272990744561,0.081803791225,0.0132947489619,0.0,13.8000001907,0.009130125236153846,0.0273591275,0.004446404335083611,13.8000001907,0.0,0.030252937563432794,0.0872573783407628
1648638826658155685,70886,11,1,0.0697992891073,0.0272679310292,-0.044703129679,0.0,13.8000001907,0.023344243848595316,0.00911970937431438,-0.014950879491304348,13.8000001907,0.0,0.03425020497452998,0.0872573814963247
1648638826658163107,70887,11,2,0.212366327643,-0.081803791225,-0.129357352853,0.0,13.8000001907,0.07102552763979933,-0.0273591275,-0.04326332871337793,13.8000001907,0.0,0.10410462530831689,0.2617721186690687
1648638826658172638,70888,11,3,0.258565932512,1.01436698437,0.0244465209544,0.0,13.8000001907,0.08647690050568561,0.3392531720301003,0.008176093964682274,13.8000001907,0.0,0.36062338162496527,1.0470885124107046
1648638826658187233,70889,11,4,1.16881680489,0.676244676113,-0.0760788470507,0.0,13.8000001907,0.3909086303979933,0.22616878799765885,-0.02544443045173913,13.8000001907,0.0,0.5973034700247436,1.3524893997118825
1648638826658289884,70890,11,5,1.45528745651,0.605348050594,0.348615080118,0.0,13.8000001907,0.48671821287959866,0.20245754200468224,0.11659367228026755,13.8000001907,0.0,0.7174805180713956,1.6142615393792237
1648638826658293382,70891,11,6,1.55923366547,0.638069570065,0.23837788403,0.0,13.8000001907,0.5214828312608696,0.2134011940016722,0.07972504482608694,13.8000001907,0.0,0.767742636696077,1.7015188554266938
1648638826658298284,70892,11,7,1.41963064671,0.894388139248,0.620031535625,0.0,13.8000001907,0.4747928584314381,0.2991264679759197,0.20736840656354513,13.8000001907,0.0,0.7350735750105156,1.7887762358314268
1648638826658594504,70893,11,8,3.8356590271,-1.00345981121,0.625854551792,0.0,13.8000001907,1.2828291060535117,-0.3356052880301003,0.20931590360936453,13.8000001907,0.0,1.8449747803235335,4.013839269936714
1648638826757998844,70894,12,0,0.0271767154336,0.081803791225,0.0135431149974,0.0,14.5,0.009089202486153846,0.0273591275,0.004529469898795986,14.5,0.0,0.030228282472377865,0.08725737839503925
1648638826758013812,70895,12,1,0.0697543472052,0.0272679310292,-0.0447732210159,0.0,14.5,0.023329213112107023,0.00911970937431438,-0.014974321409999998,14.5,0.0,0.03422971615325155,0.08725737984133738
1648638826758182981,70896,12,2,0.212744548917,-0.081803791225,-0.128734394908,0.0,14.5,0.07115202304916388,-0.0273591275,-0.043054981574581944,14.5,0.0,0.10427723924969798,0.2617721295039067
1648638826758186977,70897,12,3,0.259270817041,1.01436698437,0.0152522074059,0.0,14.5,0.08671264783979933,0.3392531720301003,0.005101072711003344,14.5,0.0,0.360736581626071,1.0470885184069914
1648638826758188959,70898,12,4,0.813608646393,0.392658174038,-0.529390990734,0.0,14.5,0.2721099151816053,0.13132380402608695,-0.17705384305484947,14.5,0.0,0.4066122887766219,1.0470884834600331
1648638826758194408,70899,12,5,1.16856873035,0.676244676113,-0.079798668623,0.0,14.5,0.39082566232441474,0.22616878799765885,-0.026688517934113712,14.5,0.0,0.5971948738284387,1.3524893962752502
1648638826758311027,70900,12,6,1.4836833477,0.605348050594,0.195135578513,0.0,14.5,0.4962151664548495,0.20245754200468224,0.06526273528862876,14.5,0.0,0.7303752728250085,1.6142615750248899
1648638826758314554,70901,12,7,1.54775643349,0.801677167416,0.565218150616,0.0,14.5,0.5176442921371237,0.26811945398528425,0.18903617077458193,14.5,0.0,0.7796148202603993,1.832404926852031
1648638826758315862,70902,12,8,0.509512364864,1.48882901669,-0.938878715038,0.0,14.5,0.1704054731986622,0.4979361259832776,-0.31400625921003344,14.5,0.0,0.5531875234957441,1.8324049586373707
1648638826758316970,70903,12,9,3.85202074051,-1.00345981121,0.51566362381,0.0,14.5,1.288301251006689,-0.3356052880301003,0.17246275043812706,14.5,0.0,1.852584987536217,4.013839103770065
1648638826857983438,70904,13,0,0.027201095596,0.081803791225,0.0134940808639,0.0,14.1999998093,0.009097356386622074,0.0273591275,0.004513070523043478,14.1999998093,0.0,0.030233187791096114,0.08725737836290746
1648638826857990141,70905,13,1,0.069725997746,0.0272679310292,-0.0448173545301,0.0,14.1999998093,0.023319731687625415,0.00911970937431438,-0.01498908178264214,14.1999998093,0.0,0.034216792237695796,0.08725737843509326
1648638826857999983,70906,13,2,0.212366327643,-0.081803791225,-0.129357352853,0.0,14.1999998093,0.07102552763979933,-0.0273591275,-0.04326332871337793,14.1999998093,0.0,0.10410462530831689,0.2617721186690687
1648638826858003239,70907,13,3,0.259634077549,1.01436698437,0.0066425637342,0.0,14.1999998093,0.08683413964849497,0.3392531720301003,0.002221593222140468,14.1999998093,0.0,0.36079502539457703,1.0470885143375277
1648638826858005415,70908,13,4,1.14565396309,0.718509972095,-0.0211636014283,0.0,14.1999998093,0.38316186056521734,0.240304338493311,-0.00707812756799331,14.1999998093,0.0,0.5927665627228866,1.3524893645308995
1648638826858011945,70909,13,5,1.46673989296,0.554902374744,0.382880628109,0.0,14.1999998093,0.49054845918394646,0.18558607850969897,0.12805372177558527,14.1999998093,0.0,0.7181349275394535,1.6142614826842598
1648638826858136041,70910,13,6,3.84220147133,-1.00345981121,0.584347128868,0.0,14.1999998093,1.2850172144916387,-0.3356052880301003,0.19543382236387957,14.1999998093,0.0,1.848017692673278,4.013839222741775
1648638826957982605,70911,14,0,0.0271841287613,0.081803791225,0.0135282296687,0.0,14.1000003815,0.009091681859966555,0.0273591275,0.004524491527993311,14.1000003815,0.0,0.030229773661854403,0.08725737856057458
1648638826957998540,70912,14,1,0.0697196349502,0.0272679310292,-0.0448272526264,0.0,14.1000003815,0.02331760366227425,0.00911970937431438,-0.014992392182742474,14.1000003815,0.0,0.03421389162567989,0.08725737870365717
1648638826958010134,70913,14,2,0.212128117681,-0.081803791225,-0.129747614264,0.0,14.1000003815,0.0709458587561873,-0.0273591275,-0.04339385092441471,14.1000003815,0.0,0.10399592110687328,0.2617721184100158
1648638826958012326,70914,14,3,0.363219231367,0.981645464897,0.0289529934525,0.0,14.1000003815,0.12147800380167224,0.32830952003244146,0.009683275402173912,14.1000003815,0.0,0.370541430556976,1.0470884893921535
1648638826958014184,70915,14,4,1.1684333086,0.676244676113,-0.0817570462823,0.0,14.1000003815,0.3907803707692308,0.22616878799765885,-0.027343493739899666,14.1000003815,0.0,0.5971355934973269,1.3524893615973197
1648638826958173522,70916,14,5,1.46910786629,0.605348050594,0.284808635712,0.0,14.1000003815,0.49134042350836116,0.20245754200468224,0.09525372431839464,14.1000003815,0.0,0.7237540188913144,1.6142614856736324
1648638826958176651,70917,14,6,3.80848026276,-1.12889230251,0.576181471348,0.0,14.1000003815,1.2737392183143812,-0.3775559540167224,0.19270283322675585,14.1000003815,0.0,1.8404813747924045,4.013839163497156
1648638827058136701,70918,15,0,0.0272585898638,0.081803791225,0.01337755844,0.0,14.6999998093,0.009116585238729095,0.0273591275,0.00447409981270903,14.6999998093,0.0,0.03024476996757097,0.08725737819784561
1648638827058148113,70919,15,1,0.0696912258863,0.0272679310292,-0.0448714010417,0.0,14.6999998093,0.023308102303110367,0.00911970937431438,-0.0150071575390301,14.6999998093,0.0,0.034200940996067276,0.08725737596096719
1648638827058158648,70920,15,2,0.212366327643,-0.081803791225,-0.129357352853,0.0,14.6999998093,0.07102552763979933,-0.0273591275,-0.04326332871337793,14.6999998093,0.0,0.10410462530831689,0.2617721186690687
1648638827058177178,70921,15,3,0.259588360786,1.01436698437,0.00823754817247,0.0,14.6999998093,0.086818849761204,0.3392531720301003,0.002755032833602006,14.6999998093,0.0,0.36078766619744895,1.0470885126078617
1648638827058279263,70922,15,4,1.16884422302,0.676244676113,-0.0756557062268,0.0,14.6999998093,0.3909178003411371,0.22616878799765885,-0.02530291178153846,14.6999998093,0.0,0.5973154726871188,1.3524893587541011
1648638827058283665,70923,15,5,1.60782980919,0.531724631786,0.165284574032,0.0,14.6999998093,0.5377357221371237,0.17783432501204013,0.05527912174983277,14.6999998093,0.0,0.7809894115013057,1.7015189595713733
1648638827058285676,70924,15,6,3.80408382416,-1.12889230251,0.60452657938,0.0,14.6999998093,1.2722688375117057,-0.3775559540167224,0.2021828024682274,14.6999998093,0.0,1.8384462157540131,4.01383905470548
1648638827058287319,70925,15,7,1.52977561951,0.858939826488,0.52888250351,0.243430063128,14.6999998093,0.5116306419765886,0.2872708449792642,0.17688378043812708,14.6999998093,0.03289595447675676,0.7784962209245803,1.8324049154303874
1648638827158120301,70926,16,0,0.027269018814,0.081803791225,0.0133562870324,0.0,28.6000003815,0.009120073181939798,0.0273591275,0.004466985629565217,28.6000003815,0.0,0.030246873016051286,0.08725737819321372
1648638827158125659,70927,16,1,0.0698275268078,0.0272679310292,-0.0446589961648,0.0,28.6000003815,0.02335368789558528,0.00911970937431438,-0.014936119118662206,28.6000003815,0.0,0.034263078900191826,0.08725737505308566
1648638827158152503,70928,16,2,0.212366327643,-0.081803791225,-0.129357352853,0.0,28.6000003815,0.07102552763979933,-0.0273591275,-0.04326332871337793,28.6000003815,0.0,0.10410462530831689,0.2617721186690687
1648638827158158616,70929,16,3,0.259540677071,1.01436698437,0.00962370354682,0.0,28.6000003815,0.08680290203043477,0.3392531720301003,0.0032186299487692305,28.6000003815,0.0,0.3607799915936239,1.0470885147418618
1648638827158165814,70930,16,4,0.809294998646,0.392658174038,-0.535962224007,0.0,28.6000003815,0.27066722362742474,0.13132380402608695,-0.1792515799354515,28.6000003815,0.0,0.4046818916090004,1.047088507259446
1648638827158294640,70931,16,5,1.14576733112,0.718509972095,-0.0137099716812,0.0,28.6000003815,0.3831997762943144,0.240304338493311,-0.004585274809765886,28.6000003815,0.0,0.5928155802631482,1.3524893050909146
1648638827158346925,70932,16,6,1.44860577583,0.655793726444,0.278057426214,0.0,28.6000003815,0.48448353706688957,0.21932900549966555,0.09299579472040133,28.6000003815,0.0,0.7194121266917598,1.614261452703402
1648638827158419468,70933,16,7,3.83711433411,-1.00345981121,0.616868495941,0.0,28.6000003815,1.28331583080602,-0.3356052880301003,0.20631053375953176,28.6000003815,0.0,1.8456516335832331,4.013839153108972
1648638827158421351,70934,16,8,1.58414888382,0.879390776157,0.486463338137,0.243430063128,28.6000003815,0.5298156802073578,0.2941106274772575,0.1626967686076923,28.6000003815,0.03289595447675676,0.8049287988277203,1.8760336891030385
1648638827158423742,70935,16,9,1.67587649822,0.381751030684,0.30206656456,-0.365145087242,28.6000003815,0.5604938121137124,0.12767592999464883,0.10102560687625417,28.6000003815,-0.04934393070837838,0.8028746913033948,1.7451475857759158
1648638827158542965,70936,16,10,1.66658604145,0.400838583708,0.647709190845,-0.243430063128,28.6000003815,0.5573866359364548,0.13405972699264213,0.21662514743979933,28.6000003815,-0.03289595447675676,0.799582224816471,1.832404922403916
1648638827258100745,70937,17,0,0.0272543970495,0.081803791225,0.013386098668,0.0,29.2999992371,0.009115182959698997,0.0273591275,0.00447695607625418,29.2999992371,0.0,0.03024392465171857,0.08725737822593924
1648638827258104641,70938,17,1,0.0697826817632,0.0272679310292,-0.0447290427983,0.0,29.2999992371,0.023338689552909696,0.00911970937431438,-0.014959546086387958,29.2999992371,0.0,0.034242633648219147,0.08725737794782404
1648638827258121870,70939,17,2,0.212744548917,-0.081803791225,-0.128734394908,0.0,29.2999992371,0.07115202304916388,-0.0273591275,-0.043054981574581944,29.2999992371,0.0,0.10427723924969798,0.2617721295039067
1648638827258129447,70940,17,3,0.363987922668,0.981645464897,0.0167116336524,0.0,29.2999992371,0.12173509119331104,0.32830952003244146,0.0055891751345819385,29.2999992371,0.0,0.37071013716867734,1.047088489718202
1648638827258185066,70941,17,4,1.14575409889,0.718509972095,-0.0147773101926,0.0,29.2999992371,0.38319535079933104,0.240304338493311,-0.004942244211571906,29.2999992371,0.0,0.5928098589321474,1.3524893360096122
1648638827258201508,70942,17,5,3.8070731163,-1.12889230251,0.585406780243,0.0,29.2999992371,1.2732686007692307,-0.3775559540167224,0.19578822081705682,29.2999992371,0.0,1.839829980683853,4.013839140009848
1648638827258205227,70943,17,6,1.60253548622,0.82076472044,0.526998639107,0.243430063128,29.2999992371,0.5359650455585284,0.2745032509832776,0.17625372545384613,29.2999992371,0.03289595447675676,0.8061445868586473,1.8760336554907413
1648638827258209854,70944,17,7,1.51088345051,0.950287401676,0.117922730744,0.486860126257,29.2999992371,0.50531219080602,0.3178218734702341,0.039439040382608696,29.2999992371,0.06579190895364864,0.7821071305201663,1.7887763183906613
1648638827258216854,70945,17,8,1.73908567429,0.343575924635,0.463944733143,-0.365145087242,29.2999992371,0.5816340047792642,0.11490833599832774,0.1551654625896321,29.2999992371,-0.04934393070837838,0.8305420860576752,1.832405008157484
