%time,field.header.seq,field.header.frame_id,field.point_id,field.x,field.y,field.z,field.velocity,field.intensity,normalized_x,normalized_y,normalized_z,normalized_intensity,normalized_velocity,normalized_range,range
1648638743657001911,62712,0,0,0.0271732658148,0.081803791225,0.0135500328615,0.0,14.1000003815,0.009088048767491638,0.0273591275,0.004531783565719063,14.1000003815,0.0,0.03022758869579029,0.08725737805121637
1648638743657008986,62713,0,1,0.0696649476886,0.0272679310292,-0.0449121892452,0.0,14.1000003815,0.023299313608227422,0.00911970937431438,-0.015020799078662205,14.1000003815,0.0,0.03418896208282756,0.08725737643239821
1648638743657037238,62714,0,2,0.211945518851,-0.081803791225,-0.130045697093,0.0,14.1000003815,0.07088478891337792,-0.0273591275,-0.04349354417826087,14.1000003815,0.0,0.10391260008367391,0.26177212714918163
1648638743657048059,62715,0,3,0.259614408016,1.01436698437,0.00737165287137,0.0,14.1000003815,0.08682756120936454,0.3392531720301003,0.00246543574293311,14.1000003815,0.0,0.36079185897635874,1.0470885163611727
1648638743657061802,62716,0,4,1.18717801571,0.633979380131,-0.133812785149,0.0,14.1000003815,0.3970495035819398,0.21203323750200667,-0.04475343984916388,14.1000003815,0.0,0.6002122211309198,1.352489318584717
1648638743657088695,62717,0,5,2.43720221519,1.71787965298,0.660228133202,0.0,14.1000003815,0.815117797722408,0.5745416899598662,0.22081208468294314,14.1000003815,0.0,1.287995419956762,3.054008239628886
1648638743657098587,62718,0,6,3.80711436272,-1.12889230251,0.585138976574,0.0,14.1000003815,1.2732823955585284,-0.3775559540167224,0.19569865437257525,14.1000003815,0.0,1.8398490742699543,4.0138392124500095
1648638743657101732,62719,0,7,1.65958940983,0.372207254171,0.0489002615213,0.121715031564,14.1000003815,0.555046625361204,0.12448403149531771,0.01635460251548495,14.1000003815,0.01644797723837838,0.7947639817877057,1.7015188758442423
1648638743657113644,62720,0,8,1.62379014492,0.25904533267,0.211662381887,0.243430063128,14.1000003815,0.5430736270635451,0.08663723500668896,0.07079009427658862,14.1000003815,0.03289595447675676,0.7728932263343451,1.6578901902790497
1648638743657127821,62721,0,9,1.49060082436,0.245411381125,0.429848819971,0.365145087242,14.1000003815,0.49852870379933106,0.08207738499163879,0.14376214714749164,14.1000003815,0.04934393070837838,0.7097875979127474,1.5706328570352948
1648638743657142668,62722,0,10,1.69881105423,-0.0,0.560144245625,0.365145087242,14.1000003815,0.5681642321839464,-0.0,0.18733921258361202,14.1000003815,0.04934393070837838,0.8035055628098331,1.788776278320138
1648638743757024264,62723,1,0,0.0271774921566,0.081803791225,0.0135415550321,0.0,23.3999996185,0.009089462259732442,0.0273591275,0.0045289481712709025,23.3999996185,0.0,0.030228438694439,0.08725737820604533
1648638743757098209,62724,1,1,0.0697374343872,0.0272679310292,-0.0447995550931,0.0,23.3999996185,0.023323556651237455,0.00911970937431438,-0.014983128793678928,23.3999996185,0.0,0.03422200591430788,0.0872573776483223
1648638743757103663,62725,1,2,0.212494924664,-0.081803791225,-0.129146009684,0.0,23.3999996185,0.07106853667692307,-0.0273591275,-0.04319264537926421,23.3999996185,0.0,0.10416331248745682,0.2617721243449009
1648638743757108771,62726,1,3,0.258831381798,1.01436698437,0.0214542727917,0.0,23.3999996185,0.08656567953110368,0.3392531720301003,0.007175342070802676,23.3999996185,0.0,0.360665979096793,1.0470885105875103
1648638743757111941,62727,1,4,1.18720853329,0.633979380131,-0.133541926742,0.0,23.3999996185,0.39705971013043473,0.21203323750200667,-0.04466285175317725,23.3999996185,0.0,0.6002257247263834,1.3524893353168614
1648638743757115535,62728,1,5,1.64504277706,-2.1132645607,0.380601108074,0.0,23.3999996185,0.5501815307892977,-0.7067774450501672,0.12729134049297658,23.3999996185,0.0,1.051158308950156,2.704978751364786
1648638743757155669,62729,1,6,2.35046219826,1.8133174181,0.717058479786,0.0,23.3999996185,0.7861077586153845,0.6064606749498327,0.2398188895605351,23.3999996185,0.0,1.2663827883271368,3.0540080988214635
1648638743757193841,62730,1,7,3.81407094002,-1.12889230251,0.537931144238,0.0,23.3999996185,1.2756090100401338,-0.3775559540167224,0.17991008168494982,23.3999996185,0.0,1.8430695025973973,4.013839169936008
1648638743757204244,62731,1,8,1.55853796005,0.201782688498,0.36889487505,0.121715031564,23.3999996185,0.5212501538628762,0.06748584899598661,0.12337621239130435,23.3999996185,0.01644797723837838,0.7402417075650718,1.6142615200556727
1648638743757208772,62732,1,9,1.6579400301,0.319034785032,0.211230784655,0.243430063128,23.3999996185,0.5544949933444816,0.10670059700066889,0.07064574737625418,23.3999996185,0.03289595447675676,0.7914002860048084,1.7015189631192391
1648638743757231549,62733,1,10,1.75363481045,-0.0,0.531481921673,0.365145087242,23.3999996185,0.586499936605351,-0.0,0.177753151061204,23.3999996185,0.04934393070837838,0.8294361646782479,1.8324049993075306
1648638743856950694,62734,2,0,0.0272249858826,0.081803791225,0.0134458160028,0.0,20.2000007629,0.0091053464490301,0.0273591275,0.0044969284290300995,20.2000007629,0.0,0.030237998040131334,0.08725737838757425
1648638743856964955,62735,2,1,0.0697268545628,0.0272679310292,-0.0448160134256,0.0,20.2000007629,0.023320018248428095,0.00911970937431438,-0.01498863325270903,20.2000007629,0.0,0.03421718283678533,0.08725737429695345
1648638743856969655,62736,2,2,0.212407410145,-0.081803791225,-0.129289895296,0.0,20.2000007629,0.0710392676070234,-0.0273591275,-0.043240767657525075,20.2000007629,0.0,0.10412337365762707,0.26177212450706105
1648638743856974028,62737,2,3,0.363331198692,0.981645464897,0.0275122914463,0.0,20.2000007629,0.12151545106755851,0.32830952003244146,0.00920143526632107,20.2000007629,0.0,0.3705659868906434,1.0470884895157806
1648638743856984395,62738,2,4,1.16820931435,0.676244676113,-0.0848968476057,0.0,20.2000007629,0.39070545630434783,0.22616878799765885,-0.02839359451695652,20.2000007629,0.0,0.5970375430710427,1.3524893119129109
1648638743856996230,62739,2,5,2.4341905117,1.71787965298,0.671246230602,0.0,20.2000007629,0.8141105390301002,0.5745416899598662,0.22449706709096987,20.2000007629,0.0,1.2867206740476738,3.0540080961697504
1648638743857085808,62740,2,6,3.83835315704,-1.00345981121,0.609112679958,0.0,20.2000007629,1.283730152856187,-0.3356052880301003,0.20371661537056854,20.2000007629,0.0,1.8462278082777612,4.013839160673751
1648638743857201932,62741,2,7,1.5663434267,0.201782688498,0.334204226732,0.121715031564,20.2000007629,0.5238606778260869,0.06748584899598661,0.11177398887357859,20.2000007629,0.01644797723837838,0.7439182477661934,1.6142615800759532
1648638743857209607,62742,2,8,1.7655134201,-0.0572626553476,0.487228155136,0.243430063128,20.2000007629,0.5904727157525084,-0.019151389748361204,0.16295256024615382,20.2000007629,0.03289595447675676,0.8352741058033457,1.8324049561731401
1648638743957090869,62743,3,0,0.0272165797651,0.081803791225,0.0134628228843,0.0,20.6000003815,0.009102535038494982,0.0273591275,0.004502616349264214,20.6000003815,0.0,0.030236305095287585,0.08725737832932795
1648638743957120857,62744,3,1,0.069765791297,0.0272679310292,-0.044755384326,0.0,20.6000003815,0.023333040567558527,0.00911970937431438,-0.014968355961872909,20.6000003815,0.0,0.03423493337698529,0.0872573786225425
1648638743957131061,62745,3,2,0.21179689467,-0.081803791225,-0.130287602544,0.0,20.6000003815,0.07083508182943143,-0.0273591275,-0.04357444901137123,20.6000003815,0.0,0.10384478558466838,0.26177212270847666
1648638743957250886,62746,3,3,0.259499937296,1.01436698437,0.0106662223116,0.0,20.6000003815,0.08678927668762541,0.3392531720301003,0.003567298431973244,20.6000003815,0.0,0.3607734355913795,1.0470885180990748
1648638743957257873,62747,3,4,1.16846525669,0.676244676113,-0.0812991186976,0.0,20.6000003815,0.39079105574916384,0.22616878799765885,-0.02719034070153846,20.6000003815,0.0,0.5971495785575186,1.352489358466014
1648638743957268175,62748,3,5,1.57454383373,0.151337012649,0.322100639343,0.0,20.6000003815,0.5266032888729096,0.050614385501337796,0.10772596633545149,20.6000003815,0.0,0.7464474956239108,1.6142614402877429
1648638743957348094,62749,3,6,1.6197193861,-2.07917976379,0.369194000959,0.0,20.6000003815,0.5417121692642141,-0.6953778474214046,0.12347625450133778,20.6000003815,0.0,1.0346277105037867,2.661349956357885
1648638743957356397,62750,3,7,3.79861330986,-1.12889230251,0.637999594212,0.0,20.6000003815,1.2704392340668895,-0.3775559540167224,0.21337779070635451,20.6000003815,0.0,1.8359139939894809,4.013839108724532
1648638743957368873,62751,3,8,1.79966545105,-0.0586260519922,0.526563882828,0.243430063128,20.6000003815,0.6018947996822742,-0.019607375248227425,0.1761083220160535,20.6000003815,0.03289595447675676,0.8514335845697272,1.8760336543820562
1648638743957371711,62752,3,9,1.65842854977,0.400838583708,0.668319702148,-0.121715031564,20.6000003815,0.5546583778494982,0.13405972699264213,0.2235182950327759,20.6000003815,-0.01644797723837838,0.7957787648829385,1.8324049904866697
1648638744057179487,62753,4,0,0.0272165797651,0.081803791225,0.0134628228843,0.0,11.3999996185,0.009102535038494982,0.0273591275,0.004502616349264214,11.3999996185,0.0,0.030236305095287585,0.08725737832932795
1648638744057206275,62754,4,1,0.0696827545762,0.0272679310292,-0.0448845624924,0.0,11.3999996185,0.0233052690890301,0.00911970937431438,-0.015011559362006687,11.3999996185,0.0,0.03419707931528892,0.0872573796195731
1648638744057218100,62755,4,2,0.213728785515,-0.081803791225,-0.12709364295,0.0,11.3999996185,0.07148119916889631,-0.0273591275,-0.042506235100334445,11.3999996185,0.0,0.10472652733098764,0.2617721300956279
1648638744057230289,62756,4,3,0.363811194897,0.981645464897,0.0201963093132,0.0,11.3999996185,0.1216759849153846,0.32830952003244146,0.006754618499397993,11.3999996185,0.0,0.37067132550844806,1.0470884848928026
1648638744057332382,62757,4,4,1.14566957951,0.718509972095,-0.0203026384115,0.0,11.3999996185,0.38316708344816053,0.240304338493311,-0.006790180070735785,11.3999996185,0.0,0.5927733148304224,1.3524893946131504
1648638744057348895,62758,4,5,2.42210173607,1.71787965298,0.713637769222,0.0,11.3999996185,0.810067470257525,0.5745416899598662,0.23867483920468224,11.3999996185,0.0,1.2816071029144585,3.0540082166975493
1648638744057481514,62759,4,6,3.80503058434,-1.12889230251,0.598539710045,0.0,11.3999996185,1.2725854797123743,-0.3775559540167224,0.20018050503177254,11.3999996185,0.0,1.8388844729245568,4.013839229830946
1648638744057485126,62760,4,7,1.56760287285,0.151337012649,0.354342520237,0.121715031564,11.3999996185,0.5242818972742475,0.050614385501337796,0.11850920409264214,11.3999996185,0.01644797723837838,0.7431721413230229,1.6142615277621546
1648638744057488614,62761,4,8,1.77452504635,-0.055899258703,0.218304380774,0.243430063128,11.3999996185,0.5934866375752508,-0.01869540424849498,0.07301149858662206,11.3999996185,0.03289595447675676,0.8395250419735963,1.7887763051628716
1648638744057495177,62762,4,9,1.8282456398,-0.0,0.585338890553,0.243430063128,11.3999996185,0.6114533912374581,-0.0,0.19576551523511707,11.3999996185,0.03289595447675676,0.8647256786470355,1.9196624016325183
1648638744157116752,62763,5,0,0.0271817240864,0.081803791225,0.0135330567136,0.0,18.7999992371,0.009090877620869565,0.0273591275,0.004526105924280936,18.7999992371,0.0,0.030229289925443343,0.08725737795227449
1648638744157123537,62764,5,1,0.0697480216622,0.0272679310292,-0.0447830706835,0.0,18.7999992371,0.023327097545886286,0.00911970937431438,-0.014977615613210702,18.7999992371,0.0,0.034226832440390174,0.0872573779588138
1648638744157132599,62765,5,2,0.212342604995,-0.081803791225,-0.129396304488,0.0,18.7999992371,0.0710175936438127,-0.0273591275,-0.04327635601605351,18.7999992371,0.0,0.1040937993901494,0.26177212565511476
1648638744157142762,62766,5,3,0.259540677071,1.01436698437,0.00962370354682,0.0,18.7999992371,0.08680290203043477,0.3392531720301003,0.0032186299487692305,18.7999992371,0.0,0.3607799915936239,1.0470885147418618
1648638744157156762,62767,5,4,1.14571523666,0.718509972095,-0.017537554726,0.0,18.7999992371,0.38318235339799334,0.240304338493311,-0.005865402918394648,18.7999992371,0.0,0.5927930558044325,1.352489389733097
1648638744157235324,62768,5,5,2.41517663002,1.71787965298,0.736734092236,0.0,18.7999992371,0.8077513812775919,0.5745416899598662,0.24639936195183942,18.7999992371,0.0,1.2786800778199583,3.0540081497894294
1648638744157273344,62769,5,6,3.84398269653,-1.00345981121,0.572511792183,0.0,18.7999992371,1.2856129419832776,-0.3356052880301003,0.19147551578026753,18.7999992371,0.0,1.8488461760091246,4.013839099431397
1648638744157277894,62770,5,7,1.54647374153,0.151337012649,0.437442839146,0.121715031564,18.7999992371,0.5172152981705685,0.050614385501337796,0.1463019528916388,18.7999992371,0.01644797723837838,0.7332019812732493,1.6142614912582887
1648638744157281712,62771,5,8,1.87499201298,-0.0599894486368,0.407320290804,0.243430063128,18.7999992371,0.6270876297591973,-0.020063360748093645,0.13622752200802674,18.7999992371,0.03289595447675676,0.8870627538334165,1.9196623666643033
1648638744157284783,62772,5,9,1.82219624519,-0.0572626553476,0.184471428394,0.365145087242,18.7999992371,0.6094301823377926,-0.019151389748361204,0.06169612989765886,18.7999992371,0.04934393070837838,0.8620771833298012,1.832404943121393
1648638744157289192,62773,5,10,1.70124173164,0.343575924635,0.587741553783,-0.121715031564,18.7999992371,0.5689771677725752,0.11490833599832774,0.19656908153277589,18.7999992371,-0.01644797723837838,0.8128185286857744,1.8324049714802446
1648638744257104602,62774,6,0,0.0272123795003,0.081803791225,0.0134713109583,0.0,13.8000001907,0.009101130267658863,0.0273591275,0.0045054551699999995,13.8000001907,0.0,0.030235459345924427,0.08725737834582786
1648638744257110968,62775,6,1,0.0696649476886,0.0272679310292,-0.0449121892452,0.0,13.8000001907,0.023299313608227422,0.00911970937431438,-0.015020799078662205,13.8000001907,0.0,0.03418896208282756,0.08725737643239821
1648638744257113472,62776,6,2,0.213054761291,-0.081803791225,-0.128220319748,0.0,13.8000001907,0.0712557730070234,-0.0273591275,-0.04288305008294314,13.8000001907,0.0,0.1044188308267151,0.2617721183851094
1648638744257120645,62777,6,3,0.259499937296,1.01436698437,0.0106662223116,0.0,13.8000001907,0.08678927668762541,0.3392531720301003,0.003567298431973244,13.8000001907,0.0,0.3607734355913795,1.0470885180990748
1648638744257152731,62778,6,4,1.16872143745,0.676244676113,-0.0775288492441,0.0,13.8000001907,0.3908767349331103,0.22616878799765885,-0.025929381018093643,13.8000001907,0.0,0.597261721934587,1.3524893281617731
1648638744257166067,62779,6,5,1.54398870468,0.100891344249,0.460174053907,0.0,13.8000001907,0.516384182167224,0.03374292449799331,0.15390436585518394,13.8000001907,0.0,0.7310566545341769,1.6142615473996142
1648638744257196987,62780,6,6,2.32488369942,1.8133174181,0.79609143734,0.0,13.8000001907,0.7775530767290969,0.6064606749498327,0.26625131683612036,13.8000001907,0.0,1.255775507215512,3.054008161616426
1648638744257241234,62781,6,7,3.81675100327,-1.12889230251,0.518573582172,0.0,13.8000001907,1.2765053522642138,-0.3775559540167224,0.17343598065953175,13.8000001907,0.0,1.8443102578286135,4.013839136257902
1648638744257250779,62782,6,8,1.63704681396,0.207236275077,-0.160408362746,0.243430063128,13.8000001907,0.547507295638796,0.06930979099565217,-0.053648281854849496,13.8000001907,0.03289595447675676,0.7773881428754087,1.6578902218311167
1648638744257256508,62783,6,9,1.73586773872,0.400838583708,0.428718626499,-0.121715031564,13.8000001907,0.5805577721471572,0.13405972699264213,0.14338415601973242,13.8000001907,-0.01644797723837838,0.8319054417434008,1.8324049872299275
1648638744357048953,62784,7,0,0.0271774921566,0.081803791225,0.0135415550321,0.0,14.6000003815,0.009089462259732442,0.0273591275,0.0045289481712709025,14.6000003815,0.0,0.030228438694439,0.08725737820604533
1648638744357056775,62785,7,1,0.0696649476886,0.0272679310292,-0.0449121892452,0.0,14.6000003815,0.023299313608227422,0.00911970937431438,-0.015020799078662205,14.6000003815,0.0,0.03418896208282756,0.08725737643239821
1648638744357077261,62786,7,2,0.212297439575,-0.081803791225,-0.129470393062,0.0,14.6000003815,0.0710024881521739,-0.0273591275,-0.04330113480334448,14.6000003815,0.0,0.10407318821464272,0.2617721256904809
1648638744357097452,62787,7,3,0.363503932953,0.981645464897,0.0251273047179,0.0,14.6000003815,0.12157322172341135,0.32830952003244146,0.008403780842107023,14.6000003815,0.0,0.3706038820956299,1.0470884917080947
1648638744357104888,62788,7,4,1.16859471798,0.676244676113,-0.0794163793325,0.0,14.6000003815,0.39083435383946485,0.22616878799765885,-0.02656066198411371,14.6000003815,0.0,0.597206249922549,1.3524893486339238
1648638744357111188,62789,7,5,1.57422471046,0.100891344249,0.342750161886,0.0,14.6000003815,0.5264965586822742,0.03374292449799331,0.11463216116588627,14.6000003815,0.0,0.745342765150526,1.614261495495733
1648638744357125260,62790,7,6,2.32022118568,1.8133174181,0.809579730034,0.0,14.6000003815,0.7759937075852842,0.6064606749498327,0.27076245151638795,14.6000003815,0.0,1.2538448941892764,3.0540081448066045
1648638744357128733,62791,7,7,3.83838367462,-1.00345981121,0.608920991421,0.0,14.6000003815,1.2837403594046823,-0.3356052880301003,0.20365250549197322,14.6000003815,0.0,1.8462420020362154,4.013839259374506
1648638744357137445,62792,7,8,1.72456991673,0.279496282339,0.384006589651,-0.121715031564,14.6000003815,0.5767792363645484,0.09347701750468226,0.12843029754214044,14.6000003815,-0.01644797723837838,0.8210277265745134,1.7887762941259124
1648638744456975350,62793,8,0,0.027261575684,0.081803791225,0.0133714731783,0.0,13.1999998093,0.009117583840802674,0.0273591275,0.00447206460812709,13.1999998093,0.0,0.030245372005471984,0.08725737826978211
1648638744456980295,62794,8,1,0.0697649270296,0.0272679310292,-0.0447567328811,0.0,13.1999998093,0.023332751514916383,0.00911970937431438,-0.014968806983645484,13.1999998093,0.0,0.034234539365757835,0.08725737931114341
1648638744456989152,62795,8,2,0.212539955974,-0.081803791225,-0.129071891308,0.0,13.1999998093,0.07108359731571906,-0.0273591275,-0.04316785662474917,13.1999998093,0.0,0.10418386378056758,0.2617721266102207
1648638744457009234,62796,8,3,0.259397566319,1.01436698437,0.012918272987,0.0,13.1999998093,0.08675503890267558,0.3392531720301003,0.004320492637792642,13.1999998093,0.0,0.36075696567425325,1.0470885149637896
1648638744457022520,62797,8,4,1.14563715458,0.718509972095,-0.0220545548946,0.0,13.1999998093,0.3831562389899665,0.240304338493311,-0.007376105315919731,13.1999998093,0.0,0.59275929520555,1.352489361638647
1648638744457027677,62798,8,5,2.33294391632,1.8133174181,0.772151887417,0.0,13.1999998093,0.780248801444816,0.6064606749498327,0.25824477840033444,13.1999998093,0.0,1.2591151395217002,3.054008171685365
1648638744457097862,62799,8,6,3.84382414818,-1.00345981121,0.573576211929,0.0,13.1999998093,1.285559915779264,-0.3356052880301003,0.1918315090063545,13.1999998093,0.0,1.848772431498951,4.013839227689138
1648638744457102864,62800,8,7,1.64694476128,0.155427202582,0.109614729881,-0.121715031564,13.1999998093,0.5508176459130434,0.05198234200066889,0.03666044477625418,13.1999998093,-0.01644797723837838,0.7807062968737016,1.6578902409438891
1648638744457128513,62801,8,8,2.26987695694,0.68715184927,-4.95931959152,-0.121715031564,13.1999998093,0.7591561728896321,0.22981667199665548,-1.658635314889632,13.1999998093,-0.01644797723837838,1.0979307320593974,5.497214737886494
1648638744457135204,62802,8,9,4.55974006653,2.74860739708,1.36868429184,-0.121715031564,13.1999998093,1.5249966777692305,0.9192666879866219,0.45775394375919726,13.1999998093,-0.01644797723837838,2.3444148476872164,5.497214639099647
1648638744556963011,62803,9,0,0.027200775221,0.081803791225,0.0134947253391,0.0,12.0,0.009097249237792641,0.0273591275,0.004513286066588629,12.0,0.0,0.03023312330789351,0.08725737816015619
1648638744556972868,62804,9,1,0.0697720870376,0.0272679310292,-0.0447455607355,0.0,12.0,0.023335146166421405,0.00911970937431438,-0.014965070480100333,12.0,0.0,0.03423780355525834,0.08725737446044292
1648638744556981830,62805,9,2,0.211962327361,-0.081803791225,-0.130018293858,0.0,12.0,0.07089041048862876,-0.0273591275,-0.04348437921672241,12.0,0.0,0.10392026970737629,0.26177212459851484
1648638744557002143,62806,9,3,0.259605437517,1.01436698437,0.00768108805642,0.0,12.0,0.08682456104247491,0.3392531720301003,0.002568925771377926,12.0,0.0,0.3607904149681942,1.0470885164502624
1648638744557011916,62807,9,4,1.1456797123,0.718509972095,-0.0197154413909,0.0,12.0,0.3831704723411371,0.240304338493311,-0.006593793107324415,12.0,0.0,0.5927776959762977,1.3524892908282145
1648638744557031385,62808,9,5,2.41653347015,1.71787965298,0.732271373272,0.0,12.0,0.8082051739632107,0.5745416899598662,0.24490681380334445,12.0,0.0,1.279253438511598,3.0540081660977183
1648638744557076546,62809,9,6,3.81060767174,-1.12889230251,0.561939477921,0.0,12.0,1.2744507263344482,-0.3775559540167224,0.18793962472274245,12.0,0.0,1.8414662109640467,4.013839139207773
1648638744557084921,62810,9,7,1.57887852192,0.151337012649,0.300133466721,-0.121715031564,12.0,0.5280530173645485,0.050614385501337796,0.10037908585986621,12.0,-0.01644797723837838,0.7484930155420866,1.6142615575623962
1648638744557097197,62811,9,8,3.06470322609,-2.07781624794,-4.1220407486,-0.121715031564,12.0,1.0249843565518393,-0.6949218220535116,-1.3786089460200668,12.0,-0.01644797723837838,1.6075142926637227,5.540843451797638
1648638744657199236,62812,10,0,0.027247833088,0.081803791225,0.013399454765,0.0,13.8000001907,0.009112987654849497,0.0273591275,0.0044814229983277595,13.8000001907,0.0,0.030242601501129743,0.08725737822542101
1648638744657204565,62813,10,1,0.0697203353047,0.0272679310292,-0.0448261611164,0.0,13.8000001907,0.023317837894548492,0.00911970937431438,-0.014992027129230766,13.8000001907,0.0,0.034214210895837434,0.0872573775565508
1648638744657208439,62814,10,2,0.212674900889,-0.081803791225,-0.128849431872,0.0,13.8000001907,0.07112872939431437,-0.0273591275,-0.043093455475585275,13.8000001907,0.0,0.10424545145022136,0.2617721333921289
1648638744657210598,62815,10,3,0.259669929743,1.01436698437,0.00505094975233,0.0,13.8000001907,0.08684613034882943,0.3392531720301003,0.0016892808536220735,13.8000001907,0.0,0.3608007974570131,1.04708851750271
1648638744657213043,62816,10,4,1.16848003864,0.676244676113,-0.081087037921,0.0,13.8000001907,0.3907959995451505,0.22616878799765885,-0.02711941067591973,13.8000001907,0.0,0.5971560492746569,1.3524893975148617
1648638744657218986,62817,10,5,1.61057472229,0.25904533267,0.295879393816,0.0,13.8000001907,0.5386537532742475,0.08663723500668896,0.09895631900200667,13.8000001907,0.0,0.7666822955582527,1.6578902364579344
1648638744657249225,62818,10,6,1.66481328011,0.335395544767,0.561807274818,0.0,13.8000001907,0.5567937391672241,0.11217242299899666,0.18789540963812706,13.8000001907,0.0,0.79537487289523,1.7887763535776622
1648638744657386228,62819,10,7,2.42491722107,1.71787965298,0.704011440277,0.0,13.8000001907,0.8110091040367892,0.5745416899598662,0.23545533119632106,13.8000001907,0.0,1.2827976017919,3.0540082087652336
1648638744657403358,62820,10,8,3.80880355835,-1.12889230251,0.574040234089,0.0,13.8000001907,1.273847343929766,-0.3775559540167224,0.19198670036421403,13.8000001907,0.0,1.840631035728594,4.013839130697556
1648638744657409127,62821,10,9,1.86301851273,-0.0599894486368,0.458984702826,-0.243430063128,13.8000001907,0.623083114625418,-0.020063360748093645,0.15350658957391303,13.8000001907,-0.03289595447675676,0.8814009722635502,1.9196623844183436
1648638744657558792,62822,10,10,1.58189845085,0.151337012649,0.283785998821,-0.121715031564,13.8000001907,0.5290630270401337,0.050614385501337796,0.09491170529130433,13.8000001907,-0.01644797723837838,0.7499181216515685,1.6142614699378741
1648638744757072691,62823,11,0,0.0272017717361,0.081803791225,0.013492718339,0.0,18.7999992371,0.009097582520434782,0.0273591275,0.00451261482909699,18.7999992371,0.0,0.03023332388265467,0.08725737844183644
1648638744757076963,62824,11,1,0.0697543472052,0.0272679310292,-0.0447732210159,0.0,18.7999992371,0.023329213112107023,0.00911970937431438,-0.014974321409999998,18.7999992371,0.0,0.03422971615325155,0.08725737984133738
1648638744757086524,62825,11,2,0.212674900889,-0.081803791225,-0.128849431872,0.0,18.7999992371,0.07112872939431437,-0.0273591275,-0.043093455475585275,18.7999992371,0.0,0.10424545145022136,0.2617721333921289
1648638744757094065,62826,11,3,0.259596675634,1.01436698437,0.00797179993242,0.0,18.7999992371,0.08682163064682275,0.3392531720301003,0.0026661538235518392,18.7999992371,0.0,0.36078900458416335,1.047088517067337
1648638744757104478,62827,11,4,1.18767368793,0.633979380131,-0.129339590669,0.0,18.7999992371,0.39721528024414715,0.21203323750200667,-0.043257388183612036,18.7999992371,0.0,0.600431554404376,1.352489324596301
1648638744757129517,62828,11,5,1.61853992939,-2.07917976379,0.374331027269,0.0,18.7999992371,0.5413177021371237,-0.6953778474214046,0.1251943235013378,18.7999992371,0.0,1.0342147069049337,2.6613499790820243
1648638744757263797,62829,11,6,2.37027525902,1.8133174181,0.648568212986,0.0,18.7999992371,0.7927342003411371,0.6064606749498327,0.2169124458147157,18.7999992371,0.0,1.2746174230103755,3.05400811871924
1648638744757271111,62830,11,7,3.83544802666,-1.00345981121,0.627145469189,0.0,18.7999992371,1.2827585373444814,-0.3356052880301003,0.20974764855819397,18.7999992371,0.0,1.8448766461782948,4.013839134475619
1648638744757278810,62831,11,8,1.62681186199,0.310854405165,0.073842689395,0.121715031564,18.7999992371,0.5440842347792642,0.10396468400167223,0.024696551637123743,18.7999992371,0.01644797723837838,0.7764431496189804,1.6578902371082784
1648638744757291189,62832,11,9,1.86285960674,0.501729905605,-0.552944421768,0.243430063128,18.7999992371,0.6230299688093646,0.16780264401505016,-0.1849312447384615,18.7999992371,0.03289595447675676,0.8969338946698565,2.006919616269236
1648638744757294492,62833,11,10,1.7740932703,-0.0,0.228721961379,-0.243430063128,18.7999992371,0.5933422308695652,-0.0,0.07649563925719063,18.7999992371,-0.03289595447675676,0.8391126300244471,1.788776304444132
1648638744757300546,62834,11,11,1.85288238525,-0.0,0.501926779747,-0.243430063128,18.7999992371,0.6196931054347826,-0.0,0.16786848820969896,18.7999992371,-0.03289595447675676,0.8763783942149699,1.9196623728658442
1648638744757333593,62835,11,12,1.5539419651,0.151337012649,0.410123884678,-0.121715031564,18.7999992371,0.51971303180602,0.050614385501337796,0.13716517882207357,18.7999992371,-0.01644797723837838,0.7367259238534289,1.614261479153779
1648638744757344011,62836,11,13,3.64065241814,-1.71787965298,-3.74351549149,-0.121715031564,18.7999992371,1.2176095043946489,-0.5745416899598662,-1.2520118700635452,18.7999992371,-0.01644797723837838,1.8152806846012284,5.497214637146428
1648638744857017297,62837,12,0,0.0271817240864,0.081803791225,0.0135330567136,0.0,13.6000003815,0.009090877620869565,0.0273591275,0.004526105924280936,13.6000003815,0.0,0.030229289925443343,0.08725737795227449
1648638744857023358,62838,12,1,0.0697374343872,0.0272679310292,-0.0447995550931,0.0,13.6000003815,0.023323556651237455,0.00911970937431438,-0.014983128793678928,13.6000003815,0.0,0.03422200591430788,0.0872573776483223
1648638744857028504,62839,12,2,0.212871074677,-0.081803791225,-0.128525048494,0.0,13.6000003815,0.07119433935685618,-0.0273591275,-0.042984966051505015,13.6000003815,0.0,0.1043349882373102,0.26177211995036703
1648638744857190070,62840,12,3,0.363652676344,0.981645464897,0.0228737555444,0.0,13.6000003815,0.12162296867692307,0.32830952003244146,0.007650085466354514,13.6000003815,0.0,0.37063652540394304,1.0470884854957132
1648638744857195943,62841,12,4,1.16878080368,0.676244676113,-0.0766280218959,0.0,13.6000003815,0.39089658985953174,0.22616878799765885,-0.025628100968528425,13.6000003815,0.0,0.5972877100627066,1.3524892911819013
1648638744857200727,62842,12,5,1.62361764908,0.310854405165,0.125837191939,0.0,13.6000003815,0.5430159361471572,0.10396468400167223,0.042086017370903006,13.6000003815,0.0,0.7749459783359834,1.657890144276648
1648638744857207596,62843,12,6,1.65777516365,0.447194069624,0.501517295837,0.0,13.6000003815,0.5544398540635451,0.14956323398795984,0.16773153706923075,13.6000003815,0.0,0.7982332143609082,1.7887762932086606
1648638744857224989,62844,12,7,1.6200978756,-2.07917976379,0.367529660463,0.0,13.6000003815,0.5418387543812708,-0.6953778474214046,0.12291961888394648,13.6000003815,0.0,1.0347602728087897,2.6613499709729123
1648638744857229061,62845,12,8,2.40773081779,1.71787965298,0.760715484619,0.0,13.6000003815,0.8052611430735785,0.5745416899598662,0.2544198945214047,13.6000003815,0.0,1.2755348566739648,3.05400822552879
1648638744857311229,62846,12,9,3.81730270386,-1.12889230251,0.514496326447,0.0,13.6000003815,1.2766898675117055,-0.3775559540167224,0.17207234998227425,13.6000003815,0.0,1.8445656762575817,4.013839089137811
1648638744857330332,62847,12,10,1.73965978622,-0.0,0.138288423419,-0.365145087242,13.6000003815,0.581826015458194,-0.0,0.04625030883578595,13.6000003815,-0.04934393070837838,0.822826242002476,1.745147518074827
1648638744857333653,62848,12,11,1.78367269039,-0.0,0.581389904022,-0.243430063128,13.6000003815,0.5965460502976588,-0.0,0.19444478395384612,13.6000003815,-0.03289595447675676,0.8436435149110516,1.8760337115685877
1648638744957037299,62849,13,0,0.0271732658148,0.081803791225,0.0135500328615,0.0,18.8999996185,0.009088048767491638,0.0273591275,0.004531783565719063,18.8999996185,0.0,0.03022758869579029,0.08725737805121637
1648638744957044538,62850,13,1,0.0697720870376,0.0272679310292,-0.0447455607355,0.0,18.8999996185,0.023335146166421405,0.00911970937431438,-0.014965070480100333,18.8999996185,0.0,0.03423780355525834,0.08725737446044292
1648638744957048888,62851,13,2,0.212674900889,-0.081803791225,-0.128849431872,0.0,18.8999996185,0.07112872939431437,-0.0273591275,-0.043093455475585275,18.8999996185,0.0,0.10424545145022136,0.2617721333921289
1648638744957059402,62852,13,3,0.259270817041,1.01436698437,0.0152522074059,0.0,18.8999996185,0.08671264783979933,0.3392531720301003,0.005101072711003344,18.8999996185,0.0,0.360736581626071,1.0470885184069914
1648638744957064670,62853,13,4,1.16854834557,0.676244676113,-0.0800968334079,0.0,18.8999996185,0.3908188446722408,0.22616878799765885,-0.026788238597959865,18.8999996185,0.0,0.5971859504092676,1.352489408693293
1648638744957067279,62854,13,5,1.57605707645,0.447194069624,0.718179762363,0.0,18.8999996185,0.5271093901170568,0.14956323398795984,0.24019390045585282,18.8999996185,0.0,0.76030111091599,1.788776289870472
1648638744957179017,62855,13,6,2.42629551888,1.71787965298,0.699246227741,0.0,18.8999996185,0.8114700732040133,0.5745416899598662,0.23386161462909696,18.8999996185,0.0,1.283380501999852,3.054008142436734
1648638744957188571,62856,13,7,3.81811237335,-1.12889230251,0.508453786373,0.0,18.8999996185,1.2769606599832775,-0.3775559540167224,0.1700514335695652,18.8999996185,0.0,1.8449405282293878,4.013839206927918
1648638744957212527,62857,13,8,1.70017313957,0.0531724654138,0.0418416336179,-0.486860126257,18.8999996185,0.5686197791204013,0.017783433248762543,0.013993857397290968,18.8999996185,-0.06579190895364864,0.8043464159875278,1.7015189502022323
1648638744957219075,62858,13,9,1.73429322243,0.0545358620584,0.186528846622,-0.365145087242,18.8999996185,0.5800311780702341,0.01823941874862876,0.06238422963946488,18.8999996185,-0.04934393070837838,0.8204907138190992,1.7451476018489727
1648638744957224622,62859,13,10,2.01684594154,0.261772125959,-0.499384731054,-0.365145087242,18.8999996185,0.6745304152307693,0.08754920600635452,-0.16701830470033444,18.8999996185,-0.04934393070837838,0.9579391554869918,2.094177000027777
1648638744957237882,62860,13,11,3.46350288391,1.0307277441,-4.14259815216,-0.243430063128,18.8999996185,1.1583621685317724,0.3447249980267558,-1.3854843318260868,18.8999996185,-0.03289595447675676,1.6740493275993416,5.497214872968838
1648638744957241928,62861,13,12,3.21748614311,-1.71787965298,-4.1129117012,-0.243430063128,18.8999996185,1.0760823221103677,-0.5745416899598662,-1.375555752909699,18.8999996185,-0.03289595447675676,1.626654382903394,5.497214771599835
1648638744957244680,62862,13,13,1.48794138432,0.245411381125,0.438966274261,-0.121715031564,18.8999996185,0.49763925896989963,0.08207738499163879,0.14681146296354514,18.8999996185,-0.01644797723837838,0.7085381861715622,1.570632897623242
1648638744957255024,62863,13,14,1.59447991848,0.22905062139,0.873428761959,-0.121715031564,18.8999996185,0.5332708757458193,0.07660555899331102,0.29211664279565214,18.8999996185,-0.01644797723837838,0.7580396200107905,1.83240503159437
1648638745057071304,62864,14,0,0.0271849352866,0.081803791225,0.0135266073048,0.0,11.8000001907,0.009091951600869565,0.0273591275,0.004523948931371238,11.8000001907,0.0,0.030229935914360878,0.0872573783155229
1648638745057076384,62865,14,1,0.0697835162282,0.0272679310292,-0.0447277352214,0.0,11.8000001907,0.02333896863819398,0.00911970937431438,-0.014959108769698996,11.8000001907,0.0,0.03424301407967999,0.08725737503397824
1648638745057082864,62866,14,2,0.212871074677,-0.081803791225,-0.128525048494,0.0,11.8000001907,0.07119433935685618,-0.0273591275,-0.042984966051505015,11.8000001907,0.0,0.1043349882373102,0.26177211995036703
1648638745057089094,62867,14,3,0.257201552391,1.01436698437,0.0360742546618,0.0,11.8000001907,0.08602058608394648,0.3392531720301003,0.01206496811431438,11.8000001907,0.0,0.3604050460148084,1.0470885203179494
1648638745057091891,62868,14,4,1.16852653027,0.676244676113,-0.0804133713245,0.0,11.8000001907,0.3908115485852843,0.22616878799765885,-0.02689410412190635,11.8000001907,0.0,0.5971764008059812,1.3524893434714351
1648638745057095523,62869,14,5,1.58260989189,0.466281622648,0.162871941924,0.0,11.8000001907,0.5293009671872909,0.15594703098595317,0.05447222137926421,11.8000001907,0.0,0.7646165733255702,1.6578901926826832
1648638745057101712,62870,14,6,2.46984767914,1.71787965298,0.525078773499,0.0,11.8000001907,0.826036013090301,0.5745416899598662,0.1756116299327759,11.8000001907,0.0,1.301832993646335,3.0540081497362026
1648638745057273992,62871,14,7,3.81057977676,-1.12889230251,0.562129020691,0.0,11.8000001907,1.2744413969096988,-0.3775559540167224,0.1880030169535117,11.8000001907,0.0,1.841453297460396,4.013839197280036
1648638745057279447,62872,14,8,2.09277558327,-1.39339125156,-1.95507133007,0.243430063128,11.8000001907,0.6999249442374581,-0.4660171409899665,-0.6538700100568562,11.8000001907,0.03289595447675676,1.0940575080077282,3.1848944609698937
1648638745057281660,62873,14,9,2.01716113091,0.199055895209,2.45662164688,0.243430063128,11.8000001907,0.6746358297357858,0.06657387799632106,0.8216125909297658,11.8000001907,0.03289595447675676,0.9563990206802041,3.1848943771169194
1648638745057284269,62874,14,10,4.31978464127,0.715783178806,1.34639918804,0.243430063128,11.8000001907,1.444744027180602,0.23939236749364545,0.4503007317859531,11.8000001907,0.03289595447675676,2.0571532061959465,4.581012516853515
1648638745057290017,62875,14,11,1.69232046604,0.114525310695,0.693284451962,-0.243430063128,11.8000001907,0.56599346690301,0.03830277949665551,0.2318677096862876,11.8000001907,-0.03289595447675676,0.8013515533590403,1.832404960127504
1648638745156936891,62876,15,0,0.0272165797651,0.081803791225,0.0134628228843,0.0,19.6000003815,0.009102535038494982,0.0273591275,0.004502616349264214,19.6000003815,0.0,0.030236305095287585,0.08725737832932795
1648638745156941190,62877,15,1,0.0697487145662,0.0272679310292,-0.044781986624,0.0,19.6000003815,0.023327329286354517,0.00911970937431438,-0.014977253051505015,19.6000003815,0.0,0.03422714832322412,0.08725737546043065
1648638745156948588,62878,15,2,0.212297439575,-0.081803791225,-0.129470393062,0.0,19.6000003815,0.0710024881521739,-0.0273591275,-0.04330113480334448,19.6000003815,0.0,0.10407318821464272,0.2617721256904809
1648638745156971762,62879,15,3,0.259499937296,1.01436698437,0.0106662223116,0.0,19.6000003815,0.08678927668762541,0.3392531720301003,0.003567298431973244,19.6000003815,0.0,0.3607734355913795,1.0470885180990748
1648638745157187593,62880,15,4,0.812225937843,0.392658174038,-0.531510055065,0.0,19.6000003815,0.27164747085050167,0.13132380402608695,-0.17776256022240802,19.6000003815,0.0,0.4059933969202337,1.0470885131539724
1648638745157196255,62881,15,5,1.1872677803,0.633979380131,-0.133014932275,0.0,19.6000003815,0.39707952518394646,0.21203323750200667,-0.04448659942307692,19.6000003815,0.0,0.6002519408100228,1.3524894117063908
1648638745157204998,62882,15,6,1.6436444521,-2.1132645607,0.386594951153,0.0,19.6000003815,0.5497138635785953,-0.7067774450501672,0.12929597028528428,19.6000003815,0.0,1.0506688443332919,2.704978714276078
1648638745157207172,62883,15,7,2.46242117882,1.71787965298,0.558872103691,0.0,19.6000003815,0.8235522337190635,0.5745416899598662,0.18691374705384617,19.6000003815,0.0,1.2986819151852609,3.05400828294685
1648638745157209641,62884,15,8,3.80973696709,-1.12889230251,0.567812860012,0.0,19.6000003815,1.2741595207658862,-0.3775559540167224,0.18990396655919733,19.6000003815,0.0,1.8410631350201392,4.013839188741055
1648638745157239473,62885,15,9,1.58358633518,0.558992564678,0.616037786007,0.121715031564,19.6000003815,0.5296275368494983,0.18695403500936453,0.2060327043501672,19.6000003815,0.01644797723837838,0.771986053491134,1.788776375660892
1648638745157257039,62886,15,10,1.64476764202,0.207236275077,-0.0198119450361,-0.365145087242,19.6000003815,0.5500895123812708,0.06930979099565217,-0.006626068573946487,19.6000003815,-0.04934393070837838,0.7810254735868668,1.6578902204639285
1648638745157294167,62887,15,11,1.69473803043,0.111798517406,0.561324059963,-0.243430063128,19.6000003815,0.5668020168662207,0.03739080849698996,0.1877337993187291,19.6000003815,-0.03289595447675676,0.8024506995493802,1.7887762857812268
1648638745256916701,62888,16,0,0.0271923635155,0.081803791225,0.013511669822,0.0,23.5,0.009094435958361204,0.0273591275,0.004518953117725752,23.5,0.0,0.030231430471658514,0.0872573785631979
1648638745256922882,62889,16,1,0.0697268545628,0.0272679310292,-0.0448160134256,0.0,23.5,0.023320018248428095,0.00911970937431438,-0.01498863325270903,23.5,0.0,0.03421718283678533,0.08725737429695345
1648638745257006071,62890,16,2,0.212325274944,-0.081803791225,-0.129424735904,0.0,23.5,0.07101179764013377,-0.0273591275,-0.04328586485083612,23.5,0.0,0.10408589081007988,0.2617721239984287
1648638745257008427,62891,16,3,0.258949846029,1.01436698437,0.0199741255492,0.0,23.5,0.08660529967525084,0.3392531720301003,0.006680309548227424,23.5,0.0,0.36068500190077885,1.047088519385914
1648638745257018957,62892,16,4,1.18711161613,0.633979380131,-0.13440066576,0.0,23.5,0.3970272963645484,0.21203323750200667,-0.04495005543812709,23.5,0.0,0.600182840410044,1.352489328068358
1648638745257025459,62893,16,5,2.4502222538,1.71787965298,0.610135912895,0.0,23.5,0.8194723256856186,0.5745416899598662,0.20405883374414716,23.5,0.0,1.2935099298540897,3.0540080922197395
1648638745257054174,62894,16,6,3.8211388588,-1.00345981121,0.709134221077,0.0,23.5,1.2779728624749163,-0.3356052880301003,0.23716863581170566,23.5,0.0,1.8382220170040475,4.0138391988777355
1648638745257081825,62895,16,7,1.60366404057,0.151337012649,-0.105823643506,-0.243430063128,23.5,0.5363424884849498,0.050614385501337796,-0.035392522911705686,23.5,-0.03289595447675676,0.7601896775990418,1.6142614069411767
1648638745257100109,62896,16,8,1.64573347569,0.0545358620584,0.578037381172,-0.243430063128,23.5,0.5504125336755852,0.01823941874862876,0.1933235388535117,23.5,-0.03289595447675676,0.7786145329048529,1.7451475717799125
1648638745257110034,62897,16,9,1.44473469257,0.334032148123,0.364562362432,-0.121715031564,23.5,0.4831888603913043,0.11171643749933109,0.12192721151571906,23.5,-0.01644797723837838,0.69240415367041,1.5270041008448534
