%time,field.header.seq,field.header.frame_id,field.point_id,field.x,field.y,field.z,field.velocity,field.intensity,normalized_x,normalized_y,normalized_z,normalized_intensity,normalized_velocity,normalized_range,range
1648638535354451713,42265,0,0,0.0272732563317,0.081803791225,0.0133476322517,0.0,14.3999996185,0.0091214904119398,0.0273591275,0.004464091054080267,14.3999996185,0.0,0.030247727720135866,0.08725737823499297
1648638535354552250,42266,0,1,0.0697509646416,0.0272679310292,-0.0447784774005,0.0,14.3999996185,0.023328081819933108,0.00911970937431438,-0.014976079398160534,14.3999996185,0.0,0.034228174094843924,0.08725737315180895
1648638535354555862,42267,0,2,0.213365465403,-0.081803791225,-0.127702653408,0.0,14.3999996185,0.07135968742575251,-0.0273591275,-0.04270991752775919,14.3999996185,0.0,0.10456066103733018,0.26177213330082705
1648638535354558122,42268,0,3,0.259039074183,1.01436698437,0.0187811944634,0.0,14.3999996185,0.08663514186722407,0.3392531720301003,0.0062813359409364545,14.3999996185,0.0,0.3606993351050053,1.0470885130679954
1648638535354563662,42269,0,4,1.16916704178,0.676244676113,-0.0704912245274,0.0,14.3999996185,0.3910257664816053,0.22616878799765885,-0.023575660377056856,14.3999996185,0.0,0.5974567940607788,1.3524893516368788
1648638535354582630,42270,0,5,1.64000856876,-2.1132645607,0.401739537716,0.0,14.3999996185,0.548497849083612,-0.7067774450501672,0.13436104940334448,14.3999996185,0.0,1.049397035316157,2.704978718082834
1648638535354620150,42271,0,6,3.81317543983,-1.12889230251,0.544243633747,0.0,14.3999996185,1.2753095116488293,-0.3775559540167224,0.1820212821896321,14.3999996185,0.0,1.8426549322695849,4.013839296541802
1648638535354638795,42272,0,7,1.43595409393,0.429469913244,0.292118251324,0.121715031564,14.3999996185,0.48025220532775914,0.1436354224896321,0.09769841181404681,14.3999996185,0.01644797723837838,0.6942013368167245,1.5270041385054356
1648638535354652031,42273,0,8,1.37971401215,0.708966195583,0.799560010433,0.121715031564,14.3999996185,0.4614428134280936,0.23711243999431436,0.2674113747267558,14.3999996185,0.01644797723837838,0.6943207107158235,1.7451475674240564
1648638535354664229,42274,0,9,1.62687146664,0.25904533267,0.186506152153,0.243430063128,14.3999996185,0.544104169444816,0.08663723500668896,0.06237663951605351,14.3999996185,0.03289595447675676,0.7743414653136368,1.6578901646781108
1648638535354671179,42275,0,10,1.74554812908,0.223597034812,0.320603817701,0.243430063128,14.3999996185,0.583795360896321,0.07478161699397992,0.10722535709063544,14.3999996185,0.03289595447675676,0.8289911561943021,1.7887763171609419
1648638535354749210,42276,0,11,4.46046257019,-1.20251572132,-2.97953033447,0.243430063128,14.3999996185,1.4917935017357857,-0.4021791710100334,-0.9964984396220735,14.3999996185,0.03289595447675676,2.1477066348169047,5.497214877928154
1648638535354760360,42277,0,12,2.64057230949,1.8896676302,-4.43575286865,0.243430063128,14.3999996185,0.8831345516688962,0.6319958629431438,-1.483529387508361,14.3999996185,0.03289595447675676,1.3997399913841475,5.497214693461384
1648638535454445649,42278,1,0,0.0176686029881,0.0845305845141,0.0125000244007,0.0,13.3000001907,0.005909231768595317,0.028271098499698995,0.0041806101674581935,13.3000001907,0.0,0.029480384165909968,0.08725737710855509
1648638535454455603,42279,1,1,0.0696611404419,0.0272679310292,-0.0449180901051,0.0,13.3000001907,0.023298040281571904,0.00911970937431438,-0.015022772610401336,13.3000001907,0.0,0.03418722657653662,0.08725737429563879
1648638535454472648,42280,1,2,0.212751924992,-0.081803791225,-0.128722205758,0.0,13.3000001907,0.07115448996387959,-0.0273591275,-0.04305090493578595,13.3000001907,0.0,0.10428060577883569,0.2617721301089745
1648638535454479692,42281,1,3,0.259618520737,1.01436698437,0.00722498632967,0.0,13.3000001907,0.08682893670133777,0.3392531720301003,0.002416383387849498,13.3000001907,0.0,0.3607925210281592,1.047088513792898
1648638535454485003,42282,1,4,0.801268994808,0.392658174038,-0.54788851738,0.0,13.3000001907,0.26798294140735784,0.13132380402608695,-0.1832403068160535,13.3000001907,0.0,0.40109307557543405,1.0470884734139392
1648638535454520976,42283,1,5,1.16893410683,0.676244676113,-0.0742534324527,0.0,13.3000001907,0.3909478618160535,0.22616878799765885,-0.024833923897224077,13.3000001907,0.0,0.597354820840527,1.3524893272453702
1648638535454526962,42284,1,6,2.46004939079,1.71787965298,0.56922107935,0.0,13.3000001907,0.8227589935752508,0.5745416899598662,0.19037494292642138,13.3000001907,0.0,1.2976759520465262,3.054008209619829
1648638535454534291,42285,1,7,3.83258295059,-1.00345981121,0.644423007965,0.0,13.3000001907,1.2818003179230768,-0.3356052880301003,0.21552608962040132,13.3000001907,0.0,1.84354414631415,4.013839144642124
1648638535454538027,42286,1,8,1.55600774288,0.599894464016,0.514302194118,0.121715031564,13.3000001907,0.5204039273846154,0.20063360000535116,0.1720074227819398,13.3000001907,0.01644797723837838,0.7628199897261289,1.7451476186082786
1648638535454543382,42287,1,9,1.53791868687,0.454011052847,0.185796320438,0.243430063128,13.3000001907,0.5143540758762541,0.15184316148729096,0.062139237604682276,13.3000001907,0.03289595447675676,0.7430858472824565,1.6142615018080209
1648638535454547405,42288,1,10,3.0527613163,-3.16717004776,0.258654415607,0.243430063128,13.3000001907,1.0209904067892974,-1.0592541965752507,0.08650649351404681,13.3000001907,0.03289595447675676,1.7907714188231365,4.406497460845608
1648638535454553422,42289,1,11,4.39177751541,2.87403988838,1.31142163277,0.243430063128,13.3000001907,1.4688219115083612,0.961217353973244,0.4386025527658862,13.3000001907,0.03289595447675676,2.2888456516404676,5.409957645283121
1648638535454555797,42290,1,12,3.12333869934,1.1834281683,-4.25580692291,0.243430063128,13.3000001907,1.044594882722408,0.39579537401337794,-1.423346796959866,13.3000001907,0.03289595447675676,1.5293825277248567,5.409957432864833
1648638535554431656,42291,2,0,0.0176118500531,0.0845305845141,0.0125798583031,0.0,12.5,0.005890250853879598,0.028271098499698995,0.004207310469264213,12.5,0.0,0.029472786102147545,0.08725737685442049
1648638535554438551,42292,2,1,0.0697853937745,0.0272679310292,-0.0447248071432,0.0,12.5,0.023339596580100336,0.00911970937431438,-0.014958129479331101,12.5,0.0,0.0342438700516694,0.08725737573908389
1648638535554578928,42293,2,2,0.212592542171,-0.081803791225,-0.128985255957,0.0,12.5,0.07110118467257524,-0.0273591275,-0.043138881590969895,12.5,0.0,0.10420786333693131,0.2617721251390312
1648638535554595989,42294,2,3,0.259449660778,1.01436698437,0.0118255754933,0.0,12.5,0.08677246179866221,0.3392531720301003,0.003955041971003344,12.5,0.0,0.36076534615409694,1.047088510916558
1648638535554601382,42295,2,4,1.16873860359,0.676244676113,-0.0772696956992,0.0,12.5,0.39088247611705684,0.22616878799765885,-0.025842707591705684,12.5,0.0,0.5972692365551175,1.3524893313317212
1648638535554610319,42296,2,5,2.45413732529,1.71787965298,0.594193458557,0.0,12.5,0.8207817141438126,0.5745416899598662,0.19872690921638794,12.5,0.0,1.2951692545948,3.054008248138202
1648638535554614942,42297,2,6,3.82234334946,-1.12889230251,0.475602507591,0.0,12.5,1.278375702160535,-0.3775559540167224,0.15906438380969898,12.5,0.0,1.846899393622284,4.013839092073107
1648638535554636407,42298,2,7,1.59743237495,0.414472550154,0.158183991909,0.121715031564,12.5,0.5342583193812709,0.13861958199130434,0.05290434512006689,12.5,0.01644797723837838,0.7681661878575782,1.6578901841394151
1648638535554640976,42299,2,8,1.50632202625,0.29449364543,0.333399325609,0.243430063128,12.5,0.5037866308528427,0.09849285800334448,0.11150479117357859,12.5,0.03289595447675676,0.719237639400069,1.570632886540038
1648638535554646611,42300,2,9,1.98075723648,0.261772125959,-0.627417802811,0.243430063128,12.5,0.6624606142073578,0.08754920600635452,-0.20983873003712372,12.5,0.03289595447675676,0.9409426094211711,2.0941769206734095
1648638535654575874,42301,3,0,0.0272047892213,0.081803791225,0.0134866330773,0.0,12.8999996185,0.009098591712809363,0.0273591275,0.00451057962451505,12.8999996185,0.0,0.03023393126727093,0.08725737841077093
1648638535654589166,42302,3,1,0.0695638433099,0.0272679310292,-0.0450686365366,0.0,12.8999996185,0.02326549943474916,0.00911970937431438,-0.015073122587491638,12.8999996185,0.0,0.03414287666510519,0.08725737996253201
1648638535654593529,42303,3,2,0.212902337313,-0.081803791225,-0.128473266959,0.0,12.8999996185,0.07120479508795986,-0.0273591275,-0.042967647812374575,12.8999996185,0.0,0.10434925751819206,0.26177212574153175
1648638535654603536,42304,3,3,0.259691357613,1.01436698437,0.00379073992372,0.0,12.8999996185,0.08685329686053511,0.3392531720301003,0.0012678059945551838,12.8999996185,0.0,0.36080424759635704,1.047088511018978
1648638535654625415,42305,3,4,0.797309696674,0.392658174038,-0.553634524345,0.0,12.8999996185,0.2666587614294314,0.13132380402608695,-0.18516204827591973,12.8999996185,0.0,0.3993240934354436,1.047088525672952
1648638535654648505,42306,3,5,1.16890931129,0.676244676113,-0.0746424645185,0.0,12.8999996185,0.390939568993311,0.22616878799765885,-0.024964034956020065,12.8999996185,0.0,0.5973439661314757,1.352489311418406
1648638535654652808,42307,3,6,2.46429657936,1.71787965298,0.550543010235,0.0,12.8999996185,0.8241794579799331,0.5745416899598662,0.18412809706856184,12.8999996185,0.0,1.2994774763011983,3.054008143290829
1648638535654659596,42308,3,7,3.83860850334,-1.00345981121,0.60750234127,0.0,12.8999996185,1.2838155529565216,-0.3356052880301003,0.20317804055852842,12.8999996185,0.0,1.84634657022453,4.013839300380161
1648638535654701866,42309,3,8,1.48334562778,0.29449364543,0.424083501101,0.243430063128,12.8999996185,0.49610221664882936,0.09849285800334448,0.14183394685652173,12.8999996185,0.03289595447675676,0.7084741786440992,1.5706328579775652
1648638535654706356,42310,3,9,1.74017071724,0.109071724117,0.0738190636039,0.243430063128,12.8999996185,0.5819968953979933,0.03647883749732441,0.024688650034749165,12.8999996185,0.03289595447675676,0.823875887552829,1.745147564045169
1648638535654709508,42311,3,10,1.13315689564,0.763502061367,1.08561515808,0.243430063128,12.8999996185,0.37898223934448155,0.2553518599889632,0.3630819926688963,12.8999996185,0.03289595447675676,0.5936831207613527,1.7451476210628154
1648638535654870230,42312,3,11,2.5857796669,-3.44257616997,0.937886655331,0.243430063128,12.8999996185,0.8648092531438127,-1.151363267548495,0.3136744666658863,12.8999996185,0.03289595447675676,1.6797105293788765,4.406497310795363
1648638535654889203,42313,3,12,1.60029363632,0.414472550154,-0.125987231731,-0.121715031564,12.8999996185,0.5352152629832776,0.13861958199130434,-0.042136197903344476,12.8999996185,-0.01644797723837838,0.7694973320109445,1.6578902255085195
1648638535754555884,42314,4,0,0.0271389558911,0.081803791225,0.0136186229065,0.0,14.3000001907,0.009076573876622073,0.0273591275,0.004554723380100334,14.3000001907,0.0,0.0302206923189528,0.08725737834425182
1648638535754559952,42315,4,1,0.0697509646416,0.0272679310292,-0.0447784774005,0.0,14.3000001907,0.023328081819933108,0.00911970937431438,-0.014976079398160534,14.3000001907,0.0,0.034228174094843924,0.08725737315180895
1648638535754566735,42316,4,2,0.211824208498,-0.081803791225,-0.130243197083,0.0,14.3000001907,0.0708442168889632,-0.0273591275,-0.04355959768662207,14.3000001907,0.0,0.1038572481379233,0.26177212600081917
1648638535754568540,42317,4,3,0.259356290102,1.01436698437,0.0137218814343,0.0,14.3000001907,0.08674123414782609,0.3392531720301003,0.004589258004782609,14.3000001907,0.0,0.36075032659092743,1.0470885130806553
1648638535754661982,42318,4,4,1.16888546944,0.676244676113,-0.0750159025192,0.0,14.3000001907,0.39093159513043474,0.22616878799765885,-0.02508893060842809,14.3000001907,0.0,0.5973335289490974,1.3524893671559548
1648638535754664348,42319,4,5,1.48491501808,0.29449364543,0.418555229902,0.0,14.3000001907,0.49662709634782604,0.09849285800334448,0.13998502672307692,14.3000001907,0.0,0.7092092700546241,1.5706328656298052
1648638535754668661,42320,4,6,2.48084926605,1.71787965298,0.470364719629,0.0,14.3000001907,0.8297154735953176,0.5745416899598662,0.1573126152605351,14.3000001907,0.0,1.3065043772406364,3.0540082764221803
1648638535754670698,42321,4,7,3.81809806824,-1.12889230251,0.508560657501,0.0,14.3000001907,1.2769558756655517,-0.3775559540167224,0.17008717642173912,14.3000001907,0.0,1.8449339053762954,4.013839138745124
1648638535854511790,42322,5,0,0.0272279474884,0.081803791225,0.0134398136288,0.0,15.3999996185,0.00910633695264214,0.0273591275,0.0044949209460869565,15.3999996185,0.0,0.030238594592860428,0.08725737776022915
1648638535854520571,42323,5,1,0.0697427466512,0.0272679310292,-0.0447912812233,0.0,15.3999996185,0.023325333328160534,0.00911970937431438,-0.014980361613143811,15.3999996185,0.0,0.034224427662293354,0.08725737588703562
1648638535854543238,42324,5,2,0.21220728755,-0.081803791225,-0.129618108273,0.0,15.3999996185,0.07097233697324415,-0.0273591275,-0.04335053788394648,15.3999996185,0.0,0.10403204837187767,0.2617721282726313
1648638535854550867,42325,5,3,0.259154886007,1.01436698437,0.0171093195677,0.0,15.3999996185,0.08667387491872909,0.3392531720301003,0.005722180457424749,15.3999996185,0.0,0.36071794510301236,1.0470885171451643
1648638535854690185,42326,5,4,1.16890859604,0.676244676113,-0.074654430151,0.0,15.3999996185,0.3909393297792642,0.22616878799765885,-0.02496803683979933,15.3999996185,0.0,0.597343653017968,1.3524893536766014
1648638535854697040,42327,5,5,1.55735719204,0.252228349447,0.341847449541,0.0,15.3999996185,0.520855248173913,0.08435730750735786,0.11433025068260869,15.3999996185,0.0,0.7414152240347565,1.6142615161804355
1648638535854699193,42328,5,6,2.45434713364,1.71787965298,0.593325912952,0.0,15.3999996185,0.820851884160535,0.5745416899598662,0.19843676018461537,15.3999996185,0.0,1.2952581923932154,3.054008184912066
1648638535854700950,42329,5,7,3.7999958992,-1.12889230251,0.629713237286,0.0,15.3999996185,1.270901638528428,-0.3775559540167224,0.2106064338749164,15.3999996185,0.0,1.8365539600136893,4.013839237664652
1648638535954473707,42330,6,0,0.0271824598312,0.081803791225,0.013531579636,0.0,15.1000003815,0.009091123689364548,0.0273591275,0.004525611918394648,15.1000003815,0.0,0.030229437927819743,0.08725737807603205
1648638535954482779,42331,6,1,0.069688975811,0.0272679310292,-0.0448749028146,0.0,15.1000003815,0.02330734976956522,0.00911970937431438,-0.015008328700535116,15.1000003815,0.0,0.034199915286936916,0.08725737971552404
1648638535954492828,42332,6,2,0.212276265025,-0.081803791225,-0.129505112767,0.0,15.1000003815,0.07099540636287625,-0.0273591275,-0.04331274674481605,15.1000003815,0.0,0.10406352534303803,0.26177212835697544
1648638535954498983,42333,6,3,0.25917249918,1.01436698437,0.0168403256685,0.0,15.1000003815,0.08667976561204013,0.3392531720301003,0.005632215942642141,15.1000003815,0.0,0.3607207760382,1.047088515780646
1648638535954625875,42334,6,4,1.14573669434,0.718509972095,-0.0160697232932,0.0,15.1000003815,0.38318952987959864,0.240304338493311,-0.005374489395719063,15.1000003815,0.0,0.5928023335964556,1.352489330369681
1648638535954630742,42335,6,5,1.5727493763,0.252228349447,0.262069493532,0.0,15.1000003815,0.5260031358862876,0.08435730750735786,0.08764866004414715,15.1000003815,0.0,0.7486486180140237,1.6142614906999784
1648638535954633185,42336,6,6,2.4569246769,1.71787965298,0.582560062408,0.0,15.1000003815,0.8217139387625417,0.5745416899598662,0.19483614127357857,15.1000003815,0.0,1.2963509354396436,3.0540081198968134
1648638535954637620,42337,6,7,3.80870389938,-1.12889230251,0.574700772762,0.0,15.1000003815,1.2738140131705686,-0.3775559540167224,0.1922076163083612,15.1000003815,0.0,1.8405849012509303,4.013839085219035
1648638536054458813,42338,7,0,0.0176379308105,0.0845305845141,0.0125432647765,0.0,14.1000003815,0.0058989735152173905,0.028271098499698995,0.00419507183160535,14.1000003815,0.0,0.02947627499271499,0.08725737683900871
1648638536054476532,42339,7,1,0.0697615295649,0.0272679310292,-0.0447620302439,0.0,14.1000003815,0.02333161523909699,0.00911970937431438,-0.014970578676889631,14.1000003815,0.0,0.03423299049750815,0.08725738032627064
1648638536054483336,42340,7,2,0.21313354373,-0.081803791225,-0.12808932364,0.0,14.1000003815,0.07128212164882942,-0.0273591275,-0.042839238675585284,14.1000003815,0.0,0.10445479209245638,0.2617721195090185
1648638536054488319,42341,7,3,0.259702026844,1.01436698437,0.00297315139323,0.0,14.1000003815,0.08685686516521739,0.3392531720301003,0.0009943650144581938,14.1000003815,0.0,0.36080596556202105,1.0470885164855819
1648638536054495928,42342,7,4,1.16925251484,0.676244676113,-0.0690587759018,0.0,14.1000003815,0.3910543527892976,0.22616878799765885,-0.023096580569163878,14.1000003815,0.0,0.5974942128048127,1.352489341902514
1648638536054500508,42343,7,5,1.48946464062,0.19632910192,0.458080202341,0.0,14.1000003815,0.4981487092374582,0.06566190699665551,0.15320408105050165,14.1000003815,0.0,0.707542054623136,1.5706328354184982
1648638536054505549,42344,7,6,0.3771289289,0.785316407681,-1.30688154697,0.0,14.1000003815,0.12613007655518393,0.2626476279869565,-0.4370841294214046,14.1000003815,0.0,0.31749231315231524,1.5706328237360099
1648638536054564978,42345,7,7,2.45342087746,1.71787965298,0.597144603729,0.0,14.1000003815,0.8205420994849498,0.5745416899598662,0.19971391429063545,14.1000003815,0.0,1.2948655635069912,3.054008215745653
1648638536054583617,42346,7,8,3.83979725838,-1.00345981121,0.599942266941,0.0,14.1000003815,1.2842131298929764,-0.3356052880301003,0.20064958760568558,14.1000003815,0.0,1.8468994654102848,4.01383922222085
1648638536054586662,42347,7,9,1.6051876545,0.414472550154,0.0136109348387,-0.121715031564,14.1000003815,0.536852058361204,0.13861958199130434,0.004552152119966555,14.1000003815,-0.01644797723837838,0.7717743540988954,1.6578902733708145
1648638536154502713,42348,8,0,0.0272163785994,0.081803791225,0.013463228941,0.0,20.2999992371,0.009102467758996655,0.0273591275,0.004502752154180602,20.2999992371,0.0,0.030236264586889758,0.08725737823454843
1648638536154511801,42349,8,1,0.0696433186531,0.0272679310292,-0.0449457205832,0.0,20.2999992371,0.0232920798170903,0.00911970937431438,-0.015032013572976587,20.2999992371,0.0,0.034179102730811525,0.08725737616026237
1648638536154515301,42350,8,2,0.21252015233,-0.081803791225,-0.129104495049,0.0,20.2999992371,0.07107697402341136,-0.0273591275,-0.043178760885953175,20.2999992371,0.0,0.10417482579880152,0.26177212618421974
1648638536154527623,42351,8,3,0.259162575006,1.01436698437,0.0169924851507,0.0,20.2999992371,0.086676446490301,0.3392531720301003,0.005683105401571906,20.2999992371,0.0,0.36071918092174815,1.0470885176599087
1648638536154555441,42352,8,4,1.14579439163,0.718509972095,-0.0112280081958,0.0,20.2999992371,0.383208826632107,0.240304338493311,-0.0037551866875585285,20.2999992371,0.0,0.592827280678125,1.3524893478540836
1648638536154625667,42353,8,5,1.64269399643,-2.1132645607,0.39061409235,0.0,20.2999992371,0.5493959854280936,-0.7067774450501672,0.13064016466555184,20.2999992371,0.0,1.0503362577958804,2.7049787501124927
1648638536154631037,42354,8,6,2.45485377312,1.71787965298,0.591226696968,0.0,20.2999992371,0.8210213288026755,0.5745416899598662,0.19773468126020066,20.2999992371,0.0,1.2954729631295905,3.0540082771223585
1648638536154634141,42355,8,7,3.85037112236,-1.00345981121,0.527840256691,0.0,20.2999992371,1.287749539250836,-0.3356052880301003,0.17653520290668895,20.2999992371,0.0,1.8518176640898658,4.0138391483965865
1648638536154645958,42356,8,8,1.48755526543,0.245411381125,0.440272897482,-0.121715031564,20.2999992371,0.49751012221739127,0.08207738499163879,0.14724846069632105,20.2999992371,-0.01644797723837838,0.7083567890156718,1.5706328781581624
1648638536254511832,42357,9,0,0.0271782707423,0.081803791225,0.0135399950668,0.0,18.0,0.009089722656287625,0.0273591275,0.004528426443745819,18.0,0.0,0.03022859529481503,0.08725737863203384
1648638536254517618,42358,9,1,0.0697615295649,0.0272679310292,-0.0447620302439,0.0,18.0,0.02333161523909699,0.00911970937431438,-0.014970578676889631,18.0,0.0,0.03423299049750815,0.08725738032627064
1648638536254538986,42359,9,2,0.212751924992,-0.081803791225,-0.128722205758,0.0,18.0,0.07115448996387959,-0.0273591275,-0.04305090493578595,18.0,0.0,0.10428060577883569,0.2617721301089745
1648638536254543562,42360,9,3,0.258843332529,1.01436698437,0.0213099773973,0.0,18.0,0.08656967643110366,0.3392531720301003,0.007127082741571905,18.0,0.0,0.3606678977775217,1.0470885181832907
1648638536254552237,42361,9,4,1.16902661324,0.676244676113,-0.0727833136916,0.0,18.0,0.3909788004147157,0.22616878799765885,-0.02434224538180602,18.0,0.0,0.597395317534202,1.3524893697129343
1648638536254566424,42362,9,5,2.47200012207,1.71787965298,0.514849960804,0.0,18.0,0.8267558936688962,0.5745416899598662,0.17219062234247492,18.0,0.0,1.3027466249944575,3.0540081184857155
1648638536254570654,42363,9,6,3.83172488213,-1.00345981121,0.649505913258,0.0,18.0,1.2815133385050166,-0.3356052880301003,0.2172260579458194,18.0,0.0,1.843145079174809,4.013839196630189
1648638536254670697,42364,9,7,1.57584214211,0.545358598232,0.514631569386,-0.243430063128,18.0,0.5270375057224079,0.18239418001070232,0.17211758173444813,18.0,-0.03289595447675676,0.7673361074379146,1.7451475896680209
1648638536254677316,42365,9,8,1.49167883396,0.245411381125,0.426092803478,-0.121715031564,18.0,0.4988892421270903,0.08207738499163879,0.14250595434046823,18.0,-0.01644797723837838,0.7102940580825315,1.5706328555221578
1648638536354628473,42366,10,0,0.0272163785994,0.081803791225,0.013463228941,0.0,20.1000003815,0.009102467758996655,0.0273591275,0.004502752154180602,20.1000003815,0.0,0.030236264586889758,0.08725737823454843
1648638536354647447,42367,10,1,0.0697571709752,0.0272679310292,-0.0447688139975,0.0,20.1000003815,0.023330157516789296,0.00911970937431438,-0.014972847490802674,20.1000003815,0.0,0.03423100347036817,0.0872573760310224
1648638536354667431,42368,10,2,0.213264137506,-0.081803791225,-0.127871781588,0.0,20.1000003815,0.07132579849698996,-0.0273591275,-0.04276648213645485,20.1000003815,0.0,0.10451440532303519,0.26177212443545367
1648638536354704400,42369,10,3,0.259302258492,1.01436698437,0.0147074814886,0.0,20.1000003815,0.08672316337525084,0.3392531720301003,0.004918890129966555,20.1000003815,0.0,0.3607416372753577,1.04708851118264
1648638536354708501,42370,10,4,1.16918861866,0.676244676113,-0.0701320841908,0.0,20.1000003815,0.39103298282943144,0.22616878799765885,-0.02345554655210702,20.1000003815,0.0,0.5974662400381253,1.35248933349147
1648638536354711610,42371,10,5,2.45518350601,1.71787965298,0.589855968952,0.0,20.1000003815,0.8211316073612039,0.5745416899598662,0.1972762437966555,20.1000003815,0.0,1.2956127456601867,3.0540082865661224
1648638536354718146,42372,10,6,3.83180165291,-1.12889230251,0.392176866531,0.0,20.1000003815,1.2815390143511705,-0.3775559540167224,0.13116283161571904,20.1000003815,0.0,1.8512787442796983,4.013839113934714
1648638536354720676,42373,10,7,1.49576127529,0.343575924635,0.333977788687,-0.243430063128,20.1000003815,0.5002546071204013,0.11490833599832774,0.11169825708595317,20.1000003815,-0.03289595447675676,0.7167379364679105,1.5706327934887332
1648638536354980231,42374,10,8,1.52072501183,0.466281622648,0.467522025108,-0.243430063128,20.1000003815,0.5086036828862875,0.15594703098595317,0.15636188130702341,20.1000003815,-0.03289595447675676,0.7359856581240728,1.6578902126454849
1648638536354982914,42375,10,9,3.88205647469,3.40849137306,1.74740564823,-0.243430063128,20.1000003815,1.2983466470535117,1.1399636699197324,0.5844166047591973,20.1000003815,-0.03289595447675676,2.1612323337778974,5.453586197390952
1648638536354984418,42376,10,10,1.97772347927,1.19297194481,-4.94034719467,-0.243430063128,20.1000003815,0.6614459796889631,0.3989872725117057,-1.6522900316622073,20.1000003815,-0.03289595447675676,1.0169623452811392,5.4535862169258245
1648638536454525144,42377,11,0,0.0272163785994,0.081803791225,0.013463228941,0.0,12.8000001907,0.009102467758996655,0.0273591275,0.004502752154180602,12.8000001907,0.0,0.030236264586889758,0.08725737823454843
1648638536454551176,42378,11,1,0.0696611404419,0.0272679310292,-0.0449180901051,0.0,12.8000001907,0.023298040281571904,0.00911970937431438,-0.015022772610401336,12.8000001907,0.0,0.03418722657653662,0.08725737429563879
1648638536454567611,42379,11,2,0.212435573339,-0.081803791225,-0.129243612289,0.0,12.8000001907,0.0710486867354515,-0.0273591275,-0.043225288390969896,12.8000001907,0.0,0.10413622631546575,0.2617721230310103
1648638536454575854,42380,11,3,0.259716451168,1.01436698437,0.00116010196507,0.0,12.8000001907,0.08686168935384615,0.3392531720301003,0.0003879939682508361,12.8000001907,0.0,0.3608082882741096,1.047088515753925
1648638536454680789,42381,11,4,1.16911578178,0.676244676113,-0.0713359564543,0.0,12.8000001907,0.3910086226688963,0.22616878799765885,-0.023858179416153848,12.8000001907,0.0,0.5974343534374171,1.3524893315148503
1648638536454712818,42382,11,5,2.46075320244,1.71787965298,0.566170930862,0.0,12.8000001907,0.8229943820869564,0.5745416899598662,0.1893548263752508,12.8000001907,0.0,1.2979744448159685,3.0540082430135227
1648638536454722960,42383,11,6,3.83145284653,-1.00345981121,0.651108324528,0.0,12.8000001907,1.2814223566989966,-0.3356052880301003,0.21776198144749165,12.8000001907,0.0,1.8430185625353284,4.013839129582314
1648638536454741796,42384,11,7,1.46034193039,0.286313265562,0.342297703028,-0.365145087242,12.8000001907,0.4884086723712374,0.09575694500401337,0.11448083713311036,12.8000001907,-0.04934393070837838,0.6973201954707544,1.527004111713591
1648638536454748472,42385,11,8,2.16140723228,-3.50938248634,1.29166090488,-0.365145087242,12.8000001907,0.7228786730033445,-1.1737065171705685,0.4319936136722408,12.8000001907,-0.04934393070837838,1.556500607200273,4.3192400433846725
1648638536454757958,42386,11,9,3.38565182686,-1.15479683876,-3.88231873512,-0.365145087242,12.8000001907,1.1323250257056856,-0.3862196785150502,-1.2984343595719063,12.8000001907,-0.04934393070837838,1.6472660889337312,5.279071205486274
1648638536454765075,42387,11,10,1.48968756199,0.466281622648,0.558580577374,-0.243430063128,12.8000001907,0.49822326487959867,0.15594703098595317,0.18681624661337792,12.8000001907,-0.03289595447675676,0.7216455638385836,1.6578901789281562
1648638536454777863,42388,11,11,1.70732831955,0.218143448234,0.288068115711,-0.243430063128,12.8000001907,0.57101281590301,0.07295767499464882,0.0963438514083612,12.8000001907,-0.03289595447675676,0.8108230967304733,1.7451474992200897
1648638536454785354,42389,11,12,1.7961370945,0.117252103984,0.528815448284,-0.243430063128,12.8000001907,0.6007147473244147,0.03921475049632107,0.17686135394113708,12.8000001907,-0.03289595447675676,0.8504435383742764,1.87603366080446
1648638536454806756,42390,11,13,1.93605399132,0.3272151649,-0.72814977169,-0.243430063128,12.8000001907,0.6475096960936454,0.10943651,-0.2435283517357859,12.8000001907,-0.03289595447675676,0.9222331390660119,2.094176905483115
1648638536454811458,42391,11,14,4.38065767288,-1.35248935223,-2.87197685242,-0.243430063128,12.8000001907,1.4651029006287624,-0.4523375759966555,-0.9605273753913043,12.8000001907,-0.03289595447675676,2.1207692711655732,5.4099574985108925
1648638536454822986,42392,11,15,3.04514145851,1.1834281683,-4.31210517883,-0.243430063128,12.8000001907,1.0184419593678928,0.39579537401337794,-1.4421756450936456,12.8000001907,-0.03289595447675676,1.4936873927608196,5.409957467961723
1648638536454827595,42393,11,16,4.24667644501,1.37430369854,-3.20880031586,-0.243430063128,12.8000001907,1.4202931254214046,0.45963334399331096,-1.0731773631638795,12.8000001907,-0.03289595447675676,2.0605164243822656,5.497214835849762
1648638536454843895,42394,11,17,3.68519449234,-1.54609167576,-3.77469348907,-0.243430063128,12.8000001907,1.2325065191772575,-0.5170875169765886,-1.2624392940033444,12.8000001907,-0.03289595447675676,1.818110046130842,5.497214644950194
1648638536454846517,42395,11,18,4.05472183228,-1.39611804485,-3.57720756531,-0.243430063128,12.8000001907,1.3560942582876254,-0.4669291119899665,-1.196390490070234,12.8000001907,-0.03289595447675676,1.9738303043435796,5.584472105547217
1648638536554538674,42396,12,0,0.0272022355348,0.081803791225,0.0134917814285,0.0,13.8999996185,0.009097737637056857,0.0273591275,0.004512301481103678,13.8999996185,0.0,0.03023341723634128,0.08725737815788726
1648638536554545132,42397,12,1,0.0696433186531,0.0272679310292,-0.0449457205832,0.0,13.8999996185,0.0232920798170903,0.00911970937431438,-0.015032013572976587,13.8999996185,0.0,0.034179102730811525,0.08725737616026237
1648638536554552155,42398,12,2,0.213264137506,-0.081803791225,-0.127871781588,0.0,13.8999996185,0.07132579849698996,-0.0273591275,-0.04276648213645485,13.8999996185,0.0,0.10451440532303519,0.26177212443545367
1648638536554558839,42399,12,3,0.258796572685,1.01436698437,0.0218704305589,0.0,13.8999996185,0.08655403768729096,0.3392531720301003,0.0073145252705351166,13.8999996185,0.0,0.36066039096694663,1.0470885161944152
1648638536554565506,42400,12,4,1.16853904724,0.676244676113,-0.0802308991551,0.0,13.8999996185,0.3908157348628762,0.22616878799765885,-0.02683307664050167,13.8999996185,0.0,0.5971818800810602,1.3524893212424927
1648638536554747019,42401,12,5,2.45826601982,1.71787965298,0.57687407732,0.0,13.8999996185,0.8221625484347825,0.5745416899598662,0.19293447402006686,13.8999996185,0.0,1.2969196835577335,3.054008190461864
1648638536554754645,42402,12,6,3.84069824219,-1.00345981121,0.594147622585,0.0,13.8999996185,1.2845144622709028,-0.3356052880301003,0.1987115794598662,13.8999996185,0.0,1.8473185206996598,4.01383930641205
1648638536554758991,42403,12,7,1.42210173607,0.278132885695,0.317287355661,-0.365145087242,13.8999996185,0.47561930972240796,0.09302103200501671,0.10611617246187291,13.8999996185,-0.04934393070837838,0.679028989040172,1.483375379295708
1648638536554882041,42404,12,8,1.49486792088,0.403565376997,0.456448465586,-0.243430063128,13.8999996185,0.49995582638127084,0.13497169799230768,0.15265834969431438,13.8999996185,-0.03289595447675676,0.7198117920151667,1.6142615389467216
1648638536554893814,42405,12,9,1.51186728477,0.638069570065,0.449768006802,-0.243430063128,13.8999996185,0.5056412323645485,0.2134011940016722,0.1504240825424749,13.8999996185,-0.03289595447675676,0.7462480695691065,1.701518945807948
1648638536555022481,42406,12,10,1.76541876793,0.175878152251,0.609808087349,-0.243430063128,13.8999996185,0.5904410595083611,0.058822124498662205,0.20394919309331103,13.8999996185,-0.03289595447675676,0.8370790475440465,1.8760337027875995
1648638536555030586,42407,12,11,4.17862939835,3.01855993271,1.49158799648,-0.243430063128,13.8999996185,1.3975349158361203,1.0095518169598663,0.4988588616989966,13.8999996185,-0.03289595447675676,2.219324796664317,5.366328583618442
1648638536555032586,42408,12,12,3.58077549934,1.0061866045,-3.86821913719,-0.243430063128,13.8999996185,1.1975837790434782,0.3365172590301003,-1.293718774979933,13.8999996185,-0.03289595447675676,1.7267477179024295,5.366328722047487
1648638536555039334,42409,12,13,4.41590690613,-1.3852108717,-3.04662156105,-0.243430063128,13.8999996185,1.4768919418494981,-0.463281227993311,-1.0189369769397991,13.8999996185,-0.03289595447675676,2.1394039151153654,5.540843428480653
1648638536555042787,42410,12,14,5.1995344162,1.90466499329,0.195043876767,-0.243430063128,13.8999996185,1.7389747211371236,0.6370117034414715,0.0652320658083612,13.8999996185,-0.03289595447675676,2.5404428889131276,5.540843707936271
1648638536654499546,42411,13,0,0.0272732563317,0.081803791225,0.0133476322517,0.0,13.5,0.0091214904119398,0.0273591275,0.004464091054080267,13.5,0.0,0.030247727720135866,0.08725737823499297
1648638536654507467,42412,13,1,0.0696783810854,0.0272679310292,-0.0448913425207,0.0,13.5,0.023303806383076924,0.00911970937431438,-0.015013826929999998,13.5,0.0,0.03419508565498603,0.08725737496971957
1648638536654519914,42413,13,2,0.21252015233,-0.081803791225,-0.129104495049,0.0,13.5,0.07107697402341136,-0.0273591275,-0.043178760885953175,13.5,0.0,0.10417482579880152,0.26177212618421974
1648638536654527019,42414,13,3,0.258851259947,1.01436698437,0.0212132390589,0.0,13.5,0.08657232774147156,0.3392531720301003,0.007094728782240802,13.5,0.0,0.3606691705616636,1.0470885135782013
1648638536654598012,42415,13,4,1.18724119663,0.633979380131,-0.13325124979,0.0,13.5,0.3970706343244147,0.21203323750200667,-0.044565635381270896,13.5,0.0,0.6002401778381454,1.3524893378423797
1648638536654601840,42416,13,5,2.46171712875,1.71787965298,0.561964511871,0.0,13.5,0.8233167654682274,0.5745416899598662,0.1879479972812709,13.5,0.0,1.2983832816638035,3.0540081592402863
1648638536654603825,42417,13,6,3.80052685738,-1.12889230251,0.626500606537,0.0,13.5,1.27107921651505,-0.3775559540167224,0.20953197543043478,13.5,0.0,1.8367997298906877,4.0138392138106695
1648638536654607915,42418,13,7,1.79261350632,0.313581198454,-0.846126377583,-0.486860126257,13.5,0.5995362897391304,0.10487665500133779,-0.28298541056287624,13.5,-0.06579190895364864,0.8543340319761321,2.006919579332082
1648638536654612344,42419,13,8,1.38961744308,0.417199343443,0.308724492788,-0.243430063128,13.5,0.4647549976856187,0.1395315529909699,0.1032523387250836,13.5,-0.03289595447675676,0.6719103139761963,1.4833754557524117
1648638536654991007,42420,13,9,1.37942802906,0.454011052847,0.704906046391,-0.243430063128,13.5,0.46134716690969896,0.15184316148729096,0.23575453056555182,13.5,-0.03289595447675676,0.6698796627168695,1.614261520851621
1648638536654994854,42421,13,10,1.73848164082,0.171787962317,0.553062558174,-0.243430063128,13.5,0.581431986896321,0.05745416799899665,0.18497075524214043,13.5,-0.03289595447675676,0.8242737968617371,1.8324048986834747
1648638536654997164,42422,13,11,3.13316917419,-2.9694776535,0.14590229094,-0.243430063128,13.5,1.047882666953177,-0.9931363389632105,0.04879675282274248,13.5,-0.03289595447675676,1.7839383271769949,4.319239989538883
1648638536655000329,42423,13,12,3.62399053574,-1.15479683876,-3.66083741188,-0.243430063128,13.5,1.2120369684749164,-0.3862196785150502,-1.2243603384214046,13.5,-0.03289595447675676,1.7570523230604145,5.279071291256014
1648638536655002896,42424,13,13,2.91088485718,3.29941964149,2.91704821587,-0.243430063128,13.5,0.9735400860133779,1.103484829929766,0.9756014099899665,13.5,-0.03289595447675676,1.7644374083642058,5.279071027758594
1648638536655006075,42425,13,14,4.449903965,3.09218335152,0.925272524357,-0.243430063128,13.5,1.4882621956521738,1.0341750339531772,0.3094556937648829,13.5,-0.03289595447675676,2.345072861739463,5.497214969552323
1648638536655009513,42426,13,15,3.43611216545,-3.60754728317,2.32338190079,-0.243430063128,13.5,1.1492013931270901,-1.2065375528996656,0.7770508029397992,13.5,-0.03289595447675676,2.024119697668002,5.497214537452517
1648638536754512735,42427,14,0,0.0176501329988,0.0845305845141,0.0125260911882,0.0,11.8999996185,0.005903054514648829,0.028271098499698995,0.004189328156588628,11.8999996185,0.0,0.029477908941875686,0.08725737718740939
1648638536754523392,42428,14,1,0.0697782486677,0.0272679310292,-0.0447359606624,0.0,11.8999996185,0.023337206912274245,0.00911970937431438,-0.014961859753311036,11.8999996185,0.0,0.03424061261140868,0.08725737920733342
1648638536754544613,42429,14,2,0.213205784559,-0.081803791225,-0.127969056368,0.0,11.8999996185,0.071306282461204,-0.0273591275,-0.0427990155076923,11.8999996185,0.0,0.10448776815702054,0.2617721265068504
1648638536754549918,42430,14,3,0.259036064148,1.01436698437,0.018823010847,0.0,11.8999996185,0.08663413516655519,0.3392531720301003,0.006295321353511705,11.8999996185,0.0,0.36069885151549724,1.0470885192984025
1648638536754558454,42431,14,4,1.18516504765,0.633979380131,-0.150603160262,0.0,11.8999996185,0.39637627011705684,0.21203323750200667,-0.05036894992040133,11.8999996185,0.0,0.5993216071771502,1.3524893184359776
1648638536754592526,42432,14,5,3.8400156498,-1.00345981121,0.598542392254,0.0,11.8999996185,1.2842861705016722,-0.3356052880301003,0.20018140209163876,11.8999996185,0.0,1.8470010408328055,4.013839157059942
1648638536754619624,42433,14,6,0.463366299868,1.1834281683,5.25855779648,-0.243430063128,11.8999996185,0.15497200664481603,0.39579537401337794,1.7587149821003343,11.8999996185,-0.03289595447675676,0.45242305840599184,5.409957546626392
1648638536754629954,42434,14,7,4.47255659103,3.04310107231,0.0584262721241,-0.243430063128,11.8999996185,1.4958383247591973,1.0177595559565216,0.01954055923882943,11.8999996185,-0.03289595447675676,2.347530426081336,5.4099575068141235
1648638536754634032,42435,14,8,1.37576806545,0.509910285473,0.21830381453,-0.121715031564,11.8999996185,0.46012309881270896,0.17053855701438125,0.07301130920735785,11.8999996185,-0.01644797723837838,0.6726885843765801,1.4833754833424815
1648638536754655164,42436,14,9,1.38413643837,0.621708810329,0.668015301228,-0.121715031564,11.8999996185,0.46292188574247495,0.20792936800301004,0.2234164887050167,11.8999996185,-0.01644797723837838,0.6868973479908546,1.6578902157679276
1648638536854502374,42437,15,0,0.0271815992892,0.081803791225,0.0135333063081,0.0,11.6999998093,0.009090835882675586,0.0273591275,0.004526189400702341,11.6999998093,0.0,0.030229264821572163,0.08725737778738761
1648638536854510039,42438,15,1,0.0697067454457,0.0272679310292,-0.0448472909629,0.0,11.6999998093,0.023313292791204015,0.00911970937431438,-0.014999093967525082,11.6999998093,0.0,0.03420801573620966,0.08725737751019015
1648638536854598437,42439,15,2,0.211384981871,-0.081803791225,-0.13095484674,0.0,11.6999998093,0.07069731835150501,-0.0273591275,-0.04379760760535117,11.6999998093,0.0,0.1036568545815922,0.26177211979904064
1648638536854602590,42440,15,3,0.363992393017,0.981645464897,0.0166141483933,0.0,11.6999998093,0.12173658629331102,0.32830952003244146,0.005556571368996655,11.6999998093,0.0,0.3707111191057393,1.0470884923701167
1648638536854613519,42441,15,4,1.43393480778,0.524907648563,0.00668398290873,0.0,11.6999998093,0.4795768587892976,0.17555439751270902,0.0022354457888729097,11.6999998093,0.0,0.7005763865978285,1.5270041742282592
1648638536854620355,42442,15,5,3.8227994442,-1.12889230251,0.471922338009,0.0,11.6999998093,1.2785282422073578,-0.3775559540167224,0.1578335578625418,11.6999998093,0.0,1.8471105626510693,4.0138390742970795
1648638536954504025,42443,16,0,0.0176354516298,0.0845305845141,0.0125467497855,0.0,15.6999998093,0.005898144357792642,0.028271098499698995,0.004196237386454849,15.6999998093,0.0,0.029475943141999802,0.08725737678077633
1648638536954532098,42444,16,1,0.0697509646416,0.0272679310292,-0.0447784774005,0.0,15.6999998093,0.023328081819933108,0.00911970937431438,-0.014976079398160534,15.6999998093,0.0,0.034228174094843924,0.08725737315180895
1648638536954539770,42445,16,2,0.212884381413,-0.081803791225,-0.128503009677,0.0,15.6999998093,0.07119878977023411,-0.0273591275,-0.042977595209698995,15.6999998093,0.0,0.10434106184553252,0.26177212151874807
1648638536954549226,42446,16,3,0.259609103203,1.01436698437,0.00755614088848,0.0,15.6999998093,0.08682578702441471,0.3392531720301003,0.002527137420896321,15.6999998093,0.0,0.3607910050393481,1.047088516177539
1648638536954556802,42447,16,4,1.40092754364,0.417199343443,0.252486377954,0.0,15.6999998093,0.4685376400133779,0.1395315529909699,0.08444360466688962,15.6999998093,0.0,0.6771440721875096,1.4833754230641696
1648638536954644905,42448,16,5,3.80553221703,-1.12889230251,0.595340967178,0.0,15.6999998093,1.2727532498428094,-0.3775559540167224,0.19911069136387957,15.6999998093,0.0,1.8391166815578457,4.013839079076294
