%time,field.header.seq,field.header.frame_id,field.point_id,field.x,field.y,field.z,field.velocity,field.intensity,normalized_x,normalized_y,normalized_z,normalized_intensity,normalized_velocity,normalized_range,range
1648638403352846946,30557,0,0,0.0175588484854,0.0845305845141,0.0126537326723,0.0,28.0,0.005872524577056856,0.028271098499698995,0.004232017616153846,28.0,0.0,0.029465710583591164,0.0872573769315275
1648638403352868926,30558,0,1,0.0696961507201,0.0272679310292,-0.0448637530208,0.0,28.0,0.02330974940471572,0.00911970937431438,-0.01500459967250836,28.0,0.0,0.03420318601670387,0.08725737689687586
1648638403352875575,30559,0,2,0.213561937213,-0.081803791225,-0.127373799682,0.0,28.0,0.07142539706120402,-0.0273591275,-0.04259993300401337,28.0,0.0,0.1046503537894763,0.26177212634347263
1648638403352879600,30560,0,3,1.20065486431,0.698059022427,-0.142432793975,0.0,28.0,0.40155681080602,0.23346455599565216,-0.04763638594481605,28.0,0.0,0.6140044328143328,1.39611804758141
1648638403352882655,30561,0,4,1.66758036613,0.319034785032,0.112067632377,0.0,28.0,0.5577191859966555,0.10670059700066889,0.037480813504013374,28.0,0.0,0.7959185877072121,1.7015189172587137
1648638403352967528,30562,0,5,2.45154070854,1.71787965298,0.604817271233,0.0,28.0,0.8199132804481605,0.5745416899598662,0.2022800238237458,28.0,0.0,1.2940686722166126,3.0540082317068538
1648638403352970739,30563,0,6,3.83963823318,-1.00345981121,0.600957989693,0.0,28.0,1.284159944207358,-0.3356052880301003,0.20098929421170567,28.0,0.0,1.8468255017643262,4.013839042585925
1648638403352973769,30564,0,7,1.50126051903,0.353119701147,0.476826608181,0.121715031564,28.0,0.5020938190735785,0.1181002344973244,0.15947378200033444,28.0,0.01644797723837838,0.7198222500674079,1.6142615288749738
1648638403352996575,30565,0,8,1.69619691372,0.114525310695,0.683745622635,0.121715031564,28.0,0.5672899376989966,0.03830277949665551,0.22867746576421405,28.0,0.01644797723837838,0.8031829491132343,1.8324050025514456
1648638403353000824,30566,0,9,0.453653514385,1.6606169939,0.627899467945,0.121715031564,28.0,0.1517235834063545,0.5553902989632107,0.20999982205518392,28.0,0.01644797723837838,0.5953977458017241,1.83240499164048
1648638403353002843,30567,0,10,1.48007690907,-1.41247880459,-2.49752616882,-0.243430063128,28.0,0.4950089996889631,-0.4724009379899666,-0.8352930330501671,28.0,-0.03289595447675676,0.8445297305364305,3.228523036021101
1648638403353010362,30568,0,11,1.7916059494,-2.62317490578,0.576595187187,-0.243430063128,28.0,0.599199314180602,-0.8773160219999999,0.19284119972809363,28.0,-0.03289595447675676,1.2197389223464634,3.228522955490111
1648638403452700463,30569,1,0,0.0175736863166,0.0845305845141,0.0126331159845,0.0,22.1000003815,0.0058774870624080265,0.028271098499698995,0.004225122402842809,22.1000003815,0.0,0.02946768940241549,0.08725737669978102
1648638403452706526,30570,1,1,0.0694987773895,0.0272679310292,-0.0451689064503,0.0,22.1000003815,0.023243738257357857,0.00911970937431438,-0.015106657675685618,22.1000003815,0.0,0.034113220830421155,0.08725737923616797
1648638403452801286,30571,1,2,0.213177263737,-0.081803791225,-0.128016546369,0.0,22.1000003815,0.07129674372474916,-0.0273591275,-0.04281489845117057,22.1000003815,0.0,0.10447474905002822,0.26177211879309104
1648638403452810412,30572,1,3,1.20042324066,0.698059022427,-0.144371986389,0.0,22.1000003815,0.4014793447023411,0.23346455599565216,-0.048284945280602,22.1000003815,0.0,0.613903109090913,1.3961180558829187
1648638403452814737,30573,1,4,2.46240305901,1.71787965298,0.55895113945,0.0,22.1000003815,0.8235461735819398,0.5745416899598662,0.18694018041806018,22.1000003815,0.0,1.2986742291833038,3.0540081374215338
1648638403452817187,30574,1,5,3.83737945557,-1.00345981121,0.615216255188,0.0,22.1000003815,1.2834045001906353,-0.3356052880301003,0.20575794487892976,22.1000003815,0.0,1.8457749406612158,4.013839025097028
1648638403452827746,30575,1,6,1.56424057484,0.302674025297,0.259577006102,0.121715031564,22.1000003815,0.523157382889632,0.10122877100234112,0.08681505220802675,22.1000003815,0.01644797723837838,0.7467493278353201,1.6142615536715665
1648638403452850617,30576,1,7,1.73282420635,0.0572626553476,0.593084394932,0.121715031564,22.1000003815,0.5795398683444816,0.019151389748361204,0.1983559849270903,22.1000003815,0.01644797723837838,0.819816865971158,1.8324049337746888
1648638403452948682,30577,1,8,1.64652240276,0.42537972331,-0.0564133785665,-0.121715031564,22.1000003815,0.5506763888829431,0.14226746598996656,-0.01886735069113712,22.1000003815,-0.01644797723837838,0.7916621769577747,1.7015188512253232
1648638403552836668,30578,2,0,0.0176399797201,0.0845305845141,0.0125403832644,0.0,14.6000003815,0.005899658769264213,0.028271098499698995,0.004194108115183947,14.6000003815,0.0,0.029476549281881606,0.08725737685284257
1648638403552841656,30579,2,1,0.0695676133037,0.0272679310292,-0.0450628064573,0.0,14.6000003815,0.0232667603022408,0.00911970937431438,-0.01507117272819398,14.6000003815,0.0,0.03414459501877002,0.08725737452613633
1648638403552857853,30580,2,2,0.255451142788,1.01436698437,-0.0468901395798,0.0,14.6000003815,0.08543516481204014,0.3392531720301003,-0.015682320929698994,14.6000003815,0.0,0.36012643544372824,1.047088511311912
1648638403552864370,30581,2,3,1.03863894939,-0.13088606298,0.022187076509,0.0,14.6000003815,0.347370886083612,-0.04377460300334448,0.007420426926086955,14.6000003815,0.0,0.4932030827814521,1.0470884848170108
1648638403552935401,30582,2,4,1.20051622391,0.698059022427,-0.14359690249,0.0,14.6000003815,0.4015104427792642,0.23346455599565216,-0.04802571989632107,14.6000003815,0.0,0.6139437842570349,1.3961180727530127
1648638403552939699,30583,2,5,1.82062411308,0.0586260519922,0.448768734932,0.0,14.6000003815,0.6089043856454849,0.019607375248227425,0.15008987790367892,14.6000003815,0.0,0.8613440374674545,1.876033729055263
1648638403552962879,30584,2,6,2.45013141632,1.71787965298,0.610501050949,0.0,14.6000003815,0.819441945257525,0.5745416899598662,0.20418095349464882,14.6000003815,0.0,1.2934714364054631,3.054008184758313
1648638403552967390,30585,2,7,3.80983567238,-1.12889230251,0.567149102688,0.0,14.6000003815,1.274192532568562,-0.3775559540167224,0.1896819741431438,14.6000003815,0.0,1.841108828537968,4.013839033380051
1648638403553003317,30586,2,8,1.54809558392,0.252228349447,0.381603688002,0.121715031564,14.6000003815,0.5177577203745819,0.08435730750735786,0.1276266515056856,14.6000003815,0.01644797723837838,0.7370632736372492,1.6142615810066505
1648638403553013146,30587,2,9,3.19547843933,-1.1834281683,-4.2019109726,0.243430063128,14.6000003815,1.068721886063545,-0.39579537401337794,-1.4053213955183947,14.6000003815,0.03289595447675676,1.562365807867297,5.409957532865214
1648638403553023579,30588,2,10,1.65916752815,0.372207254171,-0.0615749694407,-0.121715031564,14.6000003815,0.5549055278093645,0.12448403149531771,-0.020593635264448157,14.6000003815,-0.01644797723837838,0.7945669032146419,1.7015189106755526
1648638403553132251,30589,2,11,1.6850643158,-1.59244716167,-2.18362593651,-0.121715031564,14.6000003815,0.5635666608026756,-0.5325910239698997,-0.7303096777625417,14.6000003815,-0.01644797723837838,0.9585760069759008,3.1848943376025107
1648638403652935960,30590,3,0,0.0175068937242,0.0845305845141,0.0127255162224,0.0,12.6999998093,0.005855148402742475,0.028271098499698995,0.004256025492441471,12.6999998093,0.0,0.029458793865600783,0.0872573768187676
1648638403652944612,30591,3,1,0.0696848705411,0.0272679310292,-0.044881273061,0.0,12.6999998093,0.023305976769598658,0.00911970937431438,-0.015010459217725753,12.6999998093,0.0,0.03419804388327061,0.08725737743319541
1648638403652951676,30592,3,2,1.03845822811,-0.13088606298,0.0294558610767,0.0,12.6999998093,0.3473104441839465,-0.04377460300334448,0.009851458554080266,12.6999998093,0.0,0.49311794243020696,1.0470884875518094
1648638403652967295,30593,3,3,1.20064520836,0.698059022427,-0.142513990402,0.0,12.6999998093,0.40155358139130437,0.23346455599565216,-0.04766354194046822,12.6999998093,0.0,0.6140002087643072,1.3961180296127789
1648638403652973017,30594,3,4,1.66884100437,0.319034785032,0.0913947746158,0.0,12.6999998093,0.5581408041371236,0.10670059700066889,0.03056681425277592,12.6999998093,0.0,0.7965094675432108,1.7015188793410898
1648638403652976970,30595,3,5,1.61539590359,-2.07917976379,0.387674242258,0.0,12.6999998093,0.5402661884916388,-0.6953778474214046,0.12965693721003343,12.6999998093,0.0,1.0331144464864443,2.6613499832978578
1648638403652978467,30596,3,6,2.43770313263,1.71787965298,0.658376157284,0.0,12.6999998093,0.8152853286387959,0.5745416899598662,0.2201926947438127,12.6999998093,0.0,1.2882074707473474,3.0540082235378554
1648638403652991684,30597,3,7,3.83636760712,-1.00345981121,0.621495842934,0.0,12.6999998093,1.2830660893377925,-0.3356052880301003,0.2078581414494983,12.6999998093,0.0,1.8453043349461138,4.013839196138466
1648638403652999868,30598,3,8,1.77324914932,0.0586260519922,0.609633088112,0.121715031564,12.6999998093,0.5930599161605351,0.019607375248227425,0.20389066492040134,12.6999998093,0.01644797723837838,0.8389425352649648,1.8760335982218628
1648638403752888598,30599,4,0,0.0175679866225,0.0845305845141,0.0126410424709,0.0,18.0,0.005875580810200669,0.028271098499698995,0.004227773401638796,18.0,0.0,0.0294669290916797,0.08725737692032026
1648638403753076281,30600,4,1,0.0696855783463,0.0272679310292,-0.0448801778257,0.0,18.0,0.023306213493745818,0.00911970937431438,-0.015010092918294313,18.0,0.0,0.034198366538536265,0.08725737936551829
1648638403753114036,30601,4,2,0.21330678463,-0.081803791225,-0.127800628543,0.0,18.0,0.07134006174916388,-0.0273591275,-0.04274268513143813,18.0,0.0,0.10453387335361819,0.2617721247267525
1648638403753127576,30602,4,3,1.20053648949,0.698059022427,-0.143426671624,0.0,18.0,0.4015172205652173,0.23346455599565216,-0.04796878649632107,18.0,0.0,0.6139526494177558,1.3961180005722476
1648638403753131681,30603,4,4,1.06340909004,-1.59244716167,-2.54496073723,0.0,18.0,0.3556552140602006,-0.5325910239698997,-0.8511574372006688,18.0,0.0,0.7325533846688038,3.184894348252828
1648638403753160913,30604,4,5,1.65731287003,0.0995279476047,2.71789622307,0.0,18.0,0.554285240812709,0.033286938998227426,0.9089953923311036,18.0,0.0,0.7845841425070209,3.1848942903807105
1648638403753211104,30605,4,6,3.8221950531,-1.12889230251,0.476792544127,0.0,18.0,1.278326104715719,-0.3775559540167224,0.15946238934013376,18.0,0.0,1.8468307335564904,4.0138390581516274
1648638403753217089,30606,4,7,1.64400494099,0.42537972331,-0.107081837952,0.243430063128,18.0,0.549834428424749,0.14226746598996656,-0.03581332372976589,18.0,0.03289595447675676,0.7904908786580319,1.7015189317260044
1648638403852955199,30607,5,0,0.0175708364695,0.0845305845141,0.0126370796934,0.0,31.1000003815,0.005876533936287625,0.028271098499698995,0.0042264480579933105,31.1000003815,0.0,0.029467309218664046,0.08725737674094183
1648638403852964439,30608,5,1,0.0696399956942,0.0272679310292,-0.0449508726597,0.0,31.1000003815,0.02329096845959866,0.00911970937431438,-0.015033736675484948,31.1000003815,0.0,0.03417758801676907,0.08725737800192009
1648638403853133728,30609,5,2,1.03824651241,-0.13088606298,0.036157336086,0.0,31.1000003815,0.3472396362575251,-0.04377460300334448,0.012092754543812707,31.1000003815,0.0,0.4930182003178149,1.0470885038843512
1648638403853139930,30610,5,3,1.20015895367,0.698059022427,-0.146552234888,0.0,31.1000003815,0.4013909544046822,0.23346455599565216,-0.04901412538060201,31.1000003815,0.0,0.6137875002491093,1.3961180001764448
1648638403853144955,30611,5,4,1.60266447067,0.25904533267,0.336098313332,0.0,31.1000003815,0.5360081841705685,0.08663723500668896,0.11240746265284281,31.1000003815,0.0,0.7629649778890669,1.6578902153492183
1648638403853156752,30612,5,5,2.44018697739,1.71787965298,0.64910954237,0.0,31.1000003815,0.8161160459498327,0.5745416899598662,0.2170934924314381,31.1000003815,0.0,1.2892590718763695,3.0540082162204834
1648638403853206754,30613,5,6,3.84503698349,-1.00345981121,0.565388321877,0.0,31.1000003815,1.2859655463177257,-0.3356052880301003,0.18909308423979934,31.1000003815,0.0,1.8493365518440013,4.01383917859627
1648638403853227262,30614,5,7,1.67147028446,0.265862315893,0.175130993128,0.121715031564,31.1000003815,0.5590201620267559,0.08891716250602007,0.058572238504347826,31.1000003815,0.01644797723837838,0.7955585112944005,1.7015188942820418
1648638403952974446,30615,6,0,0.0176063273102,0.0845305845141,0.0125875873491,0.0,16.2000007629,0.0058884037826755845,0.028271098499698995,0.004209895434481605,16.2000007629,0.0,0.029472047919941687,0.08725737696562119
1648638403952984742,30616,6,1,0.0696783810854,0.0272679310292,-0.0448913425207,0.0,16.2000007629,0.023303806383076924,0.00911970937431438,-0.015013826929999998,16.2000007629,0.0,0.03419508565498603,0.08725737496971957
1648638403953007093,30617,6,2,1.20055997372,0.698059022427,-0.143230840564,0.0,16.2000007629,0.4015250748227424,0.23346455599565216,-0.04790329115852843,16.2000007629,0.0,0.613962922601247,1.3961180906280728
1648638403953013375,30618,6,3,2.43091201782,1.71787965298,0.683024168015,0.0,16.2000007629,0.8130140527826086,0.5745416899598662,0.22843617659364546,16.2000007629,0.0,1.285333362807464,3.054008145797416
1648638403953099345,30619,6,4,3.80501008034,-1.12889230251,0.59866976738,0.0,16.2000007629,1.272578622187291,-0.3775559540167224,0.2002240024682274,16.2000007629,0.0,1.8388749815334609,4.013839188673378
1648638403953107052,30620,6,5,1.78026282787,0.0586260519922,0.588837504387,0.121715031564,16.2000007629,0.5954056280501672,0.019607375248227425,0.19693562019632105,16.2000007629,0.01644797723837838,0.8422589702649375,1.8760336768940453
1648638403953132900,30621,6,6,1.65665900707,0.372207254171,-0.110041886568,-0.243430063128,16.2000007629,0.554066557548495,0.12448403149531771,-0.0368033065444816,16.2000007629,-0.03289595447675676,0.793395093559701,1.7015188869251843
1648638404052945464,30622,7,0,0.0272855609655,0.081803791225,0.0133224595338,0.0,33.7000007629,0.009125605674080267,0.0273591275,0.0044556720848829435,33.7000007629,0.0,0.030250210171152005,0.08725737804916639
1648638404052951238,30623,7,1,0.0695782229304,0.0272679310292,-0.0450464300811,0.0,33.7000007629,0.02327030867237458,0.00911970937431438,-0.015065695679297659,33.7000007629,0.0,0.03414943089550894,0.08725737809387284
1648638404052955042,30624,7,2,1.20021378994,0.698059022427,-0.146103516221,0.0,33.7000007629,0.4014092942943144,0.23346455599565216,-0.04886405224782609,33.7000007629,0.0,0.6138114873460466,1.3961181102636042
1648638404052957911,30625,7,3,1.60230219364,0.25904533267,0.337821036577,0.0,33.7000007629,0.5358870212842809,0.08663723500668896,0.11298362427324414,33.7000007629,0.0,0.7627947362505086,1.65789018239316
1648638404052993676,30626,7,4,3.84045386314,-1.00345981121,0.595723569393,0.0,33.7000007629,1.2844327301471572,-0.3356052880301003,0.19923865197090299,33.7000007629,0.0,1.8472048575889806,4.013839064879271
1648638404053136974,30627,7,5,1.85625648499,0.0599894486368,0.485609978437,0.243430063128,33.7000007629,0.6208215668862876,0.020063360748093645,0.16241136402575249,33.7000007629,0.03289595447675676,0.8782034925157146,1.9196624503210873
1648638404053145927,30628,7,6,1.77426576614,0.479915589094,0.553864240646,-0.121715031564,33.7000007629,0.5933999217859531,0.16050688598461538,0.18523887647023413,33.7000007629,-0.01644797723837838,0.8544058724046956,1.9196623605775502
1648638404153018920,30629,8,0,0.0175972469151,0.0845305845141,0.0126002775505,0.0,12.8000001907,0.005885366861237458,0.028271098499698995,0.0042141396489966555,12.8000001907,0.0,0.02947083467705635,0.08725737683219703
1648638404153024124,30630,8,1,0.0696783810854,0.0272679310292,-0.0448913425207,0.0,12.8000001907,0.023303806383076924,0.00911970937431438,-0.015013826929999998,12.8000001907,0.0,0.03419508565498603,0.08725737496971957
1648638404153171255,30631,8,2,0.21263460815,-0.081803791225,-0.128915891051,0.0,12.8000001907,0.0711152535618729,-0.0273591275,-0.0431156826257525,12.8000001907,0.0,0.10422706191724014,0.26177212190636484
1648638404153178681,30632,8,3,1.20030367374,0.698059022427,-0.145362317562,0.0,12.8000001907,0.40143935576588624,0.23346455599565216,-0.04861615971973243,12.8000001907,0.0,0.6138508056699987,1.3961180148370247
1648638404153182061,30633,8,4,1.60523879528,0.25904533267,0.323579281569,0.0,12.8000001907,0.5368691623010033,0.08663723500668896,0.10822049550802675,12.8000001907,0.0,0.7641747217418059,1.6578901126765933
1648638404153186829,30634,8,5,3.84242939949,-1.00345981121,0.582846105099,0.0,12.8000001907,1.2850934446454847,-0.3356052880301003,0.19493180772541804,12.8000001907,0.0,1.8481237058961613,4.013839167805277
1648638404153201240,30635,8,6,1.82617366314,0.0599894486368,0.58872282505,0.121715031564,12.8000001907,0.6107604224548495,0.020063360748093645,0.19689726590301002,12.8000001907,0.01644797723837838,0.8639786604534632,1.9196623522455105
1648638404252940047,30636,9,0,0.0175918750465,0.0845305845141,0.0126077774912,0.0,16.2999992371,0.0058835702496655515,0.028271098499698995,0.004216647990367892,16.2999992371,0.0,0.02947011720616635,0.0872573769902275
1648638404252951653,30637,9,1,0.0696244984865,0.0272679310292,-0.0449748635292,0.0,16.2999992371,0.023285785446989966,0.00911970937431438,-0.015041760377658862,16.2999992371,0.0,0.03417052394737981,0.08725737333646946
1648638404252973621,30638,9,2,0.213561937213,-0.081803791225,-0.127373799682,0.0,16.2999992371,0.07142539706120402,-0.0273591275,-0.04259993300401337,16.2999992371,0.0,0.1046503537894763,0.26177212634347263
1648638404252975538,30639,9,3,1.20028162003,0.698059022427,-0.145544558764,0.0,16.2999992371,0.4014319799431438,0.23346455599565216,-0.048677109954515047,16.2999992371,0.0,0.6138411585649761,1.3961180411266763
1648638404252977318,30640,9,4,2.43701863289,1.71787965298,0.660904943943,0.0,16.2999992371,0.8150563989598661,0.5745416899598662,0.221038442790301,16.2999992371,0.0,1.287917707181941,3.0540081309819773
1648638404252986996,30641,9,5,3.83501529694,-1.00345981121,0.629785895348,0.0,16.2999992371,1.2826138116856187,-0.3356052880301003,0.2106307342301003,16.2999992371,0.0,1.8446753885730653,4.013839084275388
1648638404253014347,30642,9,6,1.81220185757,0.0599894486368,0.630420029163,0.121715031564,16.2999992371,0.6060875777826087,0.020063360748093645,0.2108428191180602,16.2999992371,0.01644797723837838,0.8573720559531245,1.9196623973234939
1648638404253020172,30643,9,7,5.95644187927,-1.79150307178,1.37314283848,0.243430063128,16.2999992371,1.992121029856187,-0.5991649069498327,0.45924509648160533,16.2999992371,0.03289595447675676,2.8802935581136087,6.369788408745428
1648638404253029478,30644,9,8,1.72393298149,0.527634441853,0.518805861473,-0.243430063128,16.2999992371,0.5765662145451504,0.17646636851270903,0.1735136660444816,16.2999992371,-0.03289595447675676,0.8342646934432213,1.8760337285873272
1648638404253054940,30645,9,9,3.4514336586,-3.91976499557,1.56992089748,-0.243430063128,16.2999992371,1.1543256383277591,-1.3109581924983276,0.5250571563478261,16.2999992371,-0.03289595447675676,2.0936921313985155,5.453586301192755
1648638404253063406,30646,9,10,3.58404994011,-1.53382110596,-3.81360459328,-0.243430063128,16.2999992371,1.1986789097357857,-0.5129836474782609,-1.2754530412307692,16.2999992371,-0.03289595447675676,1.7711054400771413,5.453586081852671
1648638404253074464,30647,9,11,1.6036260128,0.310854405165,0.283466160297,-0.121715031564,16.2999992371,0.536329770167224,0.10396468400167223,0.09480473588528428,16.2999992371,-0.01644797723837838,0.7655768415089516,1.6578901996733186
1648638404352955452,30648,10,0,0.0175736863166,0.0845305845141,0.0126331159845,0.0,15.1000003815,0.0058774870624080265,0.028271098499698995,0.004225122402842809,15.1000003815,0.0,0.02946768940241549,0.08725737669978102
1648638404352979131,30649,10,1,0.0697026252747,0.0272679310292,-0.0448536984622,0.0,15.1000003815,0.023311914807591972,0.00911970937431438,-0.015001236943879597,15.1000003815,0.0,0.03420613750578702,0.08725737962222117
1648638404352983599,30650,10,2,0.213090807199,-0.081803791225,-0.128160431981,0.0,15.1000003815,0.07126782849464883,-0.0273591275,-0.042863020729431434,15.1000003815,0.0,0.10443528433554732,0.2617721312459776
1648638404352988995,30651,10,3,1.20040583611,0.698059022427,-0.14451636374,0.0,15.1000003815,0.4014735237826087,0.23346455599565216,-0.04833323202006688,15.1000003815,0.0,0.6138954955878865,1.39611802851597
1648638404353001182,30652,10,4,1.80447840691,0.119978897274,0.643868386745,0.0,15.1000003815,0.6035044839163879,0.04012672149632107,0.2153405975735786,15.1000003815,0.0,0.8544269880992844,1.9196624068427097
1648638404353175542,30653,10,5,2.47279906273,1.71787965298,0.510998904705,0.0,15.1000003815,0.82702309790301,0.5745416899598662,0.17090264371404681,15.1000003815,0.0,1.3030857847556017,3.0540081184192625
1648638404353182914,30654,10,6,3.84811425209,-1.00345981121,0.544049620628,0.0,15.1000003815,1.286994733140468,-0.3356052880301003,0.18195639485886286,15.1000003815,0.0,1.850767893501607,4.013839169617694
1648638404353185829,30655,10,7,5.88826417923,-1.76696193218,1.29475617409,0.365145087242,15.1000003815,1.9693191234882943,-0.5909571679531772,0.4330288207658863,15.1000003815,0.04934393070837838,2.8470451339289737,6.282531580861381
1648638404353310380,30656,10,8,1.6070035696,0.310854405165,0.263645768166,-0.121715031564,15.1000003815,0.5374593878260869,0.10396468400167223,0.08817584219598662,15.1000003815,-0.01644797723837838,0.7671595939857311,1.6578902330942988
1648638404452976151,30657,11,0,0.0175679866225,0.0845305845141,0.0126410424709,0.0,19.2999992371,0.005875580810200669,0.028271098499698995,0.004227773401638796,19.2999992371,0.0,0.0294669290916797,0.08725737692032026
1648638404453049211,30658,11,1,0.0696208178997,0.0272679310292,-0.0449805743992,0.0,19.2999992371,0.023284554481505015,0.00911970937431438,-0.015043670367625418,19.2999992371,0.0,0.034168846247368496,0.08725738032349105
1648638404453052211,30659,11,2,0.213022962213,-0.081803791225,-0.128273144364,0.0,19.2999992371,0.07124513786387959,-0.0273591275,-0.04290071717859532,19.2999992371,0.0,0.10440431598381207,0.2617721189389966
1648638404453054070,30660,11,3,1.20042645931,0.698059022427,-0.144344806671,0.0,19.2999992371,0.401480421173913,0.23346455599565216,-0.04827585507391304,19.2999992371,0.0,0.6139045170693992,1.3961180129975297
1648638404453056769,30661,11,4,2.44728803635,1.71787965298,0.621801674366,0.0,19.2999992371,0.8184909820568561,0.5745416899598662,0.20796042620936453,19.2999992371,0.0,1.292266663238951,3.054008277203728
1648638404453060147,30662,11,5,3.84298729897,-1.00345981121,0.579156517982,0.0,19.2999992371,1.2852800331003342,-0.3356052880301003,0.19369783210100333,19.2999992371,0.0,1.84838319520779,4.013839215150425
1648638404453062531,30663,11,6,3.4130718708,1.0307277441,-4.1842455864,-0.243430063128,19.2999992371,1.1414956089632107,0.3447249980267558,-1.3994132395986623,19.2999992371,-0.03289595447675676,1.6507149283959146,5.497214786145031
1648638404453067641,30664,11,7,2.24941110611,-1.54609167576,-4.7716999054,-0.243430063128,19.2999992371,0.7523114067257525,-0.5170875169765886,-1.595886255986622,19.2999992371,-0.03289595447675676,1.1829304314254387,5.497214729418867
1648638404453075295,30665,11,8,4.5045375824,-2.09417700768,-2.55144882202,-0.243430063128,19.2999992371,1.5065343084949832,-0.7003936480535117,-0.8533273652240801,19.2999992371,-0.03289595447675676,2.242731037725795,5.584471977021359
1648638404453190443,30666,11,9,1.66691672802,0.319034785032,0.121540948749,-0.121715031564,19.2999992371,0.5574972334515049,0.10670059700066889,0.04064914673879598,19.2999992371,-0.01644797723837838,0.7956075339088128,1.7015189609393497
1648638404552916178,30667,12,0,0.2132178545,-0.081803791225,-0.127948924899,0.0,18.2999992371,0.07131031923076922,-0.0273591275,-0.042792282574916386,18.2999992371,0.0,0.10449327784670977,0.2617721167717763
1648638404552939322,30668,12,1,1.20046567917,0.698059022427,-0.144018575549,0.0,18.2999992371,0.40149353818394645,0.23346455599565216,-0.04816674767525083,18.2999992371,0.0,0.6139216735978419,1.3961180450663873
1648638404552964590,30669,12,2,1.53115558624,0.353119701147,0.369741916656,0.0,18.2999992371,0.5120921693110367,0.1181002344973244,0.12365950389832775,18.2999992371,0.0,0.7337741104234259,1.6142614526601808
1648638404552974174,30670,12,3,1.61788475513,0.572626531124,0.642071485519,0.0,18.2999992371,0.5410985803110367,0.19151389000802674,0.21473962726387957,18.2999992371,0.0,0.7888300940603404,1.8324049818601074
1648638404553006678,30671,12,4,1.79628264904,0.239957794547,0.633160889149,0.0,18.2999992371,0.6007634277725752,0.08025344299230769,0.2117594946986622,18.2999992371,0.0,0.8533897160208974,1.9196624208318431
1648638404553013984,30672,12,5,2.46457982063,1.71787965298,0.54927355051,0.0,18.2999992371,0.8242741875016721,0.5745416899598662,0.1837035285986622,18.2999992371,0.0,1.299597639989017,3.054008125016885
1648638404553065542,30673,12,6,3.84567284584,-1.00345981121,0.561046659946,0.0,18.2999992371,1.2861782093110365,-0.3356052880301003,0.187641023393311,18.2999992371,0.0,1.8496323098299445,4.013839132872828
1648638404553069194,30674,12,7,1.3754376173,1.52973091602,-3.9461016655,0.243430063128,18.2999992371,0.46001258103678927,0.5116156909765887,-1.3197664433110368,18.2999992371,0.03289595447675676,0.8276314183727618,4.45012625314981
1648638404553076462,30675,12,8,4.26740217209,0.139066442847,1.25441706181,0.243430063128,18.2999992371,1.4272248067190634,0.046510516002341136,0.41953747886622067,18.2999992371,0.03289595447675676,2.0189364838764345,4.450126171115219
1648638404553081168,30676,12,9,4.4951171875,2.87403988838,0.895239830017,-0.243430063128,18.2999992371,1.5033836747491638,0.961217353973244,0.2994113143869565,18.2999992371,-0.03289595447675676,2.3332946124705134,5.409957316153807
1648638404553085755,30677,12,10,3.57404828072,0.676244676113,-4.00456142426,-0.243430063128,18.2999992371,1.1953338731505017,0.22616878799765885,-1.3393182020936454,18.2999992371,-0.03289595447675676,1.7055199961496461,5.409957502195377
1648638404652848862,30678,13,0,0.0176518075168,0.0845305845141,0.0125237302855,0.0,12.6999998093,0.005903614554113712,0.028271098499698995,0.004188538557023411,12.6999998093,0.0,0.029478133251391092,0.08725737703581005
1648638404652855270,30679,13,1,0.069596067071,0.0272679310292,-0.0450188554823,0.0,12.6999998093,0.02327627661237458,0.00911970937431438,-0.015056473405451505,12.6999998093,0.0,0.03415756438833878,0.08725737770126117
1648638404652964039,30680,13,2,1.20099413395,0.698059022427,-0.139543235302,0.0,12.6999998093,0.40167027891304347,0.23346455599565216,-0.04666997836187291,12.6999998093,0.0,0.6141528513573892,1.3961180548551755
1648638404652970716,30681,13,3,1.60538506508,0.47855219245,0.298149466515,0.0,12.6999998093,0.5369180819665551,0.16005090048494983,0.09971554064046823,12.6999998093,0.0,0.7760015104568625,1.701518883957447
1648638404652978775,30682,13,4,1.83137571812,0.239957794547,0.523055255413,0.0,12.6999998093,0.612500240173913,0.08025344299230769,0.17493486803110367,12.6999998093,0.0,0.8699159175106074,1.91966235684783
1648638404652998386,30683,13,5,2.4555273056,1.71787965298,0.588422656059,0.0,12.6999998093,0.8212465905016721,0.5745416899598662,0.1967968749361204,12.6999998093,0.0,1.2957584953698669,3.0540081978988547
1648638404653003306,30684,13,6,3.81562066078,-1.12889230251,0.526826500893,0.0,12.6999998093,1.2761273112976588,-0.3775559540167224,0.17619615414481604,12.6999998093,0.0,1.8437869529023847,4.013839187072733
1648638404653007370,30685,13,7,3.05088186264,1.02254736423,0.594553470612,0.243430063128,12.6999998093,1.0203618269698995,0.34198908502675585,0.19884731458595317,12.6999998093,0.03289595447675676,1.4829811361417042,3.2721517509578018
1648638404653027001,30686,13,8,1.83055448532,-1.22705686092,-2.41875553131,0.243430063128,12.6999998093,0.6122255803745819,-0.410386910006689,-0.8089483382307692,12.6999998093,0.03289595447675676,0.9581532958951952,3.2721516749531547
1648638404752982055,30687,14,0,0.0176281221211,0.0845305845141,0.0125570474193,0.0,25.6000003815,0.005895693017090301,0.028271098499698995,0.004199681411137123,25.6000003815,0.0,0.029474962301642007,0.08725737703886341
1648638404752996426,30688,14,1,0.0696961507201,0.0272679310292,-0.0448637530208,0.0,25.6000003815,0.02330974940471572,0.00911970937431438,-0.01500459967250836,25.6000003815,0.0,0.03420318601670387,0.08725737689687586
1648638404753001540,30689,14,2,1.20007205009,0.698059022427,-0.147262275219,0.0,25.6000003815,0.4013618896622073,0.23346455599565216,-0.0492515970632107,25.6000003815,0.0,0.6137494862341497,1.396118011452338
1648638404753082378,30690,14,3,1.51164019108,0.504456698895,0.257502555847,0.0,25.6000003815,0.5055652812976588,0.16871461501505017,0.08612125613612039,25.6000003815,0.0,0.734613591370891,1.6142615013114068
1648638404753086029,30691,14,4,1.58002960682,0.68715184927,0.623728096485,0.0,25.6000003815,0.5284379955919731,0.22981667199665548,0.20860471454347826,25.6000003815,0.0,0.781862605000484,1.8324049663564401
1648638404753092033,30692,14,5,3.83246684074,-1.00345981121,0.645113110542,0.0,25.6000003815,1.2817614851973242,-0.3356052880301003,0.21575689315785954,25.6000003815,0.0,1.8434901462238054,4.013839135226824
1648638404753183016,30693,14,6,1.85142087936,0.239957794547,0.446950495243,0.121715031564,25.6000003815,0.6192043074782608,0.08025344299230769,0.14948177098428092,25.6000003815,0.01644797723837838,0.8793569036013675,1.9196624080530356
1648638404852928864,30694,15,0,0.0176575165242,0.0845305845141,0.0125156790018,0.0,12.3999996185,0.005905523921137123,0.028271098499698995,0.00418584582,12.3999996185,0.0,0.029478898146740973,0.087257376931546
1648638404852934224,30695,15,1,0.0695498511195,0.0272679310292,-0.0450902208686,0.0,12.3999996185,0.023260819772408025,0.00911970937431438,-0.015080341427625417,12.3999996185,0.0,0.03413649911811189,0.08725737717429372
1648638404852942443,30696,15,2,0.213561937213,-0.081803791225,-0.127373799682,0.0,12.3999996185,0.07142539706120402,-0.0273591275,-0.04259993300401337,12.3999996185,0.0,0.1046503537894763,0.26177212634347263
1648638404852944802,30697,15,3,1.20025134087,0.698059022427,-0.145794078708,0.0,12.3999996185,0.4014218531337792,0.23346455599565216,-0.04876056144080268,12.3999996185,0.0,0.6138279133869377,1.3961180442349015
1648638404853061598,30698,15,4,1.50011360645,0.454011052847,0.386488467455,0.0,12.3999996185,0.5017102362709029,0.15184316148729096,0.1292603570083612,12.3999996185,0.0,0.7255912541151981,1.6142615041682007
1648638404853064895,30699,15,5,1.61249613762,0.68715184927,0.534215688705,0.0,12.3999996185,0.5392963670969899,0.22981667199665548,0.17866745441638796,12.3999996185,0.0,0.7965531029728282,1.8324049388312498
1648638404853068128,30700,15,6,1.63467609882,-2.1132645607,0.422914773226,0.0,12.3999996185,0.5467144143210702,-0.7067774450501672,0.14144306796856188,12.3999996185,0.0,1.0475340846409265,2.704978735032262
1648638404853080241,30701,15,7,3.82743120193,-1.00345981121,0.674346446991,0.0,12.3999996185,1.2800773250602007,-0.3356052880301003,0.22553392875953177,12.3999996185,0.0,1.8411482356454418,4.013839101009197
1648638404853086729,30702,15,8,1.66029191017,0.372207254171,0.00769673008472,0.121715031564,12.3999996185,0.5552815753076923,0.12448403149531771,0.0025741572189698996,12.3999996185,0.01644797723837838,0.7950921517973322,1.7015189410310598
1648638404952951256,30703,16,0,0.0176210496575,0.0845305845141,0.0125669706613,0.0,15.3999996185,0.0058933276446488285,0.028271098499698995,0.004203000221170568,15.3999996185,0.0,0.029474016214863678,0.08725737711465696
1648638404953034064,30704,16,1,0.0696678087115,0.0272679310292,-0.0449077524245,0.0,15.3999996185,0.023300270472073576,0.00911970937431438,-0.015019315192140467,15.3999996185,0.0,0.03419026626418,0.08725737711560867
1648638404953038817,30705,16,2,1.20072066784,0.698059022427,-0.141876533628,0.0,15.3999996185,0.40157881867558526,0.23346455599565216,-0.04745034569498328,15.3999996185,0.0,0.6140332190720663,1.3961180006590315
1648638404953043506,30706,16,3,1.5080717802,0.454011052847,0.354166179895,0.0,15.3999996185,0.5043718328428094,0.15184316148729096,0.1184502273896321,15.3999996185,0.0,0.7292724026184491,1.6142615071060378
1648638404953068525,30707,16,4,3.81513643265,-1.00345981121,0.740747392178,0.0,15.3999996185,1.2759653620903009,-0.3356052880301003,0.24774160273511706,15.3999996185,0.0,1.8354307722881382,4.013839096359679
1648638404953126861,30708,16,5,1.64622104168,0.42537972331,-0.0646140798926,-0.121715031564,15.3999996185,0.5505755992240803,0.14226746598996656,-0.021610060164749163,15.3999996185,-0.01644797723837838,0.7915219597718792,1.7015189115592115
