%time,field.header.seq,field.header.frame_id,field.point_id,field.x,field.y,field.z,field.velocity,field.intensity,normalized_x,normalized_y,normalized_z,normalized_intensity,normalized_velocity,normalized_range,range
1648638721056780334,60442,0,0,0.027261575684,0.081803791225,0.0133714731783,0.0,12.1999998093,0.009117583840802674,0.0273591275,0.00447206460812709,12.1999998093,0.0,0.030245372005471984,0.08725737826978211
1648638721056787093,60443,0,1,0.0697437748313,0.0272679310292,-0.0447896793485,0.0,12.1999998093,0.023325677201103675,0.00911970937431438,-0.014979825869063544,12.1999998093,0.0,0.034224896389209614,0.08725737542737422
1648638721056789546,60444,0,2,0.21213234961,-0.081803791225,-0.129740715027,0.0,12.1999998093,0.07094727411705685,-0.0273591275,-0.04339154348729096,12.1999998093,0.0,0.10399785222225923,0.26177212828251956
1648638721056797363,60445,0,3,0.25941324234,1.01436698437,0.0125994766131,0.0,12.1999998093,0.08676028171906354,0.3392531720301003,0.004213871776956521,12.1999998093,0.0,0.36075948733252655,1.0470885139720345
1648638721056801492,60446,0,4,1.61511600018,-2.07917976379,0.388838589191,0.0,12.1999998093,0.5401725753110368,-0.6953778474214046,0.1300463509,12.1999998093,0.0,1.0330165404874898,2.6613499643292555
1648638721056841412,60447,0,5,2.47756433487,1.71787965298,0.487370997667,0.0,12.1999998093,0.8286168344046821,0.5745416899598662,0.16300033366789296,12.1999998093,0.0,1.3051091410374889,3.0540081900527767
1648638721056883641,60448,0,6,3.83588719368,-1.00345981121,0.624453961849,0.0,12.1999998093,1.2829054159464883,-0.3356052880301003,0.20884747887926422,12.1999998093,0.0,1.8450808984658182,4.013839172889311
1648638721056906207,60449,0,7,1.51682281494,0.143156632781,0.102452285588,-0.121715031564,12.1999998093,0.5072986003143812,0.047878472502006685,0.03426497845752508,12.1999998093,-0.01644797723837838,0.719024400066497,1.5270041729654522
1648638721156810273,60450,1,0,0.0271700397134,0.081803791225,0.0135565027595,0.0,19.7000007629,0.009086969803812708,0.0273591275,0.004533947411204013,19.7000007629,0.0,0.030226939937613006,0.08725737839219931
1648638721156816329,60451,1,1,0.0696649476886,0.0272679310292,-0.0449121892452,0.0,19.7000007629,0.023299313608227422,0.00911970937431438,-0.015020799078662205,19.7000007629,0.0,0.03418896208282756,0.08725737643239821
1648638721156826808,60452,1,2,0.212460890412,-0.081803791225,-0.129201993346,0.0,19.7000007629,0.07105715398394648,-0.0273591275,-0.043211369012040125,19.7000007629,0.0,0.10414778020753884,0.2617721247536167
1648638721156895182,60453,1,3,0.363657772541,0.981645464897,0.0227927453816,0.0,19.7000007629,0.12162467309063545,0.32830952003244146,0.007622991766421405,19.7000007629,0.0,0.37063764400387067,1.047088488870143
1648638721156907489,60454,1,4,1.41231989861,0.179968342185,0.214089885354,0.0,19.7000007629,0.47234779217725753,0.060190080998327754,0.07160196834581939,19.7000007629,0.0,0.6707068803881802,1.439746706615253
1648638721156916443,60455,1,5,1.54003107548,-0.0,0.483884811401,0.0,19.7000007629,0.515060560361204,-0.0,0.16183438508394646,19.7000007629,0.0,0.7284056299063008,1.6142615104587816
1648638721156920318,60456,1,6,2.46095085144,1.71787965298,0.565311014652,0.0,19.7000007629,0.823060485431438,0.5745416899598662,0.18906722898060196,19.7000007629,0.0,1.2980582725206167,3.0540082086682117
1648638721156923053,60457,1,7,3.81252026558,-1.12889230251,0.548813402653,0.0,19.7000007629,1.2750903898260868,-0.3775559540167224,0.18354963299431437,19.7000007629,0.0,1.8423516230261696,4.013839154357843
1648638721156932131,60458,1,8,1.63251388073,0.50309330225,0.530581057072,-0.121715031564,19.7000007629,0.5459912644581939,0.16825862951505016,0.17745185855250833,19.7000007629,-0.01644797723837838,0.7902682380910913,1.7887763134804127
1648638721256693459,60459,2,0,0.0272049792111,0.081803791225,0.013486248441,0.0,14.3999996185,0.009098655254548494,0.0273591275,0.00451045098361204,14.3999996185,0.0,0.030233969511850443,0.08725737819618548
1648638721256717200,60460,2,1,0.0696717426181,0.0272679310292,-0.0449016466737,0.0,14.3999996185,0.023301586159899662,0.00911970937431438,-0.015017273135016721,14.3999996185,0.0,0.034192059519812676,0.08725737594075227
1648638721256724041,60461,2,2,0.213413566351,-0.081803791225,-0.127622231841,0.0,14.3999996185,0.0713757746993311,-0.0273591275,-0.042683020682608694,14.3999996185,0.0,0.10458261942321297,0.26177212346144507
1648638721256835126,60462,2,3,0.363804340363,0.981645464897,0.0203195083886,0.0,14.3999996185,0.121673692429097,0.32830952003244146,0.0067958222035451495,14.3999996185,0.0,0.370669820463702,1.047088486824757
1648638721256840039,60463,2,4,1.33253133297,0.269952505827,0.473663032055,0.0,14.3999996185,0.44566265316722403,0.0902851190056856,0.15841572978428092,14.3999996185,0.0,0.636696005618042,1.4397467751950748
1648638721256843829,60464,2,5,1.47556102276,0.381751030684,0.0934208929539,0.0,14.3999996185,0.49349866981939794,0.12767592999464883,0.031244445803979934,14.3999996185,0.0,0.7094949029605702,1.5270041403208892
1648638721256855096,60465,2,6,1.64134514332,-2.1132645607,0.396243572235,0.0,14.3999996185,0.548944863986622,-0.7067774450501672,0.13252293385785952,14.3999996185,0.0,1.04986441230581,2.7049787340288405
1648638721256876817,60466,2,7,2.47094607353,1.71787965298,0.519885718822,0.0,14.3999996185,0.8264033690735785,0.5745416899598662,0.17387482234849497,14.3999996185,0.0,1.3022992015409751,3.0540082123417864
1648638721256879128,60467,2,8,3.8085694313,-1.12889230251,0.575591444969,0.0,14.3999996185,1.2737690405685618,-0.3775559540167224,0.19250549998963212,14.3999996185,0.0,1.8405226528992753,4.013839116758498
1648638721356750711,60468,3,0,0.0272091813385,0.081803791225,0.0134777706116,0.0,15.8999996185,0.00910006064832776,0.0273591275,0.0045076155891638795,15.8999996185,0.0,0.030234815447886285,0.08725737853358691
1648638721356757136,60469,3,1,0.0697374343872,0.0272679310292,-0.0447995550931,0.0,15.8999996185,0.023323556651237455,0.00911970937431438,-0.014983128793678928,15.8999996185,0.0,0.03422200591430788,0.0872573776483223
1648638721356763236,60470,3,2,0.212674900889,-0.081803791225,-0.128849431872,0.0,15.8999996185,0.07112872939431437,-0.0273591275,-0.043093455475585275,15.8999996185,0.0,0.10424545145022136,0.2617721333921289
1648638721356766221,60471,3,3,0.363811194897,0.981645464897,0.0201963093132,0.0,15.8999996185,0.1216759849153846,0.32830952003244146,0.006754618499397993,15.8999996185,0.0,0.37067132550844806,1.0470884848928026
1648638721356927414,60472,3,4,1.40078985691,0.179968342185,0.279767721891,0.0,15.8999996185,0.46849159093979925,0.060190080998327754,0.09356779996354515,15.8999996185,0.0,0.6652755725360684,1.4397467852448342
1648638721356931723,60473,3,5,2.46362924576,1.71787965298,0.553521811962,0.0,15.8999996185,0.8239562694849497,0.5745416899598662,0.18512435182675585,15.8999996185,0.0,1.299194374044565,3.0540081792628464
1648638721356933361,60474,3,6,3.85221242905,-1.00345981121,0.514229655266,0.0,15.8999996185,1.2883653608862875,-0.3356052880301003,0.17198316229632105,15.8999996185,0.0,1.8526741525743469,4.013839101109547
1648638721356935552,60475,3,7,1.46863949299,0.139066442847,0.155438169837,0.121715031564,15.8999996185,0.4911837769197324,0.046510516002341136,0.05198600997892976,15.8999996185,0.01644797723837838,0.6961941062067898,1.4833753606347646
1648638721356955876,60476,3,8,1.58714282513,0.490822762251,0.534425616264,-0.121715031564,15.8999996185,0.5308169983712374,0.16415476998361203,0.17873766430234111,15.8999996185,-0.01644797723837838,0.7684270687762588,1.7451475784656425
1648638721456717475,60477,4,0,0.0272584110498,0.081803791225,0.0133779225871,0.0,13.6999998093,0.009116525434715719,0.0273591275,0.0044742216010367885,13.6999998093,0.0,0.030244733914598976,0.0872573781664891
1648638721456722662,60478,4,1,0.0697365626693,0.0272679310292,-0.0448009185493,0.0,13.6999998093,0.0233232651067893,0.00911970937431438,-0.01498358479909699,13.6999998093,0.0,0.034221608517939484,0.08725738099670095
1648638721456729928,60479,4,2,0.212515830994,-0.081803791225,-0.129111617804,0.0,13.6999998093,0.07107552876053512,-0.0273591275,-0.04318114307826086,13.6999998093,0.0,0.1041728536363508,0.26177213093417706
1648638721456740188,60480,4,3,0.259451925755,1.01436698437,0.0117765199393,0.0,13.6999998093,0.0867732193160535,0.3392531720301003,0.003938635431204013,13.6999998093,0.0,0.360765710556628,1.0470885192665167
1648638721456765266,60481,4,4,2.45878624916,1.71787965298,0.574652910233,0.0,13.6999998093,0.8223365381806019,0.5745416899598662,0.19219160877357858,13.6999998093,0.0,1.2971402844548665,3.054008233194574
1648638721456905017,60482,4,5,3.83582520485,-1.00345981121,0.624835550785,0.0,13.6999998093,1.282884683896321,-0.3356052880301003,0.20897510059698995,13.6999998093,0.0,1.8450520680201126,4.013839316714229
1648638721456909483,60483,4,6,1.35637545586,0.224960431457,0.427210837603,0.121715031564,13.6999998093,0.45363727620735783,0.07523760249397993,0.14287987879698996,13.6999998093,0.01644797723837838,0.6459367256618124,1.4397467390989984
1648638721456912722,60484,4,7,1.58090567589,0.0518090687692,0.496642053127,0.243430063128,13.6999998093,0.5287309952809364,0.01732744774889632,0.16610102111270902,13.6999998093,0.03289595447675676,0.7479392830885605,1.6578903053586358
1648638721456924995,60485,4,8,1.61892950535,0.545358598232,0.356639206409,-0.121715031564,13.6999998093,0.5414479951003344,0.18239418001070232,0.11927732655819397,13.6999998093,-0.01644797723837838,0.7871464283715705,1.7451476348740267
1648638721556744670,60486,5,0,0.0271774921566,0.081803791225,0.0135415550321,0.0,16.5,0.009089462259732442,0.0273591275,0.0045289481712709025,16.5,0.0,0.030228438694439,0.08725737820604533
1648638721556755946,60487,5,1,0.0696823596954,0.0272679310292,-0.04488517344,0.0,16.5,0.02330513702187291,0.00911970937431438,-0.015011763692307691,16.5,0.0,0.034196899308102484,0.08725737854228258
1648638721556761767,60488,5,2,0.213377296925,-0.081803791225,-0.127682864666,0.0,16.5,0.07136364445652173,-0.0273591275,-0.04270329921939799,16.5,0.0,0.10456606217026126,0.2617721242438145
1648638721556770964,60489,5,3,0.36379379034,0.981645464897,0.0205073673278,0.0,16.5,0.12167016399331101,0.32830952003244146,0.0068586512802006686,16.5,0.0,0.3706675040467541,1.0470884837288148
1648638721556937574,60490,5,4,2.46082305908,1.71787965298,0.565867304802,0.0,16.5,0.8230177455117056,0.5745416899598662,0.18925327919799328,16.5,0.0,1.2980040725499595,3.0540082574980727
1648638721556943890,60491,5,5,3.81660223007,-1.12889230251,0.519666790962,0.0,16.5,1.276455595341137,-0.3775559540167224,0.17380160232842806,16.5,0.0,1.844241381210407,4.013839058416564
1648638721556948752,60492,5,6,1.38419163227,0.269952505827,0.289844602346,0.121715031564,16.5,0.4629403452408027,0.0902851190056856,0.09693799409565217,16.5,0.01644797723837838,0.6608925247097428,1.4397467568144318
1648638721556952185,60493,5,7,1.58828878403,0.0518090687692,0.47249814868,0.243430063128,16.5,0.5312002622173913,0.01732744774889632,0.15802613668227425,16.5,0.03289595447675676,0.7514304210006014,1.6578902079414835
1648638721656804825,60494,6,0,0.0271700397134,0.081803791225,0.0135565027595,0.0,19.1000003815,0.009086969803812708,0.0273591275,0.004533947411204013,19.1000003815,0.0,0.030226939937613006,0.08725737839219931
1648638721656820701,60495,6,1,0.0696912258863,0.0272679310292,-0.0448714010417,0.0,19.1000003815,0.023308102303110367,0.00911970937431438,-0.0150071575390301,19.1000003815,0.0,0.034200940996067276,0.08725737596096719
1648638721656827960,60496,6,2,0.212674900889,-0.081803791225,-0.128849431872,0.0,19.1000003815,0.07112872939431437,-0.0273591275,-0.043093455475585275,19.1000003815,0.0,0.10424545145022136,0.2617721333921289
1648638721656849125,60497,6,3,0.363593578339,0.981645464897,0.0237945728004,0.0,19.1000003815,0.12160320345785953,0.32830952003244146,0.00795805110381271,19.1000003815,0.0,0.3706235544678174,1.047088482725772
1648638721656969171,60498,6,4,1.18685829639,0.633979380131,-0.136619582772,0.0,19.1000003815,0.39694257404347827,0.21203323750200667,-0.04569216815117057,19.1000003815,0.0,0.6000707524801612,1.352489327328632
1648638721656972773,60499,6,5,2.45893311501,1.71787965298,0.574023485184,0.0,19.1000003815,0.8223856571939798,0.5745416899598662,0.19198109872374583,19.1000003815,0.0,1.2972025639115454,3.0540081086595454
1648638721656977184,60500,6,6,3.8417134285,-1.00345981121,0.58754748106,0.0,19.1000003815,1.2848539894648827,-0.3356052880301003,0.1965041742675585,19.1000003815,0.0,1.8477906964376176,4.013839272059954
1648638721656980972,60501,6,7,1.5570448637,0.490822762251,0.616639494896,0.121715031564,19.1000003815,0.5207507905351171,0.16415476998361203,0.20623394478127088,19.1000003815,0.01644797723837838,0.7545260500435166,1.745147546250416
1648638721656988145,60502,6,8,1.34889960289,0.314944595098,0.392620027065,0.243430063128,19.1000003815,0.4511369909331103,0.10533264050100333,0.13131104584113712,19.1000003815,0.03289595447675676,0.6466406531693443,1.439746756311944
1648638721656995402,60503,6,9,1.49971365929,0.238594397902,0.160228729248,0.243430063128,19.1000003815,0.5015764746789297,0.07979745749230768,0.053588203761872906,19.1000003815,0.03289595447675676,0.7138105870081521,1.5270041231927465
1648638721756876194,60504,7,0,0.0272165797651,0.081803791225,0.0134628228843,0.0,35.7000007629,0.009102535038494982,0.0273591275,0.004502616349264214,35.7000007629,0.0,0.030236305095287585,0.08725737832932795
1648638721756882803,60505,7,1,0.0696364864707,0.0272679310292,-0.0449563078582,0.0,35.7000007629,0.02328979480625418,0.00911970937431438,-0.015035554467625417,35.7000007629,0.0,0.03417598840277785,0.08725737749232695
1648638721756908420,60506,7,2,0.212494924664,-0.081803791225,-0.129146009684,0.0,35.7000007629,0.07106853667692307,-0.0273591275,-0.04319264537926421,35.7000007629,0.0,0.10416331248745682,0.2617721243449009
1648638721756964620,60507,7,3,0.258830040693,1.01436698437,0.0214707478881,0.0,35.7000007629,0.08656523100100333,0.3392531720301003,0.007180852136488294,35.7000007629,0.0,0.3606657637883016,1.0470885167739652
1648638721756973431,60508,7,4,1.1866710186,0.633979380131,-0.138237267733,0.0,35.7000007629,0.39687993933110366,0.21203323750200667,-0.046233199910702336,35.7000007629,0.0,0.5999878884548449,1.3524893726039897
1648638721756985802,60509,7,5,2.45600986481,1.71787965298,0.586404979229,0.0,35.7000007629,0.8214079815418059,0.5745416899598662,0.19612206663177256,35.7000007629,0.0,1.2959630773224624,3.0540081463269355
1648638721756988743,60510,7,6,3.83329391479,-1.00345981121,0.640180528164,0.0,35.7000007629,1.2820380985919733,-0.3356052880301003,0.21410720005484946,35.7000007629,0.0,1.8438748010199637,4.013839176962623
1648638721756993583,60511,7,7,1.39428555965,0.370843857527,0.344739466906,0.243430063128,35.7000007629,0.46631624068561867,0.12402804599565216,0.11529748057056854,35.7000007629,0.03289595447675676,0.671032509531271,1.4833754374926977
1648638721757001549,60512,7,8,1.78477454185,-1.39339125156,-2.23977518082,0.243430063128,35.7000007629,0.5969145624916388,-0.4660171409899665,-0.7490886892374582,35.7000007629,0.03289595447675676,0.9642540980082124,3.1848943790614292
1648638721757007388,60513,7,9,1.53419756889,-2.58772659302,1.04568660259,0.243430063128,35.7000007629,0.513109554812709,-0.8654603990033445,0.34972796073244145,35.7000007629,0.03289595447675676,1.1294177848445726,3.1848942794772794
1648638721757024717,60514,7,10,2.64857769012,-3.20670843124,0.991418361664,0.243430063128,35.7000007629,0.8858119364949832,-1.0724777362006688,0.33157804737926416,35.7000007629,0.03289595447675676,1.6491009879082892,4.275611431296303
1648638721856816928,60515,8,0,0.0272510647774,0.081803791225,0.013392880559,0.0,11.8999996185,0.00911406848742475,0.0273591275,0.00447922426722408,11.8999996185,0.0,0.03024325290619701,0.08725737814049353
1648638721856825730,60516,8,1,0.0696364864707,0.0272679310292,-0.0449563078582,0.0,11.8999996185,0.02328979480625418,0.00911970937431438,-0.015035554467625417,11.8999996185,0.0,0.03417598840277785,0.08725737749232695
1648638721856848021,60517,8,2,0.213000357151,-0.081803791225,-0.128310695291,0.0,11.8999996185,0.0712375776424749,-0.0273591275,-0.042913276017056856,11.8999996185,0.0,0.10439399788444036,0.2617721278732646
1648638721856931191,60518,8,3,1.18600380421,0.633979380131,-0.143848612905,0.0,11.8999996185,0.3966567907056856,0.21203323750200667,-0.04810990398160535,11.8999996185,0.0,0.5996926821559945,1.3524892980968728
1648638721856956793,60519,8,4,2.463316679,1.71787965298,0.55491143465,0.0,11.8999996185,0.8238517321070233,0.5745416899598662,0.1855891085785953,11.8999996185,0.0,1.2990617793213008,3.054008229109345
1648638721856984570,60520,8,5,3.8344347477,-1.00345981121,0.633312225342,0.0,11.8999996185,1.2824196480602006,-0.3356052880301003,0.21181010881003345,11.8999996185,0.0,1.8444053829935174,4.013839284506843
1648638721857003553,60521,8,6,1.45243549347,0.381751030684,0.27647575736,0.243430063128,11.8999996185,0.48576437908695647,0.12767592999464883,0.09246680848160535,11.8999996185,0.03289595447675676,0.6987382965599289,1.527004111496601
1648638721857010110,60522,8,7,1.53268420696,0.621708810329,0.113830722868,0.243430063128,11.8999996185,0.5126034136989966,0.20792936800301004,0.038070475875585284,11.8999996185,0.03289595447675676,0.754161217214105,1.6578902727786167
1648638721857100290,60523,8,8,1.67039620876,0.16360758245,0.478068262339,0.243430063128,11.8999996185,0.5586609393846154,0.054718255,0.15988905094949832,11.8999996185,0.03289595447675676,0.7919584445022647,1.7451476151692
1648638721857110166,60524,8,9,1.53306341171,0.245411381125,-0.237439095974,-0.365145087242,11.8999996185,0.5127302380301003,0.08207738499163879,-0.07941106888762542,11.8999996185,-0.04934393070837838,0.7297405642472347,1.570632832525328
1648638721956869801,60525,9,0,0.027163952589,0.081803791225,0.013568693772,0.0,29.2999992371,0.00908493397625418,0.0273591275,0.004538024672909698,29.2999992371,0.0,0.030225716009170924,0.08725737808185127
1648638721956876166,60526,9,1,0.0696823596954,0.0272679310292,-0.04488517344,0.0,29.2999992371,0.02330513702187291,0.00911970937431438,-0.015011763692307691,29.2999992371,0.0,0.034196899308102484,0.08725737854228258
1648638721956885573,60527,9,2,0.212707474828,-0.081803791225,-0.128795623779,0.0,29.2999992371,0.07113962368829431,-0.0273591275,-0.04307545945785953,29.2999992371,0.0,0.10426031831231625,0.26177212000346667
1648638721957032922,60528,9,3,0.259490579367,1.01436698437,0.0108911525458,0.0,29.2999992371,0.08678614694548493,0.3392531720301003,0.003642525935050167,29.2999992371,0.0,0.36077192980575895,1.0470885143882942
1648638721957040008,60529,9,4,1.18676519394,0.633979380131,-0.137426361442,0.0,29.2999992371,0.3969114361003344,0.21203323750200667,-0.04596199379331103,29.2999992371,0.0,0.600029557621991,1.3524893658723975
1648638721957049889,60530,9,5,3.83878803253,-1.00345981121,0.606366038322,0.0,29.2999992371,1.2838755961638795,-0.3356052880301003,0.20279800612775917,29.2999992371,0.0,1.846430069676098,4.013839175133886
1648638721957058350,60531,9,6,1.43513786793,0.381751030684,0.355509281158,0.121715031564,29.2999992371,0.4799792200434782,0.12767592999464883,0.11889942513645485,29.2999992371,0.01644797723837838,0.690696204164385,1.5270040597144594
1648638721957080108,60532,9,7,1.73235952854,0.167697772384,0.412951171398,0.243430063128,29.2999992371,0.5793844577056856,0.05608621149966555,0.13811075966488295,29.2999992371,0.03289595447675676,0.8212906688756472,1.788776327254156
1648638722056772898,60533,10,0,0.0271817240864,0.081803791225,0.0135330567136,0.0,21.8999996185,0.009090877620869565,0.0273591275,0.004526105924280936,21.8999996185,0.0,0.030229289925443343,0.08725737795227449
1648638722056783707,60534,10,1,0.0697374343872,0.0272679310292,-0.0447995550931,0.0,21.8999996185,0.023323556651237455,0.00911970937431438,-0.014983128793678928,21.8999996185,0.0,0.03422200591430788,0.0872573776483223
1648638722056949382,60535,10,2,0.213054761291,-0.081803791225,-0.128220319748,0.0,21.8999996185,0.0712557730070234,-0.0273591275,-0.04288305008294314,21.8999996185,0.0,0.1044188308267151,0.2617721183851094
1648638722056955099,60536,10,3,0.364086717367,0.981645464897,0.0143994195387,0.0,21.8999996185,0.1217681328986622,0.32830952003244146,0.004815859377491638,21.8999996185,0.0,0.37073184017991306,1.0470884870912183
1648638722056960226,60537,10,4,1.18701803684,0.633979380131,-0.135225176811,0.0,21.8999996185,0.3969959989431438,0.21203323750200667,-0.04522581164247491,21.8999996185,0.0,0.6001414334632393,1.3524893798689663
1648638722056964491,60538,10,5,2.46579289436,1.71787965298,0.543801963329,0.0,21.8999996185,0.8246798977792641,0.5745416899598662,0.1818735663307692,21.8999996185,0.0,1.3001123109579318,3.0540081328181534
1648638722056967121,60539,10,6,3.81493711472,-1.12889230251,0.531754374504,0.0,21.8999996185,1.275898700575251,-0.3775559540167224,0.17784427240936454,21.8999996185,0.0,1.8434705006244891,4.013839276146795
1648638722056969180,60540,10,7,1.48901474476,0.39265820384,0.309098422527,0.121715031564,21.8999996185,0.4979982423946488,0.13132381399331103,0.10337739883846153,21.8999996185,0.01644797723837838,0.7164149935463862,1.5706327419114319
1648638722056972703,60541,10,8,1.68071961403,0.223597034812,0.570005595684,0.121715031564,21.8999996185,0.5621135832876254,0.07478161699397992,0.19063732297123745,21.8999996185,0.01644797723837838,0.7984582965146914,1.788776239240935
1648638722056976288,60542,10,9,1.56529963017,0.302674025297,-0.253112256527,0.730290174484,21.8999996185,0.5235115819966555,0.10122877100234112,-0.08465292860434781,21.8999996185,0.09868786141675676,0.7472456202935728,1.6142615377329712
1648638722156769747,60543,11,0,0.0272344648838,0.081803791225,0.0134266037494,0.0,31.7999992371,0.00910851668354515,0.0273591275,0.004490502926220735,31.7999992371,0.0,0.030239907571123575,0.08725737805213794
1648638722156773671,60544,11,1,0.0696539133787,0.0272679310292,-0.0449292957783,0.0,31.7999992371,0.023295623203578593,0.00911970937431438,-0.015026520327190636,31.7999992371,0.0,0.03418393218981947,0.08725737407643332
1648638722156778644,60545,11,2,0.213249653578,-0.081803791225,-0.12789593637,0.0,31.7999992371,0.07132095437391303,-0.0273591275,-0.04277456065886287,31.7999992371,0.0,0.1045077936001561,0.26177212523467713
1648638722156798735,60546,11,3,0.259369641542,1.01436698437,0.0134672429413,0.0,31.7999992371,0.08674569951237457,0.3392531720301003,0.004504094629197325,31.7999992371,0.0,0.36075247400436106,1.047088514198276
1648638722156801117,60547,11,4,1.18584311008,0.633979380131,-0.145167216659,0.0,31.7999992371,0.3966030468494983,0.21203323750200667,-0.04855090858160535,31.7999992371,0.0,0.5996215867913639,1.3524892816388656
1648638722156949764,60548,11,5,1.69417715073,0.167697772384,0.548964560032,0.0,31.7999992371,0.5666144316822742,0.05608621149966555,0.18360018730167224,31.7999992371,0.0,0.8032742318172782,1.7887763552465983
1648638722156953576,60549,11,6,3.81411552429,-1.12889230251,0.537615001202,0.0,31.7999992371,1.275623921167224,-0.3775559540167224,0.17980434822809363,31.7999992371,0.0,1.8430901429180195,4.013839178743181
1648638722156960752,60550,11,7,1.48415100574,0.39265820384,0.331666648388,0.121715031564,31.7999992371,0.49637157382608693,0.13132381399331103,0.11092530046421403,31.7999992371,0.01644797723837838,0.7141536408413267,1.5706328146752946
1648638722256841523,60551,12,0,0.0272542387247,0.081803791225,0.0133864209056,0.0,19.1000003815,0.00911513000826087,0.0273591275,0.0044770638480267555,19.1000003815,0.0,0.030243892733843834,0.08725737820899852
1648638722256849964,60552,12,1,0.0697551965714,0.0272679310292,-0.0447718948126,0.0,19.1000003815,0.023329497181070233,0.00911970937431438,-0.014973877863745818,19.1000003815,0.0,0.03423010336699388,0.08725737834956068
1648638722256854718,60553,12,2,0.213186964393,-0.081803791225,-0.128000408411,0.0,19.1000003815,0.07129998809130435,-0.0273591275,-0.04280950114080267,19.1000003815,0.0,0.10447917716560338,0.2617721272390711
1648638722256860099,60554,12,3,0.259636104107,1.01436698437,0.00656280200928,0.0,19.1000003815,0.08683481742709029,0.3392531720301003,0.002194917059959866,19.1000003815,0.0,0.3607953516436666,1.0470885138831205
1648638722256957771,60555,12,4,1.18673408031,0.633979380131,-0.13769441843,0.0,19.1000003815,0.39690103020401335,0.21203323750200667,-0.04605164495986622,19.1000003815,0.0,0.6000157909252027,1.352489328855235
1648638722256961341,60556,12,5,3.79539418221,-1.12889230251,0.656877994537,0.0,19.1000003815,1.2693626027458194,-0.3775559540167224,0.21969163696889632,19.1000003815,0.0,1.834423978504631,4.013839001346067
1648638722256964535,60557,12,6,1.48430967331,0.39265820384,0.330955713987,0.121715031564,19.1000003815,0.49642463990301,0.13132381399331103,0.11068752976153846,19.1000003815,0.01644797723837838,0.7142274079923117,1.57063278838344
1648638722256969022,60558,12,7,1.61476230621,0.362663477659,0.09806997329,0.121715031564,19.1000003815,0.5400542830133779,0.12129213299632105,0.03279932217056856,19.1000003815,0.01644797723837838,0.7733233726772938,1.6578901722507011
1648638722256976411,60559,12,8,1.6918772459,0.22905062139,0.665428459644,0.121715031564,19.1000003815,0.5658452327424749,0.07660555899331102,0.22255132429565216,19.1000003815,0.01644797723837838,0.803884361399977,1.832404932665676
1648638722256989896,60560,12,9,1.60711622238,0.310854405165,-0.262957751751,-0.121715031564,19.1000003815,0.5374970643411371,0.10396468400167223,-0.0879457363715719,19.1000003815,-0.01644797723837838,0.7672123851126548,1.6578901630244955
1648638722356814374,60561,13,0,0.0272437036037,0.081803791225,0.0134078487754,0.0,11.3000001907,0.009111606556421405,0.0273591275,0.004484230359665551,11.3000001907,0.0,0.030241769221381533,0.08725737821877093
1648638722356822026,60562,13,1,0.0697268545628,0.0272679310292,-0.0448160134256,0.0,11.3000001907,0.023320018248428095,0.00911970937431438,-0.01498863325270903,11.3000001907,0.0,0.03421718283678533,0.08725737429695345
1648638722356841670,60563,13,2,0.212841421366,-0.081803791225,-0.128574162722,0.0,11.3000001907,0.07118442186153846,-0.0273591275,-0.04300139221471572,11.3000001907,0.0,0.10432145363770678,0.2617721265290594
1648638722356870571,60564,13,3,0.257695555687,1.01436698437,0.032357160002,0.0,11.3000001907,0.08618580457759197,0.3392531720301003,0.010821792642809363,11.3000001907,0.0,0.36048398099479895,1.047088517845609
1648638722356975636,60565,13,4,0.801268994808,0.392658174038,-0.54788851738,0.0,11.3000001907,0.26798294140735784,0.13132380402608695,-0.1832403068160535,11.3000001907,0.0,0.40109307557543405,1.0470884734139392
1648638722357055680,60566,13,5,1.18713283539,0.633979380131,-0.134212821722,0.0,11.3000001907,0.3970343931070234,0.21203323750200667,-0.0448872313451505,11.3000001907,0.0,0.6001922295609192,1.3524892993317799
1648638722357072257,60567,13,6,3.81281423569,-1.12889230251,0.546767950058,0.0,11.3000001907,1.2751887075886286,-0.3775559540167224,0.18286553513645484,11.3000001907,0.0,1.8424877145687,4.013839236660741
1648638722357079821,60568,13,7,1.4061819315,0.638069570065,0.287066161633,-0.973720252514,11.3000001907,0.4702949603678929,0.2134011940016722,0.09600874971003345,11.3000001907,-0.13158381790729728,0.6984946450018177,1.5706327966379372
1648638722456827148,60569,14,0,0.0272228941321,0.081803791225,0.0134500497952,0.0,22.1000003815,0.009104646866923076,0.0273591275,0.004498344413110368,22.1000003815,0.0,0.030237576733329684,0.08725737827372693
1648638722456833109,60570,14,1,0.0696823596954,0.0272679310292,-0.04488517344,0.0,22.1000003815,0.02330513702187291,0.00911970937431438,-0.015011763692307691,22.1000003815,0.0,0.034196899308102484,0.08725737854228258
1648638722456836537,60571,14,2,0.213377296925,-0.081803791225,-0.127682864666,0.0,22.1000003815,0.07136364445652173,-0.0273591275,-0.04270329921939799,22.1000003815,0.0,0.10456606217026126,0.2617721242438145
1648638722456840506,60572,14,3,0.259300082922,1.01436698437,0.0147463018075,0.0,22.1000003815,0.08672243575986623,0.3392531720301003,0.004931873514214047,22.1000003815,0.0,0.3607412874356539,1.0470885184167773
1648638722456952805,60573,14,4,1.18735599518,0.633979380131,-0.132224813104,0.0,22.1000003815,0.39710902848829427,0.21203323750200667,-0.04422234551973244,22.1000003815,0.0,0.6002909751274095,1.352489377008767
1648638722456959094,60574,14,5,1.5358530283,0.403565376997,0.290053188801,0.0,22.1000003815,0.5136632201672241,0.13497169799230768,0.09700775545183946,22.1000003815,0.0,0.7388620756027819,1.6142615619479515
1648638722457061611,60575,14,6,3.83579444885,-1.00345981121,0.62502259016,0.0,22.1000003815,1.2828743976086956,-0.3356052880301003,0.20903765557190632,22.1000003815,0.0,1.8450377636876472,4.013839045695828
1648638722457078870,60576,14,7,1.60459768772,0.25904533267,-0.32674407959,0.365145087242,22.1000003815,0.5366547450568562,0.08663723500668896,-0.10927895638461538,22.1000003815,0.04934393070837838,0.7638734458492996,1.6578902006350114
1648638722457082000,60577,14,8,1.36023139954,0.509910285473,0.300274550915,-0.608575165272,22.1000003815,0.4549268894782608,0.17053855701438125,0.1004262712090301,22.1000003815,-0.0822398871989189,0.6655827138450028,1.4833754634120482
1648638722457084216,60578,14,9,1.34339725971,0.509910285473,0.368344962597,-0.243430063128,22.1000003815,0.4492967423779264,0.17053855701438125,0.12319229518294314,22.1000003815,-0.03289595447675676,0.6578894472868377,1.4833754440795082
1648638722556846754,60579,15,0,0.027159711346,0.081803791225,0.0135771809146,0.0,25.3999996185,0.009083515500334448,0.0273591275,0.004540863182140468,25.3999996185,0.0,0.030224863361988732,0.0872573780305666
1648638722556855400,60580,15,1,0.0697551965714,0.0272679310292,-0.0447718948126,0.0,25.3999996185,0.023329497181070233,0.00911970937431438,-0.014973877863745818,25.3999996185,0.0,0.03423010336699388,0.08725737834956068
1648638722556861475,60581,15,2,0.212707474828,-0.081803791225,-0.128795623779,0.0,25.3999996185,0.07113962368829431,-0.0273591275,-0.04307545945785953,25.3999996185,0.0,0.10426031831231625,0.26177212000346667
1648638722556941537,60582,15,3,0.259056806564,1.01436698437,0.0185352936387,0.0,25.3999996185,0.08664107242943142,0.3392531720301003,0.006199094862441471,25.3999996185,0.0,0.3607021840742426,1.0470885182816678
1648638722556945125,60583,15,4,1.1871393919,0.633979380131,-0.134155735373,0.0,25.3999996185,0.3970365859197324,0.21203323750200667,-0.04486813892073578,25.3999996185,0.0,0.6001951307059866,1.3524893905556004
1648638722556963037,60584,15,5,1.53028380871,0.403565376997,0.318129986525,0.0,25.3999996185,0.5118006049197323,0.13497169799230768,0.10639798880434782,25.3999996185,0.0,0.7362724208140181,1.6142615144508374
1648638722556970008,60585,15,6,1.64255094528,-2.1132645607,0.391215145588,0.0,25.3999996185,0.5493481422341137,-0.7067774450501672,0.13084118581538462,25.3999996185,0.0,1.0502862084135858,2.7049787432599586
1648638722556976971,60586,15,7,3.80567741394,-1.12889230251,0.594412744045,0.0,25.3999996185,1.272801810682274,-0.3775559540167224,0.19880024884448158,25.3999996185,0.0,1.8391838942763794,4.01383917464595
1648638722556982807,60587,15,8,1.31189954281,0.463554829359,0.5142365098,0.486860126257,25.3999996185,0.4387623888996655,0.1550350599862876,0.17198545478260868,25.3999996185,0.06579190895364864,0.6395785625322619,1.4833754340214833
1648638722556987471,60588,15,9,1.85066223145,-1.21069610119,-2.35215330124,-0.121715031564,25.3999996185,0.6189505790802675,-0.4049150840100334,-0.786673344896321,25.3999996185,-0.01644797723837838,0.9644458844053664,3.228523020962742
1648638722557005523,60589,15,10,3.02752614021,0.908022105694,0.657983541489,-0.121715031564,25.3999996185,1.0125505485652173,0.3036863229745819,0.2200613851133779,25.3999996185,-0.01644797723837838,1.4638109883319184,3.228523039247859
1648638722656819255,60590,16,0,0.0271807089448,0.081803791225,0.0135350953788,0.0,11.6000003815,0.009090538108628763,0.0273591275,0.004526787752107023,11.6000003815,0.0,0.030229085725011928,0.08725737793698898
1648638722656828518,60591,16,1,0.0697268545628,0.0272679310292,-0.0448160134256,0.0,11.6000003815,0.023320018248428095,0.00911970937431438,-0.01498863325270903,11.6000003815,0.0,0.03421718283678533,0.08725737429695345
1648638722656861224,60592,16,2,0.21213234961,-0.081803791225,-0.129740715027,0.0,11.6000003815,0.07094727411705685,-0.0273591275,-0.04339154348729096,11.6000003815,0.0,0.10399785222225923,0.26177212828251956
1648638722656891901,60593,16,3,0.259576827288,1.01436698437,0.00859404169023,0.0,11.6000003815,0.08681499240401339,0.3392531720301003,0.0028742614348595315,11.6000003815,0.0,0.3607858097884431,1.0470885186064096
1648638722656929445,60594,16,4,1.18690419197,0.633979380131,-0.136220723391,0.0,11.6000003815,0.396957923735786,0.21203323750200667,-0.04555877036488294,11.6000003815,0.0,0.6000910599557658,1.3524893717986892
1648638722657004089,60595,16,5,1.52261161804,0.353119701147,0.403485506773,0.0,11.6000003815,0.5092346548628762,0.1181002344973244,0.13494498554280934,11.6000003815,0.0,0.7297859499983186,1.6142615082149478
1648638722657020589,60596,16,6,2.46865367889,1.71787965298,0.530663907528,0.0,11.6000003815,0.82563668190301,0.5745416899598662,0.17747956773511703,11.6000003815,0.0,1.3013262521403168,3.054008132139255
1648638722657141460,60597,16,7,3.83698797226,-1.00345981121,0.617654979229,0.0,11.6000003815,1.2832735693177257,-0.3356052880301003,0.206573571648495,11.6000003815,0.0,1.8455928632211056,4.013839304873564
1648638722657148817,60598,16,8,1.75830435753,0.0572626553476,0.512635350227,0.121715031564,11.6000003815,0.5880616580367892,0.019151389748361204,0.17144994990869564,11.6000003815,0.01644797723837838,0.8318652553360122,1.8324050392063438
1648638722657154474,60599,16,9,1.6788713932,0.265862315893,0.0766479298472,0.243430063128,11.6000003815,0.5614954492307691,0.08891716250602007,0.025634759146220733,11.6000003815,0.03289595447675676,0.7990372587069069,1.7015189775806672
1648638722657222598,60600,16,10,2.61950516701,-3.65117573738,-0.0306809935719,0.243430063128,11.6000003815,0.876088684618729,-1.2211290091571905,-0.010261201863511704,11.6000003815,0.03289595447675676,1.7396030649660201,4.493754878561027
1648638722657228695,60601,16,11,4.30131721497,1.26386857033,0.308440744877,0.243430063128,11.6000003815,1.438567630424749,0.4226985185050167,0.10315743975819398,11.6000003815,0.03289595447675676,2.0778902021420884,4.493754470369465
