%time,field.header.seq,field.header.frame_id,field.point_id,field.x,field.y,field.z,field.velocity,field.intensity,normalized_x,normalized_y,normalized_z,normalized_intensity,normalized_velocity,normalized_range,range
1648638557654810473,44365,0,0,0.0271931830794,0.081803791225,0.0135100167245,0.0,18.0,0.009094710059999999,0.0273591275,0.004518400242307692,18.0,0.0,0.030231595388139652,0.08725737800707413
1648638557654815818,44366,0,1,0.069688975811,0.0272679310292,-0.0448749028146,0.0,18.0,0.02330734976956522,0.00911970937431438,-0.015008328700535116,18.0,0.0,0.034199915286936916,0.08725737971552404
1648638557654907345,44367,0,2,0.212067052722,-0.081803791225,-0.129847407341,0.0,18.0,0.07092543569297659,-0.0273591275,-0.0434272265354515,18.0,0.0,0.10396805621939063,0.26177212285145735
1648638557654919136,44368,0,3,0.259007006884,1.01436698437,0.019218698144,0.0,18.0,0.0866244170180602,0.3392531720301003,0.0064276582421404676,18.0,0.0,0.36069418345729176,1.0470885191583597
1648638557654937815,44369,0,4,1.16855943203,0.676244676113,-0.0799345746636,0.0,18.0,0.3908225525183946,0.22616878799765885,-0.02673397145939799,18.0,0.0,0.5971908034944247,1.3524893879007343
1648638557654942172,44370,0,5,1.46295666695,0.490822762251,0.292811304331,0.0,18.0,0.48928316620401335,0.16415476998361203,0.0979302021173913,18.0,0.0,0.7111559758376645,1.570632883031925
1648638557655059615,44371,0,6,3.8158724308,-1.12889230251,0.525000333786,0.0,18.0,1.2762115153177256,-0.3775559540167224,0.17558539591505015,18.0,0.0,1.8439035121373917,4.0138392580273115
1648638557655063202,44372,0,7,1.59966921806,0.372207254171,0.444619864225,0.121715031564,18.0,0.5350064274448161,0.12448403149531771,0.14870229572742474,18.0,0.01644797723837838,0.7667855168897347,1.70151893052345
1648638557655078938,44373,0,8,1.6436522007,0.272679299116,0.519223988056,0.243430063128,18.0,0.549716455083612,0.09119709000535116,0.17365350771103677,18.0,0.03289595447675676,0.7827472588293297,1.7451475888317078
1648638557655129992,44374,0,9,1.57410693169,0.353119701147,-0.0577419996262,-0.121715031564,18.0,0.5264571677892976,0.1181002344973244,-0.019311705560602004,18.0,-0.01644797723837838,0.7538315225710452,1.6142615321729887
1648638557754714589,44375,1,0,0.0175638012588,0.0845305845141,0.0126468567178,0.0,16.7000007629,0.005874181023010033,0.028271098499698995,0.004229717965819398,16.7000007629,0.0,0.02946637092961848,0.08725737686748662
1648638557754721746,44376,1,1,0.0697676986456,0.0272679310292,-0.0447524040937,0.0,16.7000007629,0.023333678476789292,0.00911970937431438,-0.014967359228662207,16.7000007629,0.0,0.03423580292016411,0.08725737509851118
1648638557754726516,44377,1,2,0.212902337313,-0.081803791225,-0.128473266959,0.0,16.7000007629,0.07120479508795986,-0.0273591275,-0.042967647812374575,16.7000007629,0.0,0.10434925751819206,0.26177212574153175
1648638557754735642,44378,1,3,0.259408950806,1.01436698437,0.0126877259463,0.0,16.7000007629,0.08675884642341138,0.3392531720301003,0.004243386604113712,16.7000007629,0.0,0.3607587969792656,1.0470885163766461
1648638557754827928,44379,1,4,1.16836929321,0.676244676113,-0.0826673135161,0.0,16.7000007629,0.39075896093979934,0.22616878799765885,-0.027647930941839465,16.7000007629,0.0,0.5971075713586567,1.3524893907203783
1648638557754831007,44380,1,5,1.47883331776,0.441740483046,0.291212677956,0.0,16.7000007629,0.4945930828628762,0.14773929198862876,0.09739554446688961,16.7000007629,0.0,0.7148926728040434,1.5706328214707177
1648638557754836977,44381,1,6,3.8365380764,-1.00345981121,0.620442509651,0.0,16.7000007629,1.2831231024749163,-0.3356052880301003,0.20750585607056854,16.7000007629,0.0,1.845383619078558,4.013839173679316
1648638557754840617,44382,1,7,1.69582092762,0.279496282339,0.495775878429,0.243430063128,16.7000007629,0.5671641898394648,0.09347701750468226,0.16581133057826086,16.7000007629,0.03289595447675676,0.8075199002340956,1.7887762610307993
1648638557854942285,44383,2,0,0.0272113960236,0.081803791225,0.0134732974693,0.0,32.2999992371,0.009100801345685618,0.0273591275,0.004506119554949833,32.2999992371,0.0,0.03023526133223463,0.08725737835296697
1648638557854944883,44384,2,1,0.0697226971388,0.0272679310292,-0.0448224917054,0.0,32.2999992371,0.023318627805618726,0.00911970937431438,-0.014990799901471572,32.2999992371,0.0,0.03421528758531641,0.08725737975439492
1648638557854955149,44385,2,2,0.212769523263,-0.081803791225,-0.128693118691,0.0,32.2999992371,0.07116037567324414,-0.0273591275,-0.04304117681973244,32.2999992371,0.0,0.1042886378733356,0.26177213199033145
1648638557855044818,44386,2,3,0.363424509764,0.981645464897,0.0262508336455,0.0,32.2999992371,0.12154665878394648,0.32830952003244146,0.008779543025250835,32.2999992371,0.0,0.37058645613002955,1.0470884868611319
1648638557855046406,44387,2,4,1.16866254807,0.676244676113,-0.078411757946,0.0,32.2999992371,0.39085703948829426,0.22616878799765885,-0.026224668209364546,32.2999992371,0.0,0.5972359427390803,1.3524893408144936
1648638557855056420,44388,2,5,1.44352698326,0.490822762251,0.377108126879,0.0,32.2999992371,0.48278494423411367,0.16415476998361203,0.12612311935752507,32.2999992371,0.0,0.7022174828830774,1.5706328898573356
1648638557855057619,44389,2,6,3.81016635895,-1.12889230251,0.564924061298,0.0,32.2999992371,1.274303130083612,-0.3775559540167224,0.18893781314314378,32.2999992371,0.0,1.841261913225617,4.0138391483184845
1648638557855077080,44390,2,7,1.6171528101,0.362663477659,0.0434992946684,0.243430063128,32.2999992371,0.5408537826421403,0.12129213299632105,0.014548259086421404,32.2999992371,0.03289595447675676,0.7744400621890764,1.657890285235635
1648638557855078616,44391,2,8,2.8957324028,-3.30487298965,-0.331311196089,0.243430063128,32.2999992371,0.9684723755183946,-1.1053086921906354,-0.1108064200966555,32.2999992371,0.03289595447675676,1.7599956787778366,4.40649733178155
1648638557855079744,44392,2,9,4.21466016769,1.23932743073,0.343406230211,0.243430063128,32.2999992371,1.4095853403645484,0.41449077950836116,0.11485158201036788,32.2999992371,0.03289595447675676,2.036090437539239,4.40649754891799
1648638557855080701,44393,2,10,1.52848064899,0.68715184927,0.741132259369,-0.121715031564,32.2999992371,0.5111975414682274,0.22981667199665548,0.2478703208591973,32.2999992371,-0.01644797723837838,0.758591824062149,1.8324049181797868
1648638557954817763,44394,3,0,0.0272385813296,0.081803791225,0.0134182507172,0.0,13.1000003815,0.009109893421270903,0.0273591275,0.004487709269966555,13.1000003815,0.0,0.030240736992591402,0.08725737804874875
1648638557954819971,44395,3,1,0.0696505606174,0.0272679310292,-0.0449345000088,0.0,13.1000003815,0.0232945018787291,0.00911970937431438,-0.015028260872508359,13.1000003815,0.0,0.03418240387433547,0.08725737761342686
1648638557954827155,44396,3,2,0.21220728755,-0.081803791225,-0.129618108273,0.0,13.1000003815,0.07097233697324415,-0.0273591275,-0.04335053788394648,13.1000003815,0.0,0.10403204837187767,0.2617721282726313
1648638557954836145,44397,3,3,0.259472191334,1.01436698437,0.0113209178671,0.0,13.1000003815,0.08677999710167224,0.3392531720301003,0.003786260156220735,13.1000003815,0.0,0.3607689711247592,1.047088515951211
1648638557954939273,44398,3,4,1.1688028574,0.676244676113,-0.0762923806906,0.0,13.1000003815,0.3909039656856187,0.22616878799765885,-0.025515846384816052,13.1000003815,0.0,0.5972973643352335,1.3524893747416356
1648638557954944503,44399,3,5,1.46789157391,0.490822762251,0.266973823309,0.0,13.1000003815,0.4909336367591973,0.16415476998361203,0.0892889041167224,13.1000003815,0.0,0.7134272632242166,1.5706328912358558
1648638557954948249,44400,3,6,3.84362363815,-1.00345981121,0.574918150902,0.0,13.1000003815,1.2854928555685619,-0.3356052880301003,0.19228031802742476,13.1000003815,0.0,1.8486791697829554,4.01383920264572
1648638557955064788,44401,3,7,1.73309421539,0.286313265562,0.52164876461,0.365145087242,13.1000003815,0.5796301723712374,0.09575694500401337,0.17446446976923075,13.1000003815,0.04934393070837838,0.825294896362944,1.832405053222184
1648638557955168251,44402,3,8,1.56908690929,0.744414508343,0.584398269653,-0.243430063128,13.1000003815,0.5247782305317725,0.2489680629909699,0.19545092630535116,13.1000003815,-0.03289595447675676,0.78279593692711,1.832404984360776
1648638558054855748,44403,4,0,0.027197368443,0.081803791225,0.0135015910491,0.0,26.7000007629,0.00909610984715719,0.0273591275,0.004515582290668896,26.7000007629,0.0,0.030232437650053234,0.08725737831189302
1648638558054865798,44404,4,1,0.0696433186531,0.0272679310292,-0.0449457205832,0.0,26.7000007629,0.0232920798170903,0.00911970937431438,-0.015032013572976587,26.7000007629,0.0,0.034179102730811525,0.08725737616026237
1648638558054869945,44405,4,2,0.213517323136,-0.081803791225,-0.127448573709,0.0,26.7000007629,0.07141047596521738,-0.0273591275,-0.04262494103979933,26.7000007629,0.0,0.10462998620242207,0.2617721270082146
1648638558054995656,44406,4,3,0.259668499231,1.01436698437,0.00512409582734,0.0,26.7000007629,0.0868456519167224,0.3392531720301003,0.0017137444238595316,26.7000007629,0.0,0.36080056713670206,1.047088518144868
1648638558055000767,44407,4,4,1.16872048378,0.676244676113,-0.0775427892804,0.0,26.7000007629,0.3908764159799331,0.22616878799765885,-0.02593404323759197,26.7000007629,0.0,0.5972613044580783,1.3524893032285017
1648638558055019030,44408,4,5,3.85152244568,-1.00345981121,0.519372224808,0.0,26.7000007629,1.2881345972173912,-0.3356052880301003,0.1737030852200669,26.7000007629,0.0,1.8523532034821513,4.01383909121834
1648638558055050514,44409,4,6,1.45032644272,0.490822762251,0.350048303604,0.121715031564,26.7000007629,0.4850590109431438,0.16415476998361203,0.11707301123879599,26.7000007629,0.01644797723837838,0.7053447927805623,1.5706328626552384
1648638558055060732,44410,4,7,1.95069921017,0.38447779417,-0.501695215702,0.243430063128,26.7000007629,0.6524077625986622,0.12858789102675583,-0.16779104204080267,26.7000007629,0.03289595447675676,0.9315613898808245,2.0505483832931053
1648638558055132991,44411,4,8,1.65215599537,0.372207254171,0.164343982935,0.365145087242,26.7000007629,0.5525605335685618,0.12448403149531771,0.054964542787625414,26.7000007629,0.04934393070837838,0.7912917038693599,1.7015189149173424
1648638558055143079,44412,4,9,1.68374836445,0.343575924635,0.636124968529,0.365145087242,26.7000007629,0.5631265432943143,0.11490833599832774,0.21275082559498326,26.7000007629,0.04934393070837838,0.8046284441946551,1.8324049624367607
1648638558055151318,44413,4,10,1.57862496376,0.670791089535,0.507644891739,-0.365145087242,26.7000007629,0.5279682153043478,0.22434484599832774,0.16978090024715717,26.7000007629,-0.04934393070837838,0.7796354806377975,1.78877634099809
1648638558154921783,44414,5,0,0.0271899234504,0.081803791225,0.0135165797547,0.0,30.2999992371,0.009093619883076923,0.0273591275,0.004520595235685618,30.2999992371,0.0,0.030230939494449063,0.08725737862374257
1648638558154932160,44415,5,1,0.0696427300572,0.0272679310292,-0.0449466332793,0.0,30.2999992371,0.023291882962274243,0.00911970937431438,-0.01503231882250836,30.2999992371,0.0,0.034178834429051556,0.08725737651096963
1648638558154936389,44416,5,2,0.213061839342,-0.081803791225,-0.128208592534,0.0,30.2999992371,0.07125814024816053,-0.0273591275,-0.04287912793779264,30.2999992371,0.0,0.10442206165755534,0.26177213534318133
1648638558154960774,44417,5,3,0.258964717388,1.01436698437,0.0197800248861,0.0,30.2999992371,0.08661027337391303,0.3392531720301003,0.006615392938494983,30.2999992371,0.0,0.3606873904647801,1.0470885125987341
1648638558155008407,44418,5,4,1.16861510277,0.676244676113,-0.079115241766,0.0,30.2999992371,0.39084117149498326,0.22616878799765885,-0.026459947078929763,30.2999992371,0.0,0.5972151733968853,1.3524893130346747
1648638558155010540,44419,5,5,3.83941817284,-1.00345981121,0.602363169193,0.0,30.2999992371,1.284086345431438,-0.3356052880301003,0.20145925391070235,30.2999992371,0.0,1.8467231504480304,4.013839170451139
1648638558155018625,44420,5,6,1.47234880924,0.441740483046,0.322400093079,0.121715031564,30.2999992371,0.49242435091638787,0.14773929198862876,0.10782611808662207,30.2999992371,0.01644797723837838,0.7118921134189878,1.5706328312019673
1648638558155021048,44421,5,7,1.63277840614,0.47855219245,-0.0137462764978,0.121715031564,30.2999992371,0.5460797344949833,0.16005090048494983,-0.004597416888896321,30.2999992371,0.01644797723837838,0.7886839947648654,1.7015188757616926
1648638558155024440,44422,5,8,1.74300527573,0.279496282339,0.289024561644,0.486860126257,30.2999992371,0.582944908270903,0.09347701750468226,0.09666373299130433,30.2999992371,0.06579190895364864,0.8296911985549283,1.7887763304274356
1648638558155113634,44423,5,9,1.50734567642,0.6544303298,0.587511658669,-0.365145087242,30.2999992371,0.5041289887692307,0.21887302,0.1964921935347826,30.2999992371,-0.04934393070837838,0.7457864798445295,1.7451475564708572
1648638558254868333,44424,6,0,0.0271931830794,0.081803791225,0.0135100167245,0.0,31.2000007629,0.009094710059999999,0.0273591275,0.004518400242307692,31.2000007629,0.0,0.030231595388139652,0.08725737800707413
1648638558254887240,44425,6,1,0.0696539133787,0.0272679310292,-0.0449292957783,0.0,31.2000007629,0.023295623203578593,0.00911970937431438,-0.015026520327190636,31.2000007629,0.0,0.03418393218981947,0.08725737407643332
1648638558254908155,44426,6,2,0.212435573339,-0.081803791225,-0.129243612289,0.0,31.2000007629,0.0710486867354515,-0.0273591275,-0.043225288390969896,31.2000007629,0.0,0.10413622631546575,0.2617721230310103
1648638558254910205,44427,6,3,0.259458243847,1.01436698437,0.0116362199187,0.0,31.2000007629,0.086775332390301,0.3392531720301003,0.003891712347391304,31.2000007629,0.0,0.3607667270624874,1.0470885162650068
1648638558254924643,44428,6,4,1.16859912872,0.676244676113,-0.079351298511,0.0,31.2000007629,0.39083582900334446,0.22616878799765885,-0.026538895823076922,31.2000007629,0.0,0.5972081807291265,1.352489339770078
1648638558254938372,44429,6,5,3.83459544182,-1.00345981121,0.6323376894,0.0,31.2000007629,1.2824733919130433,-0.3356052880301003,0.21148417705685618,31.2000007629,0.0,1.8444801195143468,4.013839153301495
1648638558255057744,44430,6,6,1.50716078281,0.454011052847,0.35802334547,0.121715031564,31.2000007629,0.5040671514414715,0.15184316148729096,0.11974024932107022,31.2000007629,0.01644797723837838,0.7288509669439249,1.6142615578800186
1648638558255061912,44431,6,7,1.69847369194,0.381751030684,-0.122447095811,0.243430063128,31.2000007629,0.5680514019866221,0.12767592999464883,-0.04095220595685618,31.2000007629,0.03289595447675676,0.813428505584807,1.7451475647959227
1648638558255063886,44432,6,8,2.97233343124,-3.37031602859,-0.00603570183739,0.243430063128,31.2000007629,0.9940914485752508,-1.1271959961839464,-0.0020186293770535118,31.2000007629,0.03289595447675676,1.8019451795418195,4.493754842971999
1648638558255067760,44433,6,9,1.81345462799,0.351756304502,0.327340692282,0.365145087242,31.2000007629,0.6065065645451504,0.11764424899732441,0.10947849240200669,31.2000007629,0.04934393070837838,0.8657601255514519,1.876033612267891
1648638558255580073,44434,6,10,1.53775072098,0.6544303298,0.502576887608,-0.243430063128,31.2000007629,0.514297899993311,0.21887302,0.16808591558795985,31.2000007629,-0.03289595447675676,0.7595459556596822,1.745147519378918
1648638558255584106,44435,6,11,3.57876992226,-2.45411372185,0.452056765556,-0.243430063128,31.2000007629,1.1969130174782607,-0.8207738200167224,0.15118955369765885,31.2000007629,-0.03289595447675676,1.8811887748024316,4.3628687392047745
1648638558255585971,44436,6,12,4.12642002106,1.36339652538,0.385269552469,-0.243430063128,31.2000007629,1.380073585638796,0.455985459993311,0.1288526931334448,31.2000007629,-0.03289595447675676,2.004277661223903,4.362868884539476
1648638558355034303,44437,7,0,0.0271931830794,0.081803791225,0.0135100167245,0.0,17.0,0.009094710059999999,0.0273591275,0.004518400242307692,17.0,0.0,0.030231595388139652,0.08725737800707413
1648638558355040478,44438,7,1,0.0696611404419,0.0272679310292,-0.0449180901051,0.0,17.0,0.023298040281571904,0.00911970937431438,-0.015022772610401336,17.0,0.0,0.03418722657653662,0.08725737429563879
1648638558355057063,44439,7,2,0.212820261717,-0.081803791225,-0.128609165549,0.0,17.0,0.07117734505585284,-0.0273591275,-0.0430130988458194,17.0,0.0,0.10431179586202671,0.26177211753600854
1648638558355076497,44440,7,3,0.364094287157,0.981645464897,0.0142066925764,0.0,17.0,0.12177066460100333,0.32830952003244146,0.004751402199464883,17.0,0.0,0.3707335032859482,1.047088486617617
1648638558355095197,44441,7,4,1.16860854626,0.676244676113,-0.0792127326131,0.0,17.0,0.39083897868227424,0.22616878799765885,-0.026492552713411367,17.0,0.0,0.5972123032717397,1.352489354254266
1648638558355226836,44442,7,5,1.51501691341,0.454011052847,0.323168694973,0.0,17.0,0.5066946198695652,0.15184316148729096,0.10808317557625417,17.0,0.0,0.7324856457979104,1.6142615306808736
1648638558355231034,44443,7,6,3.82998847961,-1.00345981121,0.659668505192,0.0,17.0,1.2809326018762541,-0.3356052880301003,0.2206249181244147,17.0,0.0,1.8423375289161068,4.013839294665542
1648638558454835578,44444,8,0,0.0272129308432,0.081803791225,0.0134701980278,0.0,15.0,0.009101314663277592,0.0273591275,0.004505082952441471,15.0,0.0,0.030235570356142445,0.08725737847751514
1648638558454841868,44445,8,1,0.0696717426181,0.0272679310292,-0.0449016466737,0.0,15.0,0.023301586159899662,0.00911970937431438,-0.015017273135016721,15.0,0.0,0.034192059519812676,0.08725737594075227
1648638558454846364,44446,8,2,0.213242560625,-0.081803791225,-0.127907767892,0.0,15.0,0.07131858214882943,-0.0273591275,-0.0427785176896321,15.0,0.0,0.10450455577150654,0.2617721280193977
1648638558454848111,44447,8,3,0.363238662481,0.981645464897,0.0287080928683,0.0,15.0,0.12148450250200668,0.32830952003244146,0.009601368852274247,15.0,0.0,0.37054569170380625,1.047088486838609
1648638558454999241,44448,8,4,0.790367722511,0.392658174038,-0.563500463963,0.0,15.0,0.2643370309401337,0.13132380402608695,-0.18846169363311036,15.0,0.0,0.3962247763030128,1.0470885116897222
1648638558455004162,44449,8,5,1.16867673397,0.676244676113,-0.0782003551722,0.0,15.0,0.3908617839364548,0.22616878799765885,-0.026153964940535117,15.0,0.0,0.5972421526887614,1.3524893589389235
1648638558455007974,44450,8,6,1.50923728943,0.454011052847,0.349166035652,0.0,15.0,0.5047616352608695,0.15184316148729096,0.11677793834515049,15.0,0.0,0.7298115938740009,1.6142614882249369
1648638558455010177,44451,8,7,3.83459353447,-1.00345981121,0.632349073887,0.0,15.0,1.2824727540033445,-0.3356052880301003,0.21148798457759196,15.0,0.0,1.8444792324327244,4.013839124648431
1648638558555086747,44452,9,0,0.0272622089833,0.081803791225,0.0133701832965,0.0,15.0,0.009117795646588628,0.0273591275,0.004471633209531772,15.0,0.0,0.030245499706024984,0.08725737847777985
1648638558555115143,44453,9,1,0.0697332248092,0.0272679310292,-0.0448061004281,0.0,15.0,0.023322148765618726,0.00911970937431438,-0.014985317868929765,15.0,0.0,0.034220086866681966,0.08725737413237128
1648638558555120063,44454,9,2,0.212573513389,-0.081803791225,-0.129016622901,0.0,15.0,0.07109482053143812,-0.0273591275,-0.043149372207692306,15.0,0.0,0.10419917883724443,0.26177212960532215
1648638558555131336,44455,9,3,0.25913438201,1.01436698437,0.0174172576517,0.0,15.0,0.08666701739464883,0.3392531720301003,0.005825169783177257,15.0,0.0,0.3607146497449938,1.0470885195549124
1648638558555136222,44456,9,4,1.16873586178,0.676244676113,-0.0773109719157,0.0,15.0,0.39088155912374584,0.22616878799765885,-0.025856512346387955,15.0,0.0,0.5972680363039284,1.352489320830433
1648638558555146789,44457,9,5,1.52186799049,0.403565376997,0.356220602989,0.0,15.0,0.5089859499966555,0.13497169799230768,0.11913732541438125,15.0,0.0,0.7323597161551981,1.6142615376644047
1648638558555152327,44458,9,6,3.83047580719,-1.00345981121,0.656831800938,0.0,15.0,1.2810955876889631,-0.3356052880301003,0.21967618760468224,15.0,0.0,1.8425641695599169,4.013839124442452
1648638558654754996,44459,10,0,0.0272311978042,0.081803791225,0.0134332291782,0.0,13.8999996185,0.009107424014782609,0.0273591275,0.004492718788695652,13.8999996185,0.0,0.03023924936124133,0.08725737813382259
1648638558654770161,44460,10,1,0.0696678087115,0.0272679310292,-0.0449077524245,0.0,13.8999996185,0.023300270472073576,0.00911970937431438,-0.015019315192140467,13.8999996185,0.0,0.03419026626418,0.08725737711560867
1648638558654918136,44461,10,2,0.213440388441,-0.081803791225,-0.127577364445,0.0,13.8999996185,0.07138474529799331,-0.0273591275,-0.04266801486454849,13.8999996185,0.0,0.10459486402343096,0.2617721215014324
1648638558654933051,44462,10,3,0.258627533913,1.01436698437,0.0237860847265,0.0,13.8999996185,0.08649750298093643,0.3392531720301003,0.007955212283110368,13.8999996185,0.0,0.3606332635467214,1.047088514932918
1648638558654951093,44463,10,4,1.16915845871,0.676244676113,-0.0706334263086,0.0,13.8999996185,0.39102289588963207,0.22616878799765885,-0.023623219501204013,13.8999996185,0.0,0.5974530365511235,1.3524893509585985
1648638558654954808,44464,10,5,1.52954089642,0.353119701147,0.37636590004,0.0,13.8999996185,0.5115521392709029,0.1181002344973244,0.12587488295652172,13.8999996185,0.0,0.7330203597265206,1.6142614930278065
1648638558654968725,44465,10,6,3.8527507782,-1.00345981121,0.510181248188,0.0,13.8999996185,1.2885454107692307,-0.3356052880301003,0.17062917999598662,13.8999996185,0.0,1.852924569587941,4.013839191800909
1648638558655094997,44466,10,7,1.52528822422,0.599894464016,0.599301755428,0.243430063128,13.8999996185,0.5101298408762541,0.20063360000535116,0.2004353697083612,13.8999996185,0.03289595447675676,0.7488115587756188,1.745147595179367
1648638558754818918,44467,11,0,0.0271899234504,0.081803791225,0.0135165797547,0.0,23.7999992371,0.009093619883076923,0.0273591275,0.004520595235685618,23.7999992371,0.0,0.030230939494449063,0.08725737862374257
1648638558754822982,44468,11,1,0.0696331188083,0.0272679310292,-0.0449615158141,0.0,23.7999992371,0.023288668497759197,0.00911970937431438,-0.015037296258896321,23.7999992371,0.0,0.03417445332216743,0.08725737333822052
1648638558754825471,44469,11,2,0.212769523263,-0.081803791225,-0.128693118691,0.0,23.7999992371,0.07116037567324414,-0.0273591275,-0.04304117681973244,23.7999992371,0.0,0.1042886378733356,0.26177213199033145
1648638558754829054,44470,11,3,0.259106069803,1.01436698437,0.0178330410272,0.0,23.7999992371,0.08665754842909698,0.3392531720301003,0.005964227768294314,23.7999992371,0.0,0.36071009984746394,1.047088511894254
1648638558754834560,44471,11,4,1.1691365242,0.676244676113,-0.0709957182407,0.0,23.7999992371,0.3910155599331103,0.22616878799765885,-0.02374438737147157,23.7999992371,0.0,0.597443434045381,1.3524893589962719
1648638558754849681,44472,11,5,1.52965426445,0.302674025297,0.417595773935,0.0,23.7999992371,0.511590055,0.10122877100234112,0.13966413843979933,23.7999992371,0.0,0.7305450245046163,1.6142614301122142
1648638558754852437,44473,11,6,1.61937832832,-2.07917976379,0.370687633753,0.0,23.7999992371,0.5415981031170568,-0.6953778474214046,0.12397579724180602,23.7999992371,0.0,1.0345082702832369,2.661350030004268
1648638558755273783,44474,11,7,2.44771504402,1.71787965298,0.620118260384,0.0,23.7999992371,0.8186337939866221,0.5745416899598662,0.20739741149966553,23.7999992371,0.0,1.2924475737204202,3.0540082016435703
1648638558755279912,44475,11,8,3.82730674744,-1.00345981121,0.675053119659,0.0,23.7999992371,1.2800357014849497,-0.3356052880301003,0.22577027413344478,23.7999992371,0.0,1.8410903572355979,4.0138392152744125
1648638558755287507,44476,11,9,1.41007137299,0.599894464016,0.835084140301,0.243430063128,23.7999992371,0.4715957769197324,0.20063360000535116,0.27929235461571905,23.7999992371,0.03289595447675676,0.696461768561749,1.7451476058675404
1648638558755289269,44477,11,10,4.15938806534,3.04310107231,1.6451946497,0.243430063128,23.7999992371,1.3910996874046822,1.0177595559565216,0.5502323243143813,23.7999992371,0.03289595447675676,2.2149833395164906,5.409957361180271
1648638558755294871,44478,11,11,4.79693508148,-1.35248935223,-2.10423994064,0.243430063128,23.7999992371,1.6043261142073577,-0.4523375759966555,-0.7037591774715718,23.7999992371,0.03289595447675676,2.3135111506353043,5.4099574260444685
1648638558854876170,44479,12,0,0.0271581988782,0.081803791225,0.0135802086443,0.0,12.3000001907,0.009083009658260869,0.0273591275,0.00454187580076923,12.3000001907,0.0,0.030224559326239592,0.08725737843823851
1648638558854891370,44480,12,1,0.0696427300572,0.0272679310292,-0.0449466332793,0.0,12.3000001907,0.023291882962274243,0.00911970937431438,-0.01503231882250836,12.3000001907,0.0,0.034178834429051556,0.08725737651096963
1648638558854895600,44481,12,2,0.213999330997,-0.081803791225,-0.126637563109,0.0,12.3000001907,0.0715716826076923,-0.0273591275,-0.04235370003645485,12.3000001907,0.0,0.10485005178898933,0.2617721266982658
1648638558854902784,44482,12,3,0.259698361158,1.01436698437,0.00327684497461,0.0,12.3000001907,0.08685563918327759,0.3392531720301003,0.0010959347741170567,12.3000001907,0.0,0.360805375304133,1.0470885136802077
1648638558854906339,44483,12,4,1.1692789793,0.676244676113,-0.0686096176505,0.0,12.3000001907,0.3910632037792642,0.22616878799765885,-0.022946360418227424,12.3000001907,0.0,0.5975057986032726,1.3524893615249527
1648638558854909591,44484,12,5,1.66028273106,0.372207254171,0.00947101321071,0.0,12.3000001907,0.5552785053712374,0.12448403149531771,0.003167562946725752,12.3000001907,0.0,0.795087863793655,1.7015189353059827
1648638558855037340,44485,12,6,2.46457958221,1.71787965298,0.549274981022,0.0,12.3000001907,0.8242741077625417,0.5745416899598662,0.18370400703076922,12.3000001907,0.0,1.299597538839393,3.0540081898950144
1648638558855066959,44486,12,7,3.83556818962,-1.00345981121,0.626410245895,0.0,12.3000001907,1.282798725625418,-0.3356052880301003,0.2095017544799331,12.3000001907,0.0,1.8449325327193296,4.013839150501759
1648638558855092194,44487,12,8,1.6007090807,0.414472550154,0.120594963431,0.121715031564,12.3000001907,0.5353542075919732,0.13861958199130434,0.040332763689297654,12.3000001907,0.01644797723837838,0.7696906155620601,1.657890286198554
1648638558855157682,44488,12,9,1.39929246902,0.490822762251,0.920116066933,0.243430063128,12.3000001907,0.46799079231438123,0.16415476998361203,0.30773112606454844,12.3000001907,0.03289595447675676,0.6818926248981266,1.7451475509045193
1648638558855198300,44489,12,10,4.07974052429,-1.54609167576,-3.34435129166,0.243430063128,12.3000001907,1.3644617138093644,-0.5170875169765886,-1.1185121376789295,12.3000001907,0.03289595447675676,1.9977214613444463,5.497214547151705
1648638558954843641,44490,13,0,0.0271857362241,0.081803791225,0.0135249951854,0.0,13.1999998093,0.009092219472943143,0.0273591275,0.0045234097610033445,13.1999998093,0.0,0.03023009704664524,0.08725737795507509
1648638558954960810,44491,13,1,0.0696717426181,0.0272679310292,-0.0449016466737,0.0,13.1999998093,0.023301586159899662,0.00911970937431438,-0.015017273135016721,13.1999998093,0.0,0.034192059519812676,0.08725737594075227
1648638558954964376,44492,13,2,0.212820261717,-0.081803791225,-0.128609165549,0.0,13.1999998093,0.07117734505585284,-0.0273591275,-0.0430130988458194,13.1999998093,0.0,0.10431179586202671,0.26177211753600854
1648638558954970490,44493,13,3,0.25917249918,1.01436698437,0.0168403256685,0.0,13.1999998093,0.08667976561204013,0.3392531720301003,0.005632215942642141,13.1999998093,0.0,0.3607207760382,1.047088515780646
1648638558955086757,44494,13,4,1.16908836365,0.676244676113,-0.0717842429876,0.0,13.1999998093,0.3909994527257525,0.22616878799765885,-0.024008108022608693,13.1999998093,0.0,0.5974223503753486,1.3524893498783321
1648638558955091358,44495,13,5,1.65963411331,0.372207254171,0.0473609305918,0.0,13.1999998093,0.5550615763578596,0.12448403149531771,0.01583977611765886,13.1999998093,0.0,0.7947848647244555,1.7015189355003684
1648638558955095171,44496,13,6,1.62104737759,-2.07917976379,0.363319009542,0.0,13.1999998093,0.5421563135752508,-0.6953778474214046,0.12151137442876254,13.1999998093,0.0,1.035092888287538,2.661349994502759
1648638558955098005,44497,13,7,2.44965195656,1.71787965298,0.612422227859,0.0,13.1999998093,0.8192815908227424,0.5745416899598662,0.20482348757826085,13.1999998093,0.0,1.2932682643690079,3.054008217994297
1648638558955101404,44498,13,8,3.81107640266,-1.12889230251,0.558752775192,0.0,13.1999998093,1.2746074925284279,-0.3775559540167224,0.18687383785685616,13.1999998093,0.0,1.8416832025168417,4.013839289428884
1648638558955104116,44499,13,9,1.86678850651,0.122705690563,0.595445871353,-0.121715031564,13.1999998093,0.6243439821103679,0.04103869249598662,0.1991457763722408,13.1999998093,-0.01644797723837838,0.8839089264605505,1.9632910635577479
1648638559054813206,44500,14,0,0.0272244978696,0.081803791225,0.013446804136,0.0,11.5,0.009105183233979932,0.0273591275,0.004497258908361204,11.5,0.0,0.03023789974535194,0.08725737839579636
1648638559054825884,44501,14,1,0.0697412341833,0.0272679310292,-0.0447936430573,0.0,11.5,0.02332482748605351,0.00911970937431438,-0.0149811515241806,11.5,0.0,0.034223738159065445,0.08725737943788996
1648638559054831499,44502,14,2,0.212592542171,-0.081803791225,-0.128985255957,0.0,11.5,0.07110118467257524,-0.0273591275,-0.043138881590969895,11.5,0.0,0.10420786333693131,0.2617721251390312
1648638559054840563,44503,14,3,0.259528964758,1.01436698437,0.00993476156145,0.0,11.5,0.08679898486889633,0.3392531720301003,0.0033226627295819392,11.5,0.0,0.36077810670968746,1.0470885168005282
1648638559054843251,44504,14,4,0.803875029087,0.392658174038,-0.54405772686,0.0,11.5,0.2688545247782609,0.13132380402608695,-0.18195910597324413,11.5,0.0,0.4022579427324849,1.04708849396054
1648638559054944974,44505,14,5,1.16885197163,0.676244676113,-0.075536377728,0.0,11.5,0.39092039184949834,0.22616878799765885,-0.02526300258461538,11.5,0.0,0.5973188647547143,1.3524893855090996
1648638559054948202,44506,14,6,1.57520318031,0.252228349447,0.246892690659,0.0,11.5,0.5268238061237458,0.08435730750735786,0.08257280624046821,11.5,0.0,0.749801840973541,1.61426150304848
1648638559054961572,44507,14,7,2.44457650185,1.71787965298,0.63237708807,0.0,11.5,0.8175841143311036,0.5745416899598662,0.21149735386956522,11.5,0.0,1.2911180122340054,3.0540081134528374
1648638559054984342,44508,14,8,3.81561946869,-1.12889230251,0.52683454752,0.0,11.5,1.2761269126053512,-0.3775559540167224,0.1761988453244147,11.5,0.0,1.843786401014176,4.0138391100009345
1648638559054993611,44509,14,9,1.63995778561,0.372207254171,0.259165585041,0.121715031564,11.5,0.5484808647525083,0.12448403149531771,0.0866774531909699,11.5,0.01644797723837838,0.7855945468857621,1.701518903541778
1648638559055013006,44510,14,10,4.1967253685,-2.28641605377,-2.97242617607,0.121715031564,11.5,1.4035870797658863,-0.7646876434013378,-0.9941224669130434,11.5,0.01644797723837838,2.1271719660013733,5.6281008841113325
1648638559055025343,44511,14,11,2.91972351074,0.703512609005,-4.75981140137,0.121715031564,11.5,0.976496157438127,0.23528849799498328,-1.5919101676822742,11.5,0.01644797723837838,1.4008747867927347,5.628100918321275
1648638559055053856,44512,14,12,1.66959679127,0.458101242781,0.600248157978,0.243430063128,11.5,0.5583935756755852,0.15321111798695652,0.20075189230033444,11.5,0.03289595447675676,0.8044130887711513,1.832404989409426
1648638559055077177,44513,14,13,2.82480025291,-3.33759450912,0.82739931345,0.243430063128,11.5,0.9447492484648828,-1.116252344187291,0.2767221784113712,11.5,0.03289595447675676,1.7410116544278342,4.450126200462848
1648638559055101383,44514,14,14,1.83720803261,0.0599894486368,0.553327918053,-0.243430063128,11.5,0.6144508470267558,0.020063360748093645,0.18505950436555182,11.5,-0.03289595447675676,0.8691963099716332,1.9196624374955409
1648638559154866206,44515,15,0,0.0271656885743,0.081803791225,0.0135652190074,0.0,25.2000007629,0.00908551457334448,0.0273591275,0.004536862544280936,25.2000007629,0.0,0.030226065038078745,0.08725737826234506
1648638559154870967,44516,15,1,0.0696895346045,0.0272679310292,-0.044874034822,0.0,25.2000007629,0.02330753665702341,0.00911970937431438,-0.01500803840200669,25.2000007629,0.0,0.03420017001578995,0.08725737961462675
1648638559154897442,44517,15,2,0.213619917631,-0.081803791225,-0.127276539803,0.0,25.2000007629,0.07144478850535116,-0.0273591275,-0.04256740461638796,25.2000007629,0.0,0.10467682392349308,0.26177212810320977
1648638559154919747,44518,15,3,0.259691357613,1.01436698437,0.00379073992372,0.0,25.2000007629,0.08685329686053511,0.3392531720301003,0.0012678059945551838,25.2000007629,0.0,0.36080424759635704,1.047088511018978
1648638559154924176,44519,15,4,1.1692276001,0.676244676113,-0.0694792941213,0.0,25.2000007629,0.3910460201003344,0.22616878799765885,-0.023237222114147155,25.2000007629,0.0,0.5974833054880715,1.352489340112659
1648638559154929664,44520,15,5,1.62397634983,0.25904533267,0.210228934884,0.0,25.2000007629,0.5431359029531772,0.08663723500668896,0.0703106805632107,25.2000007629,0.0,0.7729807427375732,1.6578901876323844
1648638559154942732,44521,15,6,2.44120311737,1.71787965298,0.645277380943,0.0,25.2000007629,0.81645589209699,0.5745416899598662,0.21581183309130433,25.2000007629,0.0,1.2896893428193175,3.0540081959183327
1648638559155050239,44522,15,7,3.80843639374,-1.12889230251,0.576470553875,0.0,25.2000007629,1.2737245464013378,-0.3775559540167224,0.19279951634615383,25.2000007629,0.0,1.8404610668590804,4.013839047011553
1648638559155058784,44523,15,8,1.55074381828,0.252228349447,0.370694845915,0.121715031564,25.2000007629,0.5186434174849498,0.08435730750735786,0.1239782093361204,25.2000007629,0.01644797723837838,0.7383076217477555,1.6142615026650229
1648638559155062612,44524,15,9,1.67632293701,0.515363872051,0.531083166599,0.365145087242,25.2000007629,0.5606431227458193,0.17236249901371237,0.17761978816020066,25.2000007629,0.04934393070837838,0.8113878562257507,1.8324049333065147
1648638559254900867,44525,16,0,0.0272736791521,0.081803791225,0.0133467689157,0.0,33.4000015259,0.009121631823444816,0.0273591275,0.004463802312943144,33.4000015259,0.0,0.03024781300864938,0.08725737833423704
1648638559254906096,44526,16,1,0.0696539133787,0.0272679310292,-0.0449292957783,0.0,33.4000015259,0.023295623203578593,0.00911970937431438,-0.015026520327190636,33.4000015259,0.0,0.03418393218981947,0.08725737407643332
1648638559254915107,44527,16,2,0.212032392621,-0.081803791225,-0.129904016852,0.0,33.4000015259,0.07091384368595317,-0.0273591275,-0.043446159482274246,33.4000015259,0.0,0.1039522405251222,0.26177213253830894
1648638559254945492,44528,16,3,0.259369641542,1.01436698437,0.0134672429413,0.0,33.4000015259,0.08674569951237457,0.3392531720301003,0.004504094629197325,33.4000015259,0.0,0.36075247400436106,1.047088514198276
1648638559254948615,44529,16,4,1.16891825199,0.676244676113,-0.0745031386614,0.0,33.4000015259,0.39094255919397997,0.22616878799765885,-0.024917437679397993,33.4000015259,0.0,0.5973478800854717,1.3524893565115155
1648638559254957252,44530,16,5,1.65997815132,0.372207254171,0.0331831797957,0.0,33.4000015259,0.5551766392374582,0.12448403149531771,0.011098053443377925,33.4000015259,0.0,0.7949455802803893,1.7015189761911662
1648638559254962268,44531,16,6,2.41921806335,1.71787965298,0.723352849483,0.0,33.4000015259,0.8091030312207357,0.5745416899598662,0.24192402992742476,33.4000015259,0.0,1.2803880598330744,3.0540081671496533
1648638559255024640,44532,16,7,3.84523558617,-1.00345981121,0.564035475254,0.0,33.4000015259,1.286031968618729,-0.3356052880301003,0.18864062717525082,33.4000015259,0.0,1.849428927526682,4.013839100313658
1648638559255034640,44533,16,8,1.75255715847,0.469008415937,0.477574080229,0.243430063128,33.4000015259,0.586139517882943,0.15685900198561872,0.15972377265183946,33.4000015259,0.03289595447675676,0.8436372534164327,1.8760337123918507
1648638559354776021,44534,17,0,0.0271731633693,0.081803791225,0.0135502405465,0.0,24.3999996185,0.009088014504782608,0.0273591275,0.004531853025585284,24.3999996185,0.0,0.030227568093373545,0.08725737839945724
1648638559354780379,44535,17,1,0.0696327388287,0.0272679310292,-0.0449621081352,0.0,24.3999996185,0.023288541414280935,0.00911970937431438,-0.01503749435959866,24.3999996185,0.0,0.03417428011650449,0.08725737531785248
1648638559354906902,44536,17,2,0.212933629751,-0.081803791225,-0.128421381116,0.0,24.3999996185,0.07121526078628762,-0.0273591275,-0.04295029468762541,24.3999996185,0.0,0.10436354054591655,0.26177211857923344
1648638559354911270,44537,17,3,0.259448707104,1.01436698437,0.0118466708809,0.0,24.3999996185,0.08677214284414714,0.3392531720301003,0.00396209728458194,24.3999996185,0.0,0.3607651927223786,1.0470885130726941
1648638559354916320,44538,17,4,0.805904626846,0.392658174038,-0.541046798229,0.0,24.3999996185,0.2695333200153846,0.13132380402608695,-0.18095210643110368,24.3999996185,0.0,0.4031654284545161,1.0470885096707436
1648638559354920353,44539,17,5,1.16895747185,0.676244676113,-0.0738855823874,0.0,24.3999996185,0.39095567620401334,0.22616878799765885,-0.024710897119531772,24.3999996185,0.0,0.5973650493430332,1.3524893760210632
1648638559354927522,44540,17,6,1.56579005718,0.302674025297,0.250060141087,0.0,24.3999996185,0.5236756044080267,0.10122877100234112,0.08363215420969898,24.3999996185,0.0,0.7474754453377506,1.6142614852971273
1648638559354929777,44541,17,7,1.76067340374,-0.0,0.64771258831,0.0,24.3999996185,0.5888539811839465,-0.0,0.21662628371571904,24.3999996185,0.0,0.8327652864477285,1.8760336968435927
1648638559354932397,44542,17,8,0.700298011303,1.64152944088,0.578330457211,0.0,24.3999996185,0.23421338170668893,0.5490065019665552,0.19342155759565216,24.3999996185,0.0,0.6411863656867007,1.8760336691138106
1648638559354940461,44543,17,9,2.42206692696,1.71787965298,0.713755726814,0.0,24.3999996185,0.8100558284147157,0.5745416899598662,0.23871428990434782,24.3999996185,0.0,1.2815923859789593,3.0540081758822986
1648638559354943010,44544,17,10,3.84050369263,-1.00345981121,0.595404028893,0.0,24.3999996185,1.284449395528428,-0.3356052880301003,0.19913178223846154,24.3999996185,0.0,1.8472280337577314,4.013839329549738
