%time,field.header.seq,field.header.frame_id,field.point_id,field.x,field.y,field.z,field.velocity,field.intensity,normalized_x,normalized_y,normalized_z,normalized_intensity,normalized_velocity,normalized_range,range
1648638183150022267,13246,0,0,0.0126355262473,0.0409018956125,0.00841670483351,0.0,20.1000003815,0.004225928510802675,0.01367956375,0.0028149514493344477,20.1000003815,0.0,0.01492807448893339,0.04362868905315039
1648638183150071897,13247,0,1,0.0320421569049,0.0136339655146,-0.0262845493853,0.0,20.1000003815,0.010716440436421403,0.00455985468715719,-0.008790819192408027,20.1000003815,0.0,0.01582644830727112,0.04362868747922412
1648638183150094616,13248,0,2,0.2530374825,1.01436698437,-0.0585321001709,0.0,20.1000003815,0.08462792056856187,0.3392531720301003,-0.019575953234414713,20.1000003815,0.0,0.35974502722345236,1.047088512629301
1648638183150099109,13249,0,3,1.19669294357,0.698059022427,-0.172584116459,0.0,20.1000003815,0.4002317537023411,0.23346455599565216,-0.05772044028729096,20.1000003815,0.0,0.6122716817308718,1.3961180742458368
1648638183150147230,13250,0,4,2.45216321945,1.71787965298,0.602287769318,0.0,20.1000003815,0.820121478076923,0.5745416899598662,0.20143403656120398,20.1000003815,0.0,1.2943325040761715,3.0540081064096944
1648638183150159733,13251,0,5,3.83886051178,-1.00345981121,0.60590672493,0.0,20.1000003815,1.283899836715719,-0.3356052880301003,0.20264438960869563,20.1000003815,0.0,1.8464637799835302,4.01383913241834
1648638183150164864,13252,0,6,1.5144162178,0.29449364543,0.294456809759,-0.121715031564,20.1000003815,0.5064937183277591,0.09849285800334448,0.09848053838093646,20.1000003815,-0.01644797723837838,0.7230301629175824,1.5706329299832458
1648638183250034987,13253,1,0,0.254542410374,1.01436698437,-0.0515959523618,0.0,22.5,0.08513124092775919,0.3392531720301003,-0.01725617135846154,22.5,0.0,0.35998245942862994,1.0470885158185124
1648638183250041784,13254,1,1,1.19649362564,0.698059022427,-0.173960283399,0.0,22.5,0.40016509218729096,0.23346455599565216,-0.058180696788963204,22.5,0.0,0.6121845317522921,1.3961180376992313
1648638183250046279,13255,1,2,2.45955896378,1.71787965298,0.571336686611,0.0,22.5,0.8225949711638796,0.5745416899598662,0.19108250388327758,22.5,0.0,1.297467967492896,3.054008252755855
1648638183250050003,13256,1,3,3.82107639313,-1.12889230251,0.485676467419,0.0,22.5,1.2779519709464882,-0.3775559540167224,0.16243360114347824,22.5,0.0,1.84631280624533,4.013839092914202
1648638183250057562,13257,1,4,1.5499278307,0.353119701147,0.280838519335,-0.121715031564,22.5,0.5183705119397993,0.1181002344973244,0.09392592619899665,22.5,-0.01644797723837838,0.742538645920724,1.6142614650851421
1648638183350444495,13258,2,0,0.257106810808,1.01436698437,-0.0367433018982,0.0,17.8999996185,0.08598889993578596,0.3392531720301003,-0.012288729731839464,17.8999996185,0.0,0.360389922940165,1.0470885164961607
1648638183350464925,13259,2,1,1.19700586796,0.698059022427,-0.170400470495,0.0,17.8999996185,0.4003364106889632,0.23346455599565216,-0.05699012391137124,17.8999996185,0.0,0.6124085093733523,1.3961181064176946
1648638183350470624,13260,2,2,2.46383190155,1.71787965298,0.552618563175,0.0,17.8999996185,0.824024047341137,0.5745416899598662,0.1848222619314381,17.8999996185,0.0,1.2992803449197852,3.0540080906218594
1648638183350475754,13261,2,3,3.83804821968,-1.00345981121,0.611031353474,0.0,17.8999996185,1.2836281671170569,-0.3356052880301003,0.20435831219866218,17.8999996185,0.0,1.8460859817967192,4.013839190130902
1648638183350525081,13262,2,4,1.56809782982,0.466281622648,0.268794596195,-0.243430063128,17.8999996185,0.524447434722408,0.15594703098595317,0.08989785825919733,17.8999996185,-0.03289595447675676,0.7578982121941987,1.657890192518515
1648638183350529186,13263,2,5,1.44756734371,0.334032148123,0.353147268295,-0.121715031564,17.8999996185,0.48413623535451505,0.11171643749933109,0.1181094542792642,17.8999996185,-0.01644797723837838,0.6937264238689678,1.5270041531245133
1648638183450446513,13264,3,0,0.017680298537,0.0845305845141,0.0124834747985,0.0,24.5,0.005913143323411371,0.028271098499698995,0.004175075183444816,24.5,0.0,0.029481952755984326,0.08725737686693104
1648638183450449758,13265,3,1,0.069361500442,0.0272679310292,-0.0453794188797,0.0,24.5,0.023197826234782608,0.00911970937431438,-0.015177063170468226,24.5,0.0,0.034050659070130995,0.08725737484039986
1648638183450457320,13266,3,2,0.255076676607,1.01436698437,-0.0488863028586,0.0,24.5,0.08530992528662207,0.3392531720301003,-0.016349934066421403,24.5,0.0,0.36006705130753486,1.0470885160940038
1648638183450462166,13267,3,3,0.99825912714,-0.0981645435095,-0.300394296646,0.0,24.5,0.3338659288093645,-0.03283095100652174,-0.10046631994849498,24.5,0.0,0.47329777960969976,1.0470884852667361
1648638183450463272,13268,3,4,1.19734406471,0.698059022427,-0.168007105589,0.0,24.5,0.40044951996989964,0.23346455599565216,-0.05618966742107023,24.5,0.0,0.6125563933177852,1.396118045014961
1648638183450465516,13269,3,5,1.42237305641,0.429469913244,0.352352321148,0.0,24.5,0.47571005231103675,0.1436354224896321,0.11784358566822742,24.5,0.0,0.6879180491405308,1.5270041506824128
1648638183450467547,13270,3,6,1.63906359673,-2.1132645607,0.405577450991,0.0,24.5,0.5481818049264213,-0.7067774450501672,0.13564463243846153,24.5,0.0,1.0490666991838127,2.7049786776217672
1648638183450468827,13271,3,7,3.84185385704,-1.00345981121,0.586627721786,0.0,24.5,1.2849009555317725,-0.3356052880301003,0.1961965624702341,24.5,0.0,1.8478560118165837,4.013839151676929
1648638183550108739,13272,4,0,0.0126444827765,0.0409018956125,0.00840324442834,0.0,16.0,0.004228924005518394,0.01367956375,0.002810449641585284,16.0,0.0,0.014929770958699051,0.04362868925722476
1648638183550186827,13273,4,1,0.0320317707956,0.0136339655146,-0.0262972060591,0.0,16.0,0.010712966821270901,0.00455985468715719,-0.008795052193678928,16.0,0.0,0.01582174424629888,0.04362868783804895
1648638183550194997,13274,4,2,0.256956428289,1.01436698437,-0.0377805791795,0.0,16.0,0.08593860477892976,0.3392531720301003,-0.012635645210535116,16.0,0.0,0.3603659283494806,1.0470885144924789
1648638183550197758,13275,4,3,1.19683384895,0.698059022427,-0.171604335308,0.0,16.0,0.40027887924749156,0.23346455599565216,-0.05739275428361204,16.0,0.0,0.6123332926188996,1.3961180855073507
1648638183550199998,13276,4,4,1.36796152592,0.463554829359,0.337936282158,0.0,16.0,0.4575122160267558,0.1550350599862876,0.11302216794581939,16.0,0.0,0.6653350475154436,1.4833754571982771
1648638183550365678,13277,4,5,3.84456348419,-1.00345981121,0.568598031998,0.0,16.0,1.2858071853478261,-0.3356052880301003,0.1901665658856187,16.0,0.0,1.8491163146589682,4.01383902251607
1648638183550580437,13278,4,6,4.77669525146,1.42338597775,0.877580106258,0.243430063128,16.0,1.597556940287625,0.4760488219899665,0.2935050522602006,16.0,0.03289595447675676,2.308895587903522,5.060927979123556
1648638183550586739,13279,4,7,1.61631119251,0.335395544767,0.689034342766,-0.121715031564,16.0,0.5405723051872909,0.11217242299899666,0.23044626848361202,16.0,-0.01644797723837838,0.7726703609900337,1.788776220770397
1648638183550589965,13280,4,8,1.46744775772,0.950287401676,-0.378512501717,-0.121715031564,16.0,0.4907852032508361,0.3178218734702341,-0.12659280993879599,16.0,-0.01644797723837838,0.7633812774204372,1.7887763363197873
1648638183650148390,13281,5,0,0.0176027044654,0.0845305845141,0.0125926528126,0.0,13.8000001907,0.005887192128896321,0.028271098499698995,0.004211589569431438,13.8000001907,0.0,0.029471563798087817,0.08725737692396156
1648638183650151548,13282,5,1,0.0694508999586,0.0272679310292,-0.0452424809337,0.0,13.8000001907,0.023227725738662205,0.00911970937431438,-0.01513126452632107,13.8000001907,0.0,0.03409140045602379,0.087257375898596
1648638183650163740,13283,5,2,0.256960332394,1.01436698437,-0.0377541147172,0.0,13.8000001907,0.08593991049966555,0.3392531720301003,-0.01262679421979933,13.8000001907,0.0,0.36036655111964244,1.047088518026056
1648638183650169627,13284,5,3,0.993786156178,-0.0981645435095,-0.314876407385,0.0,13.8000001907,0.33236995189899665,-0.03283095100652174,-0.1053098352458194,13.8000001907,0.0,0.4711872676491538,1.0470885128493947
1648638183650324899,13285,5,4,1.1976827383,0.698059022427,-0.165575370193,0.0,13.8000001907,0.40056278872909695,0.23346455599565216,-0.055376377990969894,13.8000001907,0.0,0.6127044918515853,1.396118026396076
1648638183650330882,13286,5,5,1.40383625031,0.477188795805,0.365070283413,0.0,13.8000001907,0.4695104516086956,0.15959491498494982,0.1220970847535117,13.8000001907,0.0,0.6828987225267418,1.527004150733558
1648638183650342344,13287,5,6,3.82846570015,-1.12889230251,0.423505425453,0.0,13.8000001907,1.2804233110869565,-0.3775559540167224,0.141640610519398,13.8000001907,0.0,1.849734091582692,4.013839096585647
1648638183650346691,13288,5,7,1.44542443752,0.655793726444,0.294147908688,0.121715031564,13.8000001907,0.4834195443210702,0.21932900549966555,0.09837722698595318,13.8000001907,0.01644797723837838,0.717979194905155,1.6142615055835408
1648638183750189600,13289,6,0,0.0126125831157,0.0409018956125,0.00845104642212,0.0,14.6999998093,0.004218255222642141,0.01367956375,0.0028264369304749166,14.6999998093,0.0,0.014923733401431744,0.04362868899216563
1648638183750196442,13290,6,1,0.032063215971,0.0136339655146,-0.0262588579208,0.0,14.6999998093,0.010723483602341138,0.00455985468715719,-0.008782226729364547,14.6999998093,0.0,0.015835986736144607,0.043628688421279094
1648638183750203218,13291,6,2,0.252639114857,1.01436698437,-0.0602284409106,0.0,14.6999998093,0.08449468724314381,0.3392531720301003,-0.02014329127444816,14.6999998093,0.0,0.35968238638709876,1.0470885189085677
1648638183750214087,13292,6,3,0.996604204178,-0.0981645435095,-0.305840015411,0.0,14.6999998093,0.3333124428688963,-0.03283095100652174,-0.10228763057224079,14.6999998093,0.0,0.47251692084670904,1.0470885026655072
1648638183750316936,13293,6,4,1.1979123354,0.698059022427,-0.163905769587,0.0,14.6999998093,0.4006395770568562,0.23346455599565216,-0.054817983139464885,14.6999998093,0.0,0.6128048957986875,1.396117997663209
1648638183750320199,13294,6,5,1.37931716442,0.524907648563,0.392043173313,0.0,14.6999998093,0.46131008843478255,0.17555439751270902,0.13111811816488292,14.6999998093,0.0,0.6755985064144711,1.527004168077119
1648638183750330299,13295,6,6,1.61734545231,-2.07917976379,0.379458546638,0.0,14.6999998093,0.5409182114749164,-0.6953778474214046,0.126909212922408,14.6999998093,0.0,1.0337965823578985,2.6613499564841714
1648638183750348425,13296,6,7,3.82573461533,-1.12889230251,0.44750636816,0.0,14.6999998093,1.2795099047926421,-0.3775559540167224,0.14966768165886288,14.6999998093,0.0,1.848469553803478,4.013839200459364
1648638183750462566,13297,6,8,2.23815894127,-2.24960422516,0.798061609268,0.121715031564,14.6999998093,0.7485481408929765,-0.7523759950367893,0.2669102372133779,14.6999998093,0.01644797723837838,1.2987371852596896,3.2721517306555334
1648638183750488306,13298,6,9,2.9426035881,1.22705686092,0.73647326231,0.121715031564,14.6999998093,0.9841483572240801,0.410386910006689,0.24631212786287623,14.6999998093,0.01644797723837838,1.4510387293103342,3.27215178173742
1648638183850466676,13299,7,0,0.0126297716051,0.0409018956125,0.00842533819377,0.0,11.3999996185,0.004224003881304348,0.01367956375,0.0028178388607926416,11.3999996185,0.0,0.014926985026081538,0.04362868917549823
1648638183850470872,13300,7,1,0.0319750569761,0.0136339655146,-0.0263661369681,0.0,11.3999996185,0.010693998988662207,0.00455985468715719,-0.008818106009397994,11.3999996185,0.0,0.015796059746247038,0.04362868853058447
1648638183850522977,13301,7,2,0.257727593184,1.01436698437,-0.0321008972824,0.0,11.3999996185,0.08619651945953177,0.3392531720301003,-0.010736086047625418,11.3999996185,0.0,0.3604891047817669,1.0470885153007077
1648638183850529931,13302,7,3,1.19695234299,0.698059022427,-0.170775145292,0.0,11.3999996185,0.400318509361204,0.23346455599565216,-0.05711543320802675,11.3999996185,0.0,0.6123851049630451,1.3961179966000343
1648638183850592237,13303,7,4,1.39169764519,0.572626531124,0.258878588676,0.0,11.3999996185,0.4654507174548495,0.19151389000802674,0.08658146778461538,11.3999996185,0.0,0.6855408892432856,1.5270041268606231
1648638183850759940,13304,7,5,3.83356070518,-1.00345981121,0.638580441475,0.0,11.3999996185,1.282127326147157,-0.3356052880301003,0.21357205400501672,11.3999996185,0.0,1.8439988802220797,4.013839091598989
1648638183950353847,13305,8,0,0.0126562295482,0.0409018956125,0.00838554091752,0.0,14.1000003815,0.004232852691705685,0.01367956375,0.0028045287349565216,14.1000003815,0.0,0.014931997462150676,0.04362868904232604
1648638183950367281,13306,8,1,0.0320496074855,0.0136339655146,-0.0262754671276,0.0,14.1000003815,0.010718932269397994,0.00455985468715719,-0.008787781648026755,14.1000003815,0.0,0.015829822890982472,0.0436286892812689
1648638183950501017,13307,8,2,0.255337744951,1.01436698437,-0.0475037656724,0.0,14.1000003815,0.08539723911404681,0.3392531720301003,-0.015887547047625416,14.1000003815,0.0,0.360108444262403,1.0470885114113362
1648638183950513244,13308,8,3,1.19697773457,0.698059022427,-0.17059738934,0.0,14.1000003815,0.40032700152842804,0.23346455599565216,-0.05705598305685618,14.1000003815,0.0,0.6123962077052169,1.396118034085117
1648638183950518554,13309,8,4,1.41216659546,0.524907648563,0.248996466398,0.0,14.1000003815,0.47229652022073576,0.17555439751270902,0.08327641016655518,14.1000003815,0.0,0.6906137505952817,1.5270041824211602
1648638183950521293,13310,8,5,1.51585924625,0.554902374744,0.00970860756934,0.0,14.1000003815,0.5069763365384615,0.18558607850969897,0.0032470259429230766,14.1000003815,0.0,0.7406025952942151,1.6142614896599263
1648638183950523998,13311,8,6,3.84141516685,-1.00345981121,0.589493513107,0.0,14.1000003815,1.2847542364046822,-0.3356052880301003,0.19715502110602007,14.1000003815,0.0,1.8476519708195378,4.01383914461131
1648638184050384184,13312,9,0,0.257135242224,1.01436698437,-0.0365438349545,0.0,15.5,0.08599840877056857,0.3392531720301003,-0.012222018379431437,15.5,0.0,0.36039446077128384,1.0470885175794187
1648638184050387297,13313,9,1,1.19790792465,0.698059022427,-0.16393828392,0.0,15.5,0.40063810188963206,0.23346455599565216,-0.054828857498327756,15.5,0.0,0.6128029669295845,1.3961180307071617
1648638184050389928,13314,9,2,1.40592288971,0.524907648563,0.282124787569,0.0,15.5,0.47020832431772575,0.17555439751270902,0.0943561162438127,15.5,0.0,0.6877580119500007,1.5270041280531328
1648638184050392349,13315,9,3,3.83588957787,-1.00345981121,0.624440014362,0.0,15.5,1.2829062133344482,-0.3356052880301003,0.20884281416789297,15.5,0.0,1.8450820073313903,4.013839281518595
1648638184150195558,13316,10,0,0.0126292752102,0.0409018956125,0.00842608232051,0.0,14.6999998093,0.004223837862943143,0.01367956375,0.00281808773261204,14.6999998093,0.0,0.014926891068644478,0.04362868918845523
1648638184150203910,13317,10,1,0.0320421569049,0.0136339655146,-0.0262845493853,0.0,14.6999998093,0.010716440436421403,0.00455985468715719,-0.008790819192408027,14.6999998093,0.0,0.01582644830727112,0.04362868747922412
1648638184150418294,13318,10,2,0.256697326899,1.01436698437,-0.0395026318729,0.0,14.6999998093,0.08585194879565217,0.3392531720301003,-0.01321158256618729,14.6999998093,0.0,0.36032461608459027,1.0470885132317447
1648638184150421796,13319,10,3,1.19694280624,0.698059022427,-0.170842766762,0.0,14.6999998093,0.400315319812709,0.23346455599565216,-0.05713804908428093,14.6999998093,0.0,0.6123809349251085,1.3961180935566735
1648638184150427668,13320,10,4,1.36541593075,0.572626531124,0.37346971035,0.0,14.6999998093,0.45666084640468224,0.19151389000802674,0.12490625764214046,14.6999998093,0.0,0.6736140047119628,1.5270040709316746
1648638184150461253,13321,10,5,3.82705163956,-1.00345981121,0.676497399807,0.0,14.6999998093,1.2799503811237458,-0.3356052880301003,0.22625331097224077,14.6999998093,0.0,1.8409717177706482,4.013839131868407
1648638184250550519,13322,11,0,0.0126397022977,0.0409018956125,0.00841043237597,0.0,14.1000003815,0.004227325183177257,0.01367956375,0.0028128536374481604,14.1000003815,0.0,0.014928865355376589,0.043628689088959505
1648638184250554796,13323,11,1,0.0319940112531,0.0136339655146,-0.0263431351632,0.0,14.1000003815,0.01070033821173913,0.00455985468715719,-0.0088104130980602,14.1000003815,0.0,0.0158046433195817,0.04362868943646389
1648638184250558418,13324,11,2,0.25558295846,1.01436698437,-0.0461664162576,0.0,14.1000003815,0.08547925032107023,0.3392531720301003,-0.01544027299585284,14.1000003815,0.0,0.36014735762377764,1.0470885185241618
1648638184250591904,13325,11,3,1.19660782814,0.698059022427,-0.173172861338,0.0,14.1000003815,0.4002032870033445,0.23346455599565216,-0.05791734492909699,14.1000003815,0.0,0.6122344655136704,1.3961180226118626
1648638184250645529,13326,11,4,1.37762510777,0.572626531124,0.325560301542,0.0,14.1000003815,0.46074418320066884,0.19151389000802674,0.10888304399397992,14.1000003815,0.0,0.6791523943655868,1.5270041229955886
1648638184250726566,13327,11,5,1.61423909664,-2.07917976379,0.392462939024,0.0,14.1000003815,0.539879296535117,-0.6953778474214046,0.1312585080347826,14.1000003815,0.0,1.032709862613373,2.661349941248298
1648638184250732529,13328,11,6,3.81790518761,-1.12889230251,0.510006308556,0.0,14.1000003815,1.2768913670936455,-0.3775559540167224,0.17057067175785953,14.1000003815,0.0,1.8448446073125062,4.013839095804987
1648638184350421576,13329,12,0,0.0126397022977,0.0409018956125,0.00841043237597,0.0,14.8999996185,0.004227325183177257,0.01367956375,0.0028128536374481604,14.8999996185,0.0,0.014928865355376589,0.043628689088959505
1648638184350427439,13330,12,1,0.0320077836514,0.0136339655146,-0.0263263974339,0.0,14.8999996185,0.010704944365016723,0.00455985468715719,-0.00880481519528428,14.8999996185,0.0,0.015810880509452847,0.043628688173904424
1648638184350440508,13331,12,2,0.258008807898,1.01436698437,-0.0297562275082,0.0,14.8999996185,0.08629057120334448,0.3392531720301003,-0.009951915554581938,14.8999996185,0.0,0.3605341039203972,1.0470885144095292
1648638184350561915,13332,12,3,1.19699513912,0.698059022427,-0.170475706458,0.0,14.8999996185,0.4003328224481605,0.23346455599565216,-0.05701528644080267,14.8999996185,0.0,0.6124038180521638,1.3961180925555694
1648638184350580035,13333,12,4,1.38365924358,0.524907648563,0.376431673765,0.0,14.8999996185,0.4627622888227424,0.17555439751270902,0.12589688085785952,14.8999996185,0.0,0.6775818905482767,1.527004173824628
1648638184350584758,13334,12,5,1.61658859253,-2.07917976379,0.382670462132,0.0,14.8999996185,0.5406650811137124,-0.6953778474214046,0.12798343215117056,14.8999996185,0.0,1.0335317172471392,2.6613500052116943
1648638184350591261,13335,12,6,3.82097887993,-1.00345981121,0.709995746613,0.0,14.8999996185,1.2779193578361203,-0.3356052880301003,0.2374567714424749,14.8999996185,0.0,1.8381476218243002,4.013839203779005
1648638184450335703,13336,13,0,0.012639272958,0.0409018956125,0.00841107778251,0.0,15.0,0.0042271815913043475,0.01367956375,0.002813069492478261,15.0,0.0,0.014928784036285031,0.04362868912844059
1648638184450345972,13337,13,1,0.0320646092296,0.0136339655146,-0.0262571554631,0.0,15.0,0.010723949575117056,0.00455985468715719,-0.008781657345518393,15.0,0.0,0.015836617812755853,0.043628687737699075
1648638184450348044,13338,13,2,0.257841587067,1.01436698437,-0.0311719663441,0.0,15.0,0.08623464450401337,0.3392531720301003,-0.010425406804046822,15.0,0.0,0.36050734050495,1.047088513205486
1648638184450398713,13339,13,3,1.19689846039,0.698059022427,-0.171152710915,0.0,15.0,0.40030048842474913,0.23346455599565216,-0.0572417093361204,15.0,0.0,0.6123615443285384,1.396118037176386
1648638184450479581,13340,13,4,1.38651633263,0.524907648563,0.365767657757,0.0,15.0,0.46371783699999997,0.17555439751270902,0.12233032032006688,15.0,0.0,0.6788871859079145,1.5270041125127087
1648638184450483367,13341,13,5,3.8126335144,-1.00345981121,0.753523826599,0.0,15.0,1.2751282656856187,-0.3356052880301003,0.25201465772541803,15.0,0.0,1.8342669100364302,4.013839068160569
1648638184550280964,13342,14,0,0.0126302987337,0.0409018956125,0.00842454750091,0.0,15.3000001907,0.004224180178494983,0.01367956375,0.0028175744150200667,15.3000001907,0.0,0.014927084804177067,0.0436286890863505
1648638184550296495,13343,14,1,0.032029747963,0.0136339655146,-0.0262996740639,0.0,15.3000001907,0.010712290288628763,0.00455985468715719,-0.00879587761334448,15.3000001907,0.0,0.015820828082742367,0.04362869040085869
1648638184550321088,13344,14,2,0.253682553768,1.01436698437,-0.0556699149311,0.0,15.3000001907,0.08484366346755852,0.3392531720301003,-0.018618700645852842,15.3000001907,0.0,0.3598466467728684,1.0470885141641932
1648638184550433721,13345,14,3,1.19676327705,0.698059022427,-0.172095432878,0.0,15.3000001907,0.40025527660535115,0.23346455599565216,-0.0575570009625418,15.3000001907,0.0,0.6123024349184799,1.3961180387433794
1648638184550438356,13346,14,4,1.41944921017,0.477188795805,0.298657715321,0.0,15.3000001907,0.4747321773143812,0.15959491498494982,0.09988552351872909,15.3000001907,0.0,0.6900810222317083,1.527004138178683
1648638184550441097,13347,14,5,3.83613491058,-1.00345981121,0.62293022871,0.0,15.3000001907,1.2829882644080266,-0.3356052880301003,0.20833786913377927,15.3000001907,0.0,1.845196109515519,4.013839149084692
1648638184550466521,13348,14,6,3.08371925354,0.920292675495,0.592211067677,-0.243430063128,15.3000001907,1.0313442319531771,0.30779019247324413,0.19806390223311038,15.3000001907,-0.03289595447675676,1.4906631585133157,3.2721517372979774
1648638184550500698,13349,14,7,2.03472399712,-2.45411372185,0.737699687481,-0.243430063128,15.3000001907,0.6805096980334447,-0.8207738200167224,0.24672230350535115,15.3000001907,-0.03289595447675676,1.2648543638933232,3.272151697757611
1648638184650234900,13350,15,0,0.0126307420433,0.0409018956125,0.00842388253659,0.0,23.2999992371,0.00422432844257525,0.01367956375,0.002817352018926421,23.2999992371,0.0,0.014927168719211776,0.043628689027410614
1648638184650260445,13351,15,1,0.0320077836514,0.0136339655146,-0.0263263974339,0.0,23.2999992371,0.010704944365016723,0.00455985468715719,-0.00880481519528428,23.2999992371,0.0,0.015810880509452847,0.043628688173904424
1648638184650263557,13352,15,2,0.257109671831,1.01436698437,-0.036723330617,0.0,23.2999992371,0.08598985679966553,0.3392531720301003,-0.012282050373578594,23.2999992371,0.0,0.36039037955713915,1.0470885183882679
1648638184650268723,13353,15,3,1.19677841663,0.698059022427,-0.171990334988,0.0,23.2999992371,0.4002603400100334,0.23346455599565216,-0.057521851166555185,23.2999992371,0.0,0.6123090547069692,1.3961180654344507
1648638184650272142,13354,15,4,1.42688858509,0.429469913244,0.333595782518,0.0,23.2999992371,0.4772202625719063,0.1436354224896321,0.11157049582541805,23.2999992371,0.0,0.6900068786701865,1.5270041213944865
1648638184650417230,13355,15,5,1.53089129925,0.454011052847,0.236825048923,0.0,23.2999992371,0.5120037790133779,0.15184316148729096,0.07920570198093645,23.2999992371,0.0,0.7398324709948971,1.6142615370577271
1648638184650546235,13356,15,6,2.38286948204,1.8133174181,0.600648701191,0.0,23.2999992371,0.7969463150635451,0.6064606749498327,0.2008858532411371,23.2999992371,0.0,1.2798599175094645,3.0540081678778894
1648638184650550815,13357,15,7,3.83998990059,-1.00345981121,0.59870749712,0.0,23.2999992371,1.2842775587257524,-0.3356052880301003,0.20023662111036789,23.2999992371,0.0,1.8469890646798435,4.013839146808763
1648638184650552783,13358,15,8,4.29564666748,2.68316435814,1.77356469631,0.243430063128,23.2999992371,1.4366711262474914,0.897379383993311,0.593165450270903,23.2999992371,0.03289595447675676,2.2211117956561046,5.366328632931648
1648638184650773566,13359,15,9,3.49224925041,1.0061866045,-3.94832468033,0.243430063128,23.2999992371,1.1679763379297659,0.3365172590301003,-1.3205099265317723,23.2999992371,0.03289595447675676,1.6856990590116567,5.366328734932984
1648638184750116624,13360,16,0,0.0126344971359,0.0409018956125,0.00841824989766,0.0,14.5,0.004225584326387959,0.01367956375,0.002815468193197324,14.5,0.0,0.014927879628036435,0.043628689115218264
1648638184750127952,13361,16,1,0.0319512151182,0.0136339655146,-0.0263950247318,0.0,14.5,0.010686025123143813,0.00455985468715719,-0.00882776746882943,14.5,0.0,0.015785263400808706,0.0436286888844385
1648638184750130591,13362,16,2,0.255791842937,1.01436698437,-0.0449945814908,0.0,14.5,0.08554911135016723,0.3392531720301003,-0.015048355013645483,14.5,0.0,0.3601805320087295,1.0470885150055496
1648638184750296392,13363,16,3,1.19715368748,0.698059022427,-0.169358596206,0.0,14.5,0.40038584865551835,0.23346455599565216,-0.05664167097190635,14.5,0.0,0.6124731459529033,1.3961180767927788
1648638184750302155,13364,16,4,2.46072244644,1.71787965298,0.566304564476,0.0,14.5,0.8229840957993311,0.5745416899598662,0.18939951989163878,14.5,0.0,1.2979614005736937,3.054008238411072
1648638184750309601,13365,16,5,3.8419687748,-1.00345981121,0.585875213146,0.0,14.5,1.2849393895652175,-0.3356052880301003,0.1959448873397993,14.5,0.0,1.847909461815225,4.013839237516955
1648638184750470152,13366,16,6,1.48915338516,0.39265820384,0.308430284262,0.121715031564,14.5,0.4980446104214047,0.13132381399331103,0.10315394122474915,14.5,0.01644797723837838,0.7164794568313647,1.5706328373704277
1648638184750474876,13367,16,7,3.01284408569,-3.16717004776,0.555899143219,0.243430063128,14.5,1.007640162438127,-1.0592541965752507,0.18591944589264214,14.5,0.03289595447675676,1.7755835229239287,4.4064974133133115
1648638184850304252,13368,17,0,0.257492303848,1.01436698437,-0.0339365415275,0.0,13.3000001907,0.08611782737391303,0.3392531720301003,-0.011350013888795987,13.3000001907,0.0,0.3604514878810892,1.0470885131504817
1648638184850310513,13369,17,1,1.19677138329,0.698059022427,-0.172038808465,0.0,13.3000001907,0.400257987722408,0.23346455599565216,-0.05753806303177257,13.3000001907,0.0,0.6123059793742256,1.39611800871977
1648638184850401737,13370,17,2,2.46269798279,1.71787965298,0.557650327682,0.0,13.3000001907,0.8236448102976588,0.5745416899598662,0.18650512631505015,13.3000001907,0.0,1.2987993303672711,3.054008144148352
1648638184850404919,13371,17,3,3.83521223068,-1.00345981121,0.628585875034,0.0,13.3000001907,1.2826796758127088,-0.3356052880301003,0.21022938964347823,13.3000001907,0.0,1.8447669800925421,4.013839140942662
1648638184850412748,13372,17,4,1.42677414417,0.334032148123,0.429510861635,0.121715031564,13.3000001907,0.47718198801672235,0.11171643749933109,0.14364911760367893,13.3000001907,0.01644797723837838,0.6840218284402367,1.5270040978052881
1648638184850417560,13373,17,5,1.64401483536,0.111798517406,0.696015119553,0.121715031564,13.3000001907,0.5498377375785952,0.03739080849698996,0.23278097643913043,13.3000001907,0.01644797723837838,0.7784864468256046,1.7887763230835554
