%time,field.header.seq,field.header.frame_id,field.point_id,field.x,field.y,field.z,field.velocity,field.intensity,normalized_x,normalized_y,normalized_z,normalized_intensity,normalized_velocity,normalized_range,range
1648638273051413961,20247,0,0,0.0175515953451,0.0845305845141,0.0126637909561,0.0,15.6000003815,0.005870098777625418,0.028271098499698995,0.0042353815906688965,15.6000003815,0.0,0.029464743842393094,0.08725737687343885
1648638273051419319,20248,0,1,0.0695781856775,0.0272679310292,-0.0450464822352,0.0,15.6000003815,0.023270296213210702,0.00911970937431438,-0.015065713122140466,15.6000003815,0.0,0.0341494139155139,0.08725737531321959
1648638273051421507,20249,0,2,0.256125956774,1.01436698437,-0.0430520884693,0.0,15.6000003815,0.0856608551083612,0.3392531720301003,-0.014398691795752505,15.6000003815,0.0,0.3602336449143474,1.047088519197328
1648638273051426608,20250,0,3,1.17358994484,0.741687715054,-0.147415682673,0.0,15.6000003815,0.39250499827424745,0.24805609199130432,-0.04930290390401338,15.6000003815,0.0,0.6079902730426964,1.3961179781055484
1648638273051432238,20251,0,4,2.41490077972,1.71787965298,0.73763769865,0.0,15.6000003815,0.8076591236521738,0.5745416899598662,0.24670157145484947,15.6000003815,0.0,1.2785635195558858,3.0540081290796555
1648638273051678596,20252,0,5,3.80650496483,-1.12889230251,0.589089870453,0.0,15.6000003815,1.2730785835551839,-0.3775559540167224,0.19702002356287623,15.6000003815,0.0,1.839566975738373,4.013839153903915
1648638273051681432,20253,0,6,1.56936848164,0.201782688498,0.319697409868,0.243430063128,15.6000003815,0.5248724018862876,0.06748584899598661,0.10692221065819398,15.6000003815,0.03289595447675676,0.7453431534122188,1.6142614777101099
1648638273051683363,20254,0,7,4.38974952698,0.879390776157,-3.41061449051,0.243430063128,15.6000003815,1.4681436545083613,0.2941106274772575,-1.140673742645485,15.6000003815,0.03289595447675676,2.0969960996009025,5.628100945229033
1648638273151256073,20255,1,0,0.255592375994,1.01436698437,-0.0461142398417,0.0,15.6999998093,0.0854823999979933,0.3392531720301003,-0.015422822689531773,15.6999998093,0.0,0.36014885276968284,1.0470885181121623
1648638273151260967,20256,1,1,1.17355406284,0.741687715054,-0.147701665759,0.0,15.6999998093,0.39249299760535117,0.24805609199130432,-0.049398550421070234,15.6999998093,0.0,0.6079747783522494,1.396118041978642
1648638273151265200,20257,1,2,1.61896145344,-2.07917976379,0.372503608465,0.0,15.6999998093,0.5414586800802675,-0.6953778474214046,0.1245831466438127,15.6999998093,0.0,1.034362293953602,2.66134996124107
1648638273151272720,20258,1,3,3.8383936882,-1.00345981121,0.608857750893,0.0,15.6999998093,1.2837437084280936,-0.3356052880301003,0.20363135481371236,15.6999998093,0.0,1.8462466593635845,4.013839241816953
1648638273151275661,20259,1,4,1.51898419857,0.252228349447,0.484673202038,0.121715031564,15.6999998093,0.5080214710936455,0.08435730750735786,0.16209806088227424,15.6999998093,0.01644797723837838,0.7233863321311748,1.6142615180149318
1648638273151278647,20260,1,5,1.75201809406,-0.0,0.536787569523,0.121715031564,15.6999998093,0.5859592287826086,-0.0,0.1795276152250836,15.6999998093,0.01644797723837838,0.8286714883420444,1.832405058033852
1648638273151329725,20261,1,6,0.648144006729,1.60335433483,0.605699658394,0.121715031564,15.6999998093,0.21677057081237455,0.5362389079698996,0.20257513658662205,15.6999998093,0.01644797723837838,0.6176820599316414,1.832404936867253
1648638273251444933,20262,2,0,0.0176010448486,0.0845305845141,0.0125949727371,0.0,13.0,0.005886637073110367,0.028271098499698995,0.004212365463913043,13.0,0.0,0.02947134205360722,0.08725737697356095
1648638273251458529,20263,2,1,0.0695429593325,0.0272679310292,-0.0451008491218,0.0,13.0,0.023258514826923076,0.00911970937431438,-0.015083896027357858,13.0,0.0,0.03413335792125291,0.08725737703393521
1648638273251461932,20264,2,2,0.257505446672,1.01436698437,-0.0338366813958,0.0,13.0,0.08612222296722406,0.3392531720301003,-0.011316615851438125,13.0,0.0,0.3604535882885858,1.0470885134760648
1648638273251464037,20265,2,3,1.17304313183,0.741687715054,-0.151705265045,0.0,13.0,0.3923221176688963,0.24805609199130432,-0.05073754683779264,13.0,0.0,0.6077541549001644,1.3961179546291682
1648638273251467644,20266,2,4,1.75649428368,-0.0572626553476,0.518803298473,0.0,13.0,0.587456282167224,-0.019151389748361204,0.17351280885384615,13.0,0.0,0.8310093517192016,1.8324049887523333
1648638273251472607,20267,2,5,1.64533495903,-2.1132645607,0.37933576107,0.0,13.0,0.5502792505117057,-0.7067774450501672,0.12686814751505016,13.0,0.0,1.0512606070423696,2.704978715358657
1648638273251735521,20268,2,6,2.31132793427,1.8133174181,0.834631502628,0.0,13.0,0.7730193760100333,0.6064606749498327,0.2791409707785953,13.0,0.0,1.2501649737672582,3.054008288086453
1648638273251748334,20269,2,7,3.84036898613,-1.00345981121,0.59627199173,0.0,13.0,1.284404343187291,-0.3356052880301003,0.19942207081270902,13.0,0.0,1.8471653805088808,4.0138392880712646
1648638273251753316,20270,2,8,1.54570508003,0.201782688498,0.419428139925,0.121715031564,13.0,0.5169582207458194,0.06748584899598661,0.14027696987458194,13.0,0.01644797723837838,0.7341974828396484,1.6142615687579802
1648638273351465994,20271,3,0,0.256045073271,1.01436698437,-0.0435304120183,0.0,16.5,0.08563380376956521,0.3392531720301003,-0.014558666226856186,16.5,0.0,0.360220781505695,1.0470885135922
1648638273351474376,20272,3,1,1.17301118374,0.741687715054,-0.151953011751,0.0,16.5,0.3923114326889631,0.24805609199130432,-0.05082040526789298,16.5,0.0,0.6077403600312654,1.3961180543282645
1648638273351478022,20273,3,2,1.54809617996,0.201782688498,0.410514682531,0.0,16.5,0.5177579197190635,0.06748584899598661,0.13729588044515048,16.5,0.0,0.735323647571825,1.6142615464532857
1648638273351481583,20274,3,3,3.80626273155,-1.12889230251,0.590652644634,0.0,16.5,1.2729975690802675,-0.3775559540167224,0.19754269051304346,16.5,0.0,1.8394548432027404,4.013839104755687
1648638273451441570,20275,4,0,0.017565920949,0.0845305845141,0.0126439137384,0.0,15.1000003815,0.005874889949498327,0.028271098499698995,0.004228733691772575,15.1000003815,0.0,0.02946665359719552,0.08725737706180504
1648638273451466606,20276,4,1,0.0694354996085,0.0272679310292,-0.0452661141753,0.0,15.1000003815,0.023222575119899662,0.00911970937431438,-0.01513916862050167,15.1000003815,0.0,0.03408438189949648,0.08725737654219559
1648638273451469958,20277,4,2,0.257344990969,1.01436698437,-0.0350362285972,0.0,15.1000003815,0.08606855885250835,0.3392531720301003,-0.011717802206421404,15.1000003815,0.0,0.3604279517162622,1.0470885161585137
1648638273451500954,20278,4,3,1.17251300812,0.741687715054,-0.1557508111,0.0,15.1000003815,0.39214481876923074,0.24805609199130432,-0.05209057227424749,15.1000003815,0.0,0.6075252608320941,1.3961180953024506
1648638273451521447,20279,4,4,1.61885476112,-2.07917976379,0.372966825962,0.0,15.1000003815,0.5414229970301002,-0.6953778474214046,0.12473806888361202,15.1000003815,0.0,1.0343249364249796,2.6613499358451347
1648638273451527537,20280,4,5,3.84256291389,-1.00345981121,0.581965744495,0.0,15.1000003815,1.28513809829097,-0.3356052880301003,0.19463737274080267,15.1000003815,0.0,1.8481858057867524,4.013839242879819
1648638273451547827,20281,4,6,1.56145727634,0.201782688498,0.356335580349,-0.121715031564,15.1000003815,0.522226513826087,0.06748584899598661,0.11917577938093644,15.1000003815,-0.01644797723837838,0.7416167496089914,1.6142614797594814
1648638273451573525,20282,4,7,1.75498616695,-0.0572626553476,0.523882091045,-0.121715031564,15.1000003815,0.5869518953010033,-0.019151389748361204,0.17521140168729096,15.1000003815,-0.01644797723837838,0.8302962305853095,1.8324049506593767
1648638273551476451,20283,5,0,0.257532924414,1.01436698437,-0.0336269810796,0.0,19.2000007629,0.08613141284749164,0.3392531720301003,-0.011246481966421404,19.2000007629,0.0,0.3604579799237283,1.0470885158350476
1648638273551530353,20284,5,1,1.17293798923,0.741687715054,-0.152516543865,0.0,19.2000007629,0.3922869529197324,0.24805609199130432,-0.051008877546822734,19.2000007629,0.0,0.6077087556026284,1.3961180069727142
1648638273551537955,20285,5,2,1.71282064915,0.3272151649,0.0686708837748,0.0,19.2000007629,0.5728497154347826,0.10943651,0.022966850760802675,19.2000007629,0.0,0.8174900260360385,1.745147566990704
1648638273551553721,20286,5,3,1.61841535568,-2.07917976379,0.3748691082,0.0,19.2000007629,0.5412760386889632,-0.6953778474214046,0.12537428367892978,19.2000007629,0.0,1.03417109358271,2.661349958561881
1648638273551569306,20287,5,4,3.84485673904,-1.00345981121,0.566613137722,0.0,19.2000007629,1.2859052638929764,-0.3356052880301003,0.1895027216461538,19.2000007629,0.0,1.8492527152255576,4.013839232492264
1648638273551576236,20288,5,5,1.76086676121,-0.0572626553476,0.503763079643,-0.243430063128,19.2000007629,0.5889186492341136,-0.019151389748361204,0.16848263533210703,19.2000007629,-0.03289595447675676,0.8330769031492588,1.8324049778482518
1648638273551579603,20289,5,6,1.53213119507,0.201782688498,0.466581225395,-0.121715031564,19.2000007629,0.5124184598896321,0.06748584899598661,0.15604723257357858,19.2000007629,-0.01644797723837838,0.7278047099916529,1.6142615315292648
1648638273651578085,20290,6,0,0.0176239106804,0.0845305845141,0.0125629557297,0.0,19.7999992371,0.005894284508494983,0.028271098499698995,0.004201657434682274,19.7999992371,0.0,0.029474398893172542,0.08725737678060533
1648638273651591443,20291,6,1,0.0695251077414,0.0272679310292,-0.045128364116,0.0,19.7999992371,0.023252544395117054,0.00911970937431438,-0.015093098366555183,19.7999992371,0.0,0.03412522147570234,0.08725737743510724
1648638273651648506,20292,6,2,0.256968319416,1.01436698437,-0.0376996919513,0.0,19.7999992371,0.0859425817444816,0.3392531720301003,-0.012608592625852842,19.7999992371,0.0,0.36036782520960253,1.0470885172403497
1648638273651657678,20293,6,3,1.17302143574,0.741687715054,-0.151873081923,0.0,19.7999992371,0.39231486145150496,0.24805609199130432,-0.050793672883946483,19.7999992371,0.0,0.607744786736526,1.3961179707962879
1648638273651672085,20294,6,4,1.61751592159,-2.07917976379,0.378731399775,0.0,19.7999992371,0.5409752246120401,-0.6953778474214046,0.1266660199916388,19.7999992371,0.0,1.0338562462801686,2.661349980729051
1648638273652203220,20295,6,5,3.83267045021,-1.00345981121,0.643902420998,0.0,19.7999992371,1.2818295820100334,-0.3356052880301003,0.21535198026688962,19.7999992371,0.0,1.843584840463221,4.013839147299456
1648638273652207488,20296,6,6,1.52061069012,0.201782688498,0.502859055996,-0.243430063128,19.7999992371,0.5085654482006688,0.06748584899598661,0.16818028628628762,19.7999992371,-0.03289595447675676,0.722379380950068,1.6142615508280844
1648638273652209285,20297,6,7,1.67760884762,0.055899258703,0.618243038654,-0.243430063128,19.7999992371,0.5610731931839464,0.01869540424849498,0.20677024704147157,19.7999992371,-0.03289595447675676,0.7936975332954455,1.788776293330326
1648638273652211701,20298,6,8,1.72125649452,0.218143448234,0.187695816159,-0.121715031564,19.7999992371,0.5756710684013377,0.07295767499464882,0.06277452045451505,19.7999992371,-0.01644797723837838,0.8173843528777024,1.745147616489302
1648638273751575869,20299,7,0,0.256931841373,1.01436698437,-0.0379473417997,0.0,15.1999998093,0.08593038173010033,0.3392531720301003,-0.012691418662107023,15.1999998093,0.0,0.3603620065171221,1.0470885114644661
1648638273751583655,20300,7,1,1.17267131805,0.741687715054,-0.154553577304,0.0,15.1999998093,0.39219776523411365,0.24805609199130432,-0.05169015963344481,15.1999998093,0.0,0.607593613267342,1.396118009015216
1648638273751589674,20301,7,2,2.42891716957,1.71787965298,0.690084457397,0.0,15.1999998093,0.8123468794548494,0.5745416899598662,0.230797477390301,15.1999998093,0.0,1.2844894155352164,3.0540081331089377
1648638273751728542,20302,7,3,3.83875226974,-1.00345981121,0.606593132019,0.0,15.1999998093,1.2838636353645485,-0.3356052880301003,0.20287395719698995,15.1999998093,0.0,1.846413436307458,4.013839285392507
1648638273751732803,20303,7,4,1.50002563,0.19632910192,0.422214955091,-0.365145087242,15.1999998093,0.5016808127090301,0.06566190699665551,0.141209015080602,15.1999998093,-0.04934393070837838,0.7125157975169556,1.5706328263537936
1648638273751741479,20304,7,5,1.66616404057,-0.0545358620584,0.516200900078,-0.365145087242,15.1999998093,0.5572454985183946,-0.01823941874862876,0.17264244149765887,15.1999998093,-0.04934393070837838,0.788275185220438,1.7451475982220928
1648638273751956330,20305,7,6,2.80155110359,-3.5107460022,0.140737324953,-0.365145087242,15.1999998093,0.9369736132408026,-1.1741625425418059,0.04706933944916388,15.1999998093,-0.04934393070837838,1.770451010372015,4.493754896812304
1648638273752116894,20306,7,7,2.49785375595,-1.71787965298,-4.58573722839,-0.243430063128,15.1999998093,0.8354025939632107,-0.5745416899598662,-1.5336913807324415,15.1999998093,-0.03289595447675676,1.3137325228153793,5.497214732578509
1648638273752131381,20307,7,8,3.79835343361,0.858939826488,-3.87996172905,-0.243430063128,15.1999998093,1.2703523189331103,0.2872708449792642,-1.2976460632274247,15.1999998093,-0.03289595447675676,1.8193720254012267,5.49721469937611
1648638273851534707,20308,8,0,0.0175331495702,0.0845305845141,0.0126893175766,0.0,12.5,0.005863929622140468,0.028271098499698995,0.004243918921939799,12.5,0.0,0.0294622869378213,0.08725737695293286
1648638273851543312,20309,8,1,0.0695603787899,0.0272679310292,-0.0450739748776,0.0,12.5,0.023264340732408025,0.00911970937431438,-0.015074907985819399,12.5,0.0,0.03414129755148618,0.08725737545488114
1648638273851568769,20310,8,2,0.255630791187,1.01436698437,-0.0459007918835,0.0,12.5,0.08549524788862875,0.3392531720301003,-0.015351435412541805,12.5,0.0,0.36015495214637966,1.047088517308022
1648638273851574486,20311,8,3,1.17300271988,0.741687715054,-0.152018323541,0.0,12.5,0.39230860196655515,0.24805609199130432,-0.05084224867591973,12.5,0.0,0.6077367054308177,1.3961180531030022
1648638273851597060,20312,8,4,2.44508218765,1.71787965298,0.630419135094,0.0,12.5,0.8177532400167224,0.5745416899598662,0.21084252009832777,12.5,0.0,1.2913322100132225,3.0540081356110798
1648638273851695798,20313,8,5,3.83027362823,-1.00345981121,0.658009707928,0.0,12.5,1.2810279693076922,-0.3356052880301003,0.2200701364307692,12.5,0.0,1.842470142404198,4.013839114308807
1648638273851780149,20314,8,6,1.44730579853,0.238594397902,0.424405783415,-0.365145087242,12.5,0.48404876205016717,0.07979745749230768,0.14194173358361203,12.5,-0.04934393070837838,0.689183605657328,1.5270041356083088
1648638273851786643,20315,8,7,1.63050723076,0.25904533267,0.151465088129,-0.365145087242,12.5,0.5453201440668896,0.08663723500668896,0.050657220110033443,12.5,-0.04934393070837838,0.776050339565592,1.6578902215951092
1648638273851903587,20316,8,8,2.45287489891,-3.58027911186,0.76303678751,-0.365145087242,12.5,0.8203594979632107,-1.1974177631638794,0.25519625000334445,12.5,-0.04934393070837838,1.6672698375899717,4.406497353637848
1648638273851907438,20317,8,9,1.66051185131,0.515363872051,0.578626453876,-0.243430063128,12.5,0.5553551342173912,0.17236249901371237,0.19352055313578592,12.5,-0.03289595447675676,0.8040817628012,1.8324050049269887
1648638273851910293,20318,8,10,3.15085840225,0.872573792934,-4.52736520767,-0.243430063128,12.5,1.0537987967391302,0.2918306999779264,-1.5141689657759196,12.5,-0.03289595447675676,1.518600989551661,5.5844721701129
1648638273951511836,20319,9,0,0.257118135691,1.01436698437,-0.036663915962,0.0,12.3000001907,0.08599268752207358,0.3392531720301003,-0.012262179251505016,12.3000001907,0.0,0.36039173040876343,1.0470885146035993
1648638273951517573,20320,9,1,1.17283058167,0.741687715054,-0.153340190649,0.0,12.3000001907,0.39225103065886285,0.24805609199130432,-0.05128434469866221,12.3000001907,0.0,0.607662379022989,1.3961179943080333
1648638273951521431,20321,9,2,2.45549631119,1.71787965298,0.588551521301,0.0,12.3000001907,0.8212362244782608,0.5745416899598662,0.1968399736792642,12.3000001907,0.0,1.2957453554971963,3.054008108963711
1648638273951526775,20322,9,3,3.85120177269,-1.00345981121,0.521746098995,0.0,12.3000001907,1.2880273487257525,-0.3356052880301003,0.17449702307525083,12.3000001907,0.0,1.8522040415366632,4.013839269141293
1648638273951618387,20323,9,4,1.40840291977,0.278132885695,0.37342441082,-0.365145087242,12.3000001907,0.4710377658093646,0.09302103200501671,0.12489110729765886,12.3000001907,-0.04934393070837838,0.672611378161739,1.4833753662232474
1648638273951626251,20324,9,5,1.62217009068,-0.0,0.513547539711,-0.365145087242,12.3000001907,0.5425318029030101,-0.0,0.17175503000367892,12.3000001907,-0.04934393070837838,0.7672558336841637,1.7015189915601825
1648638273951630204,20325,9,6,1.45131552219,0.279496282339,1.00761389732,-0.243430063128,12.3000001907,0.4853898067525083,0.09347701750468226,0.33699461448829426,12.3000001907,-0.03289595447675676,0.692780255059312,1.7887763087830053
1648638273951632917,20326,9,7,3.80382585526,-1.75878155231,-3.75674271584,-0.243430063128,12.3000001907,1.2721825602876253,-0.5882212549531772,-1.2564356909163878,12.3000001907,-0.03289595447675676,1.8928552977390125,5.628100880306548
1648638273951952358,20327,9,8,5.03270339966,2.46229410172,0.533408522606,-0.243430063128,12.3000001907,1.6831783945351169,0.8235097330167224,0.1783974991993311,12.3000001907,-0.03289595447675676,2.5187987803778413,5.628100958965034
1648638274051645307,20328,10,0,0.0126205934212,0.0409018956125,0.00843907892704,0.0,12.1999998093,0.00422093425458194,0.01367956375,0.002822434423759197,12.1999998093,0.0,0.014925248284478233,0.04362868891149371
1648638274051657119,20329,10,1,0.0320138595998,0.0136339655146,-0.0263190083206,0.0,12.1999998093,0.010706976454782607,0.00455985468715719,-0.00880234391993311,12.1999998093,0.0,0.01581363223217638,0.04362868805165726
1648638274051670451,20330,10,2,0.258324086666,1.01436698437,-0.0268820617348,0.0,12.1999998093,0.08639601560735785,0.3392531720301003,-0.008990656098595317,12.1999998093,0.0,0.36058460554790533,1.0470885148710325
1648638274051693350,20331,10,3,1.17290687561,0.741687715054,-0.152755796909,0.0,12.1999998093,0.39227654702675585,0.24805609199130432,-0.05108889528729097,12.1999998093,0.0,0.6076953212494463,1.396118024740222
1648638274051701916,20332,10,4,2.45107626915,1.71787965298,0.606696248055,0.0,12.1999998093,0.819757949548495,0.5745416899598662,0.20290844416555182,12.1999998093,0.0,1.2938718426481985,3.054008139595732
1648638274051782541,20333,10,5,3.82508611679,-1.12889230251,0.453015863895,0.0,12.1999998093,1.2792930156488294,-0.3775559540167224,0.15151032237290968,12.1999998093,0.0,1.8481692937036989,4.013839185177511
1648638274051785287,20334,10,6,2.85130476952,-3.23942995071,0.178854450583,-0.365145087242,12.1999998093,0.9536136352909699,-1.0834213881973243,0.059817542001003345,12.1999998093,-0.04934393070837838,1.7299016836887393,4.319240003604551
1648638274051792455,20335,10,7,1.41789221764,0.278132885695,0.335598707199,-0.243430063128,12.1999998093,0.4742114440267558,0.09302103200501671,0.11224037030066888,12.1999998093,-0.03289595447675676,0.6770567920692918,1.4833754532223948
1648638274051912219,20336,10,8,1.56740963459,0.0518090687692,0.5377202034,-0.243430063128,12.1999998093,0.5242172690936454,0.01732744774889632,0.179839532909699,12.1999998093,-0.03289595447675676,0.7415576382706132,1.6578902736178973
1648638274051916428,20337,10,9,3.69805812836,-1.74514758587,-3.80330848694,-0.243430063128,12.1999998093,1.2368087385819397,-0.5836613999565218,-1.272009527404682,12.1999998093,-0.03289595447675676,1.8439230844762764,5.58447217416536
1648638274051919033,20338,10,10,3.9230055809,-3.66480994225,1.53802573681,-0.243430063128,12.1999998093,1.3120420003010032,-1.225688943896321,0.5143898785317725,12.1999998093,-0.03289595447675676,2.223785468137022,5.584472031237773
1648638274151609072,20339,11,0,0.213060125709,-0.081803791225,-0.128211423755,0.0,12.0,0.07125756712675585,-0.0273591275,-0.042880074834448154,12.0,0.0,0.10442127945591113,0.26177212725422555
1648638274151615823,20340,11,1,0.254791021347,1.01436698437,-0.0503539666533,0.0,12.0,0.08521438841036788,0.3392531720301003,-0.016840791522842808,12.0,0.0,0.36002180311307663,1.047088518462817
1648638274151623784,20341,11,2,1.14494752884,0.718509972095,0.0454515069723,0.0,12.0,0.38292559492976586,0.240304338493311,0.015201172900434781,12.0,0.0,0.5924611359433951,1.3524892839807765
1648638274151629077,20342,11,3,1.63892781734,-2.1132645607,0.406126260757,0.0,12.0,0.5481363937591973,-0.7067774450501672,0.13582818085518392,12.0,0.0,1.0490192415577122,2.7049787492026405
1648638274151631958,20343,11,4,2.45338869095,1.71787965298,0.597276389599,0.0,12.0,0.8205313347658861,0.5745416899598662,0.19975798983244145,12.0,0.0,1.2948519205559037,3.054008129749568
1648638274151944876,20344,11,5,3.85824537277,-1.00345981121,0.466814398766,0.0,12.0,1.2903830678160535,-0.3356052880301003,0.1561252169785953,12.0,0.0,1.8554804856873341,4.013839138793431
1648638274151947807,20345,11,6,1.50646317005,0.238594397902,-0.0733699426055,-0.608575165272,12.0,0.5038338361371237,0.07979745749230768,-0.02453844234297659,12.0,-0.0822398871989189,0.716983056351778,1.5270041643378867
1648638274151948976,20346,11,7,2.69611430168,-3.37440633774,0.0135592063889,-0.365145087242,12.0,0.9017104687892976,-1.1285639925551838,0.004534851635083612,12.0,-0.04934393070837838,1.7028858518234646,4.319240015556117
1648638274151951129,20347,11,8,4.10563087463,1.21478629112,0.569142043591,-0.365145087242,12.0,1.3731206938561873,0.40628304050836117,0.19034850956220734,12.0,-0.04934393070837838,1.9839321532746308,4.319239895813976
1648638274151952312,20348,11,9,1.36551403999,0.314944595098,0.33023044467,-0.243430063128,12.0,0.4566936588595318,0.10533264050100333,0.11044496477257525,12.0,-0.03289595447675676,0.6543952637664231,1.439746796481312
1648638274151955898,20349,11,10,1.57119727135,0.599894464016,0.465838879347,-0.243430063128,12.0,0.5254840372408026,0.20063360000535116,0.15579895630334448,12.0,-0.03289595447675676,0.7697537192121215,1.7451475854396952
1648638274251606700,20350,12,0,0.257300466299,1.01436698437,-0.0353617668152,0.0,14.0,0.08605366765852843,0.3392531720301003,-0.011826677864615383,14.0,0.0,0.3604208403622823,1.047088517504544
1648638274251609030,20351,12,1,2.45827364922,1.71787965298,0.576841711998,0.0,14.0,0.8221651000735786,0.5745416899598662,0.19292364949765886,14.0,0.0,1.2969229187040894,3.0540082182719948
1648638274251620762,20352,12,2,3.83066725731,-1.00345981121,0.655714631081,0.0,14.0,1.2811596178294313,-0.3356052880301003,0.21930255220100334,14.0,0.0,1.842653207217103,4.013839172955765
1648638274251631805,20353,12,3,1.36295890808,0.314944595098,0.340622365475,-0.243430063128,14.0,0.4558390996923076,0.10533264050100333,0.11392052357023412,14.0,-0.03289595447675676,0.6532025220186315,1.4397467412562022
1648638274251687350,20354,12,4,1.53020906448,0.531724631786,0.52047675848,-0.243430063128,14.0,0.5117756068494983,0.17783432501204013,0.17407249447491638,14.0,-0.03289595447675676,0.7452875892464818,1.7015190040615362
1648638274251778478,20355,12,5,2.65122628212,-3.34032130241,0.3067676723,-0.243430063128,14.0,0.8866977532173913,-1.117164315187291,0.10259788371237458,14.0,-0.03289595447675676,1.6794409540824673,4.275611489261651
1648638274351563221,20356,13,0,0.255826503038,1.01436698437,-0.0447971113026,0.0,13.6999998093,0.08556070335719063,0.3392531720301003,-0.014982311472441471,13.6999998093,0.0,0.3601860389443755,1.0470885157509833
1648638274351811099,20357,13,1,1.62064182758,-2.07917976379,0.365123569965,0.0,13.6999998093,0.5420206781204013,-0.6953778474214046,0.12211490634280936,13.6999998093,0.0,1.034950811248837,2.6613499666146256
1648638274351866714,20358,13,2,2.46186351776,1.71787965298,0.561323046684,0.0,13.6999998093,0.8233657250033444,0.5745416899598662,0.18773346042943143,13.6999998093,0.0,1.2984453734071777,3.0540081933319914
1648638274351904860,20359,13,3,3.82531571388,-1.12889230251,0.451072603464,0.0,13.6999998093,1.279369803973244,-0.3775559540167224,0.15086040249632107,13.6999998093,0.0,1.848275598781348,4.013839139168306
1648638274351939983,20360,13,4,1.31426167488,0.349029511213,0.316291302443,-0.243430063128,13.6999998093,0.43955239962541803,0.11673227799765887,0.10578304429531772,13.6999998093,-0.03289595447675676,0.632486402035213,1.396118024293454
1648638274351944699,20361,13,5,1.53694415092,0.151337012649,0.469829678535,-0.243430063128,13.6999998093,0.5140281441204013,0.050614385501337796,0.15713367175083612,13.6999998093,-0.03289595447675676,0.7287054836594866,1.6142614847901886
1648638274351947432,20362,13,6,1.48574912548,0.531724631786,0.636384487152,-0.243430063128,13.6999998093,0.4969060620334448,0.17783432501204013,0.21283762112107021,13.6999998093,-0.03289595447675676,0.7248836569572108,1.7015189576964036
1648638274451631309,20363,14,0,0.255630791187,1.01436698437,-0.0459007918835,0.0,18.7999992371,0.08549524788862875,0.3392531720301003,-0.015351435412541805,18.7999992371,0.0,0.36015495214637966,1.047088517308022
1648638274451638252,20364,14,1,2.45494866371,1.71787965298,0.590831696987,0.0,18.7999992371,0.8210530647859532,0.5745416899598662,0.19760257424314379,18.7999992371,0.0,1.2955131893928182,3.0540081102935432
1648638274451749227,20365,14,2,3.84859251976,-1.00345981121,0.540656030178,0.0,18.7999992371,1.287154688882943,-0.3356052880301003,0.18082141477525082,18.7999992371,0.0,1.850990355345067,4.013839174510368
1648638274451754012,20366,14,3,1.47362613678,0.0981645509601,0.534487724304,-0.365145087242,18.7999992371,0.4928515507625418,0.0328309534983612,0.17875843622207357,18.7999992371,-0.04934393070837838,0.6977701438766896,1.5706328016115079
1648638274451756517,20367,14,4,1.30260407925,0.349029511213,0.361312150955,-0.243430063128,18.7999992371,0.4356535382107023,0.11673227799765887,0.12084018426588629,18.7999992371,-0.03289595447675676,0.6270681266318121,1.396117995516158
1648638274451898613,20368,14,5,1.42808556557,0.51809066534,0.663893043995,-0.243430063128,18.7999992371,0.47762059049163874,0.17327447001337792,0.22203780735618728,18.7999992371,-0.03289595447675676,0.6973284010289416,1.6578903142146582
1648638274551544506,20369,15,0,0.256762355566,1.01436698437,-0.0390777364373,0.0,15.3999996185,0.08587369751371238,0.3392531720301003,-0.013069477069331101,15.3999996185,0.0,0.3603349810687799,1.0470885137851298
1648638274551716470,20370,15,1,1.1658039093,0.676244676113,0.113233916461,0.0,15.3999996185,0.38990097301003346,0.22616878799765885,0.03787087507056856,15.3999996185,0.0,0.595984780151869,1.352489385077545
1648638274551722533,20371,15,2,2.37283587456,1.8133174181,0.639136314392,0.0,15.3999996185,0.7935905934983276,0.6064606749498327,0.21375796467959865,15.3999996185,0.0,1.2756828016551225,3.0540080836105132
1648638274551773513,20372,15,3,3.84197211266,-1.00345981121,0.585853993893,0.0,15.3999996185,1.2849405059063546,-0.3356052880301003,0.19593779059966554,15.3999996185,0.0,1.8479110143054842,4.013839335266315
1648638274551782346,20373,15,4,1.27552616596,0.380387634039,0.239928483963,-0.365145087242,15.3999996185,0.4265973799197324,0.12721994449464882,0.08024364012140468,15.3999996185,-0.04934393070837838,0.6165675659536289,1.352489345464573
1648638274551904534,20374,15,5,1.41932606697,0.143156632781,0.544757902622,-0.365145087242,15.3999996185,0.4746909922976589,0.047878472502006685,0.1821932784688963,15.3999996185,-0.04934393070837838,0.6730196315607722,1.5270040859011622
1648638274551983911,20375,15,6,2.76552629471,-3.1412653923,0.163172200322,-0.365145087242,15.3999996185,0.9249251821772574,-1.0505904322073578,0.05457264224816053,15.3999996185,-0.04934393070837838,1.6777107740897739,4.188353986777146
1648638274551997089,20376,15,7,1.43818116188,0.569899737835,0.59619563818,-0.243430063128,15.3999996185,0.4809970441070234,0.1906019190083612,0.19939653450836117,15.3999996185,-0.03289595447675676,0.7064314576864889,1.6578902269317368
1648638274552000757,20377,15,8,1.35342168808,0.261772125959,-0.221067458391,-0.121715031564,15.3999996185,0.45264939400668897,0.08754920600635452,-0.07393560481304347,15.3999996185,-0.01644797723837838,0.6461020130456092,1.3961180941646263
1648638274651603603,20378,16,0,0.25697851181,1.01436698437,-0.0376300439239,0.0,21.0,0.08594599057190634,0.3392531720301003,-0.012585298971204013,21.0,0.0,0.3603694511515332,1.0470885133157009
1648638274651617197,20379,16,1,1.17401576042,0.741687715054,-0.143985912204,0.0,21.0,0.3926474115117057,0.24805609199130432,-0.04815582347959866,21.0,0.0,0.6081741562313249,1.3961180520607106
1648638274651691081,20380,16,2,1.63996994495,-2.1132645607,0.401896893978,0.0,21.0,0.5484849314214046,-0.7067774450501672,0.13441367691571904,21.0,0.0,1.0493835318053777,2.7049786759305574
1648638274651790559,20381,16,3,2.37963581085,1.8133174181,0.613334596157,0.0,21.0,0.7958648196822742,0.6064606749498327,0.20512862747725752,21.0,0.0,1.2785132665234273,3.0540081823576797
1648638274651907402,20382,16,4,3.83700823784,-1.00345981121,0.617527902126,0.0,21.0,1.2832803471036789,-0.3356052880301003,0.20653107094515047,21.0,0.0,1.8456022886523638,4.013839124811777
1648638274651912078,20383,16,5,1.40468096733,0.0927109643817,0.467631191015,-0.365145087242,21.0,0.46979296566220735,0.031007011498896318,0.1563983916438127,21.0,-0.04934393070837838,0.6651107396016671,1.4833754999007625
