%time,field.header.seq,field.header.frame_id,field.point_id,field.x,field.y,field.z,field.velocity,field.intensity,normalized_x,normalized_y,normalized_z,normalized_intensity,normalized_velocity,normalized_range,range
1648638647255723966,53351,0,0,0.0272205770016,0.081803791225,0.013454740867,0.0,11.8999996185,0.009103871906889632,0.0273591275,0.0044999133334448155,11.8999996185,0.0,0.03023711006289068,0.0872573786156881
1648638647255730060,53352,0,1,0.0696543231606,0.0272679310292,-0.0449286662042,0.0,11.8999996185,0.023295760254381268,0.00911970937431438,-0.01502630976729097,11.8999996185,0.0,0.03418411898427657,0.08725737702030086
1648638647255732621,53353,0,2,0.213355302811,-0.081803791225,-0.127719625831,0.0,11.8999996185,0.07135628856555185,-0.0273591275,-0.042715593923411364,11.8999996185,0.0,0.10455602179339966,0.26177213052341447
1648638647255756768,53354,0,3,0.259713977575,1.01436698437,0.00162019836716,0.0,11.8999996185,0.08686086206521738,0.3392531720301003,0.0005418723635986622,11.8999996185,0.0,0.3608078899496383,1.0470885130543952
1648638647255833998,53355,0,4,1.16860473156,0.676244676113,-0.0792697817087,0.0,11.8999996185,0.3908377028628763,0.22616878799765885,-0.026511632678494983,11.8999996185,0.0,0.597210633380376,1.3524894006563384
1648638647255862809,53356,0,5,3.84162425995,-1.00345981121,0.588128745556,0.0,11.8999996185,1.2848241672073577,-0.3356052880301003,0.1966985771090301,11.8999996185,0.0,1.8477492228746646,4.0138390561530075
1648638647255876742,53357,0,6,1.57361710072,0.353119701147,0.0698257163167,-0.365145087242,11.8999996185,0.526293344722408,0.1181002344973244,0.02335308238016722,11.8999996185,-0.04934393070837838,0.7536027035424712,1.6142614204879286
1648638647255894464,53358,0,7,1.65345776081,0.218143448234,0.513839125633,-0.365145087242,11.8999996185,0.5529959066254181,0.07295767499464882,0.17185255037892977,11.8999996185,-0.04934393070837838,0.7854500415873444,1.745147494575036
1648638647255896930,53359,0,8,2.88534402847,-3.27215147018,0.0493808910251,-0.365145087242,11.8999996185,0.9649980028327758,-1.0943650401939797,0.016515348168929765,11.8999996185,-0.04934393070837838,1.7493076150698204,4.362868767087438
1648638647255898420,53360,0,9,1.50525462627,0.39265820384,0.21659964323,-0.243430063128,11.8999996185,0.5034296408929765,0.13132381399331103,0.07244135225083612,11.8999996185,-0.03289595447675676,0.7239673685885382,1.5706327898008037
1648638647255907301,53361,0,10,1.40972709656,0.477188795805,0.34161683917,-0.121715031564,11.8999996185,0.4714806343010033,0.15959491498494982,0.11425312346822743,11.8999996185,-0.01644797723837838,0.6856081343820288,1.5270041579582603
1648638647355845440,53362,1,0,0.0271890312433,0.081803791225,0.0135183688253,0.0,22.1000003815,0.009093321486053511,0.0273591275,0.004521193587056856,22.1000003815,0.0,0.030230759978186143,0.08725737776503127
1648638647355848316,53363,1,1,0.0696823596954,0.0272679310292,-0.04488517344,0.0,22.1000003815,0.02330513702187291,0.00911970937431438,-0.015011763692307691,22.1000003815,0.0,0.034196899308102484,0.08725737854228258
1648638647355882541,53364,1,2,0.213355302811,-0.081803791225,-0.127719625831,0.0,22.1000003815,0.07135628856555185,-0.0273591275,-0.042715593923411364,22.1000003815,0.0,0.10455602179339966,0.26177213052341447
1648638647355992584,53365,1,3,0.259537637234,1.01436698437,0.00970508810133,0.0,22.1000003815,0.0868018853625418,0.3392531720301003,0.00324584886332107,22.1000003815,0.0,0.3607795023798726,1.0470885124266953
1648638647355996645,53366,1,4,1.16879355907,0.676244676113,-0.0764346718788,0.0,22.1000003815,0.39090085587625417,0.22616878799765885,-0.0255634354109699,22.1000003815,0.0,0.5972932938799046,1.3524893732521206
1648638647356000764,53367,1,5,3.82598853111,-1.12889230251,0.445331186056,0.0,22.1000003815,1.279594826458194,-0.3775559540167224,0.14894019600535116,22.1000003815,0.0,1.8485871194538352,4.013839301233375
1648638647356139736,53368,1,6,1.50451922417,0.673517882824,0.177187770605,0.121715031564,22.1000003815,0.5031836870133779,0.2252568169979933,0.05926012394816053,22.1000003815,0.01644797723837838,0.7464102620923841,1.6578902075930095
1648638647356144442,53369,1,7,1.50175011158,0.39265820384,-0.239694699645,-0.365145087242,22.1000003815,0.5022575624013378,0.13132381399331103,-0.08016545138628763,22.1000003815,-0.04934393070837838,0.7223373603105526,1.5706328061362096
1648638647356147283,53370,1,8,1.6090669632,0.212689861655,0.510718286037,-0.243430063128,22.1000003815,0.5381494860200668,0.07113373299498328,0.17080879131672239,22.1000003815,-0.03289595447675676,0.7643753963708708,1.7015189205545334
1648638647356227427,53371,1,9,1.37689995766,0.477188795805,0.456266283989,-0.121715031564,22.1000003815,0.46050165808026755,0.15959491498494982,0.15259741939431437,22.1000003815,-0.01644797723837838,0.6705177783462603,1.5270041133379657
1648638647455776570,53372,2,0,0.0271752309054,0.081803791225,0.0135460905731,0.0,20.3999996185,0.009088705988428094,0.0273591275,0.004530465074615384,20.3999996185,0.0,0.0302279838998474,0.0872573779308078
1648638647455781210,53373,2,1,0.0696895346045,0.0272679310292,-0.044874034822,0.0,20.3999996185,0.02330753665702341,0.00911970937431438,-0.01500803840200669,20.3999996185,0.0,0.03420017001578995,0.08725737961462675
1648638647455815450,53374,2,2,0.212618291378,-0.081803791225,-0.12894281745,0.0,20.3999996185,0.07110979644749163,-0.0273591275,-0.04312468811036789,20.3999996185,0.0,0.10421961504039746,0.26177213040968955
1648638647455886844,53375,2,3,0.363238662481,0.981645464897,0.0287080928683,0.0,20.3999996185,0.12148450250200668,0.32830952003244146,0.009601368852274247,20.3999996185,0.0,0.37054569170380625,1.047088486838609
1648638647455889741,53376,2,4,1.16823840141,0.676244676113,-0.0844969153404,0.0,20.3999996185,0.3907151844180602,0.22616878799765885,-0.028259837906488294,20.3999996185,0.0,0.5970502753822391,1.352489391160689
1648638647455898787,53377,2,5,2.38815689087,1.8133174181,0.579268574715,0.0,20.3999996185,0.7987146792207357,0.6064606749498327,0.19373530926923077,20.3999996185,0.0,1.2820627238423135,3.054008100160683
1648638647455902292,53378,2,6,3.80660390854,-1.12889230251,0.588450074196,0.0,20.3999996185,1.27311167509699,-0.3775559540167224,0.19680604488160536,20.3999996185,0.0,1.8396127779916092,4.013839139402527
1648638647455911861,53379,2,7,1.63379824162,0.212689861655,0.425009280443,-0.365145087242,20.3999996185,0.5464208165953177,0.07113373299498328,0.14214357205451505,20.3999996185,-0.04934393070837838,0.7760228254292455,1.7015188979362244
1648638647456031831,53380,2,8,1.46912682056,0.381751030684,0.166355028749,-0.243430063128,20.3999996185,0.491346762729097,0.12767592999464883,0.055637133360869555,20.3999996185,-0.03289595447675676,0.7065015396931033,1.5270040798593538
1648638647456038476,53381,2,9,1.37751960754,0.463554829359,0.29657959938,-0.121715031564,20.3999996185,0.46070889884280936,0.1550350599862876,0.09919050146488294,20.3999996185,-0.01644797723837838,0.6697322216907737,1.4833754776682835
1648638647456126286,53382,2,10,1.45883452892,0.539905011654,-0.217236682773,-0.121715031564,20.3999996185,0.487904524722408,0.1805702380113712,-0.0726544089541806,20.3999996185,-0.01644797723837838,0.7132371704732451,1.5706327962705227
1648638647555893581,53383,3,0,0.0271869059652,0.081803791225,0.0135226445273,0.0,14.1999998093,0.00909261069070234,0.0273591275,0.004522623587725752,14.1999998093,0.0,0.030230332381675946,0.08725737808206095
1648638647555896834,53384,3,1,0.0696437135339,0.0272679310292,-0.0449451059103,0.0,14.1999998093,0.02329221188424749,0.00911970937431438,-0.015031807996755853,14.1999998093,0.0,0.03417928273081982,0.08725737471809027
1648638647556043151,53385,3,2,0.212682873011,-0.081803791225,-0.128836259246,0.0,14.1999998093,0.07113139565585284,-0.0273591275,-0.043089049915050165,14.1999998093,0.0,0.1042490899406811,0.2617721269109816
1648638647556049894,53386,3,3,0.259207189083,1.01436698437,0.0162979718298,0.0,14.1999998093,0.08669136758628762,0.3392531720301003,0.005450826698929765,14.1999998093,0.0,0.36072635218465327,1.0470885204881022
1648638647556059737,53387,3,4,1.16822969913,0.676244676113,-0.0846164226532,0.0,14.1999998093,0.39071227395652175,0.22616878799765885,-0.02829980690742475,14.1999998093,0.0,0.5970464661187453,1.3524893459407255
1648638647556244665,53388,3,5,3.85038948059,-1.00345981121,0.527705967426,0.0,14.1999998093,1.2877556791270903,-0.3356052880301003,0.17649029010903008,14.1999998093,0.0,1.851826203400825,4.013839101534683
1648638647556367790,53389,3,6,1.56448149681,0.25904533267,0.483624875546,-0.365145087242,14.1999998093,0.5232379587993311,0.08663723500668896,0.1617474500153846,14.1999998093,-0.04934393070837838,0.7450247872028052,1.6578901828787855
1648638647556372993,53390,3,7,1.47446870804,0.334032148123,0.214723214507,-0.243430063128,14.1999998093,0.49313334717056856,0.11171643749933109,0.0718137841160535,14.1999998093,-0.03289595447675676,0.70628716439621,1.5270040948920314
1648638647655907773,53391,4,0,0.0272363312542,0.081803791225,0.0134228169918,0.0,36.0,0.009109140887692307,0.0273591275,0.0044892364521070234,36.0,0.0,0.030240283612838554,0.0872573779973204
1648638647655913652,53392,4,1,0.0696437135339,0.0272679310292,-0.0449451059103,0.0,36.0,0.02329221188424749,0.00911970937431438,-0.015031807996755853,36.0,0.0,0.03417928273081982,0.08725737471809027
1648638647655917791,53393,4,2,0.211887896061,-0.081803791225,-0.130139559507,0.0,36.0,0.07086551707725752,-0.0273591275,-0.04352493628996656,36.0,0.0,0.10388630746549524,0.2617721255302339
1648638647655922449,53394,4,3,0.259680896997,1.01436698437,0.00445092702284,0.0,36.0,0.08684979832675584,0.3392531720301003,0.001488604355464883,36.0,0.0,0.36080256328258137,1.0470885148813434
1648638647655925918,53395,4,4,1.16884613037,0.676244676113,-0.0756261199713,0.0,36.0,0.39091843825083605,0.22616878799765885,-0.025293016712809365,36.0,0.0,0.5973163076572373,1.3524893524438604
1648638647655935907,53396,4,5,3.83741545677,-1.00345981121,0.614992260933,0.0,36.0,1.2834165407257525,-0.3356052880301003,0.20568303041237457,36.0,0.0,1.8457916847170703,4.013839117550478
1648638647656116965,53397,4,6,1.56411504745,0.25904533267,0.484809011221,-0.365145087242,36.0,0.5231154004849499,0.08663723500668896,0.16214348201371237,36.0,-0.04934393070837838,0.7448526397473954,1.6578902688051191
1648638647656127705,53398,4,7,1.28837311268,0.494912952185,0.40991050005,-0.243430063128,36.0,0.4308940176187291,0.16552272648327757,0.1370938127257525,36.0,-0.03289595447675676,0.6314563182213613,1.4397467575127456
1648638647656133811,53399,4,8,1.42944765091,0.370843857527,-0.139846682549,-0.121715031564,36.0,0.47807613742809363,0.12402804599565216,-0.0467714657354515,36.0,-0.01644797723837838,0.6873838393138367,1.483375491228564
1648638647755860915,53400,5,0,0.0271890312433,0.081803791225,0.0135183688253,0.0,22.8999996185,0.009093321486053511,0.0273591275,0.004521193587056856,22.8999996185,0.0,0.030230759978186143,0.08725737776503127
1648638647755866373,53401,5,1,0.0697196349502,0.0272679310292,-0.0448272526264,0.0,22.8999996185,0.02331760366227425,0.00911970937431438,-0.014992392182742474,22.8999996185,0.0,0.03421389162567989,0.08725737870365717
1648638647755871959,53402,5,2,0.212974220514,-0.081803791225,-0.128354072571,0.0,22.8999996185,0.07122883629230768,-0.0273591275,-0.042927783468561874,22.8999996185,0.0,0.10438206788847398,0.26177212763755203
1648638647755998822,53403,5,3,0.259007006884,1.01436698437,0.019218698144,0.0,22.8999996185,0.0866244170180602,0.3392531720301003,0.0064276582421404676,22.8999996185,0.0,0.36069418345729176,1.0470885191583597
1648638647756004360,53404,5,4,1.1857676506,0.633979380131,-0.145783051848,0.0,22.8999996185,0.3965778095652173,0.21203323750200667,-0.0487568735277592,22.8999996185,0.0,0.5995882019225144,1.35248936182391
1648638647756016330,53405,5,5,2.45903325081,1.71787965298,0.57359457016,0.0,22.8999996185,0.8224191474280936,0.5745416899598662,0.19183764888294313,22.8999996185,0.0,1.297245027592954,3.0540081469486813
1648638647756021587,53406,5,6,3.81642007828,-1.12889230251,0.52100366354,0.0,22.8999996185,1.2763946750100335,-0.3775559540167224,0.17424871690301003,22.8999996185,0.0,1.8441570516638262,4.013839167429003
1648638647756024811,53407,5,7,1.3827098608,0.35993668437,0.177284508944,-0.365145087242,22.8999996185,0.4624447694983277,0.12038016199665551,0.0592924779076923,22.8999996185,-0.04934393070837838,0.6649824908033773,1.4397467739225323
1648638647756027291,53408,5,8,1.64831471443,-2.55227828026,0.797799646854,-0.365145087242,22.8999996185,0.5512758242240803,-0.8536047760066888,0.2668226243658863,22.8999996185,-0.04934393070837838,1.1560498182904175,3.1412656834807464
1648638647756030329,53409,5,9,3.12047147751,0.29449364543,-0.208520546556,-0.365145087242,22.8999996185,1.0436359456555184,0.09849285800334448,-0.06973931322943143,22.8999996185,-0.04934393070837838,1.4792068202946618,3.1412655996410277
1648638647756032281,53410,5,10,1.43645501137,0.47855219245,0.776370644569,-0.243430063128,22.8999996185,0.48041973624414713,0.16005090048494983,0.2596557339695652,22.8999996185,-0.03289595447675676,0.6980132783062476,1.7015189033146747
1648638647855797894,53411,6,0,0.0272205770016,0.081803791225,0.013454740867,0.0,17.3999996185,0.009103871906889632,0.0273591275,0.0044999133334448155,17.3999996185,0.0,0.03023711006289068,0.0872573786156881
1648638647855858524,53412,6,1,0.0696649476886,0.0272679310292,-0.0449121892452,0.0,17.3999996185,0.023299313608227422,0.00911970937431438,-0.015020799078662205,17.3999996185,0.0,0.03418896208282756,0.08725737643239821
1648638647855978076,53413,6,2,0.213287591934,-0.081803791225,-0.127832651138,0.0,17.3999996185,0.07133364278729096,-0.0273591275,-0.04275339502943143,17.3999996185,0.0,0.10452511202658867,0.2617721219472339
1648638647855987121,53414,6,3,0.259449660778,1.01436698437,0.0118255754933,0.0,17.3999996185,0.08677246179866221,0.3392531720301003,0.003955041971003344,17.3999996185,0.0,0.36076534615409694,1.047088510916558
1648638647856017905,53415,6,4,1.18755495548,0.633979380131,-0.130425214767,0.0,17.3999996185,0.3971755703946488,0.21203323750200667,-0.04362047316622073,17.3999996185,0.0,0.6003790146584169,1.3524893209794338
1648638647856089748,53416,6,5,2.38277864456,1.8133174181,0.601009488106,0.0,17.3999996185,0.7969159346354515,0.6064606749498327,0.20100651776120398,17.3999996185,0.0,1.279822082952313,3.054008273163234
1648638647856092496,53417,6,6,3.8312420845,-1.00345981121,0.65234798193,0.0,17.3999996185,1.2813518677257525,-0.3356052880301003,0.21817658258528427,17.3999996185,0.0,1.8429205428347462,4.013839233487766
1648638647856094398,53418,6,7,1.38167190552,0.35993668437,0.185199856758,-0.365145087242,17.3999996185,0.462097627264214,0.12038016199665551,0.06193975142408026,17.3999996185,-0.04934393070837838,0.6644996746792085,1.4397467340479437
1648638647856098646,53419,6,8,1.58885896206,0.6544303298,0.304611384869,-0.365145087242,17.3999996185,0.5313909572107023,0.21887302,0.10187671734749164,17.3999996185,-0.04934393070837838,0.7827247905199715,1.745147544957826
1648638647856100658,53420,6,9,3.08331608772,0.588987290859,0.117497600615,-0.365145087242,17.3999996185,1.0312093938862876,0.1969857160063545,0.03929685639297659,17.3999996185,-0.04934393070837838,1.4715940338249491,3.141265638518442
1648638647856230404,53421,6,10,2.07768893242,-2.35594916344,0.0162002369761,-0.365145087242,17.3999996185,0.6948792416120401,-0.7879428640267558,0.005418139456889632,17.3999996185,-0.04934393070837838,1.259590519898167,3.141265701638796
1648638647856237215,53422,6,11,2.79817247391,-3.17398691177,-0.0755990818143,-0.365145087242,17.3999996185,0.9358436367591972,-1.0615340842040133,-0.025283973850936454,17.3999996185,-0.04934393070837838,1.6966028518342806,4.231982671397183
1648638647856245589,53423,6,12,4.00218963623,1.32249462605,0.378367483616,-0.365145087242,17.3999996185,1.3385249619498325,0.44230589499999995,0.12654430890167223,17.3999996185,-0.04934393070837838,1.9439476979274295,4.231982499129202
1648638647856374498,53424,6,13,1.44647789001,0.19632910192,0.579693078995,-0.243430063128,17.3999996185,0.48377186956856183,0.06566190699665551,0.19387728394481604,17.3999996185,-0.03289595447675676,0.6873004653004104,1.5706328241773118
1648638647955780789,53425,7,0,0.0272321514785,0.081803791225,0.0134312948212,0.0,28.3999996185,0.009107742969397993,0.0273591275,0.004492071846555184,28.3999996185,0.0,0.03023944148879892,0.08725737798894344
1648638647955785825,53426,7,1,0.0697543472052,0.0272679310292,-0.0447732210159,0.0,28.3999996185,0.023329213112107023,0.00911970937431438,-0.014974321409999998,28.3999996185,0.0,0.03422971615325155,0.08725737984133738
1648638647955791953,53427,7,2,0.213696599007,-0.081803791225,-0.127147749066,0.0,28.3999996185,0.07147043445050166,-0.0273591275,-0.04252433079130434,28.3999996185,0.0,0.10471183246724396,0.2617721275813994
1648638647955803982,53428,7,3,0.362379789352,0.981645464897,0.0380444526672,0.0,28.3999996185,0.12119725396387959,0.32830952003244146,0.012723897213110368,28.3999996185,0.0,0.37035751603106737,1.0470884923741612
1648638647955936261,53429,7,4,1.18987548351,0.633979380131,-0.107208997011,0.0,28.3999996185,0.3979516667257525,0.21203323750200667,-0.03585585184314381,28.3999996185,0.0,0.6014059792728961,1.352489293757828
1648638647955947178,53430,7,5,2.4586622715,1.71787965298,0.575183391571,0.0,28.3999996185,0.8222950740802676,0.5745416899598662,0.19236902728127087,28.3999996185,0.0,1.2970877114579742,3.054008284428735
1648638647955949341,53431,7,6,3.83362531662,-1.00345981121,0.63819205761,0.0,28.3999996185,1.2821489353244147,-0.3356052880301003,0.21344215973578592,28.3999996185,0.0,1.8440289298329424,4.013839030571591
1648638647955951170,53432,7,7,1.57938468456,-2.48138165474,0.821739554405,-0.365145087242,28.3999996185,0.5282223025284281,-0.8298935300133778,0.274829282409699,28.3999996185,-0.04934393070837838,1.1165844674429848,3.0540083158984093
1648638647955953399,53433,7,8,3.02993345261,0.286313265562,-0.253956496716,-0.365145087242,28.3999996185,1.0133556697692307,0.09575694500401337,-0.08493528318260869,28.3999996185,-0.04934393070837838,1.4362969120009255,3.0540081721413572
1648638647955956458,53434,7,9,1.34533119202,0.349029511213,0.131938993931,-0.243430063128,28.3999996185,0.4499435424816053,0.11673227799765887,0.044126753823076924,28.3999996185,-0.03289595447675676,0.6469349330251961,1.3961180157991888
1648638647955963481,53435,7,10,1.45409333706,0.190875515342,0.425347715616,-0.243430063128,28.3999996185,0.4863188418260869,0.06383796499732441,0.14225676107558527,28.3999996185,-0.03289595447675676,0.690715077007251,1.527004117354996
1648638647956168615,53436,7,11,1.47828650475,0.691242039204,0.481684803963,-0.243430063128,28.3999996185,0.4944102022575251,0.23118462849632104,0.1610985966431438,28.3999996185,-0.03289595447675676,0.736430056859194,1.7015189676456006
1648638648055731545,53437,8,0,0.0271869059652,0.081803791225,0.0135226445273,0.0,21.5,0.00909261069070234,0.0273591275,0.004522623587725752,21.5,0.0,0.030230332381675946,0.08725737808206095
1648638648055740020,53438,8,1,0.0697446167469,0.0272679310292,-0.0447883680463,0.0,21.5,0.02332595877822742,0.00911970937431438,-0.014979387306454848,21.5,0.0,0.03422528020219977,0.0872573752758814
1648638648055743371,53439,8,2,0.211953312159,-0.081803791225,-0.130032986403,0.0,21.5,0.07088739537090301,-0.0273591275,-0.04348929311137124,21.5,0.0,0.1039161561187802,0.2617721229367953
1648638648055752287,53440,8,3,0.258973300457,1.01436698437,0.0196673106402,0.0,21.5,0.08661314396555184,0.3392531720301003,0.0065776958662876256,21.5,0.0,0.36068876909002817,1.0470885122267828
1648638648055822837,53441,8,4,2.45810031891,1.71787965298,0.577579677105,0.0,21.5,0.8221071300702341,0.5745416899598662,0.1931704605702341,21.5,0.0,1.296849420760395,3.0540081799747765
1648638648055828688,53442,8,5,3.81441450119,-1.12889230251,0.535489737988,0.0,21.5,1.2757239134414715,-0.3775559540167224,0.1790935578555184,21.5,0.0,1.8432285547555745,4.0138391942185905
1648638648055836207,53443,8,6,1.34925603867,0.261772125959,0.2452121526,-0.121715031564,21.5,0.45125620022408025,0.08754920600635452,0.08201075337792642,21.5,-0.01644797723837838,0.6441499669748447,1.3961180120603276
1648638648155660474,53444,9,0,0.0271719805896,0.081803791225,0.0135526116937,0.0,31.7999992371,0.009087618926287625,0.0273591275,0.004532646051404682,31.7999992371,0.0,0.0302273302337487,0.08725737832220952
1648638648155675669,53445,9,1,0.069647103548,0.0272679310292,-0.044939853251,0.0,31.7999992371,0.02329334566822742,0.00911970937431438,-0.015030051254515049,31.7999992371,0.0,0.034180828016755475,0.0872573750777575
1648638648155693365,53446,9,2,0.212974220514,-0.081803791225,-0.128354072571,0.0,31.7999992371,0.07122883629230768,-0.0273591275,-0.042927783468561874,31.7999992371,0.0,0.10438206788847398,0.26177212763755203
1648638648155711530,53447,9,3,0.362609356642,0.981645464897,0.0357901565731,0.0,31.7999992371,0.12127403232173913,0.32830952003244146,0.011969952031137123,31.7999992371,0.0,0.3704077790423421,1.047088486988898
1648638648155717605,53448,9,4,2.46797513962,1.71787965298,0.533811271191,0.0,31.7999992371,0.8254097456923076,0.5745416899598662,0.17853219772274248,31.7999992371,0.0,1.3010382969265812,3.0540082293857025
1648638648155796685,53449,9,5,3.79531264305,-1.12889230251,0.657350122929,0.0,31.7999992371,1.2693353321237457,-0.3775559540167224,0.2198495394411371,31.7999992371,0.0,1.8343862377288151,4.013839193749082
1648638648155806699,53450,9,6,1.30403673649,0.338122338057,0.119953766465,-0.121715031564,31.7999992371,0.43613268778929765,0.11308439399899664,0.04011831654347826,31.7999992371,-0.01644797723837838,0.6270658042683832,1.3524893462418703
1648638648255751255,53451,10,0,0.0271593257785,0.081803791225,0.0135779511184,0.0,28.7999992371,0.00908338654799331,0.0273591275,0.004541120775384615,28.7999992371,0.0,0.030224785854026954,0.08725737786628557
1648638648255758270,53452,10,1,0.0696717426181,0.0272679310292,-0.0449016466737,0.0,28.7999992371,0.023301586159899662,0.00911970937431438,-0.015017273135016721,28.7999992371,0.0,0.034192059519812676,0.08725737594075227
1648638648255789241,53453,10,2,0.212385430932,-0.081803791225,-0.12932600081,0.0,28.7999992371,0.07103191669966555,-0.0273591275,-0.043252843080267556,28.7999992371,0.0,0.10411334322562939,0.2617721261258785
1648638648255794247,53454,10,3,0.258252501488,1.01436698437,0.027561346069,0.0,28.7999992371,0.08637207407625418,0.3392531720301003,0.00921784149464883,28.7999992371,0.0,0.3605731341807827,1.0470885164597272
1648638648255802764,53455,10,4,1.22088456154,0.3272151649,0.339834034443,0.0,28.7999992371,0.40832259583277586,0.10943651,0.11365686770668895,28.7999992371,0.0,0.5877338124152914,1.3088605913973643
1648638648255805958,53456,10,5,2.38022875786,1.8133174181,0.611029684544,0.0,28.7999992371,0.7960631297190635,0.6064606749498327,0.2043577540280936,28.7999992371,0.0,1.2787601664334198,3.054008230821022
1648638648255937293,53457,10,6,3.8148419857,-1.00345981121,0.74226307869,0.0,28.7999992371,1.2758668848494983,-0.3356052880301003,0.2482485213010033,28.7999992371,0.0,1.835293852511061,4.013839240248603
1648638648255942213,53458,10,7,1.31593894958,0.39265820384,-0.251534551382,-0.121715031564,28.7999992371,0.44011336106354515,0.13132381399331103,-0.08412526802073578,28.7999992371,-0.01644797723837838,0.6361175090304076,1.3961179801877464
1648638648355751661,53459,11,0,0.0271869059652,0.081803791225,0.0135226445273,0.0,23.7000007629,0.00909261069070234,0.0273591275,0.004522623587725752,23.7000007629,0.0,0.030230332381675946,0.08725737808206095
1648638648355763940,53460,11,1,0.0697446167469,0.0272679310292,-0.0447883680463,0.0,23.7000007629,0.02332595877822742,0.00911970937431438,-0.014979387306454848,23.7000007629,0.0,0.03422528020219977,0.0872573752758814
1648638648355773084,53461,11,2,0.213001742959,-0.081803791225,-0.128308385611,0.0,23.7000007629,0.07123804112341137,-0.0273591275,-0.04291250354882943,23.7000007629,0.0,0.104394630435492,0.2617721233830225
1648638648355778049,53462,11,3,0.258830040693,1.01436698437,0.0214707478881,0.0,23.7000007629,0.08656523100100333,0.3392531720301003,0.007180852136488294,23.7000007629,0.0,0.3606657637883016,1.0470885167739652
1648638648355790760,53463,11,4,1.28674960136,0.380387634039,0.16972926259,0.0,23.7000007629,0.4303510372441471,0.12721994449464882,0.05676563966220736,23.7000007629,0.0,0.6217627721176687,1.3524893017356006
1648638648355799052,53464,11,5,1.38340973854,0.0463554821908,0.533321082592,0.0,23.7000007629,0.4626788423210702,0.015503505749431436,0.1783682550474916,23.7000007629,0.0,0.6545103367813637,1.4833754455813117
1648638648355804041,53465,11,6,1.64081001282,-2.1132645607,0.398453682661,0.0,23.7000007629,0.5487658905752508,-0.7067774450501672,0.1332621012244147,23.7000007629,0.0,1.0496772657104365,2.7049787316921816
1648638648355809234,53466,11,7,2.37616300583,1.8133174181,0.62665361166,0.0,23.7000007629,0.7947033464314381,0.6064606749498327,0.20958314771237457,23.7000007629,0.0,1.2770674876134227,3.0540080939752654
1648638648355817531,53467,11,8,3.82951140404,-1.00345981121,0.662431716919,0.0,23.7000007629,1.2807730448294312,-0.3356052880301003,0.22154906920367892,23.7000007629,0.0,1.842115657084829,4.01383918038158
1648638648455702937,53468,12,0,0.027177369222,0.081803791225,0.0135418046266,0.0,16.5,0.009089421144481606,0.0273591275,0.004529031647692307,16.5,0.0,0.030228413968396605,0.08725737865164931
1648638648455720602,53469,12,1,0.0696649476886,0.0272679310292,-0.0449121892452,0.0,16.5,0.023299313608227422,0.00911970937431438,-0.015020799078662205,16.5,0.0,0.03418896208282756,0.08725737643239821
1648638648455728005,53470,12,2,0.21313354373,-0.081803791225,-0.12808932364,0.0,16.5,0.07128212164882942,-0.0273591275,-0.042839238675585284,16.5,0.0,0.10445479209245638,0.2617721195090185
1648638648455743077,53471,12,3,0.25892239809,1.01436698437,0.0203267484903,0.0,16.5,0.0865961197625418,0.3392531720301003,0.006798243642240802,16.5,0.0,0.36068059366750216,1.0470885177083895
1648638648455767300,53472,12,4,1.23491919041,0.368117064238,0.229304358363,0.0,16.5,0.41301645164214046,0.12311607499598662,0.07669042085719063,16.5,0.0,0.5969277565807662,1.3088605993727374
1648638648455774412,53473,12,5,0.771110475063,0.818037927151,-0.670312404633,0.0,16.5,0.2578964799541806,0.273591279983612,-0.22418475071337793,16.5,0.0,0.4559313295098126,1.30886062467104
1648638648455781978,53474,12,6,2.46249461174,1.71787965298,0.558548092842,0.0,16.5,0.8235767932240802,0.5745416899598662,0.18680538222140466,16.5,0.0,1.2987130638352944,3.0540082165882683
1648638648455789637,53475,12,7,3.82222700119,-1.00345981121,0.703245043755,0.0,16.5,1.2783367896956521,-0.3356052880301003,0.23519901128929763,16.5,0.0,1.838728040013677,4.013839113978721
1648638648455793089,53476,12,8,1.33976304531,0.39265820384,0.000279575790046,0.121715031564,16.5,0.44808128605685615,0.13132381399331103,9.350360871103678e-05,16.5,0.01644797723837838,0.6471472954053675,1.3961180325401583
1648638648455818741,53477,12,9,1.46825480461,0.569899737835,0.517727851868,-0.121715031564,16.5,0.49105511859866213,0.1906019190083612,0.17315312771505015,16.5,-0.01644797723837838,0.7201384245640293,1.6578902288886934
1648638648555867511,53478,13,0,0.0271826926619,0.081803791225,0.0135311111808,0.0,14.8999996185,0.00909120155916388,0.0273591275,0.004525455244414715,14.8999996185,0.0,0.030229484764711816,0.0872573779626793
1648638648555888754,53479,13,1,0.0697686746716,0.0272679310292,-0.04475088045,0.0,14.8999996185,0.02333400490688963,0.00911970937431438,-0.014966849648829432,14.8999996185,0.0,0.03423624788234623,0.08725737406715241
1648638648555895325,53480,13,2,0.212841421366,-0.081803791225,-0.128574162722,0.0,14.8999996185,0.07118442186153846,-0.0273591275,-0.04300139221471572,14.8999996185,0.0,0.10432145363770678,0.2617721265290594
1648638648555907868,53481,13,3,0.259497582912,1.01436698437,0.0107228923589,0.0,14.8999996185,0.08678848926822741,0.3392531720301003,0.003586251625050167,14.8999996185,0.0,0.36077305674261106,1.047088513420713
1648638648555972452,53482,13,4,1.47907590866,0.621708810329,0.417627215385,0.0,14.8999996185,0.4946742169431438,0.20792936800301004,0.13967465397491638,14.8999996185,0.0,0.7298217480280758,1.6578901892011229
1648638648555982561,53483,13,5,2.38587856293,1.8133174181,0.588582456112,0.0,14.8999996185,0.7979526966321069,0.6064606749498327,0.19685031976989964,14.8999996185,0.0,1.2811134073084667,3.0540081668974963
1648638648555987846,53484,13,6,3.82033753395,-1.12889230251,0.491454511881,0.0,14.8999996185,1.2777048608528427,-0.3775559540167224,0.16436605748528427,14.8999996185,0.0,1.8459707260158387,4.013839090100859
1648638648555992772,53485,13,7,1.21377933025,0.3272151649,0.364398241043,0.121715031564,14.8999996185,0.40594626429765884,0.10943651,0.12187232141906354,14.8999996185,0.01644797723837838,0.5844322789814312,1.3088606131891605
1648638648556000321,53486,13,8,1.36311030388,0.261772125959,0.15017041564,0.121715031564,14.8999996185,0.45588973373913044,0.08754920600635452,0.05022421927759197,14.8999996185,0.01644797723837838,0.6506425763272902,1.396118010845219
1648638648655698484,53487,14,0,0.0271120332181,0.081803791225,0.0136721404269,0.0,25.3999996185,0.009067569638160534,0.0273591275,0.004572622216354515,25.3999996185,0.0,0.03021528579787121,0.08725737807117298
1648638648655717148,53488,14,1,0.0697720870376,0.0272679310292,-0.0447455607355,0.0,25.3999996185,0.023335146166421405,0.00911970937431438,-0.014965070480100333,25.3999996185,0.0,0.03423780355525834,0.08725737446044292
1648638648655740893,53489,14,2,0.212933629751,-0.081803791225,-0.128421381116,0.0,25.3999996185,0.07121526078628762,-0.0273591275,-0.04295029468762541,25.3999996185,0.0,0.10436354054591655,0.26177211857923344
1648638648655780423,53490,14,3,0.363816708326,0.981645464897,0.0200967006385,0.0,25.3999996185,0.1216778288715719,0.32830952003244146,0.006721304561371238,25.3999996185,0.0,0.370672536103946,1.0470884840291992
1648638648655840156,53491,14,4,2.45651507378,1.71787965298,0.5842846632,0.0,25.3999996185,0.8215769477525082,0.5745416899598662,0.1954129308361204,25.3999996185,0.0,1.2961772701519627,3.05400808405639
1648638648655846112,53492,14,5,3.80241394043,-1.12889230251,0.614943087101,0.0,25.3999996185,1.2717103479698997,-0.3775559540167224,0.2056665843147157,25.3999996185,0.0,1.8376732344682294,4.013839135468191
1648638648655850294,53493,14,6,1.22625780106,0.507183492184,0.261312544346,0.121715031564,25.3999996185,0.4101196659063545,0.16962658601471572,0.0873954997812709,25.3999996185,0.01644797723837838,0.6042925280104723,1.3524893845191706
1648638648655858057,53494,14,7,1.41414988041,0.0477188788354,0.574146687984,0.243430063128,25.3999996185,0.47295982622408017,0.015959491249297658,0.1920223036735786,25.3999996185,0.03289595447675676,0.669056574442521,1.5270040586009985
1648638648655865880,53495,14,8,1.36922931671,0.620345413685,-0.26855930686,0.243430063128,25.3999996185,0.4579362263244147,0.20747338250334446,-0.08981916617391304,25.3999996185,0.03289595447675676,0.6800414540363479,1.5270040783571177
1648638648755728083,53496,15,0,0.0272353533655,0.081803791225,0.0134248044342,0.0,20.2000007629,0.009108813834615384,0.0273591275,0.004489901148561873,20.2000007629,0.0,0.030240086582359806,0.08725737851794285
1648638648755754706,53497,15,1,0.069574482739,0.0272679310292,-0.0450522080064,0.0,20.2000007629,0.0232690577722408,0.00911970937431438,-0.015067628095785953,20.2000007629,0.0,0.03414772610713219,0.08725737881270872
1648638648755766747,53498,15,2,0.212435573339,-0.081803791225,-0.129243612289,0.0,20.2000007629,0.0710486867354515,-0.0273591275,-0.043225288390969896,20.2000007629,0.0,0.10413622631546575,0.2617721230310103
1648638648755772003,53499,15,3,0.258927226067,1.01436698437,0.0202650856227,0.0,20.2000007629,0.08659773447056857,0.3392531720301003,0.006777620609598662,20.2000007629,0.0,0.3606813690272274,1.0470885163509027
1648638648755774805,53500,15,4,2.38833546638,1.8133174181,0.57853281498,0.0,20.2000007629,0.7987744034715719,0.6064606749498327,0.1934892357792642,20.2000007629,0.0,1.2821371399126296,3.054008280401693
1648638648755779360,53501,15,5,3.81606030464,-1.12889230251,0.523632347584,0.0,20.2000007629,1.2762743493779263,-0.3775559540167224,0.17512787544615382,20.2000007629,0.0,1.8439904902611552,4.013839174001842
1648638648755784411,53502,15,6,1.24134075642,0.3272151649,0.255185365677,0.121715031564,20.2000007629,0.4151641325819398,0.10943651,0.08534627614615384,20.2000007629,0.01644797723837838,0.597242717566325,1.3088606528372746
1648638648755826085,53503,15,7,1.43813586235,0.569899737835,0.596304893494,0.121715031564,20.2000007629,0.4809818937625418,0.1906019190083612,0.19943307474715716,20.2000007629,0.01644797723837838,0.706410826491548,1.6578902242809899
1648638648755831029,53504,15,8,1.41716587543,0.134976252913,0.215158566833,0.243430063128,20.2000007629,0.47396852021070235,0.04514255950267558,0.07195938690066889,20.2000007629,0.03289595447675676,0.6718111095984485,1.4397468236517639
1648638648755836678,53505,15,9,1.44776976109,0.143156632781,0.463908076286,0.243430063128,20.2000007629,0.48420393347491636,0.047878472502006685,0.15515320277123745,20.2000007629,0.03289595447675676,0.686439543233261,1.5270041931439373
1648638648755851746,53506,15,10,3.44108080864,0.572626531124,1.12334060669,0.365145087242,20.2000007629,1.1508631467023411,0.19151389000802674,0.37569919956187287,20.2000007629,0.04934393070837838,1.638795147338811,3.6648100079507917
1648638648855824208,53507,16,0,0.0272006709129,0.081803791225,0.0134949339554,0.0,11.8000001907,0.009097214352140467,0.0273591275,0.004513355837926421,11.8000001907,0.0,0.030233102313504602,0.0872573779078645
1648638648855832587,53508,16,1,0.0697720870376,0.0272679310292,-0.0447455607355,0.0,11.8000001907,0.023335146166421405,0.00911970937431438,-0.014965070480100333,11.8000001907,0.0,0.03423780355525834,0.08725737446044292
1648638648855835359,53509,16,2,0.212618291378,-0.081803791225,-0.12894281745,0.0,11.8000001907,0.07110979644749163,-0.0273591275,-0.04312468811036789,11.8000001907,0.0,0.10421961504039746,0.26177213040968955
1648638648855841333,53510,16,3,0.259113907814,1.01436698437,0.0177192036062,0.0,11.8000001907,0.0866601698374582,0.3392531720301003,0.005926155052240802,11.8000001907,0.0,0.36071135940665777,1.0470885188841332
1648638648855848041,53511,16,4,1.18446671963,0.633979380131,-0.156000182033,0.0,11.8000001907,0.3961427155953177,0.21203323750200667,-0.05217397392408027,11.8000001907,0.0,0.5990126843765897,1.3524893053686855
1648638648855868132,53512,16,5,0.825649738312,0.97210174799,0.45005351305,0.0,11.8000001907,0.2761370362247491,0.3251176414682274,0.1505195695819398,11.8000001907,0.0,0.5081385700218393,1.3524893579723776
1648638648855882106,53513,16,6,1.64317166805,-2.1132645607,0.38859936595,0.0,11.8000001907,0.5495557418227424,-0.7067774450501672,0.1299663431270903,11.8000001907,0.0,1.0505033953168983,2.7049786877921096
1648638648855887747,53514,16,7,2.38132429123,1.8133174181,0.60674571991,0.0,11.8000001907,0.7964295288394648,0.6064606749498327,0.20292498993645486,11.8000001907,0.0,1.279216376957202,3.0540081544449116
1648638648856006432,53515,16,8,3.82318115234,-1.12889230251,0.468820571899,0.0,11.8000001907,1.2786559037926422,-0.3775559540167224,0.15679617789264214,11.8000001907,0.0,1.8472872919557028,4.013839145121519
1648638648856009682,53516,16,9,2.64116358757,-3.30623650551,-0.0522688664496,0.243430063128,11.8000001907,0.8833323035351169,-1.1057647175618728,-0.017481226237324413,11.8000001907,0.03289595447675676,1.668312778690495,4.2319826276903045
1648638648856011797,53517,16,10,1.3795106411,0.404928773642,0.0765110552311,0.365145087242,11.8000001907,0.461374796354515,0.13542768349230766,0.025588981682642137,11.8000001907,0.04934393070837838,0.6663888225941617,1.4397468048945006
1648638648955936299,53518,17,0,0.0271752309054,0.081803791225,0.0135460905731,0.0,39.4000015259,0.009088705988428094,0.0273591275,0.004530465074615384,39.4000015259,0.0,0.0302279838998474,0.0872573779308078
1648638648955949589,53519,17,1,0.069647103548,0.0272679310292,-0.044939853251,0.0,39.4000015259,0.02329334566822742,0.00911970937431438,-0.015030051254515049,39.4000015259,0.0,0.034180828016755475,0.0872573750777575
1648638648955958835,53520,17,2,0.212618291378,-0.081803791225,-0.12894281745,0.0,39.4000015259,0.07110979644749163,-0.0273591275,-0.04312468811036789,39.4000015259,0.0,0.10421961504039746,0.26177213040968955
1648638648955962439,53521,17,3,0.258638262749,1.01436698437,0.0236692503095,0.0,39.4000015259,0.08650109122040132,0.3392531720301003,0.007916137227257525,39.4000015259,0.0,0.36063498484912027,1.0470885174367648
1648638648955966327,53522,17,4,1.18631005287,0.633979380131,-0.141301095486,0.0,39.4000015259,0.3967592150066889,0.21203323750200667,-0.04725789146688963,39.4000015259,0.0,0.5998281780568752,1.3524893328811332
1648638648955974613,53523,17,5,1.64093184471,-2.1132645607,0.397951304913,0.0,39.4000015259,0.5488066370267558,-0.7067774450501672,0.13309408191070235,39.4000015259,0.0,1.0497198704992092,2.704978680798776
1648638648956052239,53524,17,6,2.37969875336,1.8133174181,0.613090336323,0.0,39.4000015259,0.7958858706889632,0.6064606749498327,0.2050469352250836,39.4000015259,0.0,1.2785394747856886,3.054008182048738
1648638648956131490,53525,17,7,3.83542752266,-1.00345981121,0.627270638943,0.0,39.4000015259,1.2827516798193979,-0.3356052880301003,0.20978951135217389,39.4000015259,0.0,1.844867109987259,4.013839101006839
1648638648956133913,53526,17,8,1.5215126276,0.638069570065,0.41597238183,0.243430063128,39.4000015259,0.5088670995317726,0.2134011940016722,0.13912119793645483,39.4000015259,0.03289595447675676,0.7506207561565942,1.7015188728411192
1648638648956135791,53527,17,9,1.80097985268,-2.48819875717,0.84195625782,0.243430063128,39.4000015259,0.602334398889632,-0.8321734973812709,0.2815907216789298,39.4000015259,0.03289595447675676,1.1908510343091805,3.18489431928657
1648638648956208648,53528,17,10,2.99988651276,0.796223580837,0.714324951172,0.243430063128,39.4000015259,1.003306526006689,0.2662955119856187,0.23890466594381268,39.4000015259,0.03289595447675676,1.443662450145083,3.1848942236732336
1648638648956216358,53529,17,11,1.39925551414,0.314944595098,0.125557303429,0.365145087242,39.4000015259,0.46797843282274243,0.10533264050100333,0.0419924091735786,39.4000015259,0.04934393070837838,0.6701511712512138,1.4397467583839183
1648638648956222704,53530,17,12,1.53149032593,0.201782688498,0.468680351973,0.365145087242,39.4000015259,0.5122041223846153,0.06748584899598661,0.15674928159632107,39.4000015259,0.04934393070837838,0.7275028974446061,1.6142614856708295
1648638648956225092,53531,17,13,2.79278349876,-3.17398691177,0.189325630665,0.365145087242,39.4000015259,0.9340413039331102,-1.0615340842040133,0.0633196089180602,39.4000015259,0.04934393070837838,1.6946152739878697,4.231982606469468
1648638648956227234,53532,17,14,4.58284425735,0.605348050594,1.44348716736,0.852005243301,39.4000015259,1.532723831889632,0.20245754200468224,0.48277162787959865,39.4000015259,0.11513584368932432,2.1770332441190354,4.842784627857904
