%time,field.header.seq,field.header.frame_id,field.point_id,field.x,field.y,field.z,field.velocity,field.intensity,normalized_x,normalized_y,normalized_z,normalized_intensity,normalized_velocity,normalized_range,range
1648638467353608722,36070,0,0,0.0271898750216,0.081803791225,0.0135166738182,0.0,18.2999992371,0.009093603686153844,0.0273591275,0.004520626695050167,18.2999992371,0.0,0.030230929750223,0.08725737810398172
1648638467353620073,36071,0,1,0.0696505606174,0.0272679310292,-0.0449345000088,0.0,18.2999992371,0.0232945018787291,0.00911970937431438,-0.015028260872508359,18.2999992371,0.0,0.03418240387433547,0.08725737761342686
1648638467353784648,36072,0,2,0.212902337313,-0.081803791225,-0.128473266959,0.0,18.2999992371,0.07120479508795986,-0.0273591275,-0.042967647812374575,18.2999992371,0.0,0.10434925751819206,0.26177212574153175
1648638467353793027,36073,0,3,1.20085501671,0.698059022427,-0.140735238791,0.0,18.2999992371,0.40162375140802675,0.23346455599565216,-0.047068641736120395,18.2999992371,0.0,0.6140919917214033,1.396118038486314
1648638467353797796,36074,0,4,1.55377757549,0.353119701147,0.258692622185,0.0,18.2999992371,0.5196580520033445,0.1181002344973244,0.08651927163377926,18.2999992371,0.0,0.7443363805512562,1.6142614875560528
1648638467353803258,36075,0,5,3.85886240005,-1.00345981121,0.461686730385,0.0,18.2999992371,1.2905894314548494,-0.3356052880301003,0.1544102777207358,18.2999992371,0.0,1.855767515212956,4.013839216043269
1648638467353806041,36076,0,6,3.09115481377,-3.19852828979,0.133421957493,-0.243430063128,18.2999992371,1.0338310413946488,-1.0697419029397992,0.04462272825852843,18.2999992371,-0.03289595447675676,1.8116183326538595,4.450126146753781
1648638467453428583,36077,1,0,0.0272326860577,0.081803791225,0.0134302126244,0.0,16.0,0.009107921758428093,0.0273591275,0.004491709907826087,16.0,0.0,0.030239549187720243,0.08725737825443318
1648638467453434686,36078,1,1,0.0696327388287,0.0272679310292,-0.0449621081352,0.0,16.0,0.023288541414280935,0.00911970937431438,-0.01503749435959866,16.0,0.0,0.03417428011650449,0.08725737531785248
1648638467453448636,36079,1,2,0.212493479252,-0.081803791225,-0.129148408771,0.0,16.0,0.07106805326153845,-0.0273591275,-0.04319344774949833,16.0,0.0,0.10416265283839016,0.26177213463522975
1648638467453453549,36080,1,3,1.20043623447,0.698059022427,-0.144263744354,0.0,16.0,0.40148369045819393,0.23346455599565216,-0.04824874393110368,16.0,0.0,0.6139087931558798,1.3961180393345285
1648638467453457281,36081,1,4,1.53397905827,0.302674025297,0.401418417692,0.0,16.0,0.5130364743377925,0.10122877100234112,0.13425365140200668,16.0,0.0,0.732570892187609,1.6142614605022179
1648638467453466215,36082,1,5,1.64423382282,-2.1132645607,0.384080439806,0.0,16.0,0.5499109775317725,-0.7067774450501672,0.12845499659063545,16.0,0.0,1.0508751225771507,2.704978697117115
1648638467453473444,36083,1,6,2.45671772957,1.71787965298,0.583432376385,0.0,16.0,0.8216447256086955,0.5745416899598662,0.1951278850785953,16.0,0.0,1.2962631923120846,3.0540081602249374
1648638467453489108,36084,1,7,3.83922171593,-1.00345981121,0.60361456871,0.0,16.0,1.284020640779264,-0.3356052880301003,0.2018777821772575,16.0,0.0,1.8466317773850178,4.013839249937777
1648638467453496913,36085,1,8,1.58531451225,0.466281622648,-0.13401208818,-0.243430063128,16.0,0.5302055224916388,0.15594703098595317,-0.044820096381270894,16.0,-0.03289595447675676,0.7658689630965582,1.6578901936340873
1648638467453500930,36086,1,9,1.83674609661,0.119978897274,0.545043408871,-0.121715031564,16.0,0.6142963533812709,0.04012672149632107,0.18228876550869563,16.0,-0.01644797723837838,0.869672451750139,1.9196623340465053
1648638467553536465,36087,2,0,0.0175998844206,0.0845305845141,0.0125965951011,0.0,13.8000001907,0.005886248970100334,0.028271098499698995,0.004212908060568562,13.8000001907,0.0,0.029471187018097814,0.08725737709818544
1648638467553544176,36088,2,1,0.0696860924363,0.0272679310292,-0.0448793768883,0.0,13.8000001907,0.02330638543020067,0.00911970937431438,-0.01500982504625418,13.8000001907,0.0,0.03419860088825415,0.08725737797765776
1648638467553550180,36089,2,2,0.212355300784,-0.081803791225,-0.129375457764,0.0,13.8000001907,0.0710218397270903,-0.0273591275,-0.04326938386755853,13.8000001907,0.0,0.10409959315003234,0.2617721205581126
1648638467553555681,36090,2,3,1.19999349117,0.698059022427,-0.147901594639,0.0,13.8000001907,0.40133561577591975,0.23346455599565216,-0.049465416267224074,13.8000001907,0.0,0.6137151227456599,1.396118067836264
1648638467553572127,36091,2,4,2.44802308083,1.71787965298,0.618900835514,0.0,13.8000001907,0.8187368163311036,0.5745416899598662,0.20699024599130433,13.8000001907,0.0,1.2925780836506249,3.0540081451428738
1648638467553584270,36092,2,5,3.84317207336,-1.00345981121,0.577929496765,0.0,13.8000001907,1.2853418305551838,-0.3356052880301003,0.19328745711204012,13.8000001907,0.0,1.8484691374496,4.013839269502313
1648638467553593547,36093,2,6,1.60230231285,0.414472550154,0.0971586331725,-0.121715031564,13.8000001907,0.5358870611538461,0.13861958199130434,0.03249452614464882,13.8000001907,-0.01644797723837838,0.7704318744286583,1.6578902245310356
1648638467653560289,36094,3,0,0.0272737760097,0.081803791225,0.0133465714753,0.0,20.2000007629,0.00912166421729097,0.0273591275,0.004463736279364548,20.2000007629,0.0,0.030247832546271298,0.08725737840868225
1648638467653567263,36095,3,1,0.0696572512388,0.0272679310292,-0.0449241288006,0.0,20.2000007629,0.023296739544749163,0.00911970937431438,-0.015024792241003343,20.2000007629,0.0,0.03418545371797362,0.08725737826253668
1648638467653583521,36096,3,2,0.212729543447,-0.081803791225,-0.128759175539,0.0,20.2000007629,0.07114700449732442,-0.0273591275,-0.04306326941103678,20.2000007629,0.0,0.10427039059793465,0.2617721226552504
1648638467653591773,36097,3,3,1.20042622089,0.698059022427,-0.144347265363,0.0,20.2000007629,0.4014803414347826,0.23346455599565216,-0.04827667737892976,20.2000007629,0.0,0.6139044127740297,1.3961180622031084
1648638467653597945,36098,3,4,1.43121647835,0.39265820384,0.514126777649,0.0,20.2000007629,0.4786677185117057,0.13132381399331103,0.1719487550665552,20.2000007629,0.0,0.6895589268598825,1.5706328076412945
1648638467653668668,36099,3,5,1.79079139233,0.239957794547,0.648529112339,0.0,20.2000007629,0.5989268870668896,0.08025344299230769,0.21689936867525084,20.2000007629,0.0,0.8508040004697844,1.9196623566550166
1648638467653684856,36100,3,6,2.45922255516,1.71787965298,0.572782337666,0.0,20.2000007629,0.8224824599197325,0.5745416899598662,0.19156599921939796,20.2000007629,0.0,1.2973253051001385,3.054008134283943
1648638467653689755,36101,3,7,3.8284277916,-1.12889230251,0.42384827137,0.0,20.2000007629,1.2804106326421403,-0.3775559540167224,0.1417552747056856,20.2000007629,0.0,1.8497165390349866,4.01383912773107
1648638467653692168,36102,3,8,1.63166165352,0.42537972331,0.227812975645,-0.121715031564,20.2000007629,0.5457062386354514,0.14226746598996656,0.07619163065050166,20.2000007629,-0.01644797723837838,0.7847487684925099,1.7015188545658675
1648638467753550832,36103,4,0,0.0175641980022,0.0845305845141,0.0126463053748,0.0,17.2000007629,0.0058743137131103676,0.028271098499698995,0.004229533570167224,17.2000007629,0.0,0.029466423834251684,0.08725737681931875
1648638467753556427,36104,4,1,0.0696327388287,0.0272679310292,-0.0449621081352,0.0,17.2000007629,0.023288541414280935,0.00911970937431438,-0.01503749435959866,17.2000007629,0.0,0.03417428011650449,0.08725737531785248
1648638467753566592,36105,4,2,1.19993758202,0.698059022427,-0.148354008794,0.0,17.2000007629,0.4013169170635451,0.23346455599565216,-0.04961672534916387,17.2000007629,0.0,0.6136906669886905,1.3961180148758892
1648638467753577155,36106,4,3,1.50221860409,0.454011052847,0.378224223852,0.0,17.2000007629,0.5024142488595318,0.15184316148729096,0.12649639593712372,17.2000007629,0.0,0.726564863315472,1.6142615445118544
1648638467753583596,36107,4,4,1.62811052799,-2.07917976379,0.330229043961,0.0,17.2000007629,0.5445185712341136,-0.6953778474214046,0.11044449630802675,17.2000007629,0.0,1.037569901029375,2.6613499587579823
1648638467753591998,36108,4,5,2.45973420143,1.71787965298,0.570581614971,0.0,17.2000007629,0.8226535790735785,0.5745416899598662,0.19082997156220735,17.2000007629,0.0,1.2975422828667573,3.0540082225085903
1648638467753597900,36109,4,6,3.82652950287,-1.00345981121,0.679445624352,0.0,17.2000007629,1.2797757534682275,-0.3356052880301003,0.2272393392481605,17.2000007629,0.0,1.8407288957595318,4.013839307383795
1648638467853555490,36110,5,0,0.0272429101169,0.081803791225,0.0134094608948,0.0,15.3000001907,0.009111341176220734,0.0273591275,0.004484769530033445,15.3000001907,0.0,0.030241609309364592,0.08725737820900907
1648638467853562640,36111,5,1,0.0696683451533,0.0272679310292,-0.0449069216847,0.0,15.3000001907,0.023300449884046823,0.00911970937431438,-0.015019037352742475,15.3000001907,0.0,0.034190510798610664,0.08725737787836813
1648638467853569716,36112,5,2,0.212661698461,-0.081803791225,-0.128871202469,0.0,15.3000001907,0.07112431386655518,-0.0273591275,-0.04310073661170568,15.3000001907,0.0,0.10423942585959386,0.2617721243312715
1648638467853589371,36113,5,3,1.20005857944,0.698059022427,-0.147371798754,0.0,15.3000001907,0.40135738442809366,0.23346455599565216,-0.04928822700802675,15.3000001907,0.0,0.6137435938371725,1.3961179892642597
1648638467853602124,36114,5,4,1.46593558788,0.490822762251,0.277512460947,0.0,15.3000001907,0.4902794608294314,0.16415476998361203,0.09281353208929766,15.3000001907,0.0,0.7125269734759299,1.5706327698534892
1648638467853612028,36115,5,5,1.63761782646,-2.1132645607,0.411376535892,0.0,15.3000001907,0.5476982697190635,-0.7067774450501672,0.13758412571638795,15.3000001907,0.0,1.0485614651216943,2.7049787251164545
1648638467853622731,36116,5,6,3.82676434517,-1.00345981121,0.67812114954,0.0,15.3000001907,1.2798542960434782,-0.3356052880301003,0.22679637108361203,15.3000001907,0.0,1.8408381100888966,4.013839214471781
1648638467953534518,36117,6,0,0.0175641980022,0.0845305845141,0.0126463053748,0.0,14.3000001907,0.0058743137131103676,0.028271098499698995,0.004229533570167224,14.3000001907,0.0,0.029466423834251684,0.08725737681931875
1648638467953540550,36118,6,1,0.0696678087115,0.0272679310292,-0.0449077524245,0.0,14.3000001907,0.023300270472073576,0.00911970937431438,-0.015019315192140467,14.3000001907,0.0,0.03419026626418,0.08725737711560867
1648638467953553640,36119,6,2,0.21257533133,-0.081803791225,-0.129013627768,0.0,14.3000001907,0.07109542853846154,-0.0273591275,-0.043148370490969895,14.3000001907,0.0,0.104200008520615,0.2617721297210662
1648638467953686095,36120,6,3,1.19987046719,0.698059022427,-0.148896232247,0.0,14.3000001907,0.401294470632107,0.23346455599565216,-0.049798070985618725,14.3000001907,0.0,0.6136613098656726,1.3961180554680326
1648638467953989149,36121,6,4,1.50665211678,0.454011052847,0.360158026218,0.0,14.3000001907,0.5038970290234114,0.15184316148729096,0.12045418937056857,14.3000001907,0.0,0.7286156582229735,1.6142615776119253
1648638467954079679,36122,6,5,1.64284086227,-2.1132645607,0.389995604753,0.0,14.3000001907,0.549445104438127,-0.7067774450501672,0.13043331262642138,14.3000001907,0.0,1.0503876438790065,2.704978701206584
1648638467954095908,36123,6,6,3.83136987686,-1.00345981121,0.651596784592,0.0,14.3000001907,1.281394607645485,-0.3356052880301003,0.21792534601739127,14.3000001907,0.0,1.8429799755720677,4.0138391965441835
1648638468053644078,36124,7,0,0.0271823983639,0.081803791225,0.0135317044333,0.0,14.6999998093,0.00909110313173913,0.0273591275,0.004525653656622074,14.6999998093,0.0,0.03022942556293603,0.08725737828096448
1648638468053650040,36125,7,1,0.0696783810854,0.0272679310292,-0.0448913425207,0.0,14.6999998093,0.023303806383076924,0.00911970937431438,-0.015013826929999998,14.6999998093,0.0,0.03419508565498603,0.08725737496971957
1648638468053654761,36126,7,2,0.21252015233,-0.081803791225,-0.129104495049,0.0,14.6999998093,0.07107697402341136,-0.0273591275,-0.043178760885953175,14.6999998093,0.0,0.10417482579880152,0.26177212618421974
1648638468053660417,36127,7,3,0.257079422474,1.01436698437,-0.0369345322251,0.0,14.6999998093,0.08597973995785953,0.3392531720301003,-0.012352686362909699,14.6999998093,0.0,0.3603855520119073,1.0470885197107933
1648638468053665182,36128,7,4,1.20029759407,0.698059022427,-0.145412862301,0.0,14.6999998093,0.4014373224314381,0.23346455599565216,-0.048633064314715715,14.6999998093,0.0,0.6138481461958583,1.3961180514714862
1648638468053667199,36129,7,5,1.47183418274,0.490822762251,0.244304865599,0.0,14.6999998093,0.49225223503010035,0.16415476998361203,0.08170731290936455,14.6999998093,0.0,0.7152421368268447,1.5706329019796355
1648638468053756995,36130,7,6,1.65576553345,0.372207254171,-0.122756078839,0.0,14.6999998093,0.5537677369397993,0.12448403149531771,-0.04105554476220735,14.6999998093,0.0,0.7929777342701249,1.7015189674847606
1648638468053815800,36131,7,7,1.6437035799,-2.1132645607,0.386343449354,0.0,14.6999998093,0.5497336387625418,-0.7067774450501672,0.12921185597123744,14.6999998093,0.0,1.0506895374019156,2.704978710257326
1648638468053821867,36132,7,8,3.83241009712,-1.00345981121,0.645451009274,0.0,14.6999998093,1.2817425073979931,-0.3356052880301003,0.21586990276722406,14.6999998093,0.0,1.8434637560569385,4.0138392781218535
1648638468153606647,36133,8,0,0.0272396374494,0.081803791225,0.013416107744,0.0,14.3999996185,0.009110246638595318,0.0273591275,0.004486992556521739,14.3999996185,0.0,0.030240949806402094,0.0872573782218831
1648638468153611498,36134,8,1,0.0696433186531,0.0272679310292,-0.0449457205832,0.0,14.3999996185,0.0232920798170903,0.00911970937431438,-0.015032013572976587,14.3999996185,0.0,0.034179102730811525,0.08725737616026237
1648638468153626654,36135,8,2,0.213133350015,-0.081803791225,-0.128089666367,0.0,14.3999996185,0.07128205686120401,-0.0273591275,-0.0428393533,14.3999996185,0.0,0.10445470366761422,0.26177212948938866
1648638468153633997,36136,8,3,1.19983255863,0.698059022427,-0.149201124907,0.0,14.3999996185,0.4012817921839465,0.23346455599565216,-0.04990004177491638,14.3999996185,0.0,0.6136447281472945,1.396118026247733
1648638468153639825,36137,8,4,1.50317251682,0.454011052847,0.374415278435,0.0,14.3999996185,0.5027332832173913,0.15184316148729096,0.12522250114882943,14.3999996185,0.0,0.7270060892451529,1.614261581081509
1648638468153643988,36138,8,5,1.64326703548,-2.1132645607,0.388196289539,0.0,14.3999996185,0.549587637284281,-0.7067774450501672,0.12983153496287625,14.3999996185,0.0,1.0505367670591443,2.7049787453171676
1648638468153648530,36139,8,6,3.83292675018,-1.00345981121,0.642374634743,0.0,14.3999996185,1.2819153010635451,-0.3356052880301003,0.21484101496421404,14.3999996185,0.0,1.8437040401201723,4.013839089490288
1648638468253604141,36140,9,0,0.0272015035152,0.081803791225,0.0134932585061,0.0,14.1999998093,0.00909749281444816,0.0273591275,0.004512795486989966,14.1999998093,0.0,0.030233269895582386,0.08725737835497505
1648638468253611875,36141,9,1,0.0696572512388,0.0272679310292,-0.0449241288006,0.0,14.1999998093,0.023296739544749163,0.00911970937431438,-0.015024792241003343,14.1999998093,0.0,0.03418545371797362,0.08725737826253668
1648638468253621200,36142,9,2,0.213416188955,-0.081803791225,-0.127617835999,0.0,14.1999998093,0.07137665182441472,-0.0273591275,-0.04268155050133779,14.1999998093,0.0,0.10458381666820496,0.26177211851518356
1648638468253630159,36143,9,3,1.19988811016,0.698059022427,-0.14875395596,0.0,14.1999998093,0.4013003712909699,0.23346455599565216,-0.0497504869431438,14.1999998093,0.0,0.6136690271659371,1.3961180519958993
1648638468253633535,36144,9,4,1.50371205807,0.454011052847,0.372241854668,0.0,14.1999998093,0.5029137317959866,0.15184316148729096,0.12449560356789298,14.1999998093,0.0,0.7272556558380188,1.6142614373325745
1648638468253636058,36145,9,5,3.83148026466,-1.00345981121,0.650947630405,0.0,14.1999998093,1.2814315266421403,-0.3356052880301003,0.2177082375936455,14.1999998093,0.0,1.8430313139766723,4.013839238026675
1648638468353606929,36146,10,0,0.0271931793541,0.081803791225,0.013510026969,0.0,13.3000001907,0.009094708814080267,0.0273591275,0.004518403668561872,13.3000001907,0.0,0.030231594638508153,0.08725737843226065
1648638468353631877,36147,10,1,0.0696505606174,0.0272679310292,-0.0449345000088,0.0,13.3000001907,0.0232945018787291,0.00911970937431438,-0.015028260872508359,13.3000001907,0.0,0.03418240387433547,0.08725737761342686
1648638468353637569,36148,10,2,0.213416188955,-0.081803791225,-0.127617835999,0.0,13.3000001907,0.07137665182441472,-0.0273591275,-0.04268155050133779,13.3000001907,0.0,0.10458381666820496,0.26177211851518356
1648638468353647932,36149,10,3,1.20044136047,0.698059022427,-0.144220754504,0.0,13.3000001907,0.4014854048394648,0.23346455599565216,-0.048234366054849494,13.3000001907,0.0,0.6139110354965652,1.3961180053091882
1648638468353650503,36150,10,4,1.50934052467,0.504456698895,0.270656079054,0.0,13.3000001907,0.50479616209699,0.16871461501505017,0.09052042777725752,13.3000001907,0.0,0.7335550094269534,1.6142614700227584
1648638468353654154,36151,10,5,3.82814240456,-1.00345981121,0.670297682285,0.0,13.3000001907,1.2803151854715717,-0.3356052880301003,0.22417982685117055,13.3000001907,0.0,1.8414789864812406,4.013839165335436
1648638468353656662,36152,10,6,1.4425971508,0.744414508343,0.509830415249,0.243430063128,13.3000001907,0.4824739634782608,0.2489680629909699,0.17051184456488291,13.3000001907,0.03289595447675676,0.7263245467821667,1.7015188955873501
1648638468453542506,36153,11,0,0.0175613071769,0.0845305845141,0.0126503212377,0.0,23.8999996185,0.005873346881906354,0.028271098499698995,0.00423087666812709,23.8999996185,0.0,0.029466038375901178,0.08725737708339534
1648638468453552498,36154,11,1,0.0697748661041,0.0272679310292,-0.0447412319481,0.0,23.8999996185,0.023336075620100333,0.00911970937431438,-0.014963622725117056,23.8999996185,0.0,0.03423907051550962,0.08725737698723228
1648638468453559729,36155,11,2,0.212661698461,-0.081803791225,-0.128871202469,0.0,23.8999996185,0.07112431386655518,-0.0273591275,-0.04310073661170568,23.8999996185,0.0,0.10423942585959386,0.2617721243312715
1648638468453575480,36156,11,3,1.20059657097,0.698059022427,-0.142923533916,0.0,23.8999996185,0.40153731470568554,0.23346455599565216,-0.047800513015384606,23.8999996185,0.0,0.6139789321372131,1.3961180686330577
1648638468453579341,36157,11,4,3.82562041283,-1.00345981121,0.684545040131,0.0,23.8999996185,1.2794717099765887,-0.3356052880301003,0.22894482947525083,23.8999996185,0.0,1.8403061219847632,4.013839190568444
1648638468453585683,36158,11,5,1.47351396084,0.504456698895,0.424405694008,0.121715031564,23.8999996185,0.4928140337257525,0.16871461501505017,0.14194170368160533,23.8999996185,0.01644797723837838,0.7170745881662317,1.6142614865494493
1648638468453594808,36159,11,6,1.28916299343,0.818037927151,0.845229327679,0.365145087242,23.8999996185,0.43115819178260867,0.273591279983612,0.28268539387257524,23.8999996185,0.04934393070837838,0.6683165127135261,1.7451475267883794
1648638468553627163,36160,12,0,0.027197336778,0.081803791225,0.0135016534477,0.0,21.0,0.009096099256856187,0.0273591275,0.004515603159765885,21.0,0.0,0.03023243127739507,0.08725737809733415
1648638468553633721,36161,12,1,0.0696678087115,0.0272679310292,-0.0449077524245,0.0,21.0,0.023300270472073576,0.00911970937431438,-0.015019315192140467,21.0,0.0,0.03419026626418,0.08725737711560867
1648638468553645723,36162,12,2,1.20055663586,0.698059022427,-0.143258497119,0.0,21.0,0.4015239584816053,0.23346455599565216,-0.04791254084247491,21.0,0.0,0.6139614624516125,1.3961180579363675
1648638468553654075,36163,12,3,1.48915529251,0.554902374744,0.283443033695,0.0,21.0,0.49804524833110364,0.18558607850969897,0.09479700123578595,21.0,0.0,0.7283819954577334,1.6142614670669988
1648638468553658222,36164,12,4,3.82947039604,-1.00345981121,0.662669181824,0.0,21.0,1.280759329779264,-0.3356052880301003,0.22162848890434783,21.0,0.0,1.8420965856835592,4.01383925330844
1648638468553914929,36165,12,5,1.28735387325,0.818037927151,0.847982287407,0.365145087242,21.0,0.4305531348662207,0.273591279983612,0.2836061161896321,21.0,0.04934393070837838,0.6675359109211513,1.7451475596594375
1648638468653553186,36166,13,0,0.027197336778,0.081803791225,0.0135016534477,0.0,26.7999992371,0.009096099256856187,0.0273591275,0.004515603159765885,26.7999992371,0.0,0.03023243127739507,0.08725737809733415
1648638468653561171,36167,13,1,0.0696855783463,0.0272679310292,-0.0448801778257,0.0,26.7999992371,0.023306213493745818,0.00911970937431438,-0.015010092918294313,26.7999992371,0.0,0.034198366538536265,0.08725737936551829
1648638468653564583,36168,13,2,0.212961837649,-0.081803791225,-0.128374606371,0.0,26.7999992371,0.07122469486588628,-0.0273591275,-0.04293465096020067,26.7999992371,0.0,0.1043764157989652,0.26177212249307913
1648638468653574980,36169,13,3,1.20015597343,0.698059022427,-0.146577492356,0.0,26.7999992371,0.4013899576688963,0.23346455599565216,-0.049022572694314384,26.7999992371,0.0,0.6137861966036087,1.396118089782101
1648638468653580040,36170,13,4,1.63977766037,-2.1132645607,0.402681142092,0.0,26.7999992371,0.5484206221973243,-0.7067774450501672,0.13467596725484948,26.7999992371,0.0,1.0493163081427082,2.7049787395015867
1648638468653585261,36171,13,5,3.82942867279,-1.00345981121,0.662910461426,0.0,26.7999992371,1.2807453755150502,-0.3356052880301003,0.22170918442341134,26.7999992371,0.0,1.8420771816512305,4.013839288333282
1648638468653589625,36172,13,6,1.63649773598,0.42537972331,0.189984336495,0.243430063128,26.7999992371,0.5473236575183946,0.14226746598996656,0.06353991187123745,26.7999992371,0.03289595447675676,0.786998350721164,1.701518967565276
1648638468753548772,36173,14,0,0.0271931793541,0.081803791225,0.013510026969,0.0,29.3999996185,0.009094708814080267,0.0273591275,0.004518403668561872,29.3999996185,0.0,0.030231594638508153,0.08725737843226065
1648638468753567780,36174,14,1,0.0697289332747,0.0272679310292,-0.0448127835989,0.0,29.3999996185,0.02332071346979933,0.00911970937431438,-0.014987553043110367,29.3999996185,0.0,0.034218130465484484,0.08725737660577823
1648638468753577029,36175,14,2,0.212493479252,-0.081803791225,-0.129148408771,0.0,29.3999996185,0.07106805326153845,-0.0273591275,-0.04319344774949833,29.3999996185,0.0,0.10416265283839016,0.26177213463522975
1648638468753585086,36176,14,3,1.20091021061,0.698059022427,-0.140263199806,0.0,29.3999996185,0.4016422109063545,0.23346455599565216,-0.04691076916588628,29.3999996185,0.0,0.6141161372816514,1.3961180100403086
1648638468753587976,36177,14,4,1.47300350666,0.554902374744,0.358028531075,0.0,29.3999996185,0.492643313264214,0.18558607850969897,0.11974198363712374,29.3999996185,0.0,0.7209972681948893,1.6142615665352718
1648638468753593862,36178,14,5,3.83098363876,-1.00345981121,0.653863072395,0.0,29.3999996185,1.2812654310234113,-0.3356052880301003,0.2186833018043478,29.3999996185,0.0,1.8428003469787448,4.013839078812484
1648638468753606438,36179,14,6,1.40355718136,0.801677167416,0.86316204071,0.243430063128,29.3999996185,0.4694171175117057,0.26811945398528425,0.2886829567591973,29.3999996185,0.03289595447675676,0.7159559358168378,1.832404909026938
1648638468753615819,36180,14,7,1.78404080868,0.293130248785,0.500774621964,-0.121715031564,29.3999996185,0.5966691667826086,0.09803687250334447,0.16748315115852844,29.3999996185,-0.01644797723837838,0.8494936241952271,1.8760336275748182
1648638468853573770,36181,15,0,0.0176088921726,0.0845305845141,0.0125839989632,0.0,16.2999992371,0.005889261596187291,0.028271098499698995,0.00420869530541806,16.2999992371,0.0,0.02947239071871055,0.0872573769474391
1648638468853584420,36182,15,1,0.0696611404419,0.0272679310292,-0.0449180901051,0.0,16.2999992371,0.023298040281571904,0.00911970937431438,-0.015022772610401336,16.2999992371,0.0,0.03418722657653662,0.08725737429563879
1648638468853594164,36183,15,2,0.21279451251,-0.081803791225,-0.128651767969,0.0,16.2999992371,0.07116873328093645,-0.0273591275,-0.043027347146822735,16.2999992371,0.0,0.10430004339015109,0.26177211886429264
1648638468853602693,36184,15,3,1.2003967762,0.698059022427,-0.144591763616,0.0,16.2999992371,0.4014704937123746,0.23346455599565216,-0.048358449369899664,16.2999992371,0.0,0.6138915323976726,1.3961180455852138
1648638468853609707,36185,15,4,3.80878663063,-1.12889230251,0.574153244495,0.0,16.2999992371,1.2738416824849497,-0.3775559540167224,0.19202449648662206,16.2999992371,0.0,1.840623199485884,4.0138392315209
1648638468853615188,36186,15,5,1.48195767403,0.504456698895,0.393909960985,0.121715031564,16.2999992371,0.49563801807023405,0.16871461501505017,0.13174246186789296,16.2999992371,0.01644797723837838,0.7209568026122342,1.6142614924601442
1648638468953565459,36187,16,0,0.017665496096,0.0845305845141,0.0125044137239,0.0,19.2000007629,0.005908192674247491,0.028271098499698995,0.004182078168528428,19.2000007629,0.0,0.029479967634509815,0.08725737695571449
1648638468953574301,36188,16,1,0.0696678087115,0.0272679310292,-0.0449077524245,0.0,19.2000007629,0.023300270472073576,0.00911970937431438,-0.015019315192140467,19.2000007629,0.0,0.03419026626418,0.08725737711560867
1648638468953585333,36189,16,2,0.213046491146,-0.081803791225,-0.12823407352,0.0,19.2000007629,0.07125300707224079,-0.0273591275,-0.042887650006688954,19.2000007629,0.0,0.10441505586473078,0.2617721246808736
1648638468953589585,36190,16,3,1.2001953125,0.698059022427,-0.146254971623,0.0,19.2000007629,0.401403114548495,0.23346455599565216,-0.04891470622842809,19.2000007629,0.0,0.6138034047190609,1.3961180837103844
1648638468953594815,36191,16,4,1.52617228031,0.454011052847,0.265541762114,0.0,19.2000007629,0.5104255118093645,0.15184316148729096,0.08880995388428092,19.2000007629,0.0,0.7376481220081555,1.6142615316981554
1648638468953603515,36192,16,5,3.83570742607,-1.00345981121,0.625557720661,0.0,19.2000007629,1.2828452929999998,-0.3356052880301003,0.20921662898361204,19.2000007629,0.0,1.8449972902143454,4.013839248525125
1648638469053596002,36193,17,0,0.0272429101169,0.081803791225,0.0134094608948,0.0,13.1999998093,0.009111341176220734,0.0273591275,0.004484769530033445,13.1999998093,0.0,0.030241609309364592,0.08725737820900907
1648638469053604576,36194,17,1,0.0696572512388,0.0272679310292,-0.0449241288006,0.0,13.1999998093,0.023296739544749163,0.00911970937431438,-0.015024792241003343,13.1999998093,0.0,0.03418545371797362,0.08725737826253668
1648638469053614472,36195,17,2,0.213205784559,-0.081803791225,-0.127969056368,0.0,13.1999998093,0.071306282461204,-0.0273591275,-0.0427990155076923,13.1999998093,0.0,0.10448776815702054,0.2617721265068504
1648638469053620883,36196,17,3,1.20034408569,0.698059022427,-0.145028188825,0.0,13.1999998093,0.4014528714682274,0.23346455599565216,-0.04850441097826086,13.1999998093,0.0,0.6138684834118927,1.3961180101970467
1648638469053627630,36197,17,4,1.46601510048,0.454011052847,0.500513792038,0.0,13.1999998093,0.4903060536722407,0.15184316148729096,0.1673959170695652,13.1999998093,0.0,0.7098284287246799,1.614261554693936
1648638469053635925,36198,17,5,3.81341314316,-1.12889230251,0.542575478554,0.0,13.1999998093,1.275389011090301,-0.3775559540167224,0.18146337075384614,13.1999998093,0.0,1.8427649762336133,4.013839281912003
1648638469053654941,36199,17,6,1.67132675648,0.319034785032,-0.00706811575219,0.243430063128,13.1999998093,0.5589721593578595,0.10670059700066889,-0.0023639183117692307,13.1999998093,0.03289595447675676,0.7976745998680638,1.7015188154254006
