%time,field.header.seq,field.header.frame_id,field.point_id,field.x,field.y,field.z,field.velocity,field.intensity,normalized_x,normalized_y,normalized_z,normalized_intensity,normalized_velocity,normalized_range,range
1648638676156101903,56258,0,0,0.0271901339293,0.081803791225,0.0135161532089,0.0,20.6000003815,0.009093690277357859,0.0273591275,0.004520452578227425,20.6000003815,0.0,0.03023098184449658,0.08725737813757135
1648638676156110025,56259,0,1,0.0697437748313,0.0272679310292,-0.0447896793485,0.0,20.6000003815,0.023325677201103675,0.00911970937431438,-0.014979825869063544,20.6000003815,0.0,0.034224896389209614,0.08725737542737422
1648638676156112165,56260,0,2,0.213160321116,-0.081803791225,-0.128044784069,0.0,20.6000003815,0.07129107729632106,-0.0273591275,-0.04282434249799331,20.6000003815,0.0,0.10446701518518324,0.2617721327497189
1648638676156162435,56261,0,3,0.259397566319,1.01436698437,0.012918272987,0.0,20.6000003815,0.08675503890267558,0.3392531720301003,0.004320492637792642,20.6000003815,0.0,0.36075696567425325,1.0470885149637896
1648638676156301431,56262,0,4,1.16908681393,0.676244676113,-0.0718093365431,0.0,20.6000003815,0.3909989344247491,0.22616878799765885,-0.024016500516086954,20.6000003815,0.0,0.5974216719427815,1.352489342394584
1648638676156318274,56263,0,5,1.64548134804,-2.1132645607,0.378700524569,0.0,20.6000003815,0.5503282100468226,-0.7067774450501672,0.12665569383578595,20.6000003815,0.0,1.0513118635202028,2.7049787536257903
1648638676156414600,56264,0,6,2.43493819237,1.71787965298,0.668529570103,0.0,20.6000003815,0.8143605994548495,0.5745416899598662,0.2235884849842809,20.6000003815,0.0,1.2870371111164054,3.0540082332709697
1648638676156419622,56265,0,7,3.81594181061,-1.12889230251,0.524494171143,0.0,20.6000003815,1.2762347192675585,-0.3775559540167224,0.17541611075016722,20.6000003815,0.0,1.8439356322120806,4.013839043632771
1648638676156428902,56266,0,8,1.77442395687,-1.57063281536,-2.06205773354,0.121715031564,20.6000003815,0.5934528283846153,-0.5252952559732441,-0.6896514158996655,20.6000003815,0.01644797723837838,0.9901048555498532,3.141265655090634
1648638676156436154,56267,0,9,0.828965246677,-0.0,3.02991199493,0.121715031564,20.6000003815,0.27724590189866216,-0.0,1.0133484932876253,20.6000003815,0.01644797723837838,0.39208491457744865,3.141265680775657
1648638676156438376,56268,0,10,1.71091842651,-0.0,0.521995007992,-0.243430063128,20.6000003815,0.5722135205719063,-0.0,0.17458027023143813,20.6000003815,-0.03289595447675676,0.8092321213660459,1.7887762997479653
1648638676156449935,56269,0,11,3.44654560089,0.68715184927,-4.22711658478,-0.243430063128,20.6000003815,1.1526908364180601,0.22981667199665548,-1.413751366147157,20.6000003815,-0.03289595447675676,1.6462709471566195,5.497214646008606
1648638676156452988,56270,0,12,4.55777788162,2.9203953743,0.957769155502,-0.243430063128,20.6000003815,1.5243404286354514,0.9767208609698996,0.32032413227491635,20.6000003815,-0.03289595447675676,2.3666877962669273,5.497214759825956
1648638676156578393,56271,0,13,1.51298213005,0.19632910192,0.373131930828,-0.121715031564,20.6000003815,0.5060140903177257,0.06566190699665551,0.12479328790234114,20.6000003815,-0.01644797723837838,0.7186181219748,1.5706328278483102
1648638676156590872,56272,0,14,1.62465786934,0.310854405165,0.11160799861,-0.121715031564,20.6000003815,0.5433638358996655,0.10396468400167223,0.037327089836120396,20.6000003815,-0.01644797723837838,0.7754335379945627,1.6578902252479215
1648638676256150836,56273,1,0,0.0271943453699,0.081803791225,0.0135076763108,0.0,19.3999996185,0.009095098785919731,0.0273591275,0.004517617495250836,19.3999996185,0.0,0.030231829276650354,0.08725737790123043
1648638676256157039,56274,1,1,0.0697615295649,0.0272679310292,-0.0447620302439,0.0,19.3999996185,0.02333161523909699,0.00911970937431438,-0.014970578676889631,19.3999996185,0.0,0.03423299049750815,0.08725738032627064
1648638676256169837,56275,1,2,0.214069411159,-0.081803791225,-0.126519054174,0.0,19.3999996185,0.0715951207889632,-0.0273591275,-0.04231406494113712,19.3999996185,0.0,0.10488205041442372,0.2617721225070155
1648638676256182582,56276,1,3,0.259508699179,1.01436698437,0.0104506537318,0.0,19.3999996185,0.08679220708327759,0.3392531720301003,0.003495201916989966,19.3999996185,0.0,0.360774845510684,1.047088515882438
1648638676256257324,56277,1,4,0.812225937843,0.392658174038,-0.531510055065,0.0,19.3999996185,0.27164747085050167,0.13132380402608695,-0.17776256022240802,19.3999996185,0.0,0.4059933969202337,1.0470885131539724
1648638676256260696,56278,1,5,1.16880047321,0.676244676113,-0.0763291940093,0.0,19.3999996185,0.3909031682976588,0.22616878799765885,-0.025528158531538458,19.3999996185,0.0,0.5972963206270615,1.3524893914575469
1648638676256281769,56279,1,6,1.64340138435,-2.1132645607,0.387626826763,0.0,19.3999996185,0.5496325700167224,-0.7067774450501672,0.12964107918494983,19.3999996185,0.0,1.0505837809894156,2.7049787005483816
1648638676256484002,56280,1,7,2.46053624153,1.71787965298,0.567112743855,0.0,19.3999996185,0.8229218199096989,0.5745416899598662,0.18966981399832775,19.3999996185,0.0,1.297882427983722,3.0540081797938936
1648638676256493879,56281,1,8,3.83663272858,-1.00345981121,0.619856595993,0.0,19.3999996185,1.283154758722408,-0.3356052880301003,0.20730989832541805,19.3999996185,0.0,1.8454276412305328,4.013839120632621
1648638676256513100,56282,1,9,1.79286885262,-1.49291920662,-2.16803264618,0.243430063128,19.3999996185,0.5996216898394648,-0.49930408248160535,-0.7250945304949832,19.3999996185,0.03289595447675676,0.9840715973112264,3.184894352265409
1648638676256524870,56283,1,10,1.99766325951,0.0995279476047,2.47850513458,0.243430063128,19.3999996185,0.6681148025117056,0.033286938998227426,0.8289314831371237,19.3999996185,0.03289595447675676,0.9454431759647867,3.184894348779869
1648638676256544690,56284,1,11,2.77556180954,-3.47666096687,0.112731538713,-0.365145087242,19.3999996185,0.9282815416521739,-1.162762865173913,0.03770285575685618,19.3999996185,-0.04934393070837838,1.7536906003544983,4.45012620460982
1648638676256550276,56285,1,12,1.63401246071,0.25904533267,-0.107232280076,-0.243430063128,19.3999996185,0.5464924617759197,0.08663723500668896,-0.03586363882140468,19.3999996185,-0.03289595447675676,0.7776979053883418,1.6578902159141773
1648638676256554099,56286,1,13,3.403434515,0.703512609005,-4.42687511444,-0.243430063128,19.3999996185,1.138272413043478,0.23528849799498328,-1.4805602389431436,19.3999996185,-0.03289595447675676,1.626864730049914,5.628100902415526
1648638676256558477,56287,1,14,4.4187707901,-1.75878155231,-3.00943017006,-0.243430063128,19.3999996185,1.4778497625752507,-0.5882212549531772,-1.0064983846354514,19.3999996185,-0.03289595447675676,2.1711941613467323,5.628100726946375
1648638676256566930,56288,1,15,1.45719587803,0.286313265562,0.35545244813,-0.121715031564,19.3999996185,0.48735648094648826,0.09575694500401337,0.1188804174347826,19.3999996185,-0.01644797723837838,0.6958462988028256,1.5270041112799957
1648638676256575835,56289,1,16,1.64554560184,0.167697772384,0.681012392044,-0.121715031564,19.3999996185,0.5503496996120402,0.05608621149966555,0.22776334182073577,19.3999996185,-0.01644797723837838,0.7803302165407353,1.7887763271899073
1648638676356220273,56290,2,0,0.0272187031806,0.081803791225,0.0134585266933,0.0,13.5,0.00910324521090301,0.0273591275,0.004501179496086956,13.5,0.0,0.030236732698836914,0.08725737792514317
1648638676356227750,56291,2,1,0.0697374343872,0.0272679310292,-0.0447995550931,0.0,13.5,0.023323556651237455,0.00911970937431438,-0.014983128793678928,13.5,0.0,0.03422200591430788,0.0872573776483223
1648638676356233737,56292,2,2,0.213001742959,-0.081803791225,-0.128308385611,0.0,13.5,0.07123804112341137,-0.0273591275,-0.04291250354882943,13.5,0.0,0.104394630435492,0.2617721233830225
1648638676356240080,56293,2,3,0.363435357809,0.981645464897,0.0261005461216,0.0,13.5,0.12155028689264213,0.32830952003244146,0.008729279639331103,13.5,0.0,0.3705888360856264,1.0470884950979304
1648638676356256768,56294,2,4,1.16866910458,0.676244676113,-0.0783144012094,0.0,13.5,0.3908592323010033,0.22616878799765885,-0.026192107427892977,13.5,0.0,0.5972388128832463,1.352489365358479
1648638676356408097,56295,2,5,1.44604301453,0.286313265562,0.398404419422,0.0,13.5,0.48362642626421404,0.09575694500401337,0.13324562522474914,13.5,0.0,0.6906217726648155,1.5270041805190866
1648638676356474130,56296,2,6,1.64185214043,-2.1132645607,0.394137263298,0.0,13.5,0.5491144282374582,-0.7067774450501672,0.1318184827083612,13.5,0.0,1.0500417455647861,2.704978694345886
1648638676356730225,56297,2,7,2.45948410034,1.71787965298,0.571658849716,0.0,13.5,0.8225699332240802,0.5745416899598662,0.1911902507411371,13.5,0.0,1.2974362194691786,3.054008248581946
1648638676356787541,56298,2,8,3.83997368813,-1.00345981121,0.598811209202,0.0,13.5,1.2842721364983278,-0.3356052880301003,0.20027130742541807,13.5,0.0,1.8469815241430343,4.01383910770104
1648638676356927689,56299,2,9,1.59749650955,0.201782688498,-0.114581264555,-0.486860126257,13.5,0.5342797690802675,0.06748584899598661,-0.03832149316220736,13.5,-0.06579190895364864,0.7585934900271931,1.6142615084269765
1648638676356993103,56300,2,10,1.63210499287,0.0545358620584,0.615466654301,-0.121715031564,13.5,0.5458545126655518,0.01823941874862876,0.20584169040167222,13.5,-0.01644797723837838,0.7721703014173634,1.7451475784466202
1648638676456081473,56301,3,0,0.0272427201271,0.081803791225,0.0134098464623,0.0,12.1999998093,0.009111277634481604,0.0273591275,0.0044848984823745814,12.1999998093,0.0,0.03024157102113688,0.08725737814562931
1648638676456088517,56302,3,1,0.0697720870376,0.0272679310292,-0.0447455607355,0.0,12.1999998093,0.023335146166421405,0.00911970937431438,-0.014965070480100333,12.1999998093,0.0,0.03423780355525834,0.08725737446044292
1648638676456113024,56303,3,2,0.212820261717,-0.081803791225,-0.128609165549,0.0,12.1999998093,0.07117734505585284,-0.0273591275,-0.0430130988458194,12.1999998093,0.0,0.10431179586202671,0.26177211753600854
1648638676456119319,56304,3,3,0.363672196865,0.981645464897,0.0225614495575,0.0,12.1999998093,0.12162949727926421,0.32830952003244146,0.007545635303511705,12.1999998093,0.0,0.3706408101663188,1.047088489351114
1648638676456243380,56305,3,4,1.16846430302,0.676244676113,-0.0813131257892,0.0,12.1999998093,0.3907907367959866,0.22616878799765885,-0.027195025347558525,12.1999998093,0.0,0.5971491610941357,1.3524893766047854
1648638676456263234,56306,3,5,1.64957034588,0.670791089535,0.169344425201,0.0,12.1999998093,0.5516957678528428,0.22434484599832774,0.056636931505351165,12.1999998093,0.0,0.8118294466570483,1.7887762705695958
1648638676456267730,56307,3,6,2.46189165115,1.71787965298,0.561199247837,0.0,12.1999998093,0.8233751341638796,0.5745416899598662,0.18769205613277593,12.1999998093,0.0,1.2984573064297158,3.054008120470143
1648638676456410946,56308,3,7,3.83523654938,-1.00345981121,0.628437995911,0.0,12.1999998093,1.2826878091571905,-0.3356052880301003,0.21017993174280936,12.1999998093,0.0,1.8447782904389116,4.013839221632881
1648638676456413521,56309,3,8,1.45439589024,0.334032148123,0.323877632618,-0.121715031564,12.1999998093,0.486420030180602,0.11171643749933109,0.10832027846755853,12.1999998093,-0.01644797723837838,0.6969142371406524,1.5270041265291028
1648638676456414674,56310,3,9,1.58468210697,0.302674025297,0.0548739992082,-0.121715031564,12.1999998093,0.52999401570903,0.10122877100234112,0.018352508096387957,12.1999998093,-0.01644797723837838,0.7563296751109344,1.614261472478814
1648638676556103220,56311,4,0,0.0271625705063,0.081803791225,0.0135714607313,0.0,16.6000003815,0.009084471741237457,0.0273591275,0.00453895007735786,16.6000003815,0.0,0.030225438147294743,0.08725737815035657
1648638676556233243,56312,4,1,0.0697001442313,0.0272679310292,-0.0448575429618,0.0,16.6000003815,0.023311085027190634,0.00911970937431438,-0.015002522729698996,16.6000003815,0.0,0.03420500649556699,0.08725737406687736
1648638676556244712,56313,4,2,0.213665634394,-0.081803791225,-0.12719976902,0.0,16.6000003815,0.07146007839264214,-0.0273591275,-0.04254172876923076,16.6000003815,0.0,0.10469769560657186,0.2617721238377288
1648638676556247988,56314,4,3,0.363516062498,0.981645464897,0.0249510537833,0.0,16.6000003815,0.12157727842742475,0.32830952003244146,0.008344834041237457,16.6000003815,0.0,0.3706065436599456,1.0470884879186642
1648638676556264307,56315,4,4,1.16835713387,0.676244676113,-0.0828385576606,0.0,16.6000003815,0.390754894270903,0.22616878799765885,-0.027705203230969897,16.6000003815,0.0,0.5971022487461081,1.3524893644208025
1648638676556304779,56316,4,5,2.45404553413,1.71787965298,0.594572067261,0.0,16.6000003815,0.8207510147591973,0.5745416899598662,0.19885353420100332,16.6000003815,0.0,1.295130344775553,3.054008174329778
1648638676556314626,56317,4,6,3.83899021149,-1.00345981121,0.605085253716,0.0,16.6000003815,1.2839432145451504,-0.3356052880301003,0.20236965007224078,16.6000003815,0.0,1.8465241037437974,4.013839259473927
1648638676556325727,56318,4,7,1.67394268513,0.109071724117,0.481205999851,-0.243430063128,16.6000003815,0.5598470518829431,0.03647883749732441,0.16093846148862875,16.6000003815,-0.03289595447675676,0.7925832124068751,1.7451475491759114
1648638676556336469,56319,4,8,1.42935824394,0.381751030684,0.378078043461,-0.121715031564,16.6000003815,0.47804623543143815,0.12767592999464883,0.1264475061742475,16.6000003815,-0.01644797723837838,0.6880098469646626,1.5270042062466085
1648638676656090234,56320,5,0,0.027239529416,0.081803791225,0.0134163266048,0.0,21.2999992371,0.009110210507023412,0.0273591275,0.004487065754113712,21.2999992371,0.0,0.030240928036781804,0.08725737814738178
1648638676656095203,56321,5,1,0.0696649476886,0.0272679310292,-0.0449121892452,0.0,21.2999992371,0.023299313608227422,0.00911970937431438,-0.015020799078662205,21.2999992371,0.0,0.03418896208282756,0.08725737643239821
1648638676656100068,56322,5,2,0.213540151715,-0.081803791225,-0.127410337329,0.0,21.2999992371,0.07141811094147156,-0.0273591275,-0.042612152952842805,21.2999992371,0.0,0.10464040805758518,0.2617721350937456
1648638676656103177,56323,5,3,0.259374141693,1.01436698437,0.0133802415803,0.0,21.2999992371,0.08674720457959866,0.3392531720301003,0.004474997184046823,21.2999992371,0.0,0.3607531978198313,1.0470885135572903
1648638676656115801,56324,5,4,1.18697679043,0.633979380131,-0.135586827993,0.0,21.2999992371,0.3969822041571906,0.21203323750200667,-0.04534676521505017,21.2999992371,0.0,0.6001231828888008,1.352489387528048
1648638676656246435,56325,5,5,1.623914361,0.558992564678,0.500150263309,0.0,21.2999992371,0.54311517090301,0.18695403500936453,0.1672743355548495,21.2999992371,0.0,0.7905061599610052,1.7887763485453927
1648638676656270981,56326,5,6,3.81368994713,-1.12889230251,0.540625214577,0.0,21.2999992371,1.275481587668896,-0.3775559540167224,0.1808111085541806,21.2999992371,0.0,1.8428931220714384,4.013839118119108
1648638676656280104,56327,5,7,6.11210250854,-1.61426150799,1.31522130966,0.243430063128,21.2999992371,2.0441814409832775,-0.5398867919698996,0.4398733477123746,21.2999992371,0.03289595447675676,2.940889878160093,6.4570461036346085
1648638676656284617,56328,5,8,1.54275810719,0.29449364543,-0.00764952925965,-0.243430063128,21.2999992371,0.5159726111003344,0.09849285800334448,-0.0025583709898494983,21.2999992371,-0.03289595447675676,0.7363126468349304,1.5706328660119833
1648638676656288315,56329,5,9,1.40066099167,0.370843857527,0.317846417427,-0.121715031564,21.2999992371,0.4684484921973244,0.12402804599565216,0.10630314964113712,21.2999992371,-0.01644797723837838,0.6739962432220175,1.4833754498853862
1648638676656295248,56330,5,10,1.60521745682,0.218143448234,0.649022579193,-0.121715031564,21.2999992371,0.5368620256923077,0.07295767499464882,0.21706440775685618,21.2999992371,-0.01644797723837838,0.7627348763505709,1.7451475456216938
1648638676656300624,56331,5,11,1.60252952576,0.109071724117,0.682306945324,-0.121715031564,21.2999992371,0.5359630520936455,0.03647883749732441,0.22819630278394648,21.2999992371,-0.01644797723837838,0.7588435227398516,1.7451476411959514
1648638676756086558,56332,6,0,0.0272080972791,0.081803791225,0.0134799545631,0.0,14.3000001907,0.009099698086655518,0.0273591275,0.004508346007725752,14.3000001907,0.0,0.030234597204160343,0.08725737786202148
1648638676756100347,56333,6,1,0.0697551965714,0.0272679310292,-0.0447718948126,0.0,14.3000001907,0.023329497181070233,0.00911970937431438,-0.014973877863745818,14.3000001907,0.0,0.03423010336699388,0.08725737834956068
1648638676756105087,56334,6,2,0.212841421366,-0.081803791225,-0.128574162722,0.0,14.3000001907,0.07118442186153846,-0.0273591275,-0.04300139221471572,14.3000001907,0.0,0.10432145363770678,0.2617721265290594
1648638676756107215,56335,6,3,0.259428739548,1.01436698437,0.0122764352709,0.0,14.3000001907,0.08676546473177257,0.3392531720301003,0.004105831194280937,14.3000001907,0.0,0.36076198035924706,1.0470885161944583
1648638676756109249,56336,6,4,1.18726718426,0.633979380131,-0.133019164205,0.0,14.3000001907,0.39707932583946487,0.21203323750200667,-0.04448801478428094,14.3000001907,0.0,0.6002516770687361,1.3524893046888589
1648638676756111327,56337,6,5,1.38006520271,0.370843857527,0.397866278887,0.0,14.3000001907,0.4615602684648829,0.12402804599565216,0.13306564511270902,14.3000001907,0.0,0.664423599102447,1.4833754434639557
1648638676756135826,56338,6,6,3.84901881218,-1.00345981121,0.537613451481,0.0,14.3000001907,1.2872972615986622,-0.3356052880301003,0.17980382992675586,14.3000001907,0.0,1.8511886421412043,4.013839263403863
1648638676756140897,56339,6,7,1.53247833252,0.245411381125,0.241186693311,-0.243430063128,14.3000001907,0.5125345593712374,0.08207738499163879,0.08066444592341136,14.3000001907,-0.03289595447675676,0.7294655894741044,1.5706328681965287
1648638676756327877,56340,6,8,1.63261198997,0.106344930828,0.467371225357,-0.243430063128,14.3000001907,0.5460240769130434,0.03556686649765886,0.15631144660769228,14.3000001907,-0.03289595447675676,0.7730133162694836,1.7015190320411697
1648638676856357781,56341,7,0,0.0271943453699,0.081803791225,0.0135076763108,0.0,27.7000007629,0.009095098785919731,0.0273591275,0.004517617495250836,27.7000007629,0.0,0.030231829276650354,0.08725737790123043
1648638676856380219,56342,7,1,0.0697551965714,0.0272679310292,-0.0447718948126,0.0,27.7000007629,0.023329497181070233,0.00911970937431438,-0.014973877863745818,27.7000007629,0.0,0.03423010336699388,0.08725737834956068
1648638676856387694,56343,7,2,0.212654277682,-0.081803791225,-0.128883436322,0.0,27.7000007629,0.07112183200066889,-0.0273591275,-0.04310482820133779,27.7000007629,0.0,0.10423603902597219,0.26177211890001495
1648638676856500046,56344,7,3,0.259517729282,1.01436698437,0.0102237258106,0.0,27.7000007629,0.08679522718461538,0.3392531720301003,0.003419306291170568,27.7000007629,0.0,0.3607762986346842,1.0470885136229047
1648638676856503956,56345,7,4,1.16846168041,0.676244676113,-0.0813508033752,0.0,27.7000007629,0.39078985966889634,0.22616878799765885,-0.02720762654688963,27.7000007629,0.0,0.5971480130624244,1.3524893765821335
1648638676856507227,56346,7,5,1.48050165176,0.334032148123,-0.168163329363,0.0,27.7000007629,0.49515105410033444,0.11171643749933109,-0.05624191617491638,27.7000007629,0.0,0.7091048548422769,1.527004100251929
1648638676856639265,56347,7,6,2.37550854683,1.8133174181,0.629130363464,0.0,27.7000007629,0.7944844638227424,0.6064606749498327,0.21041149279732438,27.7000007629,0.0,1.2767950801800685,3.054008174363581
1648638676856642445,56348,7,7,3.83669614792,-1.00345981121,0.619463860989,0.0,27.7000007629,1.2831759692040132,-0.3356052880301003,0.20717854882575248,27.7000007629,0.0,1.8454571371990962,4.013839109786188
1648638676856644062,56349,7,8,1.57443702221,0.155427202582,0.495570719242,-0.243430063128,27.7000007629,0.5265675659565217,0.05198234200066889,0.16574271546555183,27.7000007629,-0.03289595447675676,0.7464911030378233,1.6578901923764406
1648638676856645620,56350,7,9,1.41192042828,0.324488371611,0.318732619286,-0.121715031564,27.7000007629,0.4722141900602006,0.10852453900033444,0.10659953822274247,27.7000007629,-0.01644797723837838,0.676572285978119,1.4833753677684052
1648638676956209327,56351,8,0,0.0272017717361,0.081803791225,0.013492718339,0.0,18.2999992371,0.009097582520434782,0.0273591275,0.00451261482909699,18.2999992371,0.0,0.03023332388265467,0.08725737844183644
1648638676956214833,56352,8,1,0.0697446167469,0.0272679310292,-0.0447883680463,0.0,18.2999992371,0.02332595877822742,0.00911970937431438,-0.014979387306454848,18.2999992371,0.0,0.03422528020219977,0.0872573752758814
1648638676956216906,56353,8,2,0.213355302811,-0.081803791225,-0.127719625831,0.0,18.2999992371,0.07135628856555185,-0.0273591275,-0.042715593923411364,18.2999992371,0.0,0.10455602179339966,0.26177213052341447
1648638676956363599,56354,8,3,0.258761465549,1.01436698437,0.022282095626,0.0,18.2999992371,0.0865422961702341,0.3392531720301003,0.0074522058949832775,18.2999992371,0.0,0.36065475566713084,1.0470885190939878
1648638676956366602,56355,8,4,0.799529671669,0.392658174038,-0.550423622131,0.0,18.2999992371,0.26740122798294313,0.13132380402608695,-0.1840881679367893,18.2999992371,0.0,0.400315844000027,1.047088487816481
1648638676956371766,56356,8,5,1.16860949993,0.676244676113,-0.0791993513703,0.0,18.2999992371,0.3908392976354515,0.22616878799765885,-0.026488077381371235,18.2999992371,0.0,0.597212720742514,1.3524893946184189
1648638676956386977,56357,8,6,3.84311318398,-1.00345981121,0.57832056284,0.0,18.2999992371,1.2853221351103679,-0.3356052880301003,0.19341824844147157,18.2999992371,0.0,1.8484417468135468,4.01383921090495
1648638676956392371,56358,8,7,1.58214485645,0.155427202582,0.470383048058,-0.243430063128,18.2999992371,0.5291454369397993,0.05198234200066889,0.15731874516989966,18.2999992371,-0.03289595447675676,0.7501279562503299,1.6578902780322924
1648638676956394991,56359,8,8,1.47553360462,0.334032148123,0.20727930963,-0.121715031564,18.2999992371,0.4934894998729097,0.11171643749933109,0.06932418382274247,18.2999992371,-0.01644797723837838,0.7067845041999513,1.5270041278736761
1648638677056100438,56360,9,0,0.0272038970143,0.081803791225,0.0134884323925,0.0,24.0,0.009098293315819397,0.0273591275,0.004511181402173913,24.0,0.0,0.03023375167065153,0.08725737836971194
1648638677056108075,56361,9,1,0.0697268545628,0.0272679310292,-0.0448160134256,0.0,24.0,0.023320018248428095,0.00911970937431438,-0.01498863325270903,24.0,0.0,0.03421718283678533,0.08725737429695345
1648638677056115745,56362,9,2,0.213287740946,-0.081803791225,-0.127832427621,0.0,24.0,0.07133369262408026,-0.0273591275,-0.04275332027458194,24.0,0.0,0.10452518004928182,0.26177213420857004
1648638677056119285,56363,9,3,0.259701043367,1.01436698437,0.00305840512738,0.0,24.0,0.08685653624314381,0.3392531720301003,0.0010228779690234114,24.0,0.0,0.36080580719938243,1.0470885181051883
1648638677056280982,56364,9,4,1.18674886227,0.633979380131,-0.137567654252,0.0,24.0,0.39690597400334443,0.21203323750200667,-0.046009248913712365,24.0,0.0,0.6000223314216475,1.3524893995986897
1648638677056285386,56365,9,5,2.45439314842,1.71787965298,0.593135476112,0.0,24.0,0.8208672737190634,0.5745416899598662,0.19837306893377926,24.0,0.0,1.2952776982670067,3.0540081732301134
1648638677056287368,56366,9,6,3.81273603439,-1.12889230251,0.547311425209,0.0,24.0,1.2751625533076922,-0.3775559540167224,0.18304729940100334,24.0,0.0,1.8424515117445732,4.013839022029486
1648638677056289218,56367,9,7,1.44551849365,0.278132885695,-0.183086916804,-0.486860126257,24.0,0.48345100122073575,0.09302103200501671,-0.06123308254314381,24.0,-0.06579190895364864,0.6900019228653946,1.483375352597578
1648638677056291650,56368,9,8,1.40194559097,0.370843857527,0.312131553888,-0.121715031564,24.0,0.4688781240702341,0.12402804599565216,0.10439182404280936,24.0,-0.01644797723837838,0.6745934676949839,1.4833754459469344
1648638677056371214,56369,9,9,1.56419825554,0.155427202582,0.526997566223,-0.121715031564,24.0,0.5231432292775919,0.05198234200066889,0.17625336662976587,24.0,-0.01644797723837838,0.7416601921081168,1.657890295749936
1648638677056378204,56370,9,10,1.10672962666,0.725326955318,-0.9988245368,-0.121715031564,24.0,0.3701436878461538,0.2425842659926421,-0.3340550290301003,24.0,-0.01644797723837838,0.5769400535687316,1.6578902599242198
1648638677156096024,56371,10,0,0.0272353533655,0.081803791225,0.0134248044342,0.0,15.3999996185,0.009108813834615384,0.0273591275,0.004489901148561873,15.3999996185,0.0,0.030240086582359806,0.08725737851794285
1648638677156112902,56372,10,1,0.0697196349502,0.0272679310292,-0.0448272526264,0.0,15.3999996185,0.02331760366227425,0.00911970937431438,-0.014992392182742474,15.3999996185,0.0,0.03421389162567989,0.08725737870365717
1648638677156134562,56373,10,2,0.212595388293,-0.081803791225,-0.12898054719,0.0,15.3999996185,0.07110213655284281,-0.0273591275,-0.043137306752508355,15.3999996185,0.0,0.10420916227625798,0.2617721164212618
1648638677156136450,56374,10,3,0.363435357809,0.981645464897,0.0261005461216,0.0,15.3999996185,0.12155028689264213,0.32830952003244146,0.008729279639331103,15.3999996185,0.0,0.3705888360856264,1.0470884950979304
1648638677156139748,56375,10,4,1.6248049736,-2.07917976379,0.346127450466,0.0,15.3999996185,0.5434130346488294,-0.6953778474214046,0.11576168911906354,15.3999996185,0.0,1.036410055497787,2.661350015378517
1648638677156171650,56376,10,5,2.53118443489,1.62244188786,0.536427080631,0.0,15.3999996185,0.8465499782240803,0.5426227049698996,0.17940705037826085,15.3999996185,0.0,1.3144326271099758,3.0540082409427822
1648638677156177331,56377,10,6,3.8336725235,-1.00345981121,0.637909650803,0.0,15.3999996185,1.2821647235785953,-0.3356052880301003,0.2133477092986622,15.3999996185,0.0,1.8440508849086887,4.013839226070232
1648638677156190763,56378,10,7,1.39128816128,0.417199343443,0.301105678082,-0.121715031564,15.3999996185,0.46531376631438126,0.1395315529909699,0.10070424016120401,15.3999996185,-0.01644797723837838,0.6726833255874721,1.483375430988519
1648638677256045526,56379,11,0,0.0272187031806,0.081803791225,0.0134585266933,0.0,21.3999996185,0.00910324521090301,0.0273591275,0.004501179496086956,21.3999996185,0.0,0.030236732698836914,0.08725737792514317
1648638677256061579,56380,11,1,0.0697437748313,0.0272679310292,-0.0447896793485,0.0,21.3999996185,0.023325677201103675,0.00911970937431438,-0.014979825869063544,21.3999996185,0.0,0.034224896389209614,0.08725737542737422
1648638677256079569,56381,11,2,0.213540151715,-0.081803791225,-0.127410337329,0.0,21.3999996185,0.07141811094147156,-0.0273591275,-0.042612152952842805,21.3999996185,0.0,0.10464040805758518,0.2617721350937456
1648638677256086849,56382,11,3,0.259209185839,1.01436698437,0.016265893355,0.0,21.3999996185,0.08669203539765885,0.3392531720301003,0.005440098112040134,21.3999996185,0.0,0.36072667316856777,1.0470885159764867
1648638677256242663,56383,11,4,1.2089407444,0.698059022427,0.0179340224713,0.0,21.3999996185,0.4043280081605351,0.23346455599565216,0.005998000826521739,21.3999996185,0.0,0.6176309377552087,1.3961181008153165
1648638677256254845,56384,11,5,2.46313524246,1.71787965298,0.55571603775,0.0,21.3999996185,0.8237910509899665,0.5745416899598662,0.18585820660535116,21.3999996185,0.0,1.2989848131846062,3.054008192422497
1648638677256260858,56385,11,6,3.83278274536,-1.00345981121,0.643233716488,0.0,21.3999996185,1.2818671389163878,-0.3356052880301003,0.21512833327357858,21.3999996185,0.0,1.8436370665131296,4.013839157199739
1648638677256265441,56386,11,7,4.15722513199,0.983008861542,1.39463365078,-0.365145087242,21.3999996185,1.3903762983244146,0.32876550553244144,0.46643265912374576,21.3999996185,-0.04934393070837838,1.9935845252992421,4.493754581617394
1648638677256294176,56387,11,8,1.35010874271,0.35993668437,0.347163915634,-0.243430063128,21.3999996185,0.4515413855217391,0.12038016199665551,0.11610833298795986,21.3999996185,-0.03289595447675676,0.6498235368776085,1.4397467896180831
1648638677256302108,56388,11,9,1.56077516079,0.100891344249,0.399552464485,-0.243430063128,21.3999996185,0.521998381535117,0.03374292449799331,0.1336295867842809,21.3999996185,-0.03289595447675676,0.7389879603919407,1.614261545648492
1648638677356136725,56389,12,0,0.0271901339293,0.081803791225,0.0135161532089,0.0,29.6000003815,0.009093690277357859,0.0273591275,0.004520452578227425,29.6000003815,0.0,0.03023098184449658,0.08725737813757135
1648638677356146071,56390,12,1,0.0697268545628,0.0272679310292,-0.0448160134256,0.0,29.6000003815,0.023320018248428095,0.00911970937431438,-0.01498863325270903,29.6000003815,0.0,0.03421718283678533,0.08725737429695345
1648638677356150717,56391,12,2,0.213224291801,-0.081803791225,-0.127938225865,0.0,29.6000003815,0.07131247217424748,-0.0273591275,-0.04278870430267558,29.6000003815,0.0,0.10449621635622458,0.26177213088926243
1648638677356156839,56392,12,3,0.259615361691,1.01436698437,0.00733807543293,0.0,29.6000003815,0.08682788016421406,0.3392531720301003,0.0024542058304113713,29.6000003815,0.0,0.36079201249488196,1.0470885169635356
1648638677356166421,56393,12,4,2.45969581604,1.71787965298,0.570746898651,0.0,29.6000003815,0.8226407411505016,0.5745416899598662,0.19088525038494983,29.6000003815,0.0,1.29752600417226,3.054008191195155
1648638677356265692,56394,12,5,3.80391120911,-1.12889230251,0.605612456799,0.0,29.6000003815,1.2722111067257524,-0.3775559540167224,0.2025459721735786,29.6000003815,0.0,1.8383663123997365,4.013839155383428
1648638677356270111,56395,12,6,1.46031081676,0.23177741468,-0.119055472314,0.121715031564,29.6000003815,0.48839826647491635,0.07751752999331103,-0.03981788371705686,29.6000003815,0.01644797723837838,0.6950357550857874,1.4833754268525257
1648638677356287764,56396,12,7,1.24088966846,0.404928773642,0.607532918453,-0.243430063128,29.6000003815,0.4150132670434782,0.13542768349230766,0.2031882670411371,29.6000003815,-0.03289595447675676,0.6023393404886446,1.4397467582939723
1648638677356291931,56397,12,8,1.51245093346,0.201782688498,0.526893019676,-0.243430063128,29.6000003815,0.5058364325953177,0.06748584899598661,0.17621840122943142,29.6000003815,-0.03289595447675676,0.7185369391313323,1.6142615443864108
1648638677456075258,56398,13,0,0.0271901339293,0.081803791225,0.0135161532089,0.0,29.1000003815,0.009093690277357859,0.0273591275,0.004520452578227425,29.1000003815,0.0,0.03023098184449658,0.08725737813757135
1648638677456085327,56399,13,1,0.0697543472052,0.0272679310292,-0.0447732210159,0.0,29.1000003815,0.023329213112107023,0.00911970937431438,-0.014974321409999998,29.1000003815,0.0,0.03422971615325155,0.08725737984133738
1648638677456092094,56400,13,2,0.213001742959,-0.081803791225,-0.128308385611,0.0,29.1000003815,0.07123804112341137,-0.0273591275,-0.04291250354882943,29.1000003815,0.0,0.104394630435492,0.2617721233830225
1648638677456112664,56401,13,3,1.20860087872,0.698059022427,-0.0338107310236,0.0,29.1000003815,0.40421434070903006,0.23346455599565216,-0.011307936797190634,29.1000003815,0.0,0.6174821174543589,1.3961180639067905
1648638677456193431,56402,13,4,1.64414453506,-2.1132645607,0.384462863207,0.0,29.1000003815,0.5498811154046822,-0.7067774450501672,0.12858289739364548,29.1000003815,0.0,1.0508438699393154,2.704978752017019
1648638677456210497,56403,13,5,2.46240615845,1.71787965298,0.5589376688,0.0,29.1000003815,0.8235472101839464,0.5745416899598662,0.18693567518394646,29.1000003815,0.0,1.2986755438928776,3.0540081710595914
1648638677456215558,56404,13,6,3.83389091492,-1.00345981121,0.636595249176,0.0,29.1000003815,1.2822377641872909,-0.3356052880301003,0.21290811009230767,29.1000003815,0.0,1.8441524549694397,4.013839141207975
1648638677456222188,56405,13,7,4.25553274155,0.688515245914,0.913020193577,-0.852005243301,29.1000003815,1.423255097508361,0.23027265749632106,0.30535792427324415,29.1000003815,-0.11513584368932432,2.0259160007160926,4.4064972520290375
1648638677456225468,56406,13,8,1.32962596416,0.305400818586,0.296598255634,-0.365145087242,29.1000003815,0.4446909579130434,0.10214074200200668,0.0991967410147157,29.1000003815,-0.04934393070837838,0.6371285798612089,1.3961179713070597
1648638677456255957,56407,13,9,1.55957317352,0.531724631786,0.424461185932,-0.365145087242,29.1000003815,0.521596379103679,0.17783432501204013,0.14196026285351168,29.1000003815,-0.04934393070837838,0.7587823222378243,1.7015189878382202
1648638677456263841,56408,13,10,1.06116759777,-1.54881846905,-2.4638261795,-0.365145087242,29.1000003815,0.3549055510936454,-0.5179994879765886,-0.82402213361204,29.1000003815,-0.04934393070837838,0.7212762091863117,3.097636964432227
1648638677456267988,56409,13,11,2.80639147758,0.193602308631,1.29693460464,-0.365145087242,29.1000003815,0.9385924674180601,0.06474993599698996,0.4337573928561873,29.1000003815,-0.04934393070837838,1.3289485294771421,3.0976368973870425
1648638677456271187,56410,13,12,1.47778558731,0.0981645509601,0.522877752781,-0.243430063128,29.1000003815,0.49424267134113714,0.0328309534983612,0.17487550260234114,29.1000003815,-0.03289595447675676,0.6997353127122128,1.5706328869215964
1648638677456276836,56411,13,13,2.66774725914,-3.34032130241,0.0789401680231,-0.243430063128,29.1000003815,0.8922231635919732,-1.117164315187291,0.02640139398765886,29.1000003815,-0.03289595447675676,1.6852834937861425,4.275611464119551
1648638677556071477,56412,14,0,0.0271923784167,0.081803791225,0.0135116390884,0.0,14.1000003815,0.009094440942040134,0.0273591275,0.004518942838929766,14.1000003815,0.0,0.030231433470111337,0.08725737844787441
1648638677556076905,56413,14,1,0.0697551965714,0.0272679310292,-0.0447718948126,0.0,14.1000003815,0.023329497181070233,0.00911970937431438,-0.014973877863745818,14.1000003815,0.0,0.03423010336699388,0.08725737834956068
1648638677556087841,56414,14,2,0.213693186641,-0.081803791225,-0.127153486013,0.0,14.1000003815,0.0714692931909699,-0.0273591275,-0.042526249502675584,14.1000003815,0.0,0.10471027454836936,0.2617721285408873
1648638677556110048,56415,14,3,0.363593578339,0.981645464897,0.0237945728004,0.0,14.1000003815,0.12160320345785953,0.32830952003244146,0.00795805110381271,14.1000003815,0.0,0.3706235544678174,1.047088482725772
1648638677556112697,56416,14,4,1.18702805042,0.633979380131,-0.135136798024,0.0,14.1000003815,0.3969993479665551,0.21203323750200667,-0.045196253519732436,14.1000003815,0.0,0.6001458642507854,1.3524893349285134
1648638677556256239,56417,14,5,2.45949172974,1.71787965298,0.571625351906,0.0,14.1000003815,0.8225724848628762,0.5745416899598662,0.19117904746020065,14.1000003815,0.0,1.2974394549299448,3.0540081227337623
1648638677556262157,56418,14,6,3.81872797012,-1.12889230251,0.503809332848,0.0,14.1000003815,1.2771665451906353,-0.3775559540167224,0.1684981046314381,14.1000003815,0.0,1.845225532752526,4.013839182666377
1648638677556285007,56419,14,7,1.46942174435,0.139066442847,0.147860169411,-0.365145087242,14.1000003815,0.49144539944816046,0.046510516002341136,0.04945156167591973,14.1000003815,-0.04934393070837838,0.6965632701889528,1.483375329440585
1648638677556292169,56420,14,8,1.28573977947,0.253591746092,0.334353119135,-0.243430063128,14.1000003815,0.43001330417056854,0.08481329300735786,0.11182378566387959,14.1000003815,-0.03289595447675676,0.6140164315375702,1.3524893945879417
1648638677656118119,56421,15,0,0.0272038970143,0.081803791225,0.0134884323925,0.0,37.7000007629,0.009098293315819397,0.0273591275,0.004511181402173913,37.7000007629,0.0,0.03023375167065153,0.08725737836971194
1648638677656300628,56422,15,1,0.0697374343872,0.0272679310292,-0.0447995550931,0.0,37.7000007629,0.023323556651237455,0.00911970937431438,-0.014983128793678928,37.7000007629,0.0,0.03422200591430788,0.0872573776483223
1648638677656310564,56423,15,2,0.212618291378,-0.081803791225,-0.12894281745,0.0,37.7000007629,0.07110979644749163,-0.0273591275,-0.04312468811036789,37.7000007629,0.0,0.10421961504039746,0.26177213040968955
1648638677656333799,56424,15,3,2.46653103828,1.71787965298,0.540444552898,0.0,37.7000007629,0.8249267686555183,0.5745416899598662,0.18075068658795984,37.7000007629,0.0,1.3004255075900384,3.0540082153914416
1648638677656365149,56425,15,4,3.82284402847,-1.12889230251,0.471562683582,0.0,37.7000007629,1.278543153334448,-0.3775559540167224,0.15771327210100333,37.7000007629,0.0,1.8471312049473543,4.013839266988917
1648638677656417640,56426,15,5,1.83232486248,0.479915589094,-0.312041938305,-0.365145087242,37.7000007629,0.6128176797591972,0.16050688598461538,-0.10436185227591972,37.7000007629,-0.04934393070837838,0.881392919020439,1.9196623519720684
1648638677656425763,56427,15,6,1.30203700066,0.211326465011,0.298778086901,-0.243430063128,37.7000007629,0.43546387981939794,0.07067774749531772,0.09992578157224079,37.7000007629,-0.03289595447675676,0.6198813799798619,1.352489397782458
1648638677656433707,56428,15,7,1.41359317303,0.252228349447,0.737546920776,-0.243430063128,37.7000007629,0.4727736364648829,0.08435730750735786,0.24667121096187292,37.7000007629,-0.03289595447675676,0.673903537609315,1.614261521392349
1648638677756247289,56429,16,0,0.0271975640208,0.081803791225,0.013501195237,0.0,16.7999992371,0.009096175257792641,0.0273591275,0.004515449912040134,16.7999992371,0.0,0.03023247701069521,0.08725737802774328
1648638677756253105,56430,16,1,0.069636054337,0.0272679310292,-0.0449569672346,0.0,16.7999992371,0.02328965027993311,0.00911970937431438,-0.015035774994849498,16.7999992371,0.0,0.03417579142309852,0.08725737234853982
1648638677756274808,56431,16,2,0.213001742959,-0.081803791225,-0.128308385611,0.0,16.7999992371,0.07123804112341137,-0.0273591275,-0.04291250354882943,16.7999992371,0.0,0.104394630435492,0.2617721233830225
1648638677756278980,56432,16,3,0.257832825184,1.01436698437,0.0312443636358,0.0,16.7999992371,0.08623171410836121,0.3392531720301003,0.01044961994508361,16.7999992371,0.0,0.3605059386038143,1.0470885134415606
1648638677756350817,56433,16,4,2.44078946114,1.71787965298,0.646840333939,0.0,16.7999992371,0.8163175455317725,0.5745416899598662,0.21633455984581937,16.7999992371,0.0,1.2895141813054922,3.054008204531398
1648638677756360131,56434,16,5,3.81155729294,-1.12889230251,0.555462658405,0.0,16.7999992371,1.2747683253979931,-0.3775559540167224,0.18577346434949832,16.7999992371,0.0,1.8419058242183515,4.013839258479689
1648638677756367209,56435,16,6,1.41956245899,-0.0,0.430401176214,-0.243430063128,16.7999992371,0.474770053173913,-0.0,0.14394688167692307,16.7999992371,-0.03289595447675676,0.6714262482071433,1.4833754573472389
1648638677756375779,56436,16,7,1.44861829281,0.0927109643817,0.305470794439,-0.243430063128,16.7999992371,0.484487723347826,0.031007011498896318,0.1021641452973244,16.7999992371,-0.03289595447675676,0.6858703543029192,1.4833754371148045
1648638677756382257,56437,16,8,2.79219031334,-3.17398691177,-0.197884321213,-0.243430063128,16.7999992371,0.933842914160535,-1.0615340842040133,-0.06618204722842809,16.7999992371,-0.03289595447675676,1.6943965853903666,4.231982734674011
1648638677756387142,56438,16,9,1.34206938744,0.0845305845141,0.144678205252,-0.121715031564,16.7999992371,0.4488526379397993,0.028271098499698995,0.04838735961605351,16.7999992371,-0.01644797723837838,0.6354027354217266,1.3524893506038456
