%time,field.header.seq,field.header.frame_id,field.point_id,field.x,field.y,field.z,field.velocity,field.intensity,normalized_x,normalized_y,normalized_z,normalized_intensity,normalized_velocity,normalized_range,range
1648638486553944418,37805,0,0,0.027215488255,0.081803791225,0.0134650282562,0.0,35.5999984741,0.009102169984949832,0.0273591275,0.004503353931839465,35.5999984741,0.0,0.030236085302682614,0.08725737817331951
1648638486553950638,37806,0,1,0.0696565285325,0.0272679310292,-0.0449252426624,0.0,35.5999984741,0.02329649783695652,0.00911970937431438,-0.015025164770033444,35.5999984741,0.0,0.03418512427952541,0.08725737480630345
1648638486553954259,37807,0,2,0.212140068412,-0.081803791225,-0.129728078842,0.0,35.5999984741,0.07094985565618729,-0.0273591275,-0.04338731733846153,35.5999984741,0.0,0.10400137447567162,0.26177212098439284
1648638486553964330,37808,0,3,0.259319067001,1.01436698437,0.0144082820043,0.0,35.5999984741,0.08672878495016721,0.3392531720301003,0.004818823412809364,35.5999984741,0.0,0.360744340233287,1.0470885139664519
1648638486553979465,37809,0,4,1.18722867966,0.633979380131,-0.133363172412,0.0,35.5999984741,0.39706644804682273,0.21203323750200667,-0.044603067696321066,35.5999984741,0.0,0.6002346392325445,1.3524893818416124
1648638486554002082,37810,0,5,1.64465558529,-2.1132645607,0.382270157337,0.0,35.5999984741,0.5500520352140468,-0.7067774450501672,0.1278495509488294,35.5999984741,0.0,1.051022758896244,2.7049786636730815
1648638486554015269,37811,0,6,2.42106723785,1.71787965298,0.717138946056,0.0,35.5999984741,0.8097214842307692,0.5745416899598662,0.23984580135652173,35.5999984741,0.0,1.2811697457993998,3.05400807796306
1648638486554064806,37812,0,7,3.81308412552,-1.12889230251,0.544882297516,0.0,35.5999984741,1.2752789717458193,-0.3775559540167224,0.18223488211237457,35.5999984741,0.0,1.8426126586908127,4.013839196717435
1648638486554068976,37813,0,8,1.74691319466,-0.0,0.683956742287,0.121715031564,35.5999984741,0.5842519045685618,-0.0,0.22874807434347824,35.5999984741,0.01644797723837838,0.8262569672831713,1.876033724376258
1648638486554079228,37814,0,9,1.60272049904,0.155427202582,0.394625484943,0.243430063128,35.5999984741,0.5360269227558527,0.05198234200066889,0.13198176753946486,35.5999984741,0.03289595447675676,0.7598367507024731,1.6578901913914537
1648638486554108006,37815,0,10,1.78151631355,-0.0,0.160997763276,0.243430063128,35.5999984741,0.5958248540301003,-0.0,0.05384540577792642,35.5999984741,0.03289595447675676,0.8426235893683375,1.7887763010574176
1648638486554112064,37816,0,11,1.83212161064,0.429469913244,0.559819281101,0.243430063128,35.5999984741,0.6127497025551839,0.1436354224896321,0.18723052879632104,35.5999984741,0.03289595447675676,0.8783823373433165,1.9632910202128357
1648638486653828464,37817,1,0,0.0272461697459,0.081803791225,0.013402835466,0.0,14.3000001907,0.009112431353143812,0.0273591275,0.004482553667558529,14.3000001907,0.0,0.030242266249287157,0.08725737804411987
1648638486653848930,37818,1,1,0.0697581395507,0.0272679310292,-0.0447673052549,0.0,14.3000001907,0.02333048145508361,0.00911970937431438,-0.014972342894615383,14.3000001907,0.0,0.034231445031198404,0.08725737628403424
1648638486653904050,37819,1,2,0.21252015233,-0.081803791225,-0.129104495049,0.0,14.3000001907,0.07107697402341136,-0.0273591275,-0.043178760885953175,14.3000001907,0.0,0.10417482579880152,0.26177212618421974
1648638486653909215,37820,1,3,0.363043874502,0.981645464897,0.0310744810849,0.0,14.3000001907,0.12141935602073577,0.32830952003244146,0.010392803038428093,14.3000001907,0.0,0.37050298376249613,1.0470884857264773
1648638486653914451,37821,1,4,1.18695497513,0.633979380131,-0.13577696681,0.0,14.3000001907,0.39697490807023406,0.21203323750200667,-0.04541035679264214,14.3000001907,0.0,0.6001135301593558,1.352489316827778
1648638486654066893,37822,1,5,1.77120745182,-0.0586260519922,0.615539848804,0.0,14.3000001907,0.5923770741872909,-0.019607375248227425,0.20586617016856187,14.3000001907,0.0,0.8379771149676554,1.8760336235847537
1648638486654075895,37823,1,6,0.711680948734,1.64152944088,0.564263880253,0.0,14.3000001907,0.23802038419197322,0.5490065019665552,0.1887170168070234,14.3000001907,0.0,0.6439841192011976,1.8760336896295078
1648638486654078670,37824,1,7,1.64359796047,-2.1132645607,0.386792302132,0.0,14.3000001907,0.5496983145384615,-0.7067774450501672,0.12936197395719062,14.3000001907,0.0,1.0506525738056767,2.704978677209911
1648638486654081008,37825,1,8,2.41517043114,1.71787965298,0.736754477024,0.0,14.3000001907,0.8077493080735785,0.5745416899598662,0.24640617960668895,14.3000001907,0.0,1.2786774585049305,3.0540081651807296
1648638486654084836,37826,1,9,3.83846116066,-1.00345981121,0.608431756496,0.0,14.3000001907,1.2837662744682274,-0.3356052880301003,0.20348888177123745,14.3000001907,0.0,1.8462780408914123,4.013839169289389
1648638486654087894,37827,1,10,1.60080432892,0.155427202582,0.402328163385,0.243430063128,14.3000001907,0.5353860631839464,0.05198234200066889,0.13455791417558527,14.3000001907,0.03289595447675676,0.7589325643185196,1.657890245415608
1648638486654089684,37828,1,11,1.78734815121,0.055899258703,0.0445270203054,0.243430063128,14.3000001907,0.5977753014080267,0.01869540424849498,0.014891980035250834,14.3000001907,0.03289595447675676,0.8455886352635831,1.7887763404893937
1648638486753835196,37829,2,0,0.0176978334785,0.0845305845141,0.0124586038291,0.0,33.7000007629,0.0059190078523411365,0.028271098499698995,0.004166757133478261,33.7000007629,0.0,0.029484306305080924,0.08725737698039394
1648638486753839604,37830,2,1,0.0696221739054,0.0272679310292,-0.0449784696102,0.0,33.7000007629,0.023285007995117055,0.00911970937431438,-0.015042966424816053,33.7000007629,0.0,0.034169464346654424,0.0872573772835435
1648638486753847479,37831,2,2,0.212346196175,-0.081803791225,-0.129390403628,0.0,33.7000007629,0.07101879470735785,-0.0273591275,-0.043274382484280935,33.7000007629,0.0,0.10409543823306061,0.26177212196830996
1648638486753871748,37832,2,3,0.259167432785,1.01436698437,0.0169182159007,0.0,33.7000007629,0.08667807116555183,0.3392531720301003,0.0056582661875250835,33.7000007629,0.0,0.3607199617077571,1.047088517378315
1648638486753873752,37833,2,4,1.18713033199,0.633979380131,-0.134235352278,0.0,33.7000007629,0.3970335558494983,0.21203323750200667,-0.04489476664816053,33.7000007629,0.0,0.6001911218491788,1.3524893379850258
1648638486753959451,37834,2,5,1.64698922634,-2.1132645607,0.372087538242,0.0,33.7000007629,0.5508325171705685,-0.7067774450501672,0.12444399272307692,33.7000007629,0.0,1.051839950171399,2.7049786970151146
1648638486754101101,37835,2,6,2.42833590508,1.71787965298,0.692127227783,0.0,33.7000007629,0.8121524766153846,0.5745416899598662,0.2314806781882943,33.7000007629,0.0,1.2842435298832324,3.05400816460303
1648638486754116739,37836,2,7,3.81486368179,-1.12889230251,0.532280147076,0.0,33.7000007629,1.2758741410668895,-0.3775559540167224,0.17802011607892976,33.7000007629,0.0,1.8434365044936654,4.013839171700572
1648638486754121580,37837,2,8,1.66870975494,0.106344930828,0.315063685179,0.121715031564,33.7000007629,0.558096908006689,0.03556686649765886,0.10537246995953177,33.7000007629,0.01644797723837838,0.790069186493003,1.70151891445946
1648638486754124325,37838,2,9,1.90426766872,0.313581198454,0.550597667694,0.243430063128,33.7000007629,0.6368788189698996,0.10487665500133779,0.18414637715518392,33.7000007629,0.03289595447675676,0.9067680921102472,2.0069196082121037
1648638486853725688,37839,3,0,0.0271931793541,0.081803791225,0.013510026969,0.0,17.0,0.009094708814080267,0.0273591275,0.004518403668561872,17.0,0.0,0.030231594638508153,0.08725737843226065
1648638486853732548,37840,3,1,0.0696572512388,0.0272679310292,-0.0449241288006,0.0,17.0,0.023296739544749163,0.00911970937431438,-0.015024792241003343,17.0,0.0,0.03418545371797362,0.08725737826253668
1648638486853740490,37841,3,2,0.211266845465,-0.081803791225,-0.131145358086,0.0,17.0,0.07065780784782608,-0.0273591275,-0.043861323774581934,17.0,0.0,0.10360296075538518,0.2617721245645165
1648638486853747874,37842,3,3,0.259456992149,1.01436698437,0.0116639304906,0.0,17.0,0.08677491376220735,0.3392531720301003,0.003900980097190635,17.0,0.0,0.3607665256774274,1.0470885144195707
1648638486853776180,37843,3,4,1.18671452999,0.633979380131,-0.137862682343,0.0,17.0,0.39689449163545143,0.21203323750200667,-0.04610792051605351,17.0,0.0,0.6000071406131008,1.352489315781637
1648638486853808892,37844,3,5,1.66124582291,0.106344930828,0.352306753397,0.0,17.0,0.5556006096688962,0.03556686649765886,0.11782834561772575,17.0,0.0,0.7865424825916021,1.7015190204455164
1648638486853820285,37845,3,6,1.82178342342,0.171787962317,-0.0964466780424,0.0,17.0,0.6092921148561873,0.05745416799899665,-0.03225641406100334,17.0,0.0,0.8635825055385892,1.8324049518461623
1648638486853826713,37846,3,7,1.61981511116,-2.07917976379,0.368773937225,0.0,17.0,0.5417441843344482,-0.6953778474214046,0.12333576495819398,17.0,0.0,1.0346612359631626,2.6613499772244444
1648638486853829738,37847,3,8,3.83807516098,-1.00345981121,0.610861182213,0.0,17.0,1.2836371775852842,-0.3356052880301003,0.2043013987334448,17.0,0.0,1.8460985121905047,4.0138390498349485
1648638486953640504,37848,4,0,0.0175999794155,0.0845305845141,0.0125964600593,0.0,15.5,0.0058862807409699,0.028271098499698995,0.004212862896086956,15.5,0.0,0.029471199709253593,0.0872573767640706
1648638486953649591,37849,4,1,0.0696572512388,0.0272679310292,-0.0449241288006,0.0,15.5,0.023296739544749163,0.00911970937431438,-0.015024792241003343,15.5,0.0,0.03418545371797362,0.08725737826253668
1648638486953652845,37850,4,2,0.212902337313,-0.081803791225,-0.128473266959,0.0,15.5,0.07120479508795986,-0.0273591275,-0.042967647812374575,15.5,0.0,0.10434925751819206,0.26177212574153175
1648638486953659717,37851,4,3,0.259484499693,1.01436698437,0.011035323143,0.0,15.5,0.086784113609699,0.3392531720301003,0.0036907435260869564,15.5,0.0,0.36077095155032524,1.0470885172313202
1648638486953682069,37852,4,4,1.18701922894,0.633979380131,-0.135214060545,0.0,15.5,0.3969963976387959,0.21203323750200667,-0.04522209382775919,15.5,0.0,0.600141960940863,1.3524893147354864
1648638486953690296,37853,4,5,1.61807596684,-2.07917976379,0.376331657171,0.0,15.5,0.5411625307157191,-0.6953778474214046,0.12586343049197324,15.5,0.0,1.0340522810698256,2.661350003439629
1648638486953694000,37854,4,6,2.32990837097,1.8133174181,0.781263411045,0.0,15.5,0.7792335688862876,0.6064606749498327,0.2612921107173913,15.5,0.0,1.257857090459456,3.054008119396312
1648638486953717227,37855,4,7,3.85083031654,-1.00345981121,0.524479687214,0.0,15.5,1.2879031158996654,-0.3356052880301003,0.17541126662675582,15.5,0.0,1.8520312581708498,4.013839142491545
1648638486953720806,37856,4,8,1.8092764616,0.286313265562,0.0474487692118,0.121715031564,15.5,0.6051091844816053,0.09575694500401337,0.015869153582541807,15.5,0.01644797723837838,0.8610944447646196,1.832404973316845
1648638486953723569,37857,4,9,1.66154241562,0.106344930828,0.350904762745,-0.121715031564,15.5,0.555699804555184,0.03556686649765886,0.11735945242307691,15.5,-0.01644797723837838,0.7866826218735238,1.7015189084269036
1648638487053879235,37858,5,0,0.0271964743733,0.081803791225,0.0135033903643,0.0,21.7999992371,0.009095810827190635,0.0273591275,0.004516184068327759,21.7999992371,0.0,0.030232257718690692,0.08725737807458818
1648638487053890389,37859,5,1,0.0696327388287,0.0272679310292,-0.0449621081352,0.0,21.7999992371,0.023288541414280935,0.00911970937431438,-0.01503749435959866,21.7999992371,0.0,0.03417428011650449,0.08725737531785248
1648638487053966140,37860,5,2,0.212902337313,-0.081803791225,-0.128473266959,0.0,21.7999992371,0.07120479508795986,-0.0273591275,-0.042967647812374575,21.7999992371,0.0,0.10434925751819206,0.26177212574153175
1648638487053968210,37861,5,3,0.259458243847,1.01436698437,0.0116362199187,0.0,21.7999992371,0.086775332390301,0.3392531720301003,0.003891712347391304,21.7999992371,0.0,0.3607667270624874,1.0470885162650068
1648638487053970420,37862,5,4,1.18720340729,0.633979380131,-0.133587911725,0.0,21.7999992371,0.39705799574916384,0.21203323750200667,-0.04467823134615385,21.7999992371,0.0,0.6002234565412021,1.3524893769901924
1648638487053974169,37863,5,5,1.62169182301,-2.07917976379,0.360431343317,0.0,21.7999992371,0.5423718471605351,-0.6953778474214046,0.12054559977157189,21.7999992371,0.0,1.0353186909686738,2.661349960493102
1648638487053980028,37864,5,6,3.8255341053,-1.12889230251,0.449217021465,0.0,21.7999992371,1.2794428445819397,-0.3775559540167224,0.15023980651003344,21.7999992371,0.0,1.8483767158015514,4.013839178872727
1648638487054133032,37865,5,7,1.65666949749,0.106344930828,0.373234212399,-0.121715031564,21.7999992371,0.5540700660501672,0.03556686649765886,0.12482749578561872,21.7999992371,-0.01644797723837838,0.784380187267715,1.7015189818311411
1648638487153854343,37866,6,0,0.0271931793541,0.081803791225,0.013510026969,0.0,21.0,0.009094708814080267,0.0273591275,0.004518403668561872,21.0,0.0,0.030231594638508153,0.08725737843226065
1648638487153862328,37867,6,1,0.0696605741978,0.0272679310292,-0.0449189692736,0.0,21.0,0.023297850902274247,0.00911970937431438,-0.015023066646688963,21.0,0.0,0.03418696845877328,0.08725737482174804
1648638487153870700,37868,6,2,0.212032392621,-0.081803791225,-0.129904016852,0.0,21.0,0.07091384368595317,-0.0273591275,-0.043446159482274246,21.0,0.0,0.1039522405251222,0.26177213253830894
1648638487153892566,37869,6,3,0.364057958126,0.981645464897,0.0151092857122,0.0,21.0,0.12175851442341136,0.32830952003244146,0.005053272813444816,21.0,0.0,0.3707255219338483,1.0470884901203206
1648638487153899309,37870,6,4,1.18752384186,0.633979380131,-0.130708038807,0.0,21.0,0.3971651645016722,0.21203323750200667,-0.04371506314615384,21.0,0.0,0.6003652468230178,1.3524893052538323
1648638487153973070,37871,6,5,3.81066083908,-1.12889230251,0.561578691006,0.0,21.0,1.2744685080535116,-0.3775559540167224,0.18781896020267558,21.0,0.0,1.8414908238853012,4.013839120761597
1648638487153975951,37872,6,6,1.67273974419,0.106344930828,0.292914927006,-0.243430063128,21.0,0.5594447304983278,0.03556686649765886,0.09796485853043478,21.0,-0.03289595447675676,0.7919733675807258,1.7015189245402382
1648638487153981506,37873,6,7,2.82133316994,-2.09417700768,-4.34060239792,-0.243430063128,21.0,0.9435896889431438,-0.7003936480535117,-1.451706487598662,21.0,-0.03289595447675676,1.507074737494244,5.584471986869313
1648638487153984887,37874,6,8,2.86190128326,0.523544251919,-4.76673364639,-0.243430063128,21.0,0.957157619819398,0.17509841201304346,-1.5942252997959865,21.0,-0.03289595447675676,1.364903246477991,5.584471970962802
1648638487153987611,37875,6,9,1.75760400295,-0.0,0.332488536835,-0.121715031564,21.0,0.587827425735786,-0.0,0.11120017954347826,21.0,-0.01644797723837838,0.8313135178104117,1.7887762460164052
1648638487154052054,37876,6,10,1.80504655838,-0.0586260519922,0.507811188698,-0.121715031564,21.0,0.6036945011304348,-0.019607375248227425,0.16983651795919733,21.0,-0.01644797723837838,0.8539780738135926,1.876033660481216
1648638487253755220,37877,7,0,0.0273220334202,0.081803791225,0.013247503899,0.0,15.1999998093,0.009137803819464881,0.0273591275,0.0044306033107023406,15.1999998093,0.0,0.03025757384271433,0.08725737864818044
1648638487253840071,37878,7,1,0.0696572512388,0.0272679310292,-0.0449241288006,0.0,15.1999998093,0.023296739544749163,0.00911970937431438,-0.015024792241003343,15.1999998093,0.0,0.03418545371797362,0.08725737826253668
1648638487253846663,37879,7,2,0.212826654315,-0.081803791225,-0.128598600626,0.0,15.1999998093,0.07117948304849497,-0.0273591275,-0.04300956542675585,15.1999998093,0.0,0.10431471359143553,0.2617721244301336
1648638487253854730,37880,7,3,0.259155452251,1.01436698437,0.0171008314937,0.0,15.1999998093,0.0866740642979933,0.3392531720301003,0.005719341636688963,15.1999998093,0.0,0.3607180361117949,1.047088518631106
1648638487253866931,37881,7,4,1.16836822033,0.676244676113,-0.0826814845204,0.0,15.1999998093,0.3907586021170569,0.22616878799765885,-0.027652670408160534,15.1999998093,0.0,0.5971071017173407,1.3524893301356447
1648638487253869345,37882,7,5,1.64450204372,-2.1132645607,0.382930546999,0.0,15.1999998093,0.5500006835183946,-0.7067774450501672,0.12807041705652172,15.1999998093,0.0,1.050969010281961,2.704978720643616
1648638487253874175,37883,7,6,2.41570496559,1.71787965298,0.735000431538,0.0,15.1999998093,0.8079280821371236,0.5745416899598662,0.24581954232040132,15.1999998093,0.0,1.2789033291509881,3.0540082870319645
1648638487253965568,37884,7,7,3.80988764763,-1.12889230251,0.566800057888,0.0,15.1999998093,1.2742099155953177,-0.3775559540167224,0.18956523675183945,15.1999998093,0.0,1.8411328893961811,4.013839063023308
1648638487254023392,37885,7,8,1.61187446117,0.155427202582,0.355391740799,-0.243430063128,15.1999998093,0.5390884485518395,0.05198234200066889,0.11886011397959866,15.1999998093,-0.03289595447675676,0.7641563155558769,1.6578902808396843
1648638487254030477,37886,7,9,1.76258563995,-0.111798517406,0.283749312162,-0.243430063128,15.1999998093,0.5894935250668896,-0.03739080849698996,0.09489943550568561,15.1999998093,-0.03289595447675676,0.8345078218636622,1.7887763188293104
1648638487254033736,37887,7,10,4.61875867844,0.698059022427,-3.06041073799,-0.243430063128,15.1999998093,1.5447353439598661,0.23346455599565216,-1.0235487418026754,15.1999998093,-0.03289595447675676,2.197025321807616,5.584472402444214
1648638487254042291,37888,7,11,3.7870259285,-1.57063281536,-3.79181671143,-0.243430063128,15.1999998093,1.2665638556856187,-0.5252952559732441,-1.2681661242240803,15.1999998093,-0.03289595447675676,1.8666288080404303,5.584471935366564
1648638487353811274,37889,8,0,0.0271615516394,0.081803791225,0.0135734993964,0.0,12.8000001907,0.009084130983076923,0.0273591275,0.004539631905150502,12.8000001907,0.0,0.030225233315834845,0.08725737809553558
1648638487353816813,37890,8,1,0.0696683451533,0.0272679310292,-0.0449069216847,0.0,12.8000001907,0.023300449884046823,0.00911970937431438,-0.015019037352742475,12.8000001907,0.0,0.034190510798610664,0.08725737787836813
1648638487353820594,37891,8,2,0.212729543447,-0.081803791225,-0.128759175539,0.0,12.8000001907,0.07114700449732442,-0.0273591275,-0.04306326941103678,12.8000001907,0.0,0.10427039059793465,0.2617721226552504
1648638487353825310,37892,8,3,0.259281992912,1.01436698437,0.0150609789416,0.0,12.8000001907,0.08671638558929765,0.3392531720301003,0.005037116702876254,12.8000001907,0.0,0.3607383785956636,1.047088517707546
1648638487353912852,37893,8,4,0.801895499229,0.392658174038,-0.546971201897,0.0,12.8000001907,0.2681924746585284,0.13132380402608695,-0.18293351234013377,12.8000001907,0.0,0.40137307885658313,1.047088501048136
1648638487353916966,37894,8,5,1.16836988926,0.676244676113,-0.0826586708426,0.0,12.8000001907,0.3907591602876254,0.22616878799765885,-0.02764504041558528,12.8000001907,0.0,0.5971078322729574,1.352489377394908
1648638487353928521,37895,8,6,1.62069237232,-2.07917976379,0.364898949862,0.0,12.8000001907,0.542037582715719,-0.6953778474214046,0.12203978256254179,12.8000001907,0.0,1.0349685177999504,2.6613499393090834
1648638487354000101,37896,8,7,2.42804980278,1.71787965298,0.693129897118,0.0,12.8000001907,0.8120567902274247,0.5745416899598662,0.23181601910301,12.8000001907,0.0,1.2841225076334712,3.0540080879364893
1648638487354003496,37897,8,8,3.84293651581,-1.00345981121,0.579492211342,0.0,12.8000001907,1.2852630487658863,-0.3356052880301003,0.1938101041277592,12.8000001907,0.0,1.84835957497445,4.013839045136906
1648638487354006193,37898,8,9,1.5928068161,0.25904533267,0.380081295967,-0.243430063128,12.8000001907,0.5327113097324414,0.08663723500668896,0.12711749028996655,12.8000001907,-0.03289595447675676,0.7583328355829718,1.6578901740877423
1648638487354009779,37899,8,10,1.73148965836,0.109071724117,0.188645586371,-0.243430063128,12.8000001907,0.5790935312240802,0.03647883749732441,0.0630921693548495,12.8000001907,-0.03289595447675676,0.8197739575006673,1.7451476256370813
1648638487354022307,37900,8,11,1.81255233288,-0.0586260519922,0.480332672596,-0.243430063128,12.8000001907,0.6062047936053511,-0.019607375248227425,0.16064637879464883,12.8000001907,-0.03289595447675676,0.8575272314885035,1.8760337016600044
1648638487453625754,37901,9,0,0.0272770170122,0.081803791225,0.0133399451151,0.0,15.3999996185,0.009122748164615384,0.0273591275,0.004461520105384615,15.3999996185,0.0,0.0302484863375218,0.08725737820689501
1648638487453634625,37902,9,1,0.0696394518018,0.0272679310292,-0.0449517220259,0.0,15.3999996185,0.023290786555785953,0.00911970937431438,-0.015034020744448158,15.3999996185,0.0,0.034177340093200885,0.08725738148123754
1648638487453829151,37903,9,2,0.212902337313,-0.081803791225,-0.128473266959,0.0,15.3999996185,0.07120479508795986,-0.0273591275,-0.042967647812374575,15.3999996185,0.0,0.10434925751819206,0.26177212574153175
1648638487453833410,37904,9,3,0.259717404842,1.01436698437,0.000921940314583,0.0,15.3999996185,0.0868620083083612,0.3392531720301003,0.00030834124233545146,15.3999996185,0.0,0.36080844184581995,1.047088515518958
1648638487453946065,37905,9,4,0.795716583729,0.392658174038,-0.555921733379,0.0,15.3999996185,0.2661259477354515,0.13132380402608695,-0.1859270011301003,15.3999996185,0.0,0.39861257082544027,1.0470884857084997
1648638487453949916,37906,9,5,1.16875100136,0.676244676113,-0.0770818293095,0.0,15.3999996185,0.39088662252842804,0.22616878799765885,-0.025779876023244146,15.3999996185,0.0,0.5972746637918718,1.3524893247493224
1648638487453956884,37907,9,6,2.4276535511,1.71787965298,0.694517374039,0.0,15.3999996185,0.8119242645819398,0.5745416899598662,0.2322800582070234,15.3999996185,0.0,1.283954896534838,3.054008292250228
1648638487453962169,37908,9,7,3.83969283104,-1.00345981121,0.600610852242,0.0,15.3999996185,1.2841782043612038,-0.3356052880301003,0.20087319472976586,15.3999996185,0.0,1.8468508955696714,4.0138393123398
1648638487453966620,37909,9,8,1.70786106586,0.16360758245,0.31934773922,-0.243430063128,15.3999996185,0.5711909919264213,0.054718255,0.10680526395317724,15.3999996185,-0.03289595447675676,0.8096371940233621,1.745147512349748
1648638487453996515,37910,9,9,3.30883789062,-1.73151361942,-4.09321403503,-0.243430063128,15.3999996185,1.1066347460267558,-0.5791015449565217,-1.3689679046923076,15.3999996185,-0.03289595447675676,1.6687239201253259,5.540843684603106
1648638487453999698,37911,9,10,4.69089698792,2.77042174339,-1.01054334641,-0.243430063128,15.3999996185,1.5688618688695652,0.9265624559832776,-0.33797436334782605,15.3999996185,-0.03289595447675676,2.4044070187935263,5.540843712152378
1648638487454002784,37912,9,11,1.53470873833,0.252228349447,0.432307898998,-0.121715031564,15.3999996185,0.5132805144916388,0.08435730750735786,0.14458458160468227,15.3999996185,-0.01644797723837838,0.7307735137807704,1.614261494091736
1648638487553754453,37913,10,0,0.0175999794155,0.0845305845141,0.0125964600593,0.0,17.8999996185,0.0058862807409699,0.028271098499698995,0.004212862896086956,17.8999996185,0.0,0.029471199709253593,0.0872573767640706
1648638487553763690,37914,10,1,0.0696505606174,0.0272679310292,-0.0449345000088,0.0,17.8999996185,0.0232945018787291,0.00911970937431438,-0.015028260872508359,17.8999996185,0.0,0.03418240387433547,0.08725737761342686
1648638487553766618,37915,10,2,0.212346196175,-0.081803791225,-0.129390403628,0.0,17.8999996185,0.07101879470735785,-0.0273591275,-0.043274382484280935,17.8999996185,0.0,0.10409543823306061,0.26177212196830996
1648638487553778704,37916,10,3,0.259688198566,1.01436698437,0.00400281371549,0.0,17.8999996185,0.08685224032307692,0.3392531720301003,0.0013387336841103677,17.8999996185,0.0,0.36080373893677964,1.047088516779734
1648638487553798434,37917,10,4,0.804503858089,0.392658174038,-0.543127477169,0.0,17.8999996185,0.2690648354812709,0.13132380402608695,-0.1816479856752508,17.8999996185,0.0,0.4025390824367354,1.047088513820539
1648638487553872388,37918,10,5,1.1685115099,0.676244676113,-0.0806325301528,0.0,17.8999996185,0.3908065250501672,0.22616878799765885,-0.02696740138889632,17.8999996185,0.0,0.5971698256843726,1.3524894142501804
1648638487553875562,37919,10,6,2.51796507835,1.62244188786,0.595399260521,0.0,17.8999996185,0.8421287887458193,0.5426227049698996,0.19913018746521738,17.8999996185,0.0,1.3087403079365487,3.054008201479131
1648638487553877817,37920,10,7,3.84113168716,-1.00345981121,0.591337144375,0.0,17.8999996185,1.2846594271438125,-0.3356052880301003,0.19777162019230765,17.8999996185,0.0,1.8475201208248595,4.013839041259105
1648638487553879598,37921,10,8,3.30706453323,1.03890812397,-4.32260799408,-0.243430063128,17.8999996185,1.106041649909699,0.3474609110267558,-1.445688292334448,17.8999996185,-0.03289595447675676,1.6023062589160293,5.540843418423133
1648638487553888274,37922,10,9,4.51008749008,2.94357299805,1.30208909512,-0.243430063128,17.8999996185,1.5083904649096989,0.9844725745986621,0.435481302715719,17.8999996185,-0.03289595447675676,2.349397761001298,5.540843543600162
1648638487553981104,37923,10,10,1.55391442776,0.252228349447,0.357170939445,-0.121715031564,17.8999996185,0.519703821993311,0.08435730750735786,0.11945516369397993,17.8999996185,-0.01644797723837838,0.7397974591189139,1.6142615243663188
1648638487653749749,37924,11,0,0.0272461697459,0.081803791225,0.013402835466,0.0,18.8999996185,0.009112431353143812,0.0273591275,0.004482553667558529,18.8999996185,0.0,0.030242266249287157,0.08725737804411987
1648638487653794946,37925,11,1,0.0696433186531,0.0272679310292,-0.0449457205832,0.0,18.8999996185,0.0232920798170903,0.00911970937431438,-0.015032013572976587,18.8999996185,0.0,0.034179102730811525,0.08725737616026237
1648638487653809332,37926,11,2,0.212346196175,-0.081803791225,-0.129390403628,0.0,18.8999996185,0.07101879470735785,-0.0273591275,-0.043274382484280935,18.8999996185,0.0,0.10409543823306061,0.26177212196830996
1648638487653820458,37927,11,3,0.259461402893,1.01436698437,0.0115658193827,0.0,18.8999996185,0.08677638892742474,0.3392531720301003,0.0038681670176254177,18.8999996185,0.0,0.36076723532362553,1.0470885190608694
1648638487653827788,37928,11,4,1.16854310036,0.676244676113,-0.080172277987,0.0,18.8999996185,0.39081709042140467,0.22616878799765885,-0.026813470898662203,18.8999996185,0.0,0.5971836543269037,1.3524893469184007
1648638487653833423,37929,11,5,2.45584321022,1.71787965298,0.587102532387,0.0,18.8999996185,0.8213522442207357,0.5745416899598662,0.19635536200234113,18.8999996185,0.0,1.2958924228788504,3.054008146492342
1648638487653836402,37930,11,6,3.83349728584,-1.00345981121,0.63896214962,0.0,18.8999996185,1.2821061156655518,-0.3356052880301003,0.21369971559197323,18.8999996185,0.0,1.8439693850516568,4.013839267073766
1648638487653839103,37931,11,7,1.64056837559,0.207236275077,-0.119115166366,-0.486860126257,18.8999996185,0.5486850754481605,0.06930979099565217,-0.03983784828294314,18.8999996185,-0.06579190895364864,0.7790471559327895,1.6578901928512035
1648638487653999450,37932,11,8,1.64307618141,0.207236275077,0.077160038054,-0.243430063128,18.8999996185,0.5495238064916387,0.06930979099565217,0.02580603279397993,18.8999996185,-0.03289595447675676,0.7802286042756833,1.657890190301261
1648638487654003959,37933,11,9,1.50915277004,0.343575924635,0.267022490501,-0.121715031564,18.8999996185,0.5047333679063545,0.11490833599832774,0.08930518076956522,18.8999996185,-0.01644797723837838,0.7229906438108915,1.5706328373434566
1648638487654011176,37934,11,10,1.66362297535,0.212689861655,0.286859124899,-0.121715031564,18.8999996185,0.5563956439297658,0.07113373299498328,0.09593950665518394,18.8999996185,-0.01644797723837838,0.7900710304383012,1.701518891726163
1648638487654013953,37935,11,11,1.6251347065,0.055899258703,0.745341062546,-0.121715031564,18.8999996185,0.5435233132107022,0.01869540424849498,0.2492779473397993,18.8999996185,-0.01644797723837838,0.7688853634626509,1.7887763529607568
1648638487753812193,37936,12,0,0.0272535439581,0.081803791225,0.0133878355846,0.0,12.5,0.009114897644849497,0.0273591275,0.004477536984816053,12.5,0.0,0.030243752672468115,0.08725737824791528
1648638487753923546,37937,12,1,0.0697131901979,0.0272679310292,-0.0448372736573,0.0,12.5,0.023315448226722404,0.00911970937431438,-0.014995743698093646,12.5,0.0,0.03421095367127177,0.08725737825078975
1648638487753928096,37938,12,2,0.212902337313,-0.081803791225,-0.128473266959,0.0,12.5,0.07120479508795986,-0.0273591275,-0.042967647812374575,12.5,0.0,0.10434925751819206,0.26177212574153175
1648638487753935430,37939,12,3,0.259560465813,1.01436698437,0.00907448399812,0.0,12.5,0.08680952033879599,0.3392531720301003,0.0030349444809765883,12.5,0.0,0.3607831764029311,1.047088516149796
1648638487753938267,37940,12,4,0.785127997398,0.392658174038,-0.570778310299,0.0,12.5,0.26258461451438125,0.13132380402608695,-0.19089575595284278,12.5,0.0,0.3938874218139169,1.0470884840570216
1648638487753945098,37941,12,5,1.16843140125,0.676244676113,-0.0817839130759,0.0,12.5,0.3907797328595317,0.22616878799765885,-0.02735247928959866,12.5,0.0,0.5971347585695074,1.3524893381599061
1648638487754007904,37942,12,6,2.44849157333,1.71787965298,0.61704480648,0.0,12.5,0.8188935027859532,0.5745416899598662,0.2063695004949833,12.5,0.0,1.292776582133214,3.054008149955505
1648638487754077328,37943,12,7,3.84347915649,-1.00345981121,0.575883984566,0.0,12.5,1.2854445339431437,-0.3356052880301003,0.19260333931973242,12.5,0.0,1.8486119682189603,4.013839307043358
1648638487754236869,37944,12,8,6.00850868225,-1.58153998852,1.19031524658,0.243430063128,12.5,2.0095346763377924,-0.5289431399732442,0.39809874467558526,12.5,0.03289595447675676,2.890716187406302,6.326159633316431
1648638487754304537,37945,12,9,1.58874821663,0.201782688498,-0.202492430806,-0.365145087242,12.5,0.5313539186053511,0.06748584899598661,-0.06772322100535116,12.5,-0.04934393070837838,0.7544722085333782,1.6142615444085289
1648638487754384330,37946,12,10,1.59540855885,0.25904533267,0.369008094072,-0.121715031564,12.5,0.5335814578093645,0.08663723500668896,0.12341407828494984,12.5,-0.01644797723837838,0.7595553664648401,1.657890203698844
1648638487754413150,37947,12,11,1.63663065434,0.109071724117,0.595888793468,-0.121715031564,12.5,0.5473681118193979,0.03647883749732441,0.1992939108588629,12.5,-0.01644797723837838,0.7749544536671958,1.7451475564856918
1648638487853879477,37948,13,0,0.0272149387747,0.081803791225,0.0134661411867,0.0,16.1000003815,0.009101986212274246,0.0273591275,0.004503726149397993,16.1000003815,0.0,0.03023597465897399,0.08725737854046611
1648638487854040983,37949,13,1,0.0695604681969,0.0272679310292,-0.0450738444924,0.0,16.1000003815,0.02326437063441471,0.00911970937431438,-0.015074864378729095,16.1000003815,0.0,0.03414133830274954,0.08725737937681947
1648638487854045401,37950,13,2,0.212592542171,-0.081803791225,-0.128985255957,0.0,16.1000003815,0.07110118467257524,-0.0273591275,-0.043138881590969895,16.1000003815,0.0,0.10420786333693131,0.2617721251390312
1648638487854050537,37951,13,3,0.259561121464,1.01436698437,0.0090558854863,0.0,16.1000003815,0.08680973962006688,0.3392531720301003,0.003028724242909699,16.1000003815,0.0,0.3607832819273815,1.0470885176609848
1648638487854126047,37952,13,4,0.804450154305,0.392658174038,-0.54320704937,0.0,16.1000003815,0.2690468743494983,0.13132380402608695,-0.181674598451505,16.1000003815,0.0,0.40251507139280085,1.047088530586338
1648638487854129996,37953,13,5,1.18713915348,0.633979380131,-0.134157419205,0.0,16.1000003815,0.397036506180602,0.21203323750200667,-0.04486870207525083,16.1000003815,0.0,0.6001950252091238,1.3524893483071296
1648638487854131972,37954,13,6,2.44796299934,1.71787965298,0.61913818121,0.0,16.1000003815,0.818716722187291,0.5745416899598662,0.20706962582274244,16.1000003815,0.0,1.2925526278957242,3.0540080935865905
1648638487854209097,37955,13,7,3.83061122894,-1.00345981121,0.656042218208,0.0,16.1000003815,1.281140879244147,-0.3356052880301003,0.21941211311304346,16.1000003815,0.0,1.842627150102456,4.013839230969036
1648638487854335113,37956,13,8,1.5557564497,0.302674025297,0.306350618601,-0.121715031564,16.1000003815,0.5203198828428094,0.10122877100234112,0.10245840086989966,16.1000003815,-0.01644797723837838,0.7427737374475178,1.6142615642732292
1648638487953851945,37957,14,0,0.0176704786718,0.0845305845141,0.012497371994,0.0,17.7999992371,0.005909859087558528,0.028271098499698995,0.004179723074916388,17.7999992371,0.0,0.029480635665624293,0.08725737700356548
1648638487953859417,37958,14,1,0.0696433186531,0.0272679310292,-0.0449457205832,0.0,17.7999992371,0.0232920798170903,0.00911970937431438,-0.015032013572976587,17.7999992371,0.0,0.034179102730811525,0.08725737616026237
1648638487953864495,37959,14,2,0.212418824434,-0.081803791225,-0.129271134734,0.0,17.7999992371,0.07104308509498328,-0.0273591275,-0.04323449322207358,17.7999992371,0.0,0.10412858270997126,0.2617721213348012
1648638487953884736,37960,14,3,0.259346961975,1.01436698437,0.0138971330598,0.0,17.7999992371,0.0867381143729097,0.3392531720301003,0.004647870588561873,17.7999992371,0.0,0.3607488263354723,1.0470885139150519
1648638487953888067,37961,14,4,1.18699622154,0.633979380131,-0.13541585207,0.0,17.7999992371,0.39698870285618726,0.21203323750200667,-0.04528958263210702,17.7999992371,0.0,0.6001317806919233,1.3524893113712093
1648638487953895134,37962,14,5,2.45929527283,1.71787965298,0.572470724583,0.0,17.7999992371,0.8225067802107022,0.5745416899598662,0.19146178079698994,17.7999992371,0.0,1.2973561425017772,3.054008263183198
1648638487953904581,37963,14,6,3.81111311913,-1.12889230251,0.558501124382,0.0,17.7999992371,1.2746197722842807,-0.3775559540167224,0.1867896737063545,17.7999992371,0.0,1.8417001998722649,4.013839127743797
1648638487953924786,37964,14,7,1.65731680393,0.16360758245,0.521606564522,-0.243430063128,17.7999992371,0.5542865564983277,0.054718255,0.17445035602742476,17.7999992371,-0.03289595447675676,0.7857870327638352,1.7451475117526103
1648638487953937306,37965,14,8,1.61490297318,0.25904533267,0.271263331175,-0.121715031564,17.7999992371,0.5401013288227424,0.08663723500668896,0.09072352213210702,17.7999992371,-0.01644797723837838,0.7687163984733177,1.6578901929874224
1648638488054001423,37966,15,0,0.0272006299347,0.081803791225,0.0134950168431,0.0,15.6000003815,0.009097200647056856,0.0273591275,0.004513383559565217,15.6000003815,0.0,0.030233094065723404,0.08725737795294698
1648638488054023705,37967,15,1,0.0696961507201,0.0272679310292,-0.0448637530208,0.0,15.6000003815,0.02330974940471572,0.00911970937431438,-0.01500459967250836,15.6000003815,0.0,0.03420318601670387,0.08725737689687586
1648638488054027342,37968,15,2,0.212418824434,-0.081803791225,-0.129271134734,0.0,15.6000003815,0.07104308509498328,-0.0273591275,-0.04323449322207358,15.6000003815,0.0,0.10412858270997126,0.2617721213348012
1648638488054029982,37969,15,3,0.259364813566,1.01436698437,0.0135602364317,0.0,15.6000003815,0.08674408480468226,0.3392531720301003,0.0045351961310033445,15.6000003815,0.0,0.3607516974730523,1.0470885184682799
1648638488054035738,37970,15,4,1.18701505661,0.633979380131,-0.135251149535,0.0,15.6000003815,0.3969950022107023,0.21203323750200667,-0.0452344981722408,15.6000003815,0.0,0.6001401147783185,1.3524893613262425
1648638488054124346,37971,15,5,2.45524096489,1.71787965298,0.589616417885,0.0,15.6000003815,0.8211508243779264,0.5745416899598662,0.19719612638294312,15.6000003815,0.0,1.295637104383413,3.05400822167135
1648638488054126716,37972,15,6,3.83610343933,-1.00345981121,0.62312400341,0.0,15.6000003815,1.2829777389063544,-0.3356052880301003,0.20840267672575247,15.6000003815,0.0,1.845181472487812,4.0138391489419165
1648638488054128413,37973,15,7,1.5424529314,0.29449364543,0.0316260419786,-0.121715031564,15.6000003815,0.515870545618729,0.09849285800334448,0.010577271564749163,15.6000003815,-0.01644797723837838,0.7361696018932032,1.5706329167932065
1648638488153971328,37974,16,0,0.0177006740123,0.0845305845141,0.0124545674771,0.0,19.2999992371,0.005919957863645485,0.028271098499698995,0.004165407182976588,19.2999992371,0.0,0.029484687764912126,0.08725737693643303
1648638488153988967,37975,16,1,0.0695888474584,0.0272679310292,-0.0450300201774,0.0,19.2999992371,0.023273862026220733,0.00911970937431438,-0.015060207417190635,19.2999992371,0.0,0.03415427361697327,0.08725738060690753
1648638488154055333,37976,16,2,0.212032392621,-0.081803791225,-0.129904016852,0.0,19.2999992371,0.07091384368595317,-0.0273591275,-0.043446159482274246,19.2999992371,0.0,0.1039522405251222,0.26177213253830894
1648638488154172391,37977,16,3,0.259036064148,1.01436698437,0.018823010847,0.0,19.2999992371,0.08663413516655519,0.3392531720301003,0.006295321353511705,19.2999992371,0.0,0.36069885151549724,1.0470885192984025
1648638488154176823,37978,16,4,1.18703591824,0.633979380131,-0.135067597032,0.0,19.2999992371,0.3970019793444816,0.21203323750200667,-0.04517310937525083,19.2999992371,0.0,0.6001493455902912,1.3524893276440912
1648638488154185106,37979,16,5,1.64131045341,-2.1132645607,0.396387368441,0.0,19.2999992371,0.5489332620100335,-0.7067774450501672,0.13257102623444814,19.2999992371,0.0,1.049852279662998,2.704978752937458
1648638488154189395,37980,16,6,2.45176315308,1.71787965298,0.603914737701,0.0,19.2999992371,0.8199876766153845,0.5745416899598662,0.20197817314414715,19.2999992371,0.0,1.2941629468904339,3.054008197653689
1648638488154191781,37981,16,7,3.82260680199,-1.00345981121,0.70117777586,0.0,19.2999992371,1.2784638133745818,-0.3356052880301003,0.23450761734448158,19.2999992371,0.0,1.8389046613596698,4.01383913836788
1648638488154196903,37982,16,8,1.59291195869,0.155427202582,0.432520329952,-0.365145087242,19.2999992371,0.5327464744782608,0.05198234200066889,0.1446556287464883,19.2999992371,-0.04934393070837838,0.755208432168171,1.6578902132716344
1648638488154202716,37983,16,9,1.40829265118,0.441740483046,0.537089049816,-0.121715031564,19.2999992371,0.47100088668227424,0.14773929198862876,0.17962844475451506,19.2999992371,-0.01644797723837838,0.6822833494291638,1.5706328320653304
