%time,field.header.seq,field.header.frame_id,field.point_id,field.x,field.y,field.z,field.velocity,field.intensity,normalized_x,normalized_y,normalized_z,normalized_intensity,normalized_velocity,normalized_range,range
1648638688956432284,57524,0,0,0.0271668042988,0.081803791225,0.0135629829019,0.0,14.0,0.00908588772535117,0.0273591275,0.004536114682909698,14.0,0.0,0.030226289369961218,0.0872573780249551
1648638688956560295,57525,0,1,0.0696823596954,0.0272679310292,-0.04488517344,0.0,14.0,0.02330513702187291,0.00911970937431438,-0.015011763692307691,14.0,0.0,0.034196899308102484,0.08725737854228258
1648638688956565781,57526,0,2,0.212652742863,-0.081803791225,-0.128885999322,0.0,14.0,0.07112131868327759,-0.0273591275,-0.04310568539197324,14.0,0.0,0.10423533853764719,0.2617721339775706
1648638688956587684,57527,0,3,0.259581238031,1.01436698437,0.00845910795033,0.0,14.0,0.0868164675688963,0.3392531720301003,0.002829133093755852,14.0,0.0,0.3607865197242925,1.0470885132713994
1648638688956600937,57528,0,4,1.16817462444,0.676244676113,-0.0853731185198,0.0,14.0,0.39069385432775916,0.22616878799765885,-0.028552882448093647,14.0,0.0,0.5970223582775527,1.3524893288017126
1648638688956625961,57529,0,5,1.55100333691,0.403565376997,0.193297371268,0.0,14.0,0.5187302130133778,0.13497169799230768,0.06464795025685618,14.0,0.0,0.7459084575500773,1.6142615148592885
1648638688956630135,57530,0,6,1.6217032671,-2.07917976379,0.360379934311,0.0,14.0,0.5423756746153846,-0.6953778474214046,0.12052840612408026,14.0,0.0,1.0353227011484938,2.6613499720500227
1648638688956634884,57531,0,7,2.46401405334,1.71787965298,0.551805973053,0.0,14.0,0.8240849676722408,0.5745416899598662,0.18455049265986623,14.0,0.0,1.2993576187442222,3.054008118698552
1648638688956646419,57532,0,8,3.81867718697,-1.12889230251,0.504193425179,0.0,14.0,1.2771495608595318,-0.3775559540167224,0.1686265636050167,14.0,0.0,1.8452020214656355,4.013839097291417
1648638688956648880,57533,0,9,1.56816470623,0.670791089535,0.539091229439,0.121715031564,14.0,0.5244698014147157,0.22434484599832774,0.1802980700464883,14.0,0.01644797723837838,0.7748985450483153,1.788776281518465
1648638688956651940,57534,0,10,2.94466543198,1.00891339779,0.856971025467,0.243430063128,14.0,0.9848379371170567,0.33742923003010034,0.28661238309933107,14.0,0.03289595447675676,1.4330631563363374,3.228522895850064
1648638688956657733,57535,0,11,1.87602376938,-1.21069610119,-2.33197569847,0.243430063128,14.0,0.6274326987892976,-0.4049150840100334,-0.7799249827658862,14.0,0.03289595447675676,0.9753459941368988,3.228523020046482
1648638689056395054,57536,1,0,0.0272017717361,0.081803791225,0.013492718339,0.0,19.8999996185,0.009097582520434782,0.0273591275,0.00451261482909699,19.8999996185,0.0,0.03023332388265467,0.08725737844183644
1648638689056402107,57537,1,1,0.069647103548,0.0272679310292,-0.044939853251,0.0,19.8999996185,0.02329334566822742,0.00911970937431438,-0.015030051254515049,19.8999996185,0.0,0.034180828016755475,0.0872573750777575
1648638689056430361,57538,1,2,0.213001742959,-0.081803791225,-0.128308385611,0.0,19.8999996185,0.07123804112341137,-0.0273591275,-0.04291250354882943,19.8999996185,0.0,0.104394630435492,0.2617721233830225
1648638689056447888,57539,1,3,0.259383410215,1.01436698437,0.0131994988769,0.0,19.8999996185,0.08675030441973243,0.3392531720301003,0.004414548119364548,19.8999996185,0.0,0.36075468862693566,1.0470885154776801
1648638689056458480,57540,1,4,0.797309696674,0.392658174038,-0.553634524345,0.0,19.8999996185,0.2666587614294314,0.13132380402608695,-0.18516204827591973,19.8999996185,0.0,0.3993240934354436,1.047088525672952
1648638689056462501,57541,1,5,1.1686784029,0.676244676113,-0.0781761929393,0.0,19.8999996185,0.39086234210702336,0.22616878799765885,-0.026145883926187292,19.8999996185,0.0,0.5972428832720449,1.3524894042167404
1648638689056472104,57542,1,6,1.48113083839,0.39265820384,0.344903677702,0.0,19.8999996185,0.4953614844113712,0.13132381399331103,0.11535240056923075,19.8999996185,0.0,0.7127495665366792,1.5706328572792194
1648638689056475788,57543,1,7,1.78196072578,0.171787962317,0.390912532806,0.0,19.8999996185,0.5959734868829432,0.05745416799899665,0.1307399775270903,19.8999996185,0.0,0.8447897818719661,1.8324049062705037
1648638689056480328,57544,1,8,1.09644651413,0.68715184927,1.29743409157,0.0,19.8999996185,0.36670451977591967,0.22981667199665548,0.4339244453411371,19.8999996185,0.0,0.5672390257870081,1.8324049345794395
1648638689056491326,57545,1,9,3.84789609909,-1.00345981121,0.545591235161,0.0,19.8999996185,1.286921772270903,-0.3356052880301003,0.18247198500367892,19.8999996185,0.0,1.8506664219257694,4.013839281534595
1648638689056582018,57546,1,10,3.01674056053,1.02254736423,0.748765766621,0.121715031564,19.8999996185,1.0089433312809364,0.34198908502675585,0.2504233333180602,19.8999996185,0.01644797723837838,1.4672729213578448,3.2721517224762233
1648638689056594634,57547,1,11,2.1422419548,-2.35185909271,0.765855789185,0.121715031564,19.8999996185,0.7164688812040133,-0.7865749473946487,0.2561390599280936,19.8999996185,0.01644797723837838,1.2827141003888416,3.272151719388361
1648638689056686960,57548,1,12,1.62816572189,0.310854405165,-0.0323421955109,-0.243430063128,19.8999996185,0.5445370307324414,0.10396468400167223,-0.010816787796287624,19.8999996185,-0.03289595447675676,0.7770777381944327,1.657890254738997
1648638689156539473,57549,2,0,0.0272006709129,0.081803791225,0.0134949339554,0.0,31.8999996185,0.009097214352140467,0.0273591275,0.004513355837926421,31.8999996185,0.0,0.030233102313504602,0.0872573779078645
1648638689156614012,57550,2,1,0.0696649476886,0.0272679310292,-0.0449121892452,0.0,31.8999996185,0.023299313608227422,0.00911970937431438,-0.015020799078662205,31.8999996185,0.0,0.03418896208282756,0.08725737643239821
1648638689156623504,57551,2,2,0.213001742959,-0.081803791225,-0.128308385611,0.0,31.8999996185,0.07123804112341137,-0.0273591275,-0.04291250354882943,31.8999996185,0.0,0.104394630435492,0.2617721233830225
1648638689156789743,57552,2,3,0.259185284376,1.01436698437,0.0166426077485,0.0,31.8999996185,0.08668404159732442,0.3392531720301003,0.00556608954799331,31.8999996185,0.0,0.360722831087496,1.047088519185282
1648638689156804425,57553,2,4,1.18733489513,0.633979380131,-0.13241392374,0.0,31.8999996185,0.3971019716153846,0.21203323750200667,-0.04428559322408026,31.8999996185,0.0,0.6002816385058215,1.3524893547917032
1648638689156821708,57554,2,5,1.59954845905,0.414472550154,0.135119393468,0.0,31.8999996185,0.5349660398160535,0.13861958199130434,0.04519043259799331,31.8999996185,0.0,0.7691506458583952,1.6578902310380956
1648638689156828044,57555,2,6,3.83487486839,-1.00345981121,0.630640745163,0.0,31.8999996185,1.2825668456153845,-0.3356052880301003,0.21091663717826084,31.8999996185,0.0,1.8446100770345373,4.01383913459204
1648638689156837122,57556,2,7,1.64216780663,0.68715184927,0.434528648853,0.243430063128,31.8999996185,0.5492200022173913,0.22981667199665548,0.14532730730869564,31.8999996185,0.03289595447675676,0.8100005706164416,1.8324049540866179
1648638689256412558,57557,3,0,0.0272427201271,0.081803791225,0.0134098464623,0.0,20.7999992371,0.009111277634481604,0.0273591275,0.0044848984823745814,20.7999992371,0.0,0.03024157102113688,0.08725737814562931
1648638689256419539,57558,3,1,0.069647103548,0.0272679310292,-0.044939853251,0.0,20.7999992371,0.02329334566822742,0.00911970937431438,-0.015030051254515049,20.7999992371,0.0,0.034180828016755475,0.0872573750777575
1648638689256586340,57559,3,2,0.213349804282,-0.081803791225,-0.127728804946,0.0,20.7999992371,0.07135444959264214,-0.0273591275,-0.04271866386153846,20.7999992371,0.0,0.10455351171002854,0.26177212773495273
1648638689256591549,57560,3,3,0.259356290102,1.01436698437,0.0137218814343,0.0,20.7999992371,0.08674123414782609,0.3392531720301003,0.004589258004782609,20.7999992371,0.0,0.36075032659092743,1.0470885130806553
1648638689256594255,57561,3,4,1.18729972839,0.633979380131,-0.132728427649,0.0,20.7999992371,0.3970902101638796,0.21203323750200667,-0.04439077847792642,20.7999992371,0.0,0.6002660775202697,1.35248931048361
1648638689256600373,57562,3,5,1.51703643799,0.504456698895,0.223526582122,0.0,20.7999992371,0.5073700461505016,0.16871461501505017,0.07475805422140468,20.7999992371,0.0,0.7370979234682465,1.6142615178974473
1648638689256660921,57563,3,6,1.64129602909,-2.1132645607,0.396446704865,0.0,20.7999992371,0.5489284378227425,-0.7067774450501672,0.13259087119230767,20.7999992371,0.0,1.049847234854993,2.7049786964808953
1648638689256754098,57564,3,7,3.80780863762,-1.12889230251,0.580602824688,0.0,20.7999992371,1.273514594521739,-0.3775559540167224,0.19418154671839463,20.7999992371,0.0,1.8401704658354932,4.013839071442139
1648638689256758969,57565,3,8,1.34194469452,0.668064296246,0.290888488293,-0.730290174484,20.7999992371,0.44881093462207355,0.22343287499866218,0.09728711983043478,20.7999992371,-0.09868786141675676,0.6728928292847578,1.527004119081028
1648638689356486399,57566,4,0,0.0271668042988,0.081803791225,0.0135629829019,0.0,31.2000007629,0.00908588772535117,0.0273591275,0.004536114682909698,31.2000007629,0.0,0.030226289369961218,0.0872573780249551
1648638689356497081,57567,4,1,0.0696539133787,0.0272679310292,-0.0449292957783,0.0,31.2000007629,0.023295623203578593,0.00911970937431438,-0.015026520327190636,31.2000007629,0.0,0.03418393218981947,0.08725737407643332
1648638689356599663,57568,4,2,0.212618291378,-0.081803791225,-0.12894281745,0.0,31.2000007629,0.07110979644749163,-0.0273591275,-0.04312468811036789,31.2000007629,0.0,0.10421961504039746,0.26177213040968955
1648638689356607570,57569,4,3,0.259005278349,1.01436698437,0.0192416645586,0.0,31.2000007629,0.08662383891270903,0.3392531720301003,0.006435339317257525,31.2000007629,0.0,0.36069390578222243,1.0470885133776975
1648638689356624956,57570,4,4,0.801268994808,0.392658174038,-0.54788851738,0.0,31.2000007629,0.26798294140735784,0.13132380402608695,-0.1832403068160535,31.2000007629,0.0,0.40109307557543405,1.0470884734139392
1648638689356796525,57571,4,5,1.18723428249,0.633979380131,-0.133313134313,0.0,31.2000007629,0.39706832190301,0.21203323750200667,-0.04458633254615384,31.2000007629,0.0,0.6002371184151536,1.3524893669567934
1648638689356800456,57572,4,6,1.47921729088,0.441740483046,0.289256006479,0.0,31.2000007629,0.4947215019665552,0.14773929198862876,0.09674113929063545,31.2000007629,0.0,0.7150703653581162,1.5706328295576466
1648638689356802380,57573,4,7,1.64325499535,-2.1132645607,0.388247221708,0.0,31.2000007629,0.5495836104849497,-0.7067774450501672,0.12984856913311035,31.2000007629,0.0,1.0505325538311452,2.7049787408438672
1648638689356947117,57574,4,8,3.83778738976,-1.00345981121,0.612667024136,0.0,31.2000007629,1.2835409330301002,-0.3356052880301003,0.20490535924280937,31.2000007629,0.0,1.8459646699981358,4.013839125348467
1648638689356952937,57575,4,9,1.61639666557,0.362663477659,-0.0658557713032,0.243430063128,31.2000007629,0.5406008914949832,0.12129213299632105,-0.022025341572976587,31.2000007629,0.03289595447675676,0.7740868357601352,1.6578902138282479
1648638689356959196,57576,4,10,1.81893026829,0.234504207969,0.394971907139,-0.121715031564,31.2000007629,0.6083378823712374,0.07842950099297659,0.1320976278056856,31.2000007629,-0.01644797723837838,0.8638872292619276,1.876033675573474
1648638689356962042,57577,4,11,0.676151752472,1.7001554966,0.414478570223,-0.121715031564,31.2000007629,0.22613770985685616,0.5686138784615384,0.13862159539230767,31.2000007629,-0.01644797723837838,0.6523789316169557,1.8760336857754585
1648638689456493115,57578,5,0,0.0272778924555,0.081803791225,0.0133381560445,0.0,11.6000003815,0.009123040955016723,0.0273591275,0.004460921754013377,11.6000003815,0.0,0.030248662947229273,0.08725737838294619
1648638689456502011,57579,5,1,0.0697623416781,0.0272679310292,-0.0447607561946,0.0,11.6000003815,0.023331886848862875,0.00911970937431438,-0.014970152573444815,11.6000003815,0.0,0.03423336073084614,0.08725737604430699
1648638689456513285,57580,5,2,0.212654277682,-0.081803791225,-0.128883436322,0.0,11.6000003815,0.07112183200066889,-0.0273591275,-0.04310482820133779,11.6000003815,0.0,0.10423603902597219,0.26177211890001495
1648638689456518062,57581,5,3,0.363511443138,0.981645464897,0.0250185839832,0.0,11.6000003815,0.12157573349096988,0.32830952003244146,0.008367419392374582,11.6000003815,0.0,0.3706055300338444,1.0470884955865207
1648638689456523605,57582,5,4,1.16824054718,0.676244676113,-0.0844665542245,0.0,11.6000003815,0.39071590206688955,0.22616878799765885,-0.028249683687123744,11.6000003815,0.0,0.5970512146543346,1.352489348138891
1648638689456584445,57583,5,5,3.83070993423,-1.00345981121,0.65546476841,0.0,11.6000003815,1.2811738910468227,-0.3356052880301003,0.219218986090301,11.6000003815,0.0,1.8426730549812351,4.013839091885572
1648638689456588733,57584,5,6,1.47633421421,0.554902374744,0.344036221504,0.121715031564,11.6000003815,0.4937572622775919,0.18558607850969897,0.11506228143946487,11.6000003815,0.01644797723837838,0.7225196610752773,1.6142615275259264
1648638689556537656,57585,6,0,0.0271742716432,0.081803791225,0.0135480146855,0.0,18.3999996185,0.009088385164949832,0.0273591275,0.004531108590468227,18.3999996185,0.0,0.03022779097741376,0.08725737791178655
1648638689556547498,57586,6,1,0.069727525115,0.0272679310292,-0.0448149740696,0.0,18.3999996185,0.02332024251337792,0.00911970937431438,-0.014988285642006688,18.3999996185,0.0,0.03421748852323144,0.08725737631934095
1648638689556553165,57587,6,2,0.213160321116,-0.081803791225,-0.128044784069,0.0,18.3999996185,0.07129107729632106,-0.0273591275,-0.04282434249799331,18.3999996185,0.0,0.10446701518518324,0.2617721327497189
1648638689556674861,57588,6,3,0.363805234432,0.981645464897,0.0203036572784,0.0,18.3999996185,0.12167399144882943,0.32830952003244146,0.006790520828896321,18.3999996185,0.0,0.37067001677248146,1.047088489981553
1648638689556758297,57589,6,4,1.16861712933,0.676244676113,-0.0790865644813,0.0,18.3999996185,0.3908418492742475,0.22616878799765885,-0.026450356013812706,18.3999996185,0.0,0.5972160605279777,1.3524893868774428
1648638689556782380,57590,6,5,1.50476777554,0.504456698895,0.295021444559,0.0,18.3999996185,0.5032668145618728,0.16871461501505017,0.09866937945117056,18.3999996185,0.0,0.7314503363853117,1.6142615253153125
1648638689556893551,57591,6,6,3.82484936714,-1.00345981121,0.688839793205,0.0,18.3999996185,1.2792138351638795,-0.3356052880301003,0.23038120174080265,18.3999996185,0.0,1.8399475485739067,4.0138391266625995
1648638689656483695,57592,7,0,0.0272845346481,0.081803791225,0.0133245615289,0.0,14.3999996185,0.009125262424113711,0.0273591275,0.004456375093277592,14.3999996185,0.0,0.030250003077340992,0.08725737808165106
1648638689656493624,57593,7,1,0.0697268545628,0.0272679310292,-0.0448160134256,0.0,14.3999996185,0.023320018248428095,0.00911970937431438,-0.01498863325270903,14.3999996185,0.0,0.03421718283678533,0.08725737429695345
1648638689656497916,57594,7,2,0.212460890412,-0.081803791225,-0.129201993346,0.0,14.3999996185,0.07105715398394648,-0.0273591275,-0.043211369012040125,14.3999996185,0.0,0.10414778020753884,0.2617721247536167
1648638689656524967,57595,7,3,0.363256186247,0.981645464897,0.02848553285,0.0,14.3999996185,0.12149036329331103,0.32830952003244146,0.009526934063545149,14.3999996185,0.0,0.37054953473215085,1.0470884877513031
1648638689656529497,57596,7,4,1.16849243641,0.676244676113,-0.080907151103,0.0,14.3999996185,0.39080014595652174,0.22616878799765885,-0.027059247860535113,14.3999996185,0.0,0.5971614763391954,1.3524893356393455
1648638689656612381,57597,7,5,1.48408901691,0.504456698895,0.385802388191,0.0,14.3999996185,0.4963508417759197,0.16871461501505017,0.1290308990605351,14.3999996185,0.0,0.7219369346300303,1.6142615196760437
1648638689656618613,57598,7,6,3.82357287407,-1.00345981121,0.695890843868,0.0,14.3999996185,1.2787869144046822,-0.3356052880301003,0.23273941266488293,14.3999996185,0.0,1.8393539230553382,4.013839207369529
1648638689756445558,57599,8,0,0.0272437036037,0.081803791225,0.0134078487754,0.0,15.3000001907,0.009111606556421405,0.0273591275,0.004484230359665551,15.3000001907,0.0,0.030241769221381533,0.08725737821877093
1648638689756452333,57600,8,1,0.0697615295649,0.0272679310292,-0.0447620302439,0.0,15.3000001907,0.02333161523909699,0.00911970937431438,-0.014970578676889631,15.3000001907,0.0,0.03423299049750815,0.08725738032627064
1648638689756471080,57601,8,2,0.212112590671,-0.081803791225,-0.129772990942,0.0,15.3000001907,0.07094066577625417,-0.0273591275,-0.043402338107692305,15.3000001907,0.0,0.10398883583884212,0.26177211569985637
1648638689756488085,57602,8,3,0.259185284376,1.01436698437,0.0166426077485,0.0,15.3000001907,0.08668404159732442,0.3392531720301003,0.00556608954799331,15.3000001907,0.0,0.360722831087496,1.047088519185282
1648638689756496616,57603,8,4,1.16824615002,0.676244676113,-0.0843894705176,0.0,15.3000001907,0.39071777592642143,0.22616878799765885,-0.02822390318314381,15.3000001907,0.0,0.597053667197605,1.3524893758333074
1648638689756515921,57604,8,5,1.51334488392,0.504456698895,0.247287407517,0.0,15.3000001907,0.5061354126822742,0.16871461501505017,0.08270481856755853,15.3000001907,0.0,0.7353983500537573,1.6142615527427264
1648638689756628578,57605,8,6,1.76842391491,0.293130248785,0.553402066231,0.0,15.3000001907,0.5914461253879598,0.09803687250334447,0.18508430308729096,15.3000001907,0.0,0.8421569134330594,1.876033670403361
1648638689756781205,57606,8,7,3.8449780941,-1.00345981121,0.565788567066,0.0,15.3000001907,1.2859458508695651,-0.3356052880301003,0.1892269455070234,15.3000001907,0.0,1.8493091607654644,4.013839164620959
1648638689756784974,57607,8,8,1.66016852856,0.372207254171,0.0216579753906,0.243430063128,15.3000001907,0.555240310555184,0.12448403149531771,0.007243470030301003,15.3000001907,0.03289595447675676,0.795034514362843,1.7015189834899318
1648638689856432876,57608,9,0,0.027198554948,0.081803791225,0.0134991984814,0.0,33.5,0.009096506671571906,0.0273591275,0.004514782100802675,33.5,0.0,0.030232676441445946,0.08725737796704068
1648638689856440635,57609,9,1,0.069647103548,0.0272679310292,-0.044939853251,0.0,33.5,0.02329334566822742,0.00911970937431438,-0.015030051254515049,33.5,0.0,0.034180828016755475,0.0872573750777575
1648638689856453833,57610,9,2,0.212901711464,-0.081803791225,-0.128474295139,0.0,33.5,0.07120458577391303,-0.0273591275,-0.04296799168528428,33.5,0.0,0.1043489718589998,0.26177212134707273
1648638689856694643,57611,9,3,0.25894549489,1.01436698437,0.0200300458819,0.0,33.5,0.08660384444481606,0.3392531720301003,0.006699012000635452,33.5,0.0,0.36068430306533805,1.0470885115603867
1648638689856699685,57612,9,4,1.16856789589,0.676244676113,-0.0798100084066,0.0,33.5,0.3908253832408027,0.22616878799765885,-0.026692310503879598,33.5,0.0,0.5971945085438836,1.3524893444008421
1648638689856701704,57613,9,5,3.80816221237,-1.12889230251,0.578280210495,0.0,33.5,1.2736328469464882,-0.3775559540167224,0.19340475267391302,33.5,0.0,1.8403341425011683,4.013839218035426
1648638689856705604,57614,9,6,1.6467590332,0.42537972331,0.0490260310471,-0.243430063128,33.5,0.5507555294983277,0.14226746598996656,0.016396665902040135,33.5,-0.03289595447675676,0.7917722768733274,1.7015189608550714
1648638689956481777,57615,10,0,0.0272437036037,0.081803791225,0.0134078487754,0.0,26.7999992371,0.009111606556421405,0.0273591275,0.004484230359665551,26.7999992371,0.0,0.030241769221381533,0.08725737821877093
1648638689956495611,57616,10,1,0.0697374343872,0.0272679310292,-0.0447995550931,0.0,26.7999992371,0.023323556651237455,0.00911970937431438,-0.014983128793678928,26.7999992371,0.0,0.03422200591430788,0.0872573776483223
1648638689956593247,57617,10,2,0.213224291801,-0.081803791225,-0.127938225865,0.0,26.7999992371,0.07131247217424748,-0.0273591275,-0.04278870430267558,26.7999992371,0.0,0.10449621635622458,0.26177213088926243
1648638689956597989,57618,10,3,0.259383410215,1.01436698437,0.0131994988769,0.0,26.7999992371,0.08675030441973243,0.3392531720301003,0.004414548119364548,26.7999992371,0.0,0.36075468862693566,1.0470885154776801
1648638689956599889,57619,10,4,1.16861593723,0.676244676113,-0.0791034772992,0.0,26.7999992371,0.3908414505785953,0.22616878799765885,-0.026456012474648828,26.7999992371,0.0,0.5972155386835569,1.352489345924748
1648638689956604557,57620,10,5,1.4351811409,0.504456698895,0.540017545223,0.0,26.7999992371,0.4799936926086956,0.16871461501505017,0.18060787465652176,26.7999992371,0.0,0.6994658756565173,1.6142615703174443
1648638689956707407,57621,10,6,3.81487965584,-1.12889230251,0.532165706158,0.0,26.7999992371,1.2758794835585283,-0.3775559540167224,0.17798184152441468,26.7999992371,0.0,1.8434438997551923,4.013839179391582
1648638690056694807,57622,11,0,0.0272017717361,0.081803791225,0.013492718339,0.0,14.3000001907,0.009097582520434782,0.0273591275,0.00451261482909699,14.3000001907,0.0,0.03023332388265467,0.08725737844183644
1648638690056735404,57623,11,1,0.0697374343872,0.0272679310292,-0.0447995550931,0.0,14.3000001907,0.023323556651237455,0.00911970937431438,-0.014983128793678928,14.3000001907,0.0,0.03422200591430788,0.0872573776483223
1648638690056747579,57624,11,2,0.213224291801,-0.081803791225,-0.127938225865,0.0,14.3000001907,0.07131247217424748,-0.0273591275,-0.04278870430267558,14.3000001907,0.0,0.10449621635622458,0.26177213088926243
1648638690056759822,57625,11,3,0.364136904478,0.981645464897,0.0130689339712,0.0,14.3000001907,0.12178491788561872,0.32830952003244146,0.004370880926822742,14.3000001907,0.0,0.37074286694789677,1.0470884876603366
1648638690056765930,57626,11,4,1.16890358925,0.676244676113,-0.0747328028083,0.0,14.3000001907,0.39093765526755847,0.22616878799765885,-0.024994248430869562,14.3000001907,0.0,0.5973414612066725,1.3524893547633907
1648638690056829687,57627,11,5,3.8618888855,-1.00345981121,0.435645580292,0.0,14.3000001907,1.2916016339464882,-0.3356052880301003,0.14570086297391305,14.3000001907,0.0,1.8571754012425006,4.013839113403774
1648638690156571285,57628,12,0,0.0271742716432,0.081803791225,0.0135480146855,0.0,15.0,0.009088385164949832,0.0273591275,0.004531108590468227,15.0,0.0,0.03022779097741376,0.08725737791178655
1648638690156578282,57629,12,1,0.0697446167469,0.0272679310292,-0.0447883680463,0.0,15.0,0.02332595877822742,0.00911970937431438,-0.014979387306454848,15.0,0.0,0.03422528020219977,0.0872573752758814
1648638690156585585,57630,12,2,0.213098019361,-0.081803791225,-0.128148421645,0.0,15.0,0.07127024058896321,-0.0273591275,-0.04285900389464883,15.0,0.0,0.1044385764206821,0.26177212243565817
1648638690156593992,57631,12,3,0.364308685064,0.981645464897,0.00675652688369,0.0,15.0,0.12184236958662206,0.32830952003244146,0.002259707987856187,15.0,0.0,0.37078061842132215,1.0470884811807635
1648638690156917864,57632,12,4,0.799598574638,0.392658174038,-0.550323545933,0.0,15.0,0.2674242724541806,0.13132380402608695,-0.18405469763645485,15.0,0.0,0.40034663043315066,1.0470885002760026
1648638690156964619,57633,12,5,1.16897368431,0.676244676113,-0.0736286044121,0.0,15.0,0.3909610984314381,0.22616878799765885,-0.024624951308394646,15.0,0.0,0.597372146687275,1.3524893744381674
1648638690157005120,57634,12,6,1.49567484856,0.454011052847,0.403325021267,0.0,15.0,0.5002257018595317,0.15184316148729096,0.1348913114605351,15.0,0.0,0.7235384241988657,1.614261553002563
1648638690157011059,57635,12,7,1.63068330288,-2.07917976379,0.317281126976,0.0,15.0,0.5453790310635451,-0.6953778474214046,0.1061140892896321,15.0,0.0,1.0384733630344347,2.6613500029084163
1648638690157075092,57636,12,8,2.46108579636,1.71787965298,0.564723014832,0.0,15.0,0.8231056175117056,0.5745416899598662,0.18887057352240802,15.0,0.0,1.2981155066713408,3.0540081667619297
1648638690157085070,57637,12,9,3.83219981194,-1.00345981121,0.646697878838,0.0,15.0,1.2816721779063545,-0.3356052880301003,0.2162869159993311,15.0,0.0,1.8433659573161814,4.01383920179174
1648638690157090735,57638,12,10,1.77992236614,0.234504207969,0.544414103031,-0.121715031564,15.0,0.5952917612508362,0.07842950099297659,0.18207829532809364,15.0,-0.01644797723837838,0.8455150789029444,1.876033733337339
1648638690256642347,57639,13,0,0.0271943453699,0.081803791225,0.0135076763108,0.0,13.1999998093,0.009095098785919731,0.0273591275,0.004517617495250836,13.1999998093,0.0,0.030231829276650354,0.08725737790123043
1648638690256648872,57640,13,1,0.0697720870376,0.0272679310292,-0.0447455607355,0.0,13.1999998093,0.023335146166421405,0.00911970937431438,-0.014965070480100333,13.1999998093,0.0,0.03423780355525834,0.08725737446044292
1648638690256658211,57641,13,2,0.213000357151,-0.081803791225,-0.128310695291,0.0,13.1999998093,0.0712375776424749,-0.0273591275,-0.042913276017056856,13.1999998093,0.0,0.10439399788444036,0.2617721278732646
1648638690256681654,57642,13,3,0.363931804895,0.981645464897,0.0178924575448,0.0,13.1999998093,0.12171632270735784,0.32830952003244146,0.005984099513311037,13.1999998093,0.0,0.3706978113918875,1.04708849549786
1648638690256766325,57643,13,4,1.1691095829,0.676244676113,-0.0714369863272,0.0,13.1999998093,0.3910065494648829,0.22616878799765885,-0.023891968671304345,13.1999998093,0.0,0.5974316396988009,1.3524893056195677
1648638690256770204,57644,13,5,1.46227574348,0.39265820384,0.41768014431,0.0,13.1999998093,0.4890554326020067,0.13132381399331103,0.13969235595652174,13.1999998093,0.0,0.7039860626722816,1.570632839960907
1648638690256827933,57645,13,6,2.46392583847,1.71787965298,0.55219990015,0.0,13.1999998093,0.8240554643712373,0.5745416899598662,0.1846822408528428,13.1999998093,0.0,1.2993201954184082,3.0540081482092423
1648638690256830378,57646,13,7,3.84320950508,-1.00345981121,0.577679395676,0.0,13.1999998093,1.2853543495250834,-0.3356052880301003,0.19320381126287625,13.1999998093,0.0,1.8484865477032466,4.013839106994631
1648638690256831443,57647,13,8,1.66028773785,0.372207254171,-0.00856109522283,0.121715031564,13.1999998093,0.5552801798829431,0.12448403149531771,-0.0028632425494414717,13.1999998093,0.01644797723837838,0.7950902027059537,1.7015189992662438
1648638690256833521,57648,13,9,3.05709981918,1.12480211258,0.309737503529,-0.243430063128,13.1999998093,1.02244141109699,0.37618799751839466,0.10359113830401337,13.1999998093,-0.03289595447675676,1.4940851005645253,3.2721516496010996
1648638690256834551,57649,13,10,1.76431322098,-0.102254740894,-2.75385546684,-0.243430063128,13.1999998093,0.5900713113645485,-0.034198909997993306,-0.9210218952642141,13.1999998093,-0.03289595447675676,0.8351873265537538,3.2721517547333705
1648638690356614662,57650,14,0,0.0272468905896,0.081803791225,0.0134013686329,0.0,18.2999992371,0.00911267243799331,0.0273591275,0.004482063087926421,18.2999992371,0.0,0.03024241153555024,0.08725737783603113
1648638690356627369,57651,14,1,0.0697551965714,0.0272679310292,-0.0447718948126,0.0,18.2999992371,0.023329497181070233,0.00911970937431438,-0.014973877863745818,18.2999992371,0.0,0.03423010336699388,0.08725737834956068
1648638690356638543,57652,14,2,0.212272509933,-0.081803791225,-0.129511266947,0.0,18.2999992371,0.07099415047926422,-0.0273591275,-0.04331480499899665,18.2999992371,0.0,0.10406181173757298,0.26177212800116073
1648638690356856086,57653,14,3,0.363805234432,0.981645464897,0.0203036572784,0.0,18.2999992371,0.12167399144882943,0.32830952003244146,0.006790520828896321,18.2999992371,0.0,0.37067001677248146,1.047088489981553
1648638690356860224,57654,14,4,1.16915261745,0.676244676113,-0.0707294940948,0.0,18.2999992371,0.39102094229096984,0.22616878799765885,-0.023655349195585283,18.2999992371,0.0,0.5974504793575497,1.3524893220267096
1648638690356861910,57655,14,5,1.4956176281,0.343575924635,0.334620684385,0.0,18.2999992371,0.5002065645819398,0.11490833599832774,0.1119132723695652,18.2999992371,0.0,0.7166708729839919,1.5706328367542017
1648638690356910581,57656,14,6,1.6565349102,0.372207254171,0.111896321177,0.0,18.2999992371,0.5540250535785953,0.12448403149531771,0.037423518788294315,18.2999992371,0.0,0.793337125113188,1.701519008257558
1648638690356951286,57657,14,7,1.64356446266,-2.1132645607,0.386934816837,0.0,18.2999992371,0.549687111257525,-0.7067774450501672,0.12940963773812708,18.2999992371,0.0,1.0506408508129348,2.7049787058145394
1648638690357020531,57658,14,8,2.45550704002,1.71787965298,0.588507473469,0.0,18.2999992371,0.821239812715719,0.5745416899598662,0.19682524196287624,18.2999992371,0.0,1.2957499039091755,3.05400824688463
1648638690357024158,57659,14,9,3.8401799202,-1.00345981121,0.597487330437,0.0,18.2999992371,1.2843411104347826,-0.3356052880301003,0.19982853860769229,18.2999992371,0.0,1.8470774443047773,4.013839125108731
1648638690456502900,57660,15,0,0.0271817240864,0.081803791225,0.0135330567136,0.0,14.8999996185,0.009090877620869565,0.0273591275,0.004526105924280936,14.8999996185,0.0,0.030229289925443343,0.08725737795227449
1648638690456509553,57661,15,1,0.0696649476886,0.0272679310292,-0.0449121892452,0.0,14.8999996185,0.023299313608227422,0.00911970937431438,-0.015020799078662205,14.8999996185,0.0,0.03418896208282756,0.08725737643239821
1648638690456514881,57662,15,2,0.213224291801,-0.081803791225,-0.127938225865,0.0,14.8999996185,0.07131247217424748,-0.0273591275,-0.04278870430267558,14.8999996185,0.0,0.10449621635622458,0.26177213088926243
1648638690456518306,57663,15,3,0.259680896997,1.01436698437,0.00445092702284,0.0,14.8999996185,0.08684979832675584,0.3392531720301003,0.001488604355464883,14.8999996185,0.0,0.36080256328258137,1.0470885148813434
1648638690456678507,57664,15,4,1.14581084251,0.718509972095,-0.00939966831356,0.0,14.8999996185,0.38321432859866217,0.240304338493311,-0.003143701777110368,14.8999996185,0.0,0.5928343937267427,1.3524893421309607
1648638690456684699,57665,15,5,1.79877054691,0.0586260519922,0.529612898827,0.0,14.8999996185,0.601595500638796,0.019607375248227425,0.1771280598083612,14.8999996185,0.0,0.8510104241087837,1.8760336662776151
1648638690456688618,57666,15,6,2.45739912987,1.71787965298,0.580555915833,0.0,14.8999996185,0.8218726186856188,0.5745416899598662,0.1941658581381271,14.8999996185,0.0,1.2965521031536882,3.0540082116813654
1648638690456833364,57667,15,7,3.80444955826,-1.12889230251,0.602220714092,0.0,14.8999996185,1.2723911566086956,-0.3775559540167224,0.20141161006421401,14.8999996185,0.0,1.8386155142512821,4.013839067587603
1648638690556546485,57668,16,0,0.0272080972791,0.081803791225,0.0134799545631,0.0,15.3000001907,0.009099698086655518,0.0273591275,0.004508346007725752,15.3000001907,0.0,0.030234597204160343,0.08725737786202148
1648638690556556877,57669,16,1,0.0697446167469,0.0272679310292,-0.0447883680463,0.0,15.3000001907,0.02332595877822742,0.00911970937431438,-0.014979387306454848,15.3000001907,0.0,0.03422528020219977,0.0872573752758814
1648638690556562626,57670,16,2,0.213319152594,-0.081803791225,-0.127779975533,0.0,15.3000001907,0.07134419819197324,-0.0273591275,-0.04273577777023411,15.3000001907,0.0,0.10453951926842008,0.26177212087886614
1648638690556587866,57671,16,3,0.259603530169,1.01436698437,0.00774549692869,0.0,15.3000001907,0.08682392313344481,0.3392531720301003,0.002590467200230769,15.3000001907,0.0,0.36079010794234573,1.047088518024511
1648638690556697369,57672,16,4,1.14576125145,0.718509972095,-0.0142165543512,0.0,15.3000001907,0.3831977429598662,0.240304338493311,-0.004754700451906354,15.3000001907,0.0,0.5928129515435532,1.3524893847057908
1648638690556701992,57673,16,5,1.61932873726,-2.07917976379,0.370903998613,0.0,15.3000001907,0.5415815174782609,-0.6953778474214046,0.12404816007123745,15.3000001907,0.0,1.034490904180669,2.6613500005931234
1648638690556703909,57674,16,6,2.32783722878,1.8133174181,0.787413179874,0.0,15.3000001907,0.7785408791906354,0.6064606749498327,0.2633488895899665,15.3000001907,0.0,1.2569989464603626,3.054008143132281
1648638690556709227,57675,16,7,3.80544757843,-1.12889230251,0.595882594585,0.0,15.3000001907,1.272724942618729,-0.3775559540167224,0.19929183765384614,15.3000001907,0.0,1.8390775017766847,4.013839205719934
1648638690556713204,57676,16,8,1.45515191555,0.245411381125,0.537767469883,0.121715031564,15.3000001907,0.48667288145484944,0.08207738499163879,0.17985534109799328,15.3000001907,0.01644797723837838,0.693136122427765,1.5706328963124632
1648638690656453103,57677,17,0,0.0271700397134,0.081803791225,0.0135565027595,0.0,15.0,0.009086969803812708,0.0273591275,0.004533947411204013,15.0,0.0,0.030226939937613006,0.08725737839219931
1648638690656458417,57678,17,1,0.069647103548,0.0272679310292,-0.044939853251,0.0,15.0,0.02329334566822742,0.00911970937431438,-0.015030051254515049,15.0,0.0,0.034180828016755475,0.0872573750777575
1648638690656652572,57679,17,2,0.212901711464,-0.081803791225,-0.128474295139,0.0,15.0,0.07120458577391303,-0.0273591275,-0.04296799168528428,15.0,0.0,0.1043489718589998,0.26177212134707273
1648638690656663163,57680,17,3,0.258917719126,1.01436698437,0.0203860402107,0.0,15.0,0.08659455489163878,0.3392531720301003,0.006818073649063545,15.0,0.0,0.36067984225105637,1.0470885133993069
1648638690656667039,57681,17,4,1.14575588703,0.718509972095,-0.0146421995014,0.0,15.0,0.38319594883946484,0.240304338493311,-0.004897056689431438,15.0,0.0,0.5928106320847014,1.3524893813520675
1648638690656671487,57682,17,5,1.57162857056,0.201782688498,0.308395236731,0.0,15.0,0.5256282844682274,0.06748584899598661,0.10314221964247491,15.0,0.0,0.746407748272171,1.6142615151258235
1648638690656675034,57683,17,6,1.75170063972,0.117252103984,0.661285936832,0.0,15.0,0.5858530567625417,0.03921475049632107,0.22116586516120398,15.0,0.0,0.8294488561041704,1.8760336557044779
1648638690656678598,57684,17,7,2.32930374146,1.8133174181,0.783064782619,0.0,15.0,0.7790313516588628,0.6064606749498327,0.2618945761267558,15.0,0.0,1.2576065537343053,3.0540082567901723
1648638690656685217,57685,17,8,3.81595182419,-1.12889230251,0.524421989918,0.0,15.0,1.2762380682909698,-0.3775559540167224,0.17539196987224082,15.0,0.0,1.843940268100789,4.013839132142054
