%time,field.header.seq,field.header.frame_id,field.point_id,field.x,field.y,field.z,field.velocity,field.intensity,normalized_x,normalized_y,normalized_z,normalized_intensity,normalized_velocity,normalized_range,range
1648638225050662206,16524,0,0,0.253055036068,1.01436698437,-0.0584562085569,0.0,26.0,0.0846337913270903,0.3392531720301003,-0.019550571423712373,26.0,0.0,0.3597477894320961,1.0470885151591112
1648638225050669994,16525,0,1,1.02993083,-0.13088606298,-0.136035531759,0.0,26.0,0.34445847157190634,-0.04377460300334448,-0.04549683336421404,26.0,0.0,0.48910069836732806,1.047088507227468
1648638225050682226,16526,0,2,1.24190056324,0.763502061367,0.454410821199,0.0,26.0,0.4153513589431438,0.2553518599889632,0.1519768632772575,26.0,0.0,0.6404983022238666,1.5270041260946994
1648638225050691968,16527,0,3,3.8424808979,-1.00345981121,0.582506835461,0.0,26.0,1.2851106681939797,-0.3356052880301003,0.19481833961906353,26.0,0.0,1.8481476587020098,4.0138392166103
1648638225050701194,16528,0,4,1.23774838448,0.422652930021,0.344341278076,0.121715031564,26.0,0.4139626703946488,0.141355494990301,0.11516430704882943,26.0,0.01644797723837838,0.602255395097869,1.3524893634795059
1648638225050705587,16529,0,5,1.42960453033,0.370843857527,0.138234004378,0.121715031564,26.0,0.47812860546153846,0.12402804599565216,0.04623210848762542,26.0,0.01644797723837838,0.6874568225821099,1.4833755154282218
1648638225050753888,16530,0,6,1.63836753368,0.207236275077,0.146304666996,0.243430063128,26.0,0.5479490079197324,0.06930979099565217,0.048931326754515045,26.0,0.03289595447675676,0.7780103326359483,1.6578902571368488
1648638225150794735,16531,1,0,0.252040892839,1.01436698437,-0.062684699893,0.0,13.0,0.0842946129896321,0.3392531720301003,-0.0209647825729097,13.0,0.0,0.3595884846468648,1.0470885169094557
1648638225150813047,16532,1,1,1.02592658997,-0.0981645435095,-0.185020804405,0.0,13.0,0.34311926085953176,-0.03283095100652174,-0.06187986769397993,13.0,0.0,0.48635329307980985,1.0470885080415
1648638225150818204,16533,1,2,3.82048392296,-1.12889230251,0.490316301584,0.0,13.0,1.2777538203879597,-0.3775559540167224,0.1639853851451505,13.0,0.0,1.8460385016151561,4.0138392234693665
1648638225150835468,16534,1,3,1.25789785385,0.422652930021,0.261314302683,0.121715031564,13.0,0.42070162336120404,0.141355494990301,0.08739608785384614,13.0,0.01644797723837838,0.6115235790723509,1.35248943610014
1648638225150838429,16535,1,4,1.57846152782,0.207236275077,0.462722927332,0.243430063128,13.0,0.5279135544548494,0.06930979099565217,0.15475683188361203,13.0,0.03289595447675676,0.7497928307753866,1.6578902786355718
1648638225251502706,16536,2,0,0.0126197971404,0.0409018956125,0.00844027008861,0.0,19.2000007629,0.00422066793993311,0.01367956375,0.0028228328055551837,19.2000007629,0.0,0.01492509765826249,0.043628688998517705
1648638225251537767,16537,2,1,0.0320343598723,0.0136339655146,-0.0262940544635,0.0,19.2000007629,0.010713832733210702,0.00455985468715719,-0.008793998148327759,19.2000007629,0.0,0.015822916875166335,0.04362868927908368
1648638225251585471,16538,2,2,0.255207806826,1.01436698437,-0.0481970310211,0.0,19.2000007629,0.0853537815471572,0.3392531720301003,-0.016119408368260868,19.2000007629,0.0,0.36008783759144725,1.0470885146175912
1648638225251633671,16539,2,3,1.01445901394,-0.0981645435095,-0.240064635873,0.0,19.2000007629,0.33928395115050164,-0.03283095100652174,-0.08028917587725752,19.2000007629,0.0,0.48094185756761143,1.0470885339661502
1648638225251711537,16540,2,4,3.83222579956,-1.00345981121,0.646543562412,0.0,19.2000007629,1.2816808694180601,-0.3356052880301003,0.21623530515451503,19.2000007629,0.0,1.8433780435434928,4.013839153431947
1648638225251723535,16541,2,5,1.36279416084,0.449920862913,0.115039385855,0.121715031564,19.2000007629,0.45578400028093646,0.1504752049876254,0.03847471098829431,19.2000007629,0.01644797723837838,0.6619070154789517,1.4397467721797033
1648638225251911799,16542,2,6,1.3994474411,0.403565376997,0.696076333523,0.243430063128,19.2000007629,0.46804262244147155,0.13497169799230768,0.23280144933879598,19.2000007629,0.03289595447675676,0.6755332353798046,1.6142615698835463
1648638225351313868,16543,3,0,0.253277182579,1.01436698437,-0.0574860833585,0.0,19.6000003815,0.08470808781906354,0.3392531720301003,-0.01922611483561873,19.6000003815,0.0,0.35978276086606653,1.047088515826119
1648638225351365699,16544,3,1,3.84208083153,-1.00345981121,0.585139214993,0.0,19.6000003815,1.2849768667324415,-0.3356052880301003,0.19569873411137123,19.6000003815,0.0,1.847961581156062,4.013839135995174
1648638225351388005,16545,3,2,1.31888151169,0.68715184927,0.505233943462,0.121715031564,19.6000003815,0.4410974955484949,0.22981667199665548,0.16897456303076921,19.6000003815,0.01644797723837838,0.6647929782164725,1.570632816242881
1648638225351410937,16546,3,3,1.30000758171,0.39265820384,0.323952436447,0.243430063128,19.6000003815,0.4347851443846154,0.13132381399331103,0.10834529647056855,19.6000003815,0.03289595447675676,0.6287465210057639,1.3961179601402902
1648638225351812706,16547,3,4,1.59470176697,0.265862315893,0.530480802059,0.243430063128,19.6000003815,0.5333450725652173,0.08891716250602007,0.17741832844782607,19.6000003815,0.03289595447675676,0.7594867968880802,1.7015188444276454
1648638225351828410,16548,3,5,1.53668558598,0.29449364543,0.136960938573,0.365145087242,19.6000003815,0.5139416675518395,0.09849285800334448,0.04580633397090301,19.6000003815,0.04934393070837838,0.7334663716692116,1.570632801151225
1648638225451227753,16549,4,0,0.252853542566,1.01436698437,-0.0593217276037,0.0,28.5,0.08456640219598661,0.3392531720301003,-0.01984004267682274,28.5,0.0,0.3597160929027663,1.04708851599755
1648638225451289277,16550,4,1,1.02662277222,-0.0981645435095,-0.181118190289,0.0,28.5,0.34335209773244146,-0.03283095100652174,-0.06057464558160535,28.5,0.0,0.4866818235547006,1.0470885315467213
1648638225451322989,16551,4,2,1.16840493679,0.741687715054,-0.184051275253,0.0,28.5,0.3907708818695652,0.24805609199130432,-0.061555610452508354,28.5,0.0,0.6057520854344901,1.396118059083659
1648638225451367676,16552,4,3,3.82077980042,-1.00345981121,0.711066126823,0.0,28.5,1.2778527760602005,-0.3356052880301003,0.2378147581347826,28.5,0.0,1.8380550437686267,4.0138391737495125
1648638225451376596,16553,4,4,1.38689184189,0.509910285473,0.130096405745,0.243430063128,28.5,0.4638434253812709,0.17053855701438125,0.043510503593645486,28.5,0.03289595447675676,0.6777793490269592,1.4833753925153135
1648638225451533477,16554,4,5,3.22612476349,-2.80587005615,-0.00810411199927,0.243430063128,28.5,1.0789714928060201,-0.938418078979933,-0.0027104053509264215,28.5,0.03289595447675676,1.7913646908244258,4.275611469513327
1648638225451664033,16555,4,6,4.10298347473,1.20251572132,-0.0182709563524,0.243430063128,28.5,1.3722352758294314,0.4021791710100334,-0.0061106877432775914,28.5,0.03289595447675676,1.981869670300161,4.2756112173320036
1648638225451678783,16556,4,7,1.29513299465,0.39265820384,0.342921823263,0.365145087242,28.5,0.4331548477090301,0.13132381399331103,0.11468957299765886,28.5,0.04934393070837838,0.6264919698682625,1.3961179447825862
1648638225451685774,16557,4,8,1.58487021923,0.302674025297,-0.0491427853703,0.365145087242,28.5,0.5300569295083611,0.10122877100234112,-0.016435714170668896,28.5,0.04934393070837838,0.7564178482282844,1.6142615001125402
1648638225551320301,16558,5,0,0.255443871021,1.01436698437,-0.0469298325479,0.0,18.7999992371,0.08543273278294315,0.3392531720301003,-0.01569559616986622,18.7999992371,0.0,0.3601252815257607,1.0470885155539884
1648638225551372704,16559,5,1,1.02592658997,-0.0981645435095,-0.185020804405,0.0,18.7999992371,0.34311926085953176,-0.03283095100652174,-0.06187986769397993,18.7999992371,0.0,0.48635329307980985,1.0470885080415
1648638225551394741,16560,5,2,1.1696716547,0.741687715054,-0.175820872188,0.0,18.7999992371,0.39119453334448157,0.24805609199130432,-0.05880296728695652,18.7999992371,0.0,0.6062987305043709,1.396117984114383
1648638225551574769,16561,5,3,3.82945299149,-1.00345981121,0.662769556046,0.0,18.7999992371,1.2807535088595317,-0.3356052880301003,0.22166205887826085,18.7999992371,0.0,1.8420884914318778,4.013839220891481
1648638225551592307,16562,5,4,1.3475099802,0.35993668437,0.357117831707,0.365145087242,18.7999992371,0.4506722341806019,0.12038016199665551,0.11943740190869565,18.7999992371,0.04934393070837838,0.6486156864623392,1.439746751764692
1648638225551641155,16563,5,5,1.4846752882,0.490822762251,0.147376909852,0.365145087242,18.7999992371,0.49654691913043475,0.16415476998361203,0.04928993640535117,18.7999992371,0.04934393070837838,0.7211549585936614,1.57063288164134
1648638225551784834,16564,5,6,1.42101156712,0.372207254171,0.85869371891,0.365145087242,18.7999992371,0.47525470472240805,0.12448403149531771,0.28718853475250833,18.7999992371,0.04934393070837838,0.6835424952546065,1.7015190321715006
1648638225551794364,16565,5,7,1.7164324522,0.167697772384,0.474823772907,0.486860126257,18.7999992371,0.5740576763210702,0.05608621149966555,0.15880393742709029,18.7999992371,0.06579190895364864,0.8137752113493495,1.7887762635795177
1648638225651339289,16566,6,0,0.25202870369,1.01436698437,-0.0627336278558,0.0,19.3999996185,0.08429053635117056,0.3392531720301003,-0.02098114644006689,19.3999996185,0.0,0.3595865733995373,1.0470885132248848
1648638225651375439,16567,6,1,1.00796556473,-0.0981645435095,-0.266014099121,0.0,19.3999996185,0.33711222900668897,-0.03283095100652174,-0.08896792612742474,19.3999996185,0.0,0.4778777890169298,1.0470885149857454
1648638225651412565,16568,6,2,1.19727861881,0.698059022427,-0.168473228812,0.0,19.3999996185,0.40042763170903006,0.23346455599565216,-0.05634556147558528,19.3999996185,0.0,0.6125277751893805,1.3961180890876175
1648638225651431722,16569,6,3,2.45596694946,1.71787965298,0.586584448814,0.0,19.3999996185,0.8213936285819398,0.5745416899598662,0.1961820899043478,19.3999996185,0.0,1.2959448829529558,3.054008099948814
1648638225651506420,16570,6,4,3.84045362473,-1.00345981121,0.595726549625,0.0,19.3999996185,1.284432650411371,-0.3356052880301003,0.19923964870401337,19.3999996185,0.0,1.8472047467022503,4.0138392790872315
1648638225651521785,16571,6,5,1.41133832932,0.324488371611,0.321300655603,0.365145087242,19.3999996185,0.4720195081337792,0.10852453900033444,0.10745841324515049,19.3999996185,0.04934393070837838,0.6763005305949011,1.4833754394654928
1648638225651530523,16572,6,6,1.50605010986,0.3272151649,0.818708479404,0.365145087242,19.3999996185,0.5036956889163879,0.10943651,0.27381554495117055,19.3999996185,0.04934393070837838,0.7206906713610837,1.7451476361035654
1648638225651555793,16573,6,7,1.78192055225,0.171787962317,0.391095757484,0.365145087242,19.3999996185,0.5959600509197324,0.05745416799899665,0.13080125668361203,19.3999996185,0.04934393070837838,0.8447708245464902,1.8324049361562949
1648638225751255402,16574,7,0,0.255927056074,1.01436698437,-0.0442189313471,0.0,14.3000001907,0.08559433313511705,0.3392531720301003,-0.014788940249866218,14.3000001907,0.0,0.36020201895904974,1.047088511492735
1648638225751468454,16575,7,1,1.19770932198,0.698059022427,-0.165383026004,0.0,14.3000001907,0.4005716795919732,0.23346455599565216,-0.055312048830769234,14.3000001907,0.0,0.6127161168832723,1.396118033706237
1648638225751480099,16576,7,2,2.46171998978,1.71787965298,0.561952114105,0.0,14.3000001907,0.8233177223344481,0.5745416899598662,0.18794385087123744,14.3000001907,0.0,1.2983844951792616,3.0540081841331417
1648638225751494226,16577,7,3,3.83982563019,-1.00345981121,0.59976041317,0.0,14.3000001907,1.284222618792642,-0.3356052880301003,0.20058876694648825,14.3000001907,0.0,1.846912661332698,4.013839186637089
1648638225751501901,16578,7,4,3.93628787994,-1.35248935223,-3.45601630211,0.243430063128,14.3000001907,1.3164842407826087,-0.4523375759966555,-1.1558582950200669,14.3000001907,0.03289595447675676,1.9159516682621338,5.4099573382891055
1648638225751519661,16579,7,5,4.15470790863,3.04310107231,1.65697801113,0.243430063128,14.3000001907,1.3895344176020066,1.0177595559565216,0.5541732478695652,14.3000001907,0.03289595447675676,2.213017466976235,5.409957307751631
1648638225751632095,16580,7,6,1.435131073,0.334032148123,0.400703191757,0.365145087242,14.3000001907,0.4799769474916388,0.11171643749933109,0.1340144454036789,14.3000001907,0.04934393070837838,0.687921727127676,1.5270041652052047
1648638225751644842,16581,7,7,1.46435856819,0.436286896467,0.843117892742,0.365145087242,14.3000001907,0.48975202949498325,0.1459153499889632,0.281979228341806,14.3000001907,0.04934393070837838,0.7078173423640534,1.7451475735083222
1648638225751663578,16582,7,8,1.80300664902,0.117252103984,0.504897177219,0.365145087242,14.3000001907,0.6030122571973244,0.03921475049632107,0.16886193218026754,14.3000001907,0.04934393070837838,0.8536892650823912,1.8760336329241858
1648638225751673216,16583,7,9,2.72735738754,-3.23942995071,0.850558817387,0.365145087242,14.3000001907,0.9121596613846154,-1.0834213881973243,0.2844678319020067,14.3000001907,0.04934393070837838,1.684598587236143,4.31924009829979
1648638225851333753,16584,8,0,0.256589472294,1.01436698437,-0.0401973947883,0.0,11.6000003815,0.08581587702140467,0.3392531720301003,-0.013443944745250834,11.6000003815,0.0,0.36030743016261896,1.0470885190946215
1648638225851407850,16585,8,1,1.01332592964,-0.0981645435095,-0.244803160429,0.0,11.6000003815,0.3389049931906354,-0.03283095100652174,-0.0818739666986622,11.6000003815,0.0,0.48040718163145923,1.0470884894025076
1648638225851487678,16586,8,2,1.19730377197,0.698059022427,-0.168293774128,0.0,11.6000003815,0.4004360441371237,0.23346455599565216,-0.05628554318662207,11.6000003815,0.0,0.6125387741152587,1.3961180163494684
1648638225851585034,16587,8,3,1.62038314342,-2.07917976379,0.366270154715,0.0,11.6000003815,0.5419341616789297,-0.6953778474214046,0.12249837950334448,11.6000003815,0.0,1.0348601943614002,2.6613500047660907
1648638225851609888,16588,8,4,2.46519351006,1.71787965298,0.546513557434,0.0,11.6000003815,0.8244794348026756,0.5745416899598662,0.18278045399130433,11.6000003815,0.0,1.29985800390928,3.0540082862729427
1648638225851628886,16589,8,5,3.82886195183,-1.12889230251,0.419908255339,0.0,11.6000003815,1.2805558367324414,-0.3775559540167224,0.1404375435916388,11.6000003815,0.0,1.8499175658370628,4.013839137252464
1648638225851652571,16590,8,6,1.50383734703,0.29449364543,0.344433188438,0.243430063128,11.6000003815,0.5029556344581939,0.09849285800334448,0.11519504630033445,11.6000003815,0.03289595447675676,0.7180735223806514,1.5706328325927883
1648638225851675531,16591,8,7,1.54599642754,0.531724631786,0.471519470215,0.243430063128,11.6000003815,0.5170556613846153,0.17783432501204013,0.15769881946989966,11.6000003815,0.03289595447675676,0.7525411358140178,1.7015189240223672
1648638225851708288,16592,8,8,2.63749027252,0.797586977482,0.67054438591,0.486860126257,11.6000003815,0.8821037700735785,0.2667514974856187,0.22426233642474913,11.6000003815,0.06579190895364864,1.275684319793444,2.8358648941305216
1648638225951334095,16593,9,0,0.252384781837,1.01436698437,-0.0612854361534,0.0,18.5,0.08440962603244148,0.3392531720301003,-0.02049680138909699,18.5,0.0,0.3596424400239189,1.0470885166819996
1648638225951374196,16594,9,1,1.00796556473,-0.0981645435095,-0.266014099121,0.0,18.5,0.33711222900668897,-0.03283095100652174,-0.08896792612742474,18.5,0.0,0.4778777890169298,1.0470885149857454
1648638225951404428,16595,9,2,1.19787037373,0.698059022427,-0.164212360978,0.0,18.5,0.40062554305351167,0.23346455599565216,-0.05492052206622073,18.5,0.0,0.6127865455442778,1.3961180217122613
1648638225951438322,16596,9,3,2.46065211296,1.71787965298,0.566609978676,0.0,18.5,0.8229605728963211,0.5745416899598662,0.1895016651090301,18.5,0.0,1.2979315708409365,3.0540082172568583
1648638225951456807,16597,9,4,3.87121033669,-1.00345981121,0.343080550432,0.0,18.5,1.2947191761505015,-0.3356052880301003,0.11474265900735785,18.5,0.0,1.8615118585540713,4.013839225441626
1648638225951471971,16598,9,5,1.51422083378,0.29449364543,0.295459240675,0.121715031564,18.5,0.5064283725016723,0.09849285800334448,0.09881579955685618,18.5,0.01644797723837838,0.7229386115204057,1.5706328035388466
1648638225951486881,16599,9,6,1.61139917374,0.436286896467,0.508514225483,0.121715031564,18.5,0.5389294895451504,0.1459153499889632,0.17007164731872906,18.5,0.01644797723837838,0.7760034012587795,1.745147635782525
1648638226051407299,16600,10,0,0.017589988187,0.0845305845141,0.0126104084775,0.0,12.3000001907,0.005882939192976588,0.028271098499698995,0.004217527918896321,12.3000001907,0.0,0.029469865243604402,0.0872573767923584
1648638226051433032,16601,10,1,0.0694144070148,0.0272679310292,-0.045298460871,0.0,12.3000001907,0.023215520740735785,0.00911970937431438,-0.015149986913377926,12.3000001907,0.0,0.03407476934036421,0.08725738089761256
1648638226051470023,16602,10,2,0.254586696625,1.01436698437,-0.0513770133257,0.0,12.3000001907,0.08514605238294314,0.3392531720301003,-0.01718294760056856,12.3000001907,0.0,0.359989465408757,1.047088517068441
1648638226051484580,16603,10,3,1.19763875008,0.698059022427,-0.165894016623,0.0,12.3000001907,0.4005480769498328,0.23346455599565216,-0.05548294870334448,12.3000001907,0.0,0.6126852559044206,1.3961181179385347
1648638226051528066,16604,10,4,2.45341658592,1.71787965298,0.59716206789,0.0,12.3000001907,0.8205406641872909,0.5745416899598662,0.1997197551471572,12.3000001907,0.0,1.2948637444425495,3.0540081829485484
1648638226051558783,16605,10,5,3.8340678215,-1.12889230251,0.369366794825,0.0,12.3000001907,1.2822969302675584,-0.3775559540167224,0.12353404509197324,12.3000001907,0.0,1.8523280846439392,4.013839274266894
1648638226051574307,16606,10,6,1.48388326168,0.245411381125,0.452494412661,0.121715031564,12.3000001907,0.4962820273177257,0.08207738499163879,0.1513359239668896,12.3000001907,0.01644797723837838,0.7066317275669479,1.5706328258919011
1648638226151314712,16607,11,0,0.256082683802,1.01436698437,-0.0433087237179,0.0,20.1000003815,0.0856463825424749,0.3392531720301003,-0.014484522982575248,20.1000003815,0.0,0.3602267624951105,1.0470885184516143
1648638226151367462,16608,11,1,1.19726419449,0.698059022427,-0.168575018644,0.0,20.1000003815,0.4004228075217391,0.23346455599565216,-0.056379604897658864,20.1000003815,0.0,0.6125214677653595,1.39611800615505
1648638226151391241,16609,11,2,3.81885170937,-1.12889230251,0.50287103653,0.0,20.1000003815,1.277207929555184,-0.3775559540167224,0.16818429315384614,20.1000003815,0.0,1.8452828208843102,4.013839245436376
1648638226151414641,16610,11,3,1.56908798218,0.353119701147,0.138237133622,0.121715031564,20.1000003815,0.5247785893578595,0.1181002344973244,0.04623315505752508,20.1000003815,0.01644797723837838,0.7514870598254988,1.6142614795230286
1648638226251218160,16611,12,0,0.0175631344318,0.0845305845141,0.0126477824524,0.0,17.2000007629,0.0058739580039464875,0.028271098499698995,0.004230027576053511,17.2000007629,0.0,0.02946628201256373,0.08725737682470244
1648638226251281137,16612,12,1,0.0695927292109,0.0272679310292,-0.0450240150094,0.0,17.2000007629,0.02327516027120401,0.00911970937431438,-0.01505819899979933,17.2000007629,0.0,0.03415604295541895,0.08725737762047137
1648638226251296207,16613,12,2,0.253168135881,1.01436698437,-0.0579644069076,0.0,17.2000007629,0.08467161735150501,0.3392531720301003,-0.019386089266755852,17.2000007629,0.0,0.3597655907703295,1.0470885141541273
1648638226251315020,16614,12,3,1.19731092453,0.698059022427,-0.16824324429,0.0,17.2000007629,0.40043843629765885,0.23346455599565216,-0.05626864357525083,17.2000007629,0.0,0.612541901779197,1.3961180602083216
1648638226251340597,16615,12,4,1.54879152775,0.353119701147,0.287039130926,0.0,17.2000007629,0.5179904775083611,0.1181002344973244,0.09599970933979932,17.2000007629,0.0,0.7420080423870101,1.6142614975434058
1648638226251368714,16616,12,5,2.45690846443,1.71787965298,0.582628905773,0.0,17.2000007629,0.8217085165317726,0.5745416899598662,0.19485916581036786,17.2000007629,0.0,1.2963440614989648,3.0540082099681247
1648638226251402330,16617,12,6,3.84097480774,-1.00345981121,0.592356920242,0.0,17.2000007629,1.2846069591103677,-0.3356052880301003,0.19811268235518395,17.2000007629,0.0,1.8474471543574227,4.013839282702476
1648638226251542250,16618,12,7,1.51976668835,0.286313265562,0.982874333858,-0.121715031564,17.2000007629,0.508283173361204,0.09575694500401337,0.3287205129959866,17.2000007629,-0.01644797723837838,0.7251709875338181,1.8324049850434019
1648638226251556076,16619,12,8,0.300036072731,1.71787965298,0.562650620937,-0.121715031564,17.2000007629,0.10034651261906355,0.5745416899598662,0.18817746519632106,17.2000007629,-0.01644797723837838,0.5918082448661516,1.8324049411370074
1648638226351174710,16620,13,0,0.257118135691,1.01436698437,-0.036663915962,0.0,11.8999996185,0.08599268752207358,0.3392531720301003,-0.012262179251505016,11.8999996185,0.0,0.36039173040876343,1.0470885146035993
1648638226351200372,16621,13,1,1.19738733768,0.698059022427,-0.167698308825,0.0,11.8999996185,0.400463992535117,0.23346455599565216,-0.056086390911371235,11.8999996185,0.0,0.6125753158107006,1.3961180315470831
1648638226351225379,16622,13,2,1.53819286823,0.302674025297,0.38495606184,0.0,11.8999996185,0.5144457753277591,0.10122877100234112,0.12874784676923076,11.8999996185,0.0,0.7345448764941478,1.6142614518752794
1648638226351271439,16623,13,3,3.82111167908,-1.00345981121,0.709279894829,0.0,11.8999996185,1.2779637722675583,-0.3356052880301003,0.2372173561301003,11.8999996185,0.0,1.8382093775765649,4.013839063281415
1648638226351329042,16624,13,4,1.62298667431,0.293130248785,0.894142866135,-0.121715031564,11.8999996185,0.5428049077959867,0.09803687250334447,0.29904443683444815,11.8999996185,-0.01644797723837838,0.7738769696954783,1.8760337291212819
1648638226451438803,16625,14,0,0.254308342934,1.01436698437,-0.0527375824749,0.0,11.6000003815,0.08505295750301003,0.3392531720301003,-0.01763798744979933,11.6000003815,0.0,0.35994544849532756,1.047088518164067
1648638226451478687,16626,14,1,1.19706654549,0.698059022427,-0.169973120093,0.0,11.6000003815,0.4003567041772575,0.23346455599565216,-0.056847197355518395,11.6000003815,0.0,0.6124350415069333,1.396118037515901
1648638226451525833,16627,14,2,1.55040335655,0.353119701147,0.278201669455,0.0,11.6000003815,0.5185295506856187,0.1181002344973244,0.09304403660702341,11.6000003815,0.0,0.74276069851385,1.6142615216337166
1648638226451559238,16628,14,3,2.45506429672,1.71787965298,0.590351462364,0.0,11.6000003815,0.8210917380334447,0.5745416899598662,0.19744196065685618,11.6000003815,0.0,1.295562209249523,3.0540081945317805
1648638226451615752,16629,14,4,3.81822729111,-1.00345981121,0.724647819996,0.0,11.6000003815,1.2769990940167222,-0.3356052880301003,0.2423571304334448,11.6000003815,0.0,1.8368680631969259,4.013839272107912
1648638226551582576,16630,15,0,0.0176268685609,0.0845305845141,0.0125588048249,0.0,15.1000003815,0.005895273766187291,0.028271098499698995,0.004200269172207358,15.1000003815,0.0,0.029474794586837664,0.08725737672075971
1648638226551618540,16631,15,1,0.0695141628385,0.0272679310292,-0.0451452210546,0.0,15.1000003815,0.023248883892474915,0.00911970937431438,-0.015098736138662205,15.1000003815,0.0,0.03412023305259676,0.08725737723435997
1648638226551655521,16632,15,2,0.255095630884,1.01436698437,-0.0487871915102,0.0,15.1000003815,0.085316264509699,0.3392531720301003,-0.01631678645826087,15.1000003815,0.0,0.36007005528405533,1.0470885110302026
1648638226551676091,16633,15,3,1.19709563255,0.698059022427,-0.169768497348,0.0,15.1000003815,0.40036643229096985,0.23346455599565216,-0.0567787616548495,15.1000003815,0.0,0.6124477603167853,1.396118080591259
1648638226551686640,16634,15,4,2.45675826073,1.71787965298,0.583261668682,0.0,15.1000003815,0.8216582811806019,0.5745416899598662,0.19507079220133777,15.1000003815,0.0,1.2962803769120557,3.0540081578053275
1648638226551828291,16635,15,5,3.83232474327,-1.00345981121,0.645956814289,0.0,15.1000003815,1.2817139609598662,-0.3356052880301003,0.21603906832408024,15.1000003815,0.0,1.8434240599473104,4.013839151799617
1648638226551837789,16636,15,6,1.46799170971,0.286313265562,1.05864691734,-0.243430063128,15.1000003815,0.49096712699331096,0.09575694500401337,0.3540625141605351,15.1000003815,-0.03289595447675676,0.7009042959581812,1.8324050429442584
1648638226551846661,16637,15,7,1.87632000446,0.122705690563,0.5646930933,-0.243430063128,15.1000003815,0.6275317740668895,0.04103869249598662,0.1888605663210702,15.1000003815,-0.03289595447675676,0.8884123081142311,1.9632910470060314
1648638226551864468,16638,15,8,1.46545100212,0.343575924635,0.448660850525,-0.121715031564,15.1000003815,0.4901173920133779,0.11490833599832774,0.15005379616220735,15.1000003815,-0.01644797723837838,0.7025909489809095,1.5706328706598254
1648638226552157356,16639,15,9,1.59344434738,0.599894464016,0.382886439562,-0.121715031564,15.1000003815,0.532924530896321,0.20063360000535116,0.12805566540535118,15.1000003815,-0.01644797723837838,0.7799172729932545,1.7451476389563099
1648638226651241831,16640,16,0,0.0176587477326,0.0845305845141,0.0125139420852,0.0,12.1000003815,0.005905935696521739,0.028271098499698995,0.0041852649114381265,12.1000003815,0.0,0.029479063134410875,0.08725737697347284
1648638226651300575,16641,16,1,0.0695104897022,0.0272679310292,-0.0451508760452,0.0,12.1000003815,0.023247655418795986,0.00911970937431438,-0.01510062743986622,12.1000003815,0.0,0.034118558938122025,0.0872573770457368
1648638226651330748,16642,16,2,0.253471463919,1.01436698437,-0.0566233098507,0.0,12.1000003815,0.08477306485585283,0.3392531720301003,-0.018937561822976588,12.1000003815,0.0,0.3598133679876195,1.047088516420449
1648638226651429651,16643,16,3,1.19753837585,0.698059022427,-0.166616633534,0.0,12.1000003815,0.40051450697324414,0.23346455599565216,-0.05572462659999999,12.1000003815,0.0,0.6126413628692472,1.3961180691458004
1648638226651470144,16644,16,4,1.61709177494,-2.07917976379,0.380538493395,0.0,12.1000003815,0.5408333695451505,-0.6953778474214046,0.12727039912876253,12.1000003815,0.0,1.0337078010306147,2.6613500039806444
1648638226651505352,16645,16,5,2.45956993103,1.71787965298,0.571288585663,0.0,12.1000003815,0.8225986391404682,0.5745416899598662,0.19106641660969897,12.1000003815,0.0,1.2974726184908254,3.0540080870650024
1648638226651578350,16646,16,6,3.84357666969,-1.00345981121,0.575232863426,0.0,12.1000003815,1.2854771470535116,-0.3356052880301003,0.1923855730521739,12.1000003815,0.0,1.8486573237210397,4.013839316124171
1648638226651599865,16647,16,7,1.47440576553,0.343575924635,0.418294936419,-0.243430063128,12.1000003815,0.4931122961638796,0.11490833599832774,0.1398979720464883,12.1000003815,-0.03289595447675676,0.7067696929961923,1.5706328123564324
1648638226651607827,16648,16,8,1.59522795677,0.279496282339,0.759506762028,-0.243430063128,12.1000003815,0.5335210557759197,0.09347701750468226,0.2540156394742475,12.1000003815,-0.03289595447675676,0.7602811234760959,1.7887763771551122
