%time,field.header.seq,field.header.frame_id,field.point_id,field.x,field.y,field.z,field.velocity,field.intensity,normalized_x,normalized_y,normalized_z,normalized_intensity,normalized_velocity,normalized_range,range
1648638480153781905,37168,0,0,0.0272535439581,0.081803791225,0.0133878355846,0.0,12.6999998093,0.009114897644849497,0.0273591275,0.004477536984816053,12.6999998093,0.0,0.030243752672468115,0.08725737824791528
1648638480153786371,37169,0,1,0.0696678087115,0.0272679310292,-0.0449077524245,0.0,12.6999998093,0.023300270472073576,0.00911970937431438,-0.015019315192140467,12.6999998093,0.0,0.03419026626418,0.08725737711560867
1648638480153788518,37170,0,2,0.212355300784,-0.081803791225,-0.129375457764,0.0,12.6999998093,0.0710218397270903,-0.0273591275,-0.04326938386755853,12.6999998093,0.0,0.10409959315003234,0.2617721205581126
1648638480153791503,37171,0,3,1.19992661476,0.698059022427,-0.148443594575,0.0,12.6999998093,0.40131324908361204,0.23346455599565216,-0.04964668714882943,12.6999998093,0.0,0.6136858697137628,1.3961181111823882
1648638480153798933,37172,0,4,1.4926006794,0.39265820384,0.291290730238,0.0,12.6999998093,0.4991975516387959,0.13132381399331103,0.0974216489090301,12.6999998093,0.0,0.7180824014318178,1.5706328478389797
1648638480153853994,37173,0,5,1.64314615726,-2.1132645607,0.388707071543,0.0,12.6999998093,0.5495472097859531,-0.7067774450501672,0.1300023650645485,12.6999998093,0.0,1.0504944685236066,2.7049786662922877
1648638480153883094,37174,0,6,2.45841002464,1.71787965298,0.57625991106,0.0,12.6999998093,0.8222107105819397,0.5745416899598662,0.19272906724414712,12.6999998093,0.0,1.2969807472330712,3.0540081592012833
1648638480153888986,37175,0,7,3.83833622932,-1.00345981121,0.609220147133,0.0,12.6999998093,1.283724491411371,-0.3356052880301003,0.2037525575695652,12.6999998093,0.0,1.8462199351790494,4.013839282992885
1648638480153964559,37176,0,8,1.68380713463,0.111798517406,0.593308627605,0.121715031564,12.6999998093,0.5631461988729097,0.03739080849698996,0.19843097913210703,12.6999998093,0.01644797723837838,0.7972862441871628,1.788776258427979
1648638480153969593,37177,0,9,1.87307488918,-1.31158745289,-2.27918624878,0.243430063128,12.6999998093,0.6264464512307691,-0.43865801099999996,-0.7622696484214045,12.6999998093,0.03289595447675676,0.9885803776798956,3.228523059184028
1648638480153974650,37178,0,10,1.82089197636,-2.52228355408,0.863596558571,0.243430063128,12.6999998093,0.6089939720267558,-0.8435730950100334,0.28882828045852843,12.6999998093,0.03289595447675676,1.205555010173595,3.2285230265138787
1648638480253602822,37179,1,0,0.0176472514868,0.0845305845141,0.0125301480293,0.0,24.7000007629,0.0059020907982608685,0.028271098499698995,0.0041906849596321065,24.7000007629,0.0,0.02947752299569138,0.08725737683984054
1648638480253607885,37180,1,1,0.0695604681969,0.0272679310292,-0.0450738444924,0.0,24.7000007629,0.02326437063441471,0.00911970937431438,-0.015074864378729095,24.7000007629,0.0,0.03414133830274954,0.08725737937681947
1648638480253610585,37181,1,2,0.212506741285,-0.081803791225,-0.129126563668,0.0,24.7000007629,0.07107248872408026,-0.0273591275,-0.04318614169498327,24.7000007629,0.0,0.10416870530264974,0.26177212379292675
1648638480253620826,37182,1,3,1.20025420189,0.698059022427,-0.145770132542,0.0,24.7000007629,0.40142280999665547,0.23346455599565216,-0.048752552689632106,24.7000007629,0.0,0.6138291648964466,1.3961180034250873
1648638480253627943,37183,1,4,1.64437448978,-2.1132645607,0.383478075266,0.0,24.7000007629,0.5499580233377925,-0.7067774450501672,0.12825353687826085,24.7000007629,0.0,1.050924360598262,2.704978743051323
1648638480253659563,37184,1,5,2.45554280281,1.71787965298,0.588358223438,0.0,24.7000007629,0.8212517735150502,0.5745416899598662,0.1967753255645485,24.7000007629,0.0,1.2957650653205501,3.054008244527476
1648638480253664035,37185,1,6,3.83521318436,-1.00345981121,0.628581047058,0.0,24.7000007629,1.2826799947692307,-0.3356052880301003,0.21022777493578593,24.7000007629,0.0,1.844767423638046,4.013839296100794
1648638480253667855,37186,1,7,1.49132514,0.39265820384,0.297751814127,0.121715031564,24.7000007629,0.4987709498327759,0.13132381399331103,0.09958254653076923,24.7000007629,0.01644797723837838,0.717489278606955,1.5706327645426204
1648638480253784582,37187,1,8,1.73305416107,0.111798517406,0.428654849529,0.121715031564,24.7000007629,0.579616776277592,0.03739080849698996,0.14336282592943142,24.7000007629,0.01644797723837838,0.8205542561250383,1.7887762894562729
1648638480253795092,37188,1,9,1.73256659508,-1.31158745289,-2.38774204254,0.243430063128,24.7000007629,0.5794537107290969,-0.43865801099999996,-0.7985759339598663,24.7000007629,0.03289595447675676,0.9294912890231495,3.22852299274431
1648638480253799730,37189,1,10,1.89376688004,-2.52228355408,0.689270496368,0.243430063128,24.7000007629,0.6333668495117056,-0.8435730950100334,0.23052524962140467,24.7000007629,0.03289595447675676,1.2304156609640395,3.2285230586573577
1648638480253803321,37190,1,11,4.28965997696,0.139066442847,1.17605352402,0.243430063128,24.7000007629,1.4346688886153847,0.046510516002341136,0.3933289377993311,24.7000007629,0.03289595447675676,2.029461226045132,4.450126299872673
1648638480253808331,37191,1,12,2.74743485451,-1.39066445827,-3.21267437935,0.243430063128,24.7000007629,0.9188745332809364,-0.46510516998996654,-1.0744730365719064,24.7000007629,0.03289595447675676,1.380211445748771,4.450126131134227
1648638480253812522,37192,1,13,3.64334416389,-0.83848887682,-3.84973549843,-0.243430063128,24.7000007629,1.2185097538093645,-0.2804310624816053,-1.2875369559966554,24.7000007629,-0.03289595447675676,1.7459019505864808,5.366328698558659
1648638480253830147,37193,1,14,4.39375257492,-2.68316435814,1.51428258419,-0.243430063128,24.7000007629,1.4694824665284278,-0.897379383993311,0.506449024812709,24.7000007629,-0.03289595447675676,2.263635835925284,5.366328764359309
1648638480353808452,37194,2,0,0.0175668336451,0.0845305845141,0.0126426443458,0.0,11.1999998093,0.0058751951990301,0.028271098499698995,0.004228309145752508,11.1999998093,0.0,0.02946677531785749,0.08725737687247084
1648638480353822120,37195,2,1,0.0695783272386,0.0272679310292,-0.0450462698936,0.0,11.1999998093,0.023270343558060198,0.00911970937431438,-0.015065642104882941,11.1999998093,0.0,0.03414947843953499,0.0872573785720266
1648638480353828344,37196,2,2,0.21313354373,-0.081803791225,-0.12808932364,0.0,11.1999998093,0.07128212164882942,-0.0273591275,-0.042839238675585284,11.1999998093,0.0,0.10445479209245638,0.2617721195090185
1648638480353840539,37197,2,3,1.03887581825,-0.13088606298,-0.000395371840568,0.0,11.1999998093,0.34745010643812707,-0.04377460300334448,-0.00013223138480535117,11.1999998093,0.0,0.49331467522853206,1.0470884793301394
1648638480353848162,37198,2,4,1.19976258278,0.698059022427,-0.149762839079,0.0,11.1999998093,0.4012583888896321,0.23346455599565216,-0.050087906046488294,11.1999998093,0.0,0.613614119960463,1.3961180329039797
1648638480353869069,37199,2,5,3.81533551216,-1.12889230251,0.528887271881,0.0,11.1999998093,1.2760319438662207,-0.3775559540167224,0.17688537521103678,11.1999998093,0.0,1.843654941128488,4.0138391406947616
1648638480353871256,37200,2,6,1.43759930134,0.429469913244,0.283910661936,0.121715031564,11.1999998093,0.48080244191973237,0.1436354224896321,0.09495339864080267,11.1999998093,0.01644797723837838,0.6949626687137449,1.527004067301722
1648638480353874727,37201,2,7,1.73320186138,0.22905062139,0.548867166042,0.243430063128,11.1999998093,0.5796661743745819,0.07660555899331102,0.18356761406086955,11.1999998093,0.03289595447675676,0.8233432814426823,1.8324049894630876
1648638480453610246,37202,3,0,0.0176443774253,0.0845305845141,0.0125341946259,0.0,25.3999996185,0.005901129573678929,0.028271098499698995,0.004192038336421404,25.3999996185,0.0,0.029477138105154965,0.08725737681102831
1648638480453615490,37203,3,1,0.0696505606174,0.0272679310292,-0.0449345000088,0.0,25.3999996185,0.0232945018787291,0.00911970937431438,-0.015028260872508359,25.3999996185,0.0,0.03418240387433547,0.08725737761342686
1648638480453618160,37204,3,2,0.212661698461,-0.081803791225,-0.128871202469,0.0,25.3999996185,0.07112431386655518,-0.0273591275,-0.04310073661170568,25.3999996185,0.0,0.10423942585959386,0.2617721243312715
1648638480453623661,37205,3,3,1.19975864887,0.698059022427,-0.149794921279,0.0,25.3999996185,0.4012570732006689,0.23346455599565216,-0.050098635879264206,25.3999996185,0.0,0.6136123992337352,1.39611809413498
1648638480453628913,37206,3,4,1.64061295986,-2.1132645607,0.399264365435,0.0,25.3999996185,0.5486999865752509,-0.7067774450501672,0.1335332325869565,25.3999996185,0.0,1.0496083590401721,2.7049787468809003
1648638480453641200,37207,3,5,3.81809234619,-1.12889230251,0.508603453636,0.0,25.3999996185,1.2769539619364547,-0.3775559540167224,0.17010148951036788,25.3999996185,0.0,1.8449312562325717,4.013839118319449
1648638480453647326,37208,3,6,1.45265245438,0.441740483046,0.401937276125,0.121715031564,25.3999996185,0.485836941264214,0.14773929198862876,0.13442718265050166,25.3999996185,0.01644797723837838,0.7027815915284321,1.5706327965239792
1648638480453786077,37209,3,7,1.76494574547,0.293130248785,0.564396619797,0.365145087242,25.3999996185,0.5902828580167223,0.09803687250334447,0.18876141130334445,25.3999996185,0.04934393070837838,0.8405230117653038,1.8760336808393632
1648638480553745365,37210,4,0,0.0175726469606,0.0845305845141,0.0126345623285,0.0,30.0,0.005877139451705685,0.028271098499698995,0.00422560612993311,30.0,0.0,0.029467550740590463,0.08725737679262446
1648638480553751678,37211,4,1,0.0697216838598,0.0272679310292,-0.0448240637779,0.0,30.0,0.02331828891632107,0.00911970937431438,-0.014991325678227424,30.0,0.0,0.03421482566142931,0.08725737766185934
1648638480553756489,37212,4,2,0.21220728755,-0.081803791225,-0.129618108273,0.0,30.0,0.07097233697324415,-0.0273591275,-0.04335053788394648,30.0,0.0,0.10403204837187767,0.2617721282726313
1648638480553974265,37213,4,3,1.2002146244,0.698059022427,-0.14609579742,0.0,30.0,0.40140957337792643,0.23346455599565216,-0.048861470709030096,30.0,0.0,0.6138118523661341,1.3961180198819718
1648638480554027408,37214,4,4,3.816614151,-1.00345981121,0.733096122742,0.0,30.0,1.2764595822742475,-0.3356052880301003,0.24518264974648826,30.0,0.0,1.8361179264179248,4.013839196518268
1648638480554109982,37215,4,5,1.45456218719,0.490822762251,0.332008063793,0.121715031564,30.0,0.4864756478896321,0.16415476998361203,0.11103948621839464,30.0,0.01644797723837838,0.7072933623947331,1.5706328325774408
1648638480554226663,37216,4,6,1.65939509869,0.372207254171,0.0551028065383,0.365145087242,30.0,0.5549816383578594,0.12448403149531771,0.018429032287056855,30.0,0.04934393070837838,0.7946732107766531,1.701518925226019
1648638480554249789,37217,4,7,1.88779211044,0.38447779417,-0.702257871628,0.365145087242,30.0,0.6313685988093645,0.12858789102675583,-0.23486885338729097,30.0,0.04934393070837838,0.9021016909659959,2.050548303433213
1648638480554364360,37218,4,8,2.97228765488,-3.37031602859,0.0175676587969,0.365145087242,30.0,0.9940761387558528,-1.1271959961839464,0.0058754711695317725,30.0,0.04934393070837838,1.8019282874467035,4.493754850741007
1648638480554455563,37219,4,9,1.45026087761,0.708966195583,0.663061439991,-0.121715031564,30.0,0.485037082812709,0.23711243999431436,0.22175967892675583,30.0,-0.01644797723837838,0.7257714878713428,1.7451476020120757
1648638480653743633,37220,5,0,0.0176657456905,0.0845305845141,0.0125040598214,0.0,16.7999992371,0.005908276150668896,0.028271098499698995,0.0041819598064882935,16.7999992371,0.0,0.029480001094382757,0.08725737677190377
1648638480653750354,37221,5,1,0.069739446044,0.0272679310292,-0.0447964221239,0.0,16.7999992371,0.02332422944615384,0.00911970937431438,-0.014982080977892975,16.7999992371,0.0,0.03422292298424577,0.08725737695026038
1648638480653847379,37222,5,2,0.217774257064,-0.0736234113574,-0.125214248896,0.0,16.7999992371,0.07283419968695652,-0.024623214500802675,-0.041877675216053505,16.7999992371,0.0,0.10590535387992174,0.2617721181987637
1648638480653876576,37223,5,3,1.20059859753,0.698059022427,-0.142905786633,0.0,16.7999992371,0.4015379924849498,0.23346455599565216,-0.04779457746923076,16.7999992371,0.0,0.6139798186617653,1.3961179946680504
1648638480653899684,37224,5,4,3.83394670486,-1.00345981121,0.63625895977,0.0,16.7999992371,1.2822564230301003,-0.3356052880301003,0.21279563871906354,16.7999992371,0.0,1.8441784019334089,4.01383910892154
1648638480653912497,37225,5,5,1.46510362625,0.441740483046,0.353870630264,0.121715031564,16.7999992371,0.4900012127926421,0.14773929198862876,0.11835138135919732,16.7999992371,0.01644797723837838,0.7085402426636199,1.5706329020417384
1648638480654019905,37226,5,6,1.58321940899,0.584897100925,0.215588450432,0.121715031564,16.7999992371,0.5295048190602006,0.19561775950668897,0.07210316067959865,16.7999992371,0.01644797723837838,0.7739618948309848,1.7015189377825877
1648638480654024266,37227,5,7,1.69956350327,0.381751030684,0.10625500232,0.243430063128,16.7999992371,0.5684158873812709,0.12767592999464883,0.03553679007357859,16.7999992371,0.03289595447675676,0.8139375806257343,1.745147580175876
1648638480654025978,37228,5,8,1.86579859257,0.523544251919,-0.79389834404,0.365145087242,16.7999992371,0.6240129072140468,0.17509841201304346,-0.2655178408160535,16.7999992371,0.04934393070837838,0.8996908750392785,2.094177058517993
1648638480654031228,37229,5,9,1.35103785992,0.708966195583,0.847114980221,-0.121715031564,16.7999992371,0.4518521270635451,0.23711243999431436,0.28331604689665546,16.7999992371,-0.01644797723837838,0.6815885846049342,1.7451476026776278
1648638480753748622,37230,6,0,0.0271931793541,0.081803791225,0.013510026969,0.0,11.8000001907,0.009094708814080267,0.0273591275,0.004518403668561872,11.8000001907,0.0,0.030231594638508153,0.08725737843226065
1648638480753762426,37231,6,1,0.0696327388287,0.0272679310292,-0.0449621081352,0.0,11.8000001907,0.023288541414280935,0.00911970937431438,-0.01503749435959866,11.8000001907,0.0,0.03417428011650449,0.08725737531785248
1648638480753768673,37232,6,2,1.20016145706,0.698059022427,-0.146531969309,0.0,11.8000001907,0.4013917916588629,0.23346455599565216,-0.04900734759498328,11.8000001907,0.0,0.6137885953066178,1.3961180250371725
1648638480753905000,37233,6,3,3.84164690971,-1.00345981121,0.587981879711,0.0,11.8000001907,1.2848317423779263,-0.3356052880301003,0.1966494580973244,11.8000001907,0.0,1.847759757597714,4.0138392173163195
1648638480753910516,37234,6,4,1.4657920599,0.504456698895,0.450352489948,0.121715031564,11.8000001907,0.4902314581605351,0.16871461501505017,0.15061956185551836,11.8000001907,0.01644797723837838,0.7135253229284055,1.614261530585515
1648638480754002825,37235,6,5,1.42805171013,0.691242039204,0.614832818508,-0.243430063128,11.8000001907,0.47760926760200667,0.23118462849632104,0.20562970518662205,11.8000001907,-0.03289595447675676,0.7139100485716897,1.7015189209299477
1648638480853879132,37236,7,0,0.0272006299347,0.081803791225,0.0134950168431,0.0,32.5999984741,0.009097200647056856,0.0273591275,0.004513383559565217,32.5999984741,0.0,0.030233094065723404,0.08725737795294698
1648638480853882449,37237,7,1,0.0695604681969,0.0272679310292,-0.0450738444924,0.0,32.5999984741,0.02326437063441471,0.00911970937431438,-0.015074864378729095,32.5999984741,0.0,0.03414133830274954,0.08725737937681947
1648638480853897228,37238,7,2,0.212418824434,-0.081803791225,-0.129271134734,0.0,32.5999984741,0.07104308509498328,-0.0273591275,-0.04323449322207358,32.5999984741,0.0,0.10412858270997126,0.2617721213348012
1648638480854026482,37239,7,3,1.20056426525,0.698059022427,-0.143194079399,0.0,32.5999984741,0.4015265101170568,0.23346455599565216,-0.04789099645451505,32.5999984741,0.0,0.6139647999354791,1.39611801011302
1648638480854034136,37240,7,4,1.52924764156,0.569899737835,0.291917949915,0.0,32.5999984741,0.511454060722408,0.1906019190083612,0.09763142137625416,32.5999984741,0.0,0.7479970614839012,1.6578902707609453
1648638480854039529,37241,7,5,1.64478135109,-2.1132645607,0.381729066372,0.0,32.5999984741,0.550094097354515,-0.7067774450501672,0.127668584070903,32.5999984741,0.0,1.051066786041781,2.7049787201597812
1648638480854052108,37242,7,6,3.83177065849,-1.00345981121,0.649235248566,0.0,32.5999984741,1.2815286483244146,-0.3356052880301003,0.2171355346374582,32.5999984741,0.0,1.8431663685913349,4.013839107383236
1648638480854056723,37243,7,7,1.84992897511,0.368117064238,0.544760584831,0.243430063128,32.5999984741,0.6187053428461539,0.12311607499598662,0.18219417552876252,32.5999984741,0.03289595447675676,0.8836006849562595,1.9632909821827615
1648638480953816630,37244,8,0,0.0272770170122,0.081803791225,0.0133399451151,0.0,19.0,0.009122748164615384,0.0273591275,0.004461520105384615,19.0,0.0,0.0302484863375218,0.08725737820689501
1648638480953825172,37245,8,1,0.0696611404419,0.0272679310292,-0.0449180901051,0.0,19.0,0.023298040281571904,0.00911970937431438,-0.015022772610401336,19.0,0.0,0.03418722657653662,0.08725737429563879
1648638480953971987,37246,8,2,0.212902337313,-0.081803791225,-0.128473266959,0.0,19.0,0.07120479508795986,-0.0273591275,-0.042967647812374575,19.0,0.0,0.10434925751819206,0.26177212574153175
1648638480953978078,37247,8,3,1.20035493374,0.698059022427,-0.144939139485,0.0,19.0,0.40145649957859525,0.23346455599565216,-0.048474628590301,19.0,0.0,0.6138732287810279,1.3961180895255068
1648638480953994595,37248,8,4,1.48421442509,0.454011052847,0.44364592433,0.0,19.0,0.4963927843110368,0.15184316148729096,0.14837656332107022,19.0,0.0,0.7182394714317659,1.6142615035758923
1648638480953998980,37249,8,5,3.83191037178,-1.00345981121,0.648410081863,0.0,19.0,1.2815753751772574,-0.3356052880301003,0.21685955915150498,19.0,0.0,1.8432313457282627,4.0138391004536205
1648638480954063958,37250,8,6,1.52819228172,0.569899737835,0.297393172979,-0.121715031564,19.0,0.5111010975652174,0.1906019190083612,0.09946259965852841,19.0,-0.01644797723837838,0.7475143847407952,1.6578902437819878
1648638481053809731,37251,9,0,0.0176472514868,0.0845305845141,0.0125301480293,0.0,13.6999998093,0.0059020907982608685,0.028271098499698995,0.0041906849596321065,13.6999998093,0.0,0.02947752299569138,0.08725737683984054
1648638481053820830,37252,9,1,0.0696611404419,0.0272679310292,-0.0449180901051,0.0,13.6999998093,0.023298040281571904,0.00911970937431438,-0.015022772610401336,13.6999998093,0.0,0.03418722657653662,0.08725737429563879
1648638481053830367,37253,9,2,0.21220728755,-0.081803791225,-0.129618108273,0.0,13.6999998093,0.07097233697324415,-0.0273591275,-0.04335053788394648,13.6999998093,0.0,0.10403204837187767,0.2617721282726313
1648638481053835832,37254,9,3,1.2005572319,0.698059022427,-0.143253728747,0.0,13.6999998093,0.4015241578260869,0.23346455599565216,-0.04791094606923076,13.6999998093,0.0,0.6139617231897635,1.396118081201962
1648638481053842818,37255,9,4,1.46358764172,0.554902374744,0.394758969545,0.0,13.6999998093,0.4894941945551839,0.18558607850969897,0.13202641121906353,13.6999998093,0.0,0.7166947226979312,1.6142614641154858
1648638481053846712,37256,9,5,1.64262354374,-2.1132645607,0.390910089016,0.0,13.6999998093,0.5493724226555183,-0.7067774450501672,0.13073916020602006,13.6999998093,0.0,1.050311608228924,2.7049787259152365
1648638481053852092,37257,9,6,3.83459877968,-1.00345981121,0.632318258286,0.0,13.6999998093,1.2824745082541804,-0.3356052880301003,0.2114776783565217,13.6999998093,0.0,1.8444816719060588,4.013839280987567
1648638481153764207,37258,10,0,0.0176354516298,0.0845305845141,0.0125467497855,0.0,14.8000001907,0.005898144357792642,0.028271098499698995,0.004196237386454849,14.8000001907,0.0,0.029475943141999802,0.08725737678077633
1648638481153807379,37259,10,1,0.0696505606174,0.0272679310292,-0.0449345000088,0.0,14.8000001907,0.0232945018787291,0.00911970937431438,-0.015028260872508359,14.8000001907,0.0,0.03418240387433547,0.08725737761342686
1648638481153815938,37260,10,2,0.212979987264,-0.081803791225,-0.128344491124,0.0,14.8000001907,0.07123076497123745,-0.0273591275,-0.042924578971237456,14.8000001907,0.0,0.10438470009698066,0.26177212157835966
1648638481153818754,37261,10,3,1.20054316521,0.698059022427,-0.143370896578,0.0,14.8000001907,0.4015194532474916,0.23346455599565216,-0.04795013263478261,14.8000001907,0.0,0.6139555697105258,1.396118012314777
1648638481153829282,37262,10,4,1.48577046394,0.504456698895,0.37927505374,0.0,14.8000001907,0.49691319864214045,0.16871461501505017,0.12684784406020067,14.8000001907,0.0,0.7227102291300458,1.6142614407108917
1648638481153848565,37263,10,5,3.83450984955,-1.00345981121,0.63285702467,0.0,14.8000001907,1.2824447657357858,-0.3356052880301003,0.2116578677826087,14.8000001907,0.0,1.8444403117693984,4.013839233537355
1648638481153871751,37264,10,6,1.54435586929,0.569899737835,0.196924760938,-0.121715031564,14.8000001907,0.5165069796956521,0.1906019190083612,0.06586112405953176,14.8000001907,-0.01644797723837838,0.7549092738060114,1.6578902628537757
1648638481253704490,37265,11,0,0.0272080674767,0.081803791225,0.0134800169617,0.0,17.5,0.009099688119297658,0.0273591275,0.004508366876822742,17.5,0.0,0.03023459120441734,0.0872573782088814
1648638481253712285,37266,11,1,0.0696467012167,0.0272679310292,-0.0449404753745,0.0,17.5,0.02329321110926421,0.00911970937431438,-0.01503025932257525,17.5,0.0,0.03418064461992279,0.0872573743580881
1648638481253739777,37267,11,2,0.212275445461,-0.081803791225,-0.129506453872,0.0,17.5,0.070995132261204,-0.0273591275,-0.04331319527491638,17.5,0.0,0.10406315134154336,0.26177212723846255
1648638481253885456,37268,11,3,1.20075130463,0.698059022427,-0.141617804766,0.0,17.5,0.40158906509364545,0.23346455599565216,-0.04736381430301003,17.5,0.0,0.6140466214480977,1.396118081320175
1648638481253891659,37269,11,4,1.43818187714,0.539905011654,0.327143341303,0.0,17.5,0.48099728332441466,0.1805702380113712,0.10941248873010033,17.5,0.0,0.7037914350050146,1.5706327702878007
1648638481253896993,37270,11,5,1.53745937347,0.638069570065,0.35249465704,0.0,17.5,0.514200459354515,0.2134011940016722,0.11789118964548494,17.5,0.0,0.7578550616061938,1.7015189051419457
1648638481254087686,37271,11,6,3.83311271667,-1.00345981121,0.641264796257,0.0,17.5,1.2819774972140467,-0.3356052880301003,0.21446983152408022,17.5,0.0,1.843790529338989,4.013839213313036
1648638481353811463,37272,12,0,0.0176325812936,0.0845305845141,0.0125507852063,0.0,15.0,0.005897184379130434,0.028271098499698995,0.004197587025518394,15.0,0.0,0.029475558986770765,0.08725737705584265
1648638481353843299,37273,12,1,0.0696394518018,0.0272679310292,-0.0449517220259,0.0,15.0,0.023290786555785953,0.00911970937431438,-0.015034020744448158,15.0,0.0,0.034177340093200885,0.08725738148123754
1648638481354012144,37274,12,2,0.212826654315,-0.081803791225,-0.128598600626,0.0,15.0,0.07117948304849497,-0.0273591275,-0.04300956542675585,15.0,0.0,0.10431471359143553,0.2617721244301336
1648638481354026134,37275,12,3,1.20028054714,0.698059022427,-0.145553275943,0.0,15.0,0.4014316211170568,0.23346455599565216,-0.04868002539899665,15.0,0.0,0.6138406892440281,1.3961180275220917
1648638481354028269,37276,12,4,1.46452188492,0.554902374744,0.391279041767,0.0,15.0,0.48980665047491634,0.18558607850969897,0.13086255577491637,15.0,0.0,0.7171215393749667,1.6142615294407103
1648638481354030340,37277,12,5,1.64308226109,-2.1132645607,0.3889772892,0.0,15.0,0.5495258398294314,-0.7067774450501672,0.13009273886287626,15.0,0.0,1.050472110106749,2.70497869709404
1648638481354035461,37278,12,6,3.81266212463,-1.00345981121,0.753378927708,0.0,15.0,1.2751378343244146,-0.3356052880301003,0.2519661965578595,15.0,0.0,1.8342802137091494,4.013839044856708
1648638481454000368,37279,13,0,0.0272576659918,0.081803791225,0.0133794415742,0.0,14.5,0.009116276251438127,0.0273591275,0.0044747296234782605,14.5,0.0,0.03024458369603268,0.08725737831806174
1648638481454005954,37280,13,1,0.0696043223143,0.0272679310292,-0.0450060926378,0.0,14.5,0.023279037563311036,0.00911970937431438,-0.015052204895585283,14.5,0.0,0.034161327240317375,0.08725737861045565
1648638481454011924,37281,13,2,0.212573513389,-0.081803791225,-0.129016622901,0.0,14.5,0.07109482053143812,-0.0273591275,-0.043149372207692306,14.5,0.0,0.10419917883724443,0.26177212960532215
1648638481454038957,37282,13,3,1.2003068924,0.698059022427,-0.145336523652,0.0,14.5,0.40144043224080267,0.23346455599565216,-0.04860753299397993,14.5,0.0,0.6138522136325746,1.3961180966673028
1648638481454068644,37283,13,4,1.43008351326,0.504456698895,0.553375780582,0.0,14.5,0.47828880042140465,0.16871461501505017,0.18507551190033444,14.5,0.0,0.6971262256842509,1.614261493839472
1648638481454079854,37284,13,5,3.8269944191,-1.00345981121,0.676821410656,0.0,14.5,1.2799312438461539,-0.3356052880301003,0.22636167580468225,14.5,0.0,1.8409451070851874,4.0138391968860105
1648638481553753053,37285,14,0,0.0271665975451,0.081803791225,0.0135633992031,0.0,15.0,0.009085818576956521,0.0273591275,0.004536253914080268,15.0,0.0,0.03022624779869299,0.0872573783636861
1648638481553758441,37286,14,1,0.0696855783463,0.0272679310292,-0.0448801778257,0.0,15.0,0.023306213493745818,0.00911970937431438,-0.015010092918294313,15.0,0.0,0.034198366538536265,0.08725737936551829
1648638481553761640,37287,14,2,0.212729543447,-0.081803791225,-0.128759175539,0.0,15.0,0.07114700449732442,-0.0273591275,-0.04306326941103678,15.0,0.0,0.10427039059793465,0.2617721226552504
1648638481553764879,37288,14,3,1.20071566105,0.698059022427,-0.141919538379,0.0,15.0,0.4015771441638796,0.23346455599565216,-0.0474647285548495,15.0,0.0,0.6140310288054518,1.3961180655145846
1648638481554020303,37289,14,4,1.5079151392,0.454011052847,0.354832500219,0.0,15.0,0.504319444548495,0.15184316148729096,0.11867307699632106,15.0,0.0,0.7291999382815803,1.6142615049450517
1648638481554082295,37290,14,5,3.82211494446,-1.12889230251,0.477435529232,0.0,15.0,1.278299312528428,-0.3775559540167224,0.1596774345257525,15.0,0.0,1.8467936439231052,4.013839205038468
1648638481653800425,37291,15,0,0.0272039119154,0.081803791225,0.0134884016588,0.0,15.3000001907,0.009098298299464883,0.0273591275,0.004511171123344481,15.3000001907,0.0,0.0302337546701257,0.08725737826449606
1648638481653815324,37292,15,1,0.0696505606174,0.0272679310292,-0.0449345000088,0.0,15.3000001907,0.0232945018787291,0.00911970937431438,-0.015028260872508359,15.3000001907,0.0,0.03418240387433547,0.08725737761342686
1648638481653842622,37293,15,2,0.213015630841,-0.081803791225,-0.128285318613,0.0,15.3000001907,0.07124268589999999,-0.0273591275,-0.04290478883377926,15.3000001907,0.0,0.10440096956471895,0.26177211886106494
1648638481653850244,37294,15,3,1.20024085045,0.698059022427,-0.145880803466,0.0,15.3000001907,0.40141834463210696,0.23346455599565216,-0.04878956637658862,15.3000001907,0.0,0.6138233245165982,1.396118084798189
1648638481653963480,37295,15,4,1.45265519619,0.441740483046,0.401927411556,0.0,15.3000001907,0.48583785825752507,0.14773929198862876,0.13442388346354514,15.3000001907,0.0,0.7027828593739458,1.5706328079916154
1648638481653969157,37296,15,5,3.81845283508,-1.00345981121,0.723458409309,0.0,15.3000001907,1.2770745267826087,-0.3356052880301003,0.24195933421705682,15.3000001907,0.0,1.836972945709276,4.013839273867852
1648638481654018321,37297,15,6,1.44299924374,0.691242039204,0.578881978989,0.243430063128,15.3000001907,0.48260844272240805,0.23118462849632104,0.1936060130397993,15.3000001907,0.03289595447675676,0.72060263004438,1.7015189448828767
1648638481654022131,37298,15,7,1.76003861427,0.279496282339,0.154487967491,-0.243430063128,15.3000001907,0.5886416770133779,0.09347701750468226,0.05166821655217391,15.3000001907,-0.03289595447675676,0.8376968429186148,1.788776293353164
1648638481654025824,37299,15,8,1.87471032143,0.306764215231,0.495851159096,-0.243430063128,15.3000001907,0.6269934185384615,0.10259672750200668,0.16583650805886288,15.3000001907,-0.03289595447675676,0.89261838557987,1.963290973085577
1648638481753908340,37300,16,0,0.0272122249007,0.081803791225,0.0134716229513,0.0,19.2999992371,0.009101078562107023,0.0273591275,0.004505559515484949,19.2999992371,0.0,0.030235428218375614,0.08725737829989885
1648638481753914368,37301,16,1,0.0695782229304,0.0272679310292,-0.0450464300811,0.0,19.2999992371,0.02327030867237458,0.00911970937431438,-0.015065695679297659,19.2999992371,0.0,0.03414943089550894,0.08725737809387284
1648638481754040028,37302,16,2,0.212355300784,-0.081803791225,-0.129375457764,0.0,19.2999992371,0.0710218397270903,-0.0273591275,-0.04326938386755853,19.2999992371,0.0,0.10409959315003234,0.2617721205581126
1648638481754042591,37303,16,3,1.20067942142,0.698059022427,-0.142225429416,0.0,19.2999992371,0.4015650238862876,0.23346455599565216,-0.047567033249498326,19.2999992371,0.0,0.6140151754833397,1.3961180267390614
1648638481754043645,37304,16,4,1.47110545635,0.39265820384,0.385429143906,0.0,19.2999992371,0.4920085138294314,0.13132381399331103,0.12890606819598663,19.2999992371,0.0,0.708089471382707,1.5706327876743529
1648638481754044742,37305,16,5,3.82141900063,-1.00345981121,0.707623183727,0.0,19.2999992371,1.2780665553946489,-0.3356052880301003,0.23666327214949828,19.2999992371,0.0,1.8383522919697552,4.013839227128751
1648638481754045709,37306,16,6,1.60352504253,0.726690351963,0.316779613495,0.243430063128,19.2999992371,0.5362960008461538,0.24304025149264213,0.10594635902842808,19.2999992371,0.03289595447675676,0.7964266224158773,1.7887763284387987
1648638481754046796,37307,16,7,1.84374260902,0.239957794547,0.477637022734,-0.243430063128,19.2999992371,0.6166363240869565,0.08025344299230769,0.15974482365685616,19.2999992371,-0.03289595447675676,0.8757404452684983,1.9196623861934516
1648638481754047740,37308,16,8,3.05534434319,1.02254736423,0.571179151535,-0.121715031564,19.2999992371,1.0218542953812708,0.34198908502675585,0.1910298165668896,19.2999992371,-0.01644797723837838,1.4850349949599655,3.2721518593587757
1648638481754048700,37309,16,9,1.82297861576,-1.22705686092,-2.42447042465,-0.121715031564,19.2999992371,0.609691844735786,-0.410386910006689,-0.8108596737959866,19.2999992371,-0.01644797723837838,0.9549165968708941,3.2721516489080456
1648638481853863433,37310,17,0,0.0272122249007,0.081803791225,0.0134716229513,0.0,11.6000003815,0.009101078562107023,0.0273591275,0.004505559515484949,11.6000003815,0.0,0.030235428218375614,0.08725737829989885
1648638481853867781,37311,17,1,0.0696399956942,0.0272679310292,-0.0449508726597,0.0,11.6000003815,0.02329096845959866,0.00911970937431438,-0.015033736675484948,11.6000003815,0.0,0.03417758801676907,0.08725737800192009
1648638481853879374,37312,17,2,0.213821038604,-0.081803791225,-0.126938357949,0.0,11.6000003815,0.07151205304481605,-0.0273591275,-0.0424543003173913,11.6000003815,0.0,0.10476864664073134,0.26177212137136585
1648638481853883847,37313,17,3,1.20077085495,0.698059022427,-0.141451537609,0.0,11.6000003815,0.4015956036622073,0.23346455599565216,-0.047308206558193976,11.6000003815,0.0,0.614055173960673,1.3961180402749056
1648638481853942599,37314,17,4,1.45694541931,0.39265820384,0.43590939045,0.0,11.6000003815,0.48727271548829426,0.13132381399331103,0.14578909379598662,11.6000003815,0.0,0.7015093318270414,1.5706328076841314
1648638481853957142,37315,17,5,2.45798206329,1.71787965298,0.578082442284,0.0,11.6000003815,0.822067579695652,0.5745416899598662,0.19333860945953174,11.6000003815,0.0,1.2967992769412209,3.054008126324337
1648638481853958868,37316,17,6,3.81660723686,-1.12889230251,0.519630551338,0.0,11.6000003815,1.2764572698528427,-0.3775559540167224,0.17378948205284278,11.6000003815,0.0,1.844243699171512,4.013839127444234
1648638481853963140,37317,17,7,1.64336705208,0.558992564678,0.431963771582,0.243430063128,11.6000003815,0.5496210876521739,0.18695403500936453,0.14446948882341137,11.6000003815,0.03289595447675676,0.7994488671517397,1.7887763010468198
1648638481853966033,37318,17,8,3.36721944809,-2.75406098366,0.702993452549,0.243430063128,11.6000003815,1.1261603505317725,-0.9210906299866221,0.23511486707324414,11.6000003815,0.03289595447675676,1.8398049404403833,4.406497305983583
1648638481853968937,37319,17,9,4.17318344116,1.37703049183,0.324876695871,0.243430063128,11.6000003815,1.3957135254715718,0.46054531499331103,0.1086544133347826,11.6000003815,0.03289595447675676,2.0268533438635505,4.40649723437127
1648638481853973620,37320,17,10,1.83112347126,0.239957794547,0.523937523365,-0.121715031564,11.6000003815,0.6124158766755853,0.08025344299230769,0.17522994092474914,11.6000003815,-0.01644797723837838,0.8697971183677093,1.9196623240958244
