%time,field.header.seq,field.header.frame_id,field.point_id,field.x,field.y,field.z,field.velocity,field.intensity,normalized_x,normalized_y,normalized_z,normalized_intensity,normalized_velocity,normalized_range,range
1648638192950277003,14018,0,0,0.25307533145,1.01436698437,-0.058368332684,0.0,19.1000003815,0.08464057908026755,0.3392531720301003,-0.01952118149966555,19.1000003815,0.0,0.3597509833017429,1.047088518048367
1648638192950295180,14019,0,1,0.994462668896,-0.0981645435095,-0.312733054161,0.0,19.1000003815,0.3325962103331103,-0.03283095100652174,-0.10459299470267558,19.1000003815,0.0,0.47150646824819464,1.0470884588204812
1648638192950298999,14020,0,2,1.19786584377,0.698059022427,-0.164245724678,0.0,19.1000003815,0.4006240280167224,0.23346455599565216,-0.05493168049431438,19.1000003815,0.0,0.6127845645534279,1.3961180596702967
1648638192950303855,14021,0,3,2.46502280235,1.71787965298,0.547282099724,0.0,19.1000003815,0.8244223419230768,0.5745416899598662,0.18303749154648827,19.1000003815,0.0,1.2997855781727232,3.054008122927384
1648638192950332180,14022,0,4,3.84768557549,-1.00345981121,0.547072827816,0.0,19.1000003815,1.2868513630401337,-0.3356052880301003,0.182967500941806,19.1000003815,0.0,1.8505684992645548,4.013839129746235
1648638192950557022,14023,0,5,1.41996359825,0.381751030684,0.411960154772,0.121715031564,19.1000003815,0.47490421346153844,0.12767592999464883,0.1377793159772575,19.1000003815,0.01644797723837838,0.6836440353188518,1.527004138469557
1648638192950561293,14024,0,6,1.61344838142,0.0504456721246,0.00892615877092,0.121715031564,19.1000003815,0.5396148432842809,0.0168714622490301,0.002985337381578595,19.1000003815,0.01644797723837838,0.7633171060731303,1.6142614787119602
1648638192950563812,14025,0,7,1.01590025425,0.605348050594,1.09879052639,0.121715031564,19.1000003815,0.3397659713210702,0.20245754200468224,0.36748847036454846,19.1000003815,0.01644797723837838,0.5214123961415554,1.6142615060229812
1648638193050213222,14026,1,0,0.0126250563189,0.0409018956125,0.00843240134418,0.0,14.1999998093,0.00422242686250836,0.01367956375,0.0028202011184548493,14.1999998093,0.0,0.014926092643715517,0.043628689003688534
1648638193050220008,14027,1,1,0.0320720598102,0.0136339655146,-0.0262480583042,0.0,14.1999998093,0.010726441408093644,0.00455985468715719,-0.008778614817458194,14.1999998093,0.0,0.015839992592502097,0.04362869011170322
1648638193050229889,14028,1,2,0.253897845745,1.01436698437,-0.0546795725822,0.0,14.1999998093,0.08491566747324415,0.3392531720301003,-0.01828748246896321,14.1999998093,0.0,0.3598806133946895,1.0470885114027428
1648638193050241503,14029,1,3,0.996052503586,-0.0981645435095,-0.307631909847,0.0,14.1999998093,0.33312792762073573,-0.03283095100652174,-0.10288692637023411,14.1999998093,0.0,0.4722566078582331,1.0470884678280434
1648638193050246822,14030,1,4,1.1966688633,0.698059022427,-0.172751322389,0.0,14.1999998093,0.4002237001003344,0.23346455599565216,-0.057776362003010034,14.1999998093,0.0,0.6122611527365197,1.3961181134025162
1648638193050493582,14031,1,5,1.6166652441,-2.07917976379,0.382346212864,0.0,14.1999998093,0.5406907170903009,-0.6953778474214046,0.1278749875799331,14.1999998093,0.0,1.0335585391160358,2.661349963482104
1648638193050503653,14032,1,6,2.44849300385,1.71787965298,0.617038965225,0.0,14.1999998093,0.8188939812207356,0.5745416899598662,0.2063675468979933,14.1999998093,0.0,1.2927771882505632,3.054008116660959
1648638193050514397,14033,1,7,3.8294980526,-1.00345981121,0.662508785725,0.0,14.1999998093,1.2807685794648829,-0.3356052880301003,0.22157484472408026,14.1999998093,0.0,1.8421094477915132,4.013839162042198
1648638193050518824,14034,1,8,1.45263397694,0.286313265562,0.373658567667,0.121715031564,14.1999998093,0.48583076151839466,0.09575694500401337,0.12496942062441471,14.1999998093,0.01644797723837838,0.6937091971363708,1.5270040871550576
1648638193050565309,14035,1,9,1.5686852932,-0.0,0.764700233936,0.121715031564,14.1999998093,0.5246439107692307,-0.0,0.25575258660066885,14.1999998093,0.01644797723837838,0.741958534026306,1.7451475573382735
1648638193050569146,14036,1,10,1.40959179401,0.6544303298,-0.793921887875,0.121715031564,14.1999998093,0.4714353826120401,0.21887302,-0.2655257150083612,14.1999998093,0.01644797723837838,0.7017179197092245,1.7451475715106362
1648638193150369607,14037,2,0,0.0125992242247,0.0409018956125,0.00847095064819,0.0,12.3000001907,0.0042137873661204014,0.01367956375,0.0028330938622709028,12.3000001907,0.0,0.014921208809076625,0.04362868919236727
1648638193150374682,14038,2,1,0.0319728478789,0.0136339655146,-0.0263688154519,0.0,12.3000001907,0.010693260160167223,0.00455985468715719,-0.008819001823377927,12.3000001907,0.0,0.015795059369120096,0.04362868833092444
1648638193150376776,14039,2,2,0.254626661539,1.01436698437,-0.0511785447598,0.0,12.3000001907,0.08515941857491638,0.3392531720301003,-0.017116570153779265,12.3000001907,0.0,0.35999578869275745,1.0470885154513516
1648638193150383381,14040,2,3,0.977155387402,-0.0981645435095,-0.363215327263,0.0,12.3000001907,0.3268078218735786,-0.03283095100652174,-0.12147669808127089,12.3000001907,0.0,0.4633406697231509,1.0470884884717
1648638193150548100,14041,2,4,1.1975979805,0.698059022427,-0.166187360883,0.0,12.3000001907,0.400534441638796,0.23346455599565216,-0.05558105715150502,12.3000001907,0.0,0.6126674275527068,1.3961180324767222
1648638193150551397,14042,2,5,2.42984247208,1.71787965298,0.686819553375,0.0,12.3000001907,0.8126563451772574,0.5745416899598662,0.22970553624581938,12.3000001907,0.0,1.2848808599304662,3.0540081925470934
1648638193150553176,14043,2,6,3.82003903389,-1.12889230251,0.493769407272,0.0,12.3000001907,1.277605028056856,-0.3775559540167224,0.16514026999063544,12.3000001907,0.0,1.8458325259475186,4.013839094765424
1648638193150554998,14044,2,7,1.51579511166,0.19632910192,0.36153486371,0.121715031564,12.3000001907,0.5069548868428093,0.06566190699665551,0.12091467013712373,12.3000001907,0.01644797723837838,0.7199430537327578,1.5706328006478387
1648638193250558084,14045,3,0,0.0126387430355,0.0409018956125,0.00841187313199,0.0,25.2000007629,0.004227004359698997,0.01367956375,0.0028133354956488294,25.2000007629,0.0,0.014928683669504915,0.043628688953507896
1648638193250582616,14046,3,1,0.0319896675646,0.0136339655146,-0.0263484083116,0.0,25.2000007629,0.010698885473110367,0.00455985468715719,-0.008812176692842809,25.2000007629,0.0,0.01580267621327013,0.043628688578751885
1648638193250765627,14047,3,2,0.253715485334,1.01436698437,-0.0555196292698,0.0,25.2000007629,0.08485467736923077,0.3392531720301003,-0.018568437882876255,25.2000007629,0.0,0.35985184072803816,1.0470885137906971
1648638193250769315,14048,3,3,0.984340846539,-0.0981645435095,-0.343265324831,0.0,25.2000007629,0.32921098546454847,-0.03283095100652174,-0.11480445646521738,25.2000007629,0.0,0.4667307759780481,1.047088469518634
1648638193250770643,14049,3,4,1.19664430618,0.698059022427,-0.172920614481,0.0,25.2000007629,0.4002154870167224,0.23346455599565216,-0.05783298143177257,25.2000007629,0.0,0.6122504152732863,1.396118022667582
1648638193250771612,14050,3,5,1.61635613441,-2.07917976379,0.383650779724,0.0,25.2000007629,0.5405873359230768,-0.6953778474214046,0.12831129756655518,25.2000007629,0.0,1.0334503791693366,2.6613499514685235
1648638193250773311,14051,3,6,2.40659880638,1.71787965298,0.764288783073,0.0,25.2000007629,0.8048825439397992,0.5745416899598662,0.2556149776163879,25.2000007629,0.0,1.2750568507246822,3.0540081304612685
1648638193250774748,14052,3,7,3.84751820564,-1.00345981121,0.548248708248,0.0,25.2000007629,1.2867953865016721,-0.3356052880301003,0.18336077198929765,25.2000007629,0.0,1.8504906492057025,4.0138391324940335
1648638193250779431,14053,3,8,1.49091243744,0.19632910192,0.453346073627,0.121715031564,25.2000007629,0.49863292222073574,0.06566190699665551,0.1516207604103679,25.2000007629,0.01644797723837838,0.7082238828754774,1.570632889903625
1648638193250781081,14054,3,9,1.6353302002,0.103618137538,0.252107769251,0.121715031564,25.2000007629,0.5469331773244147,0.034654895497658864,0.08431697968260868,25.2000007629,0.01644797723837838,0.7742562642293008,1.6578901982428544
1648638193250782282,14055,3,10,1.74750423431,0.469008415937,0.495744436979,0.121715031564,25.2000007629,0.5844495766923077,0.15685900198561872,0.1658008150431438,25.2000007629,0.01644797723837838,0.8412891072012995,1.8760337123694604
1648638193250783258,14056,3,11,1.603941679,0.414472550154,-0.0646808072925,-0.121715031564,25.2000007629,0.5364353441471572,0.13861958199130434,-0.02163237702090301,25.2000007629,-0.01644797723837838,0.7711946222660023,1.6578902289646649
1648638193350560133,14057,4,0,0.0125813921914,0.0409018956125,0.00849741324782,0.0,12.3999996185,0.004207823475384615,0.01367956375,0.0028419442300401335,12.3999996185,0.0,0.014917842377177398,0.04362868925459364
1648638193350661039,14058,4,1,0.0320152454078,0.0136339655146,-0.0263173244894,0.0,12.3999996185,0.010707439935719062,0.00455985468715719,-0.008801780765685618,12.3999996185,0.0,0.015814259853753898,0.04362868921312368
1648638193350773137,14059,4,2,0.252257734537,1.01436698437,-0.0618061982095,0.0,12.3999996185,0.08436713529665552,0.3392531720301003,-0.02067096930083612,12.3999996185,0.0,0.35962249897470705,1.0470885109439123
1648638193350776166,14060,4,3,1.196819067,0.698059022427,-0.171706959605,0.0,12.3999996185,0.400273935451505,0.23346455599565216,-0.057427076790969894,12.3999996185,0.0,0.6123268291606356,1.3961180315085406
1648638193350781172,14061,4,4,1.51354265213,0.245411381125,0.340366601944,0.0,12.3999996185,0.506201555896321,0.08207738499163879,0.11383498392775918,12.3999996185,0.0,0.7205669486666579,1.5706328436401995
1648638193350784118,14062,4,5,1.61939370632,-2.07917976379,0.370620369911,0.0,12.3999996185,0.5416032462608695,-0.6953778474214046,0.12395330097357858,12.3999996185,0.0,1.034513655494721,2.661350019222506
1648638193350785257,14063,4,6,2.4356906414,1.71787965298,0.665783047676,0.0,12.3999996185,0.8146122546488294,0.5745416899598662,0.22266991561070235,12.3999996185,0.0,1.2873555858231391,3.054008262807907
1648638193350786562,14064,4,7,3.83818173409,-1.00345981121,0.610191524029,0.0,12.3999996185,1.2836728207658863,-0.3356052880301003,0.2040774327856187,12.3999996185,0.0,1.8461480793532954,4.01383909899395
1648638193450584057,14065,5,0,0.0126614132896,0.0409018956125,0.00837771315128,0.0,16.1000003815,0.004234586384481605,0.01367956375,0.002801910752936455,16.1000003815,0.0,0.014932980549293836,0.04362868928619145
1648638193450591181,14066,5,1,0.0320646092296,0.0136339655146,-0.0262571554631,0.0,16.1000003815,0.010723949575117056,0.00455985468715719,-0.008781657345518393,16.1000003815,0.0,0.015836617812755853,0.043628687737699075
1648638193450597017,14067,5,2,0.255376905203,1.01436698437,-0.047292817384,0.0,16.1000003815,0.0854103361882943,0.3392531720301003,-0.015816995780602007,16.1000003815,0.0,0.36011465644719287,1.0470885126230096
1648638193450604648,14068,5,3,1.19772017002,0.698059022427,-0.165304914117,0.0,16.1000003815,0.40057530769899663,0.23346455599565216,-0.05528592445384615,16.1000003815,0.0,0.6127208607372028,1.3961180892373342
1648638193450830971,14069,5,4,1.50204992294,0.19632910192,0.414955854416,0.0,16.1000003815,0.5023578337591973,0.06566190699665551,0.13878122221270903,16.1000003815,0.0,0.713469181050523,1.5706328178090785
1648638193450837682,14070,5,5,2.44091010094,1.71787965298,0.64638453722,0.0,16.1000003815,0.8163578932909699,0.5745416899598662,0.2161821194715719,16.1000003815,0.0,1.2895652652653453,3.0540081193328086
1648638193450840213,14071,5,6,3.8419110775,-1.00345981121,0.586252450943,0.0,16.1000003815,1.2849200928093645,-0.3356052880301003,0.1960710538270903,16.1000003815,0.0,1.847882625916543,4.013839091987556
1648638193550625017,14072,6,0,0.0126073388383,0.0409018956125,0.00845886860043,0.0,15.6999998093,0.004216501283712374,0.01367956375,0.0028290530436220736,15.6999998093,0.0,0.014922742058395645,0.04362868913087918
1648638193550635082,14073,6,1,0.0320525243878,0.0136339655146,-0.0262719076127,0.0,15.6999998093,0.010719907822006687,0.00455985468715719,-0.008786591174816052,15.6999998093,0.0,0.015831144058236275,0.04362868855345138
1648638193550638931,14074,6,2,0.253471463919,1.01436698437,-0.0566233098507,0.0,15.6999998093,0.08477306485585283,0.3392531720301003,-0.018937561822976588,15.6999998093,0.0,0.3598133679876195,1.047088516420449
1648638193550646850,14075,6,3,1.19779860973,0.698059022427,-0.164735421538,0.0,15.6999998093,0.40060154171571905,0.23346455599565216,-0.0550954587083612,15.6999998093,0.0,0.6127551626516654,1.3961180707132768
1648638193550711954,14076,6,4,1.48070454597,0.245411381125,0.462790131569,0.0,15.6999998093,0.49521891169565213,0.08207738499163879,0.15477930821705685,15.6999998093,0.0,0.7051384531630067,1.570632803783098
1648638193550721232,14077,6,5,1.62348937988,0.111798517406,0.742632985115,0.0,15.6999998093,0.5429730367491639,0.03739080849698996,0.2483722358244147,15.6999998093,0.0,0.7687896395199901,1.788776236888824
1648638193550726302,14078,6,6,2.32658982277,1.8133174181,0.791091382504,0.0,15.6999998093,0.7781236865451504,0.6064606749498327,0.2645790576936455,15.6999998093,0.0,1.256482189840285,3.054008159398707
1648638193550729099,14079,6,7,3.80498456955,-1.12889230251,0.598831892014,0.0,15.6999998093,1.2725700901505017,-0.3775559540167224,0.20027822475384613,15.6999998093,0.0,1.8388631724804294,4.013839189612981
1648638193650537066,14080,7,0,0.0126297716051,0.0409018956125,0.00842533819377,0.0,15.6999998093,0.004224003881304348,0.01367956375,0.0028178388607926416,15.6999998093,0.0,0.014926985026081538,0.04362868917549823
1648638193650544172,14081,7,1,0.0319762974977,0.0136339655146,-0.0263646300882,0.0,15.6999998093,0.010694413878829431,0.00455985468715719,-0.00881760203618729,15.6999998093,0.0,0.015796621511936927,0.043628687087767584
1648638193650550513,14082,7,2,0.256045073271,1.01436698437,-0.0435304120183,0.0,15.6999998093,0.08563380376956521,0.3392531720301003,-0.014558666226856186,15.6999998093,0.0,0.360220781505695,1.0470885135922
1648638193650558526,14083,7,3,0.984577059746,-0.0981645435095,-0.342587262392,0.0,15.6999998093,0.3292899865371237,-0.03283095100652174,-0.11457767972976587,15.6999998093,0.0,0.46684222368079653,1.047088485532026
1648638193650706601,14084,7,4,1.19690585136,0.698059022427,-0.171100795269,0.0,15.6999998093,0.4003029603210702,0.23346455599565216,-0.0572243462438127,15.6999998093,0.0,0.6123647760851955,1.3961180100382737
1648638193650711006,14085,7,5,1.61890292168,-2.07917976379,0.372758060694,0.0,15.6999998093,0.5414391042408027,-0.6953778474214046,0.12466824772374582,15.6999998093,0.0,1.0343417993519317,2.6613499829579412
1648638193650743470,14086,7,6,2.34599232674,1.8133174181,0.73155015707,0.0,15.6999998093,0.7846128183076921,0.6064606749498327,0.24466560437123747,15.6999998093,0.0,1.2645272237346594,3.054008134929727
1648638193650900688,14087,7,7,3.83553361893,-1.00345981121,0.626621425152,0.0,15.6999998093,1.282787163521739,-0.3356052880301003,0.20957238299397993,15.6999998093,0.0,1.8449164542455747,4.013839078128992
1648638193650969875,14088,7,8,1.51967692375,0.19632910192,0.344854265451,-0.121715031564,15.6999998093,0.5082531517558528,0.06566190699665551,0.11533587473277591,15.6999998093,-0.01644797723837838,0.7217714448285922,1.5706328448236162
1648638193650975160,14089,7,9,1.61394453049,-0.0545358620584,0.661625921726,-0.121715031564,15.6999998093,0.5397807794280935,-0.01823941874862876,0.22127957248361202,15.6999998093,-0.01644797723837838,0.7635831690629962,1.745147549076816
1648638193651040486,14090,7,10,1.67343008518,0.436286896467,-0.234149247408,-0.121715031564,15.6999998093,0.5596756137725751,0.1459153499889632,-0.07831078508628762,15.6999998093,-0.01644797723837838,0.8048384152522908,1.7451476659801834
1648638193750577215,14091,8,0,0.255594849586,1.01436698437,-0.0461005084217,0.0,11.1999998093,0.08548322728628761,0.3392531720301003,-0.015418230241371237,11.1999998093,0.0,0.36014924549003713,1.0470885172665763
1648638193750603223,14092,8,1,0.988812088966,-0.0981645435095,-0.33016461134,0.0,11.1999998093,0.3307063842695652,-0.03283095100652174,-0.11042294693645485,11.1999998093,0.0,0.4688403742611032,1.0470884850236042
1648638193750747380,14093,8,2,1.19792807102,0.698059022427,-0.163791447878,0.0,11.1999998093,0.40064483980602006,0.23346455599565216,-0.0547797484541806,11.1999998093,0.0,0.6128117771654115,1.3961180825873607
1648638193750752429,14094,8,3,2.45326447487,1.71787965298,0.5977871418,0.0,11.1999998093,0.8204897909264214,0.5745416899598662,0.19992880996655518,11.1999998093,0.0,1.294799269203881,3.0540082764595247
1648638193750754450,14095,8,4,3.83557486534,-1.00345981121,0.626370191574,0.0,11.1999998093,1.2828009583076923,-0.3356052880301003,0.20948835838595314,11.1999998093,0.0,1.8449356375288635,4.013839278949024
1648638193750756244,14096,8,5,1.50098764896,0.245411381125,0.392041862011,-0.121715031564,11.1999998093,0.502002558180602,0.08207738499163879,0.13111767960234114,11.1999998093,-0.01644797723837838,0.7146676388131781,1.570632831022324
1648638193850456336,14097,9,0,0.0126163829118,0.0409018956125,0.008445372805,0.0,24.3999996185,0.004219526057458194,0.01367956375,0.0028245393996655516,24.3999996185,0.0,0.014924451905830628,0.043628689004924726
1648638193850469936,14098,9,1,0.0319717787206,0.0136339655146,-0.0263701118529,0.0,24.3999996185,0.010692902582140468,0.00455985468715719,-0.008819435402307691,24.3999996185,0.0,0.01579457520892164,0.04362868837527402
1648638193850474361,14099,9,2,0.255868941545,1.01436698437,-0.0445539578795,0.0,24.3999996185,0.08557489683779264,0.3392531720301003,-0.014900989257357859,24.3999996185,0.0,0.3601927826457417,1.047088510771642
1648638193850480098,14100,9,3,0.995511889458,-0.0981645435095,-0.30937692523,0.0,24.3999996185,0.33294712022006684,-0.03283095100652174,-0.10347054355518394,24.3999996185,0.0,0.47200152655437877,1.047088478362471
1648638193850483506,14101,9,4,1.19763743877,0.698059022427,-0.165903016925,0.0,24.3999996185,0.4005476383846153,0.23346455599565216,-0.05548595883779264,24.3999996185,0.0,0.6126846824731561,1.396118062543466
1648638193850485864,14102,9,5,1.61701416969,-2.07917976379,0.380867809057,0.0,24.3999996185,0.5408074146120401,-0.6953778474214046,0.12738053814615385,24.3999996185,0.0,1.0336806422116767,2.6613499587818135
1648638193850493569,14103,9,6,2.41830325127,1.71787965298,0.726405203342,0.0,24.3999996185,0.8087970740033443,0.5745416899598662,0.24294488406086953,24.3999996185,0.0,1.2800013934893515,3.0540081264901815
1648638193850620706,14104,9,7,3.80677032471,-1.12889230251,0.587371766567,0.0,24.3999996185,1.2731673326789297,-0.3775559540167224,0.1964454068785953,24.3999996185,0.0,1.8396898141847278,4.013839026159251
1648638193850626605,14105,9,8,1.44367134571,0.238594397902,0.436608791351,-0.121715031564,24.3999996185,0.48283322598996653,0.07979745749230768,0.14602300714080266,24.3999996185,-0.01644797723837838,0.6874761686502252,1.5270040857245017
1648638193850628631,14106,9,9,1.59789848328,-0.0,0.701612889767,-0.121715031564,24.3999996185,0.5344142084548494,-0.0,0.23465314039030097,24.3999996185,-0.01644797723837838,0.7557758215217305,1.7451476183852543
1648638193950567818,14107,10,0,0.0126292752102,0.0409018956125,0.00842608232051,0.0,13.8000001907,0.004223837862943143,0.01367956375,0.00281808773261204,13.8000001907,0.0,0.014926891068644478,0.04362868918845523
1648638193950571632,14108,10,1,0.0319653525949,0.0136339655146,-0.0263779014349,0.0,13.8000001907,0.010690753376220734,0.00455985468715719,-0.008822040613678929,13.8000001907,0.0,0.01579166521524375,0.04362868856932193
1648638193950573911,14109,10,2,0.255360901356,1.01436698437,-0.0473791919649,0.0,13.8000001907,0.08540498373110367,0.3392531720301003,-0.015845883600301,13.8000001907,0.0,0.36011211757549205,1.047088514287347
1648638193950578362,14110,10,3,1.19753360748,0.698059022427,-0.166650757194,0.0,13.8000001907,0.40051291220066887,0.23346455599565216,-0.05573603919531772,13.8000001907,0.0,0.6126392777035834,1.396118051852756
1648638193950718006,14111,10,4,2.43628740311,1.71787965298,0.663596093655,0.0,13.8000001907,0.8148118405050168,0.5745416899598662,0.221938492861204,13.8000001907,0.0,1.2876081796712402,3.05400828227255
1648638193950722078,14112,10,5,3.81071591377,-1.12889230251,0.561205327511,0.0,13.8000001907,1.2744869276822741,-0.3775559540167224,0.18769408946856186,13.8000001907,0.0,1.841516319797216,4.013839187829152
1648638193950723438,14113,10,6,1.45924651623,0.238594397902,0.381331831217,-0.243430063128,13.8000001907,0.48804231312040125,0.07979745749230768,0.12753572950401337,13.8000001907,-0.03289595447675676,0.6947936621861631,1.5270041412317519
1648638193950724460,14114,10,7,1.67823016644,0.515363872051,0.525025308132,-0.243430063128,13.8000001907,0.5612809921204013,0.17236249901371237,0.17559374853913043,13.8000001907,-0.03289595447675676,0.8122693736055644,1.8324049733461572
1648638193950726528,14115,10,8,1.60163891315,0.362663477659,0.227657943964,-0.121715031564,13.8000001907,0.5356651883444815,0.12129213299632105,0.07613978058996655,13.8000001907,-0.01644797723837838,0.7671936975334553,1.6578902694671769
1648638194050599436,14116,11,0,0.0126344971359,0.0409018956125,0.00841824989766,0.0,11.5,0.004225584326387959,0.01367956375,0.002815468193197324,11.5,0.0,0.014927879628036435,0.043628689115218264
1648638194050612017,14117,11,1,0.0320079103112,0.0136339655146,-0.026326244697,0.0,11.5,0.010704986726153845,0.00455985468715719,-0.00880476411270903,11.5,0.0,0.015810937871683937,0.04362868893273606
1648638194050615351,14118,11,2,0.253964275122,1.01436698437,-0.0543702617288,0.0,11.5,0.08493788465618728,0.3392531720301003,-0.018184034023010033,11.5,0.0,0.3598910991289176,1.0470885145863214
1648638194050624081,14119,11,3,0.992723941803,-0.0981645435095,-0.318209260702,0.0,11.5,0.3320146962551839,-0.03283095100652174,-0.1064245019070234,11.5,0.0,0.47068608265258566,1.047088456544063
1648638194050679722,14120,11,4,1.19768893719,0.698059022427,-0.165530458093,0.0,11.5,0.4005648619364548,0.23346455599565216,-0.05536135722173912,11.5,0.0,0.6127072026201333,1.396118018512593
1648638194050681916,14121,11,5,2.45113945007,1.71787965298,0.606441378593,0.0,11.5,0.8197790802909698,0.5745416899598662,0.20282320354280933,11.5,0.0,1.293898618311093,3.0540082271470594
1648638194050683968,14122,11,6,3.84699344635,-1.00345981121,0.551919698715,0.0,11.5,1.286619881722408,-0.3356052880301003,0.18458852799832776,11.5,0.0,1.8502465644990487,4.013839249746197
1648638194050694002,14123,11,7,1.41623353958,0.23177741468,0.375452846289,-0.243430063128,11.5,0.4736567022006689,0.07751752999331103,0.1255695138090301,11.5,-0.03289595447675676,0.6743221118541866,1.4833755587758455
1648638194050706286,14124,11,8,1.62249720097,0.155427202582,0.303224653006,-0.243430063128,11.5,0.5426412043377926,0.05198234200066889,0.10141292742675584,11.5,-0.03289595447675676,0.7691691083046788,1.6578902173089025
1648638194050710938,14125,11,9,2.90954017639,-3.30487298965,0.172075226903,-0.243430063128,11.5,0.9730903599966555,-1.1053086921906354,0.05755024311137123,11.5,-0.03289595447675676,1.7650827183078457,4.406497407177202
1648638194050847056,14126,11,10,3.76674604416,-1.93465971947,-3.70732188225,-0.243430063128,11.5,1.2597812856722408,-0.647043384438127,-1.2399069840301002,11.5,-0.03289595447675676,1.8954584977796674,5.628100881287082
1648638194050889763,14127,11,11,3.29210734367,0.703512609005,-4.51027917862,-0.243430063128,11.5,1.1010392453745819,0.23528849799498328,-1.5084545747892977,11.5,-0.03289595447675676,1.5747811012959205,5.628100836194042
1648638194150539520,14128,12,0,0.0126344971359,0.0409018956125,0.00841824989766,0.0,13.5,0.004225584326387959,0.01367956375,0.002815468193197324,13.5,0.0,0.014927879628036435,0.043628689115218264
1648638194150566256,14129,12,1,0.032011885196,0.0136339655146,-0.0263214111328,0.0,13.5,0.010706316119063544,0.00455985468715719,-0.008803147536053511,13.5,0.0,0.015812738044077918,0.0436286888810227
1648638194150595004,14130,12,2,0.256787240505,1.01436698437,-0.0389139689505,0.0,13.5,0.08588202023578595,0.3392531720301003,-0.013014705334615384,13.5,0.0,0.36033894811974565,1.0470885171968707
1648638194150597287,14131,12,3,1.19700682163,0.698059022427,-0.170393496752,0.0,13.5,0.40033672964214045,0.23346455599565216,-0.05698779155585284,13.5,0.0,0.6124089263779354,1.3961180729278837
1648638194150647817,14132,12,4,2.45816874504,1.71787965298,0.577288806438,0.0,13.5,0.8221300150635451,0.5745416899598662,0.19307317941070232,13.5,0.0,1.2968784356441079,3.054008259198528
1648638194150651145,14133,12,5,3.84392356873,-1.00345981121,0.572908997536,0.0,13.5,1.285593166799331,-0.3356052880301003,0.1916083603799331,13.5,0.0,1.8488186742879984,4.013839149045374
1648638194150653322,14134,12,6,2.66094875336,-3.37440633774,0.43424475193,-0.365145087242,13.5,0.8899494158394649,-1.1285639925551838,0.1452323585050167,13.5,-0.04934393070837838,1.690466388544329,4.319240084177628
1648638194150657965,14135,12,7,1.41572189331,0.278132885695,0.344639182091,-0.243430063128,13.5,0.4734855830468227,0.09302103200501671,0.11526394049866219,13.5,-0.03289595447675676,0.6760400188610565,1.4833753898237063
1648638194150673257,14136,12,8,1.50890409946,0.0518090687692,0.684926569462,-0.243430063128,13.5,0.5046502004882943,0.01732744774889632,0.229072431258194,13.5,-0.03289595447675676,0.7138934725512217,1.6578902757809124
1648638194150688676,14137,12,9,1.51325058937,0.621708810329,-0.26860883832,-0.243430063128,13.5,0.5061038760434782,0.20792936800301004,-0.08983573187959865,13.5,-0.03289595447675676,0.7453300535806912,1.6578901951254108
1648638194150705473,14138,12,10,3.8429338932,-1.74514758587,-3.65686321259,-0.243430063128,13.5,1.285262171638796,-0.5836613999565218,-1.2230311747792642,13.5,-0.03289595447675676,1.9090464450847062,5.584472182719443
1648638194150746369,14139,12,11,4.793841362,2.6177213192,1.16316366196,-0.243430063128,13.5,1.6032914254180601,0.87549208,0.3890179471438127,13.5,-0.03289595447675676,2.430549973109147,5.584472187550082
1648638194250351506,14140,13,0,0.254203826189,1.01436698437,-0.0532391183078,0.0,13.1999998093,0.08501800206989966,0.3392531720301003,-0.017805725186555182,13.1999998093,0.0,0.35992893199130266,1.0470885196329904
1648638194250383199,14141,13,1,1.00554561615,-0.0981645435095,-0.275019973516,0.0,13.1999998093,0.33630288165551836,-0.03283095100652174,-0.0919799242528428,13.1999998093,0.0,0.47673590987422354,1.047088463117445
1648638194250385958,14142,13,2,1.61720395088,-2.07917976379,0.380061328411,0.0,13.1999998093,0.5408708865819397,-0.6953778474214046,0.12711081217759196,13.1999998093,0.0,1.033747059288825,2.6613499811654338
1648638194250390780,14143,13,3,2.46237325668,1.71787965298,0.559082567692,0.0,13.1999998093,0.8235362062474916,0.5745416899598662,0.18698413635183947,13.1999998093,0.0,1.29866158775216,3.0540081654823115
1648638194250495223,14144,13,4,3.84910416603,-1.00345981121,0.537001550198,0.0,13.1999998093,1.2873258080367893,-0.3356052880301003,0.17959918066822742,13.1999998093,0.0,1.8512283439459627,4.013839201883674
1648638194250509174,14145,13,5,1.36946976185,0.314944595098,0.313421875238,-0.243430063128,13.1999998093,0.4580166427591973,0.10533264050100333,0.10482336964481606,13.1999998093,-0.03289595447675676,0.6562419182311702,1.4397467827644705
1648638194250513717,14146,13,6,1.58579432964,0.103618137538,0.472355574369,-0.243430063128,13.1999998093,0.5303659965351171,0.034654895497658864,0.15797845296622073,13.1999998093,-0.03289595447675676,0.7508509454900681,1.6578902747114144
1648638194250543144,14147,13,7,3.02748131752,-3.13581204414,0.188851505518,-0.243430063128,13.1999998093,1.0125355576989965,-1.0487665699464883,0.0631610386347826,13.1999998093,-0.03289595447675676,1.7749275561123494,4.362868917953247
1648638194350360443,14148,14,0,0.253408312798,1.01436698437,-0.0569051615894,0.0,14.0,0.08475194407959867,0.3392531720301003,-0.019031826618528425,14.0,0.0,0.35980341685846684,1.0470885107719083
1648638194350375417,14149,14,1,2.45640063286,1.71787965298,0.584766328335,0.0,14.0,0.8215386731973243,0.5745416899598662,0.19557402285451503,14.0,0.0,1.2961287500165943,3.054008223628759
1648638194350378687,14150,14,2,3.83080101013,-1.00345981121,0.654932916164,0.0,14.0,1.2812043512140467,-0.3356052880301003,0.2190411090849498,14.0,0.0,1.8427154116936721,4.013839196654709
1648638194350380783,14151,14,3,2.69614672661,-3.37440633774,0.00307494425215,-0.365145087242,14.0,0.9017213132474915,-1.1285639925551838,0.0010284094488795987,14.0,-0.04934393070837838,1.7028973365478197,4.319240067288671
1648638194350384323,14152,14,4,1.49380767345,0.238594397902,0.208213567734,-0.243430063128,14.0,0.4996012285785953,0.07979745749230768,0.06963664472709029,14.0,-0.03289595447675676,0.7110347455762766,1.52700410666011
1648638194350464754,14153,14,5,1.34261739254,0.35993668437,0.37509304285,-0.121715031564,14.0,0.44903591723745817,0.12038016199665551,0.12544917821070234,14.0,-0.01644797723837838,0.6463419322161543,1.4397467382496996
1648638194450320033,14154,15,0,0.0126355262473,0.0409018956125,0.00841670483351,0.0,25.2000007629,0.004225928510802675,0.01367956375,0.0028149514493344477,25.2000007629,0.0,0.01492807448893339,0.04362868905315039
1648638194450324983,14155,15,1,0.03206589818,0.0136339655146,-0.0262555815279,0.0,25.2000007629,0.010724380662207359,0.00455985468715719,-0.008781130945785953,25.2000007629,0.0,0.01583720164498273,0.043628687845403205
1648638194450327739,14156,15,2,0.25484597683,1.01436698437,-0.0500751137733,0.0,25.2000007629,0.08523276817056855,0.3392531720301003,-0.016747529690066886,25.2000007629,0.0,0.3600305046416492,1.0470885196131863
1648638194450331550,14157,15,3,1.01219654083,-0.0981645435095,-0.249431997538,0.0,25.2000007629,0.338527271180602,-0.03283095100652174,-0.08342207275518394,25.2000007629,0.0,0.479874252289037,1.0470885522564188
1648638194450410161,14158,15,4,2.45637631416,1.71787965298,0.584868252277,0.0,25.2000007629,0.8215305398528427,0.5745416899598662,0.19560811112943144,25.2000007629,0.0,1.2961184395431404,3.0540081812939706
1648638194450484167,14159,15,5,3.81914305687,-1.12889230251,0.500652968884,0.0,25.2000007629,1.2773053701906354,-0.3775559540167224,0.167442464509699,25.2000007629,0.0,1.8454177076881941,4.013839174002494
1648638194450494144,14160,15,6,1.457067132,0.278132885695,0.000388789951103,-0.486860126257,25.2000007629,0.48731342207357853,0.09302103200501671,0.00013003008398093646,25.2000007629,-0.06579190895364864,0.6954147360111099,1.4833754347491936
1648638194450500620,14161,15,7,1.449619174,0.278132885695,0.147136628628,-0.243430063128,25.2000007629,0.4848224662207357,0.09302103200501671,0.04920957479197324,25.2000007629,-0.03289595447675676,0.6919238107624214,1.4833754882758055
1648638194450521884,14162,15,8,1.30231666565,0.349029511213,0.362346678972,-0.121715031564,25.2000007629,0.43555741326086955,0.11673227799765887,0.12118618025819397,25.2000007629,-0.01644797723837838,0.626934562151045,1.396117979645473
1648638194450524693,14163,15,9,0.703425467014,0.828945100307,-0.875892758369,-0.121715031564,25.2000007629,0.23525935351638794,0.2772391639822742,-0.2929407218625418,25.2000007629,-0.01644797723837838,0.4330767609552467,1.3961180075946669
1648638194450530919,14164,15,10,1.51882863045,0.0504456721246,0.544476747513,-0.121715031564,25.2000007629,0.5079694416220736,0.0168714622490301,0.1820992466598662,25.2000007629,-0.01644797723837838,0.7185753638151693,1.6142614729631197
1648638194450539076,14165,15,11,1.39401078224,0.655793726444,-0.482191711664,-0.121715031564,25.2000007629,0.46622434188628764,0.21932900549966555,-0.16126813099130433,25.2000007629,-0.01644797723837838,0.6948636460400532,1.6142615399749023
1648638194550489003,14166,16,0,0.0126165328547,0.0409018956125,0.00844514928758,0.0,12.1999998093,0.004219576205585284,0.01367956375,0.002824464644675585,12.1999998093,0.0,0.014924480262300496,0.04362868909856317
1648638194550589787,14167,16,1,0.0320360325277,0.0136339655146,-0.0262920148671,0.0,12.1999998093,0.010714392149732441,0.00455985468715719,-0.008793316009063544,12.1999998093,0.0,0.01582367444825903,0.04362868828581673
1648638194550611266,14168,16,2,0.255137175322,1.01436698437,-0.0485695004463,0.0,12.1999998093,0.08533015897056855,0.3392531720301003,-0.01624398008237458,12.1999998093,0.0,0.36007664016479857,1.0470885127747225
1648638194550620096,14169,16,3,1.0356361866,-0.0981645435095,-0.119229130447,0.0,12.1999998093,0.3463666175919732,-0.03283095100652174,-0.03987596336020066,12.1999998093,0.0,0.49093537141685056,1.0470884270895968
1648638194550627180,14170,16,4,1.61525797844,-2.07917976379,0.388248473406,0.0,12.1999998093,0.5402200596789297,-0.6953778474214046,0.12984898776120402,12.1999998093,0.0,1.0330662013847125,2.6613499777688028
1648638194550887384,14171,16,5,3.83546233177,-1.00345981121,0.627058327198,0.0,12.1999998093,1.2827633216622072,-0.3356052880301003,0.20971850407959866,12.1999998093,0.0,1.8448832993329103,4.013839189211312
1648638194550941689,14172,16,6,1.17874717712,0.349029511213,0.661724209785,-0.121715031564,12.1999998093,0.39422982512374577,0.11673227799765887,0.22131244474414716,12.1999998093,-0.01644797723837838,0.5696145492881314,1.3961179882379344
1648638194550960430,14173,16,7,0.904723167419,0.828945100307,-0.665936589241,-0.121715031564,12.1999998093,0.30258299913678927,0.2772391639822742,-0.22272126730468225,12.1999998093,-0.01644797723837838,0.5098769427801367,1.3961180214715325
1648638194551108269,14174,16,8,1.43170011044,0.370843857527,0.11450894922,-0.121715031564,12.1999998093,0.4788294683745819,0.12402804599565216,0.038297307431438124,12.1999998093,-0.01644797723837838,0.6884317509828183,1.4833754320302337
1648638194551128511,14175,16,9,1.53038299084,0.100891344249,0.503576338291,-0.121715031564,12.1999998093,0.5118337762006688,0.03374292449799331,0.16842018003043477,12.1999998093,-0.01644797723837838,0.7246283280919605,1.6142615310052226
1648638194551130852,14176,16,10,1.08365988731,0.655793726444,-1.00072777271,-0.121715031564,12.1999998093,0.3624280559565217,0.21932900549966555,-0.33469156277926415,12.1999998093,-0.01644797723837838,0.5575064162342166,1.614261514774216
