%time,field.header.seq,field.header.frame_id,field.point_id,field.x,field.y,field.z,field.velocity,field.intensity,normalized_x,normalized_y,normalized_z,normalized_intensity,normalized_velocity,normalized_range,range
1648638730656771229,61416,0,0,0.0271774921566,0.081803791225,0.0135415550321,0.0,11.8999996185,0.009089462259732442,0.0273591275,0.0045289481712709025,11.8999996185,0.0,0.030228438694439,0.08725737820604533
1648638730656817413,61417,0,1,0.0697374343872,0.0272679310292,-0.0447995550931,0.0,11.8999996185,0.023323556651237455,0.00911970937431438,-0.014983128793678928,11.8999996185,0.0,0.03422200591430788,0.0872573776483223
1648638730656834204,61418,0,2,0.213319152594,-0.081803791225,-0.127779975533,0.0,11.8999996185,0.07134419819197324,-0.0273591275,-0.04273577777023411,11.8999996185,0.0,0.10453951926842008,0.26177212087886614
1648638730656839016,61419,0,3,0.259369641542,1.01436698437,0.0134672429413,0.0,11.8999996185,0.08674569951237457,0.3392531720301003,0.004504094629197325,11.8999996185,0.0,0.36075247400436106,1.047088514198276
1648638730656854314,61420,0,4,0.810619771481,0.392658174038,-0.533956468105,0.0,11.8999996185,0.27111029146521737,0.13132380402608695,-0.17858075856354513,11.8999996185,0.0,0.4052746251378099,1.0470885184099437
1648638730656858814,61421,0,5,1.18773758411,0.633979380131,-0.128751814365,0.0,11.8999996185,0.39723665020401333,0.21203323750200667,-0.04306080747993311,11.8999996185,0.0,0.600459829077844,1.3524893540582956
1648638730656864087,61422,0,6,3.81815171242,-1.12889230251,0.508156895638,0.0,11.8999996185,1.2769738168628761,-0.3775559540167224,0.16995213900936454,11.8999996185,0.0,1.8449587410888522,4.013839030193732
1648638730656866965,61423,0,7,1.69259643555,0.111798517406,0.567749083042,-0.243430063128,11.8999996185,0.5660857643979933,0.03739080849698996,0.1898826364688963,11.8999996185,-0.03289595447675676,0.8014388672058395,1.7887762921689725
1648638730656876437,61424,0,8,1.61508762836,0.362663477659,0.0925595387816,-0.121715031564,11.8999996185,0.5401630864080267,0.12129213299632105,0.03095636748548495,11.8999996185,-0.01644797723837838,0.7734753398541467,1.6578902597966827
1648638730756579626,61425,1,0,0.0271742716432,0.081803791225,0.0135480146855,0.0,14.1999998093,0.009088385164949832,0.0273591275,0.004531108590468227,14.1999998093,0.0,0.03022779097741376,0.08725737791178655
1648638730756586816,61426,1,1,0.0697374343872,0.0272679310292,-0.0447995550931,0.0,14.1999998093,0.023323556651237455,0.00911970937431438,-0.014983128793678928,14.1999998093,0.0,0.03422200591430788,0.0872573776483223
1648638730756598333,61427,1,2,0.212674900889,-0.081803791225,-0.128849431872,0.0,14.1999998093,0.07112872939431437,-0.0273591275,-0.043093455475585275,14.1999998093,0.0,0.10424545145022136,0.2617721333921289
1648638730756620432,61428,1,3,0.258796572685,1.01436698437,0.0218704305589,0.0,14.1999998093,0.08655403768729096,0.3392531720301003,0.0073145252705351166,14.1999998093,0.0,0.36066039096694663,1.0470885161944152
1648638730756643543,61429,1,4,1.16878640652,0.676244676113,-0.0765444040298,0.0,14.1999998093,0.3908984637190635,0.22616878799765885,-0.025600135127023412,14.1999998093,0.0,0.5972901627686312,1.3524893980454664
1648638730756645599,61430,1,5,2.46126484871,1.71787965298,0.563942492008,0.0,14.1999998093,0.8231655012408026,0.5745416899598662,0.18860952909966552,14.1999998093,0.0,1.298191449042853,3.0540082337659693
1648638730756654708,61431,1,6,3.8303694725,-1.00345981121,0.657451689243,0.0,14.1999998093,1.2810600242474917,-0.3356052880301003,0.21988350810802673,14.1999998093,0.0,1.8425147165772473,4.013839136320987
1648638730756657389,61432,1,7,1.69335222244,0.71987336874,0.547214925289,0.243430063128,14.1999998093,0.5663385359331103,0.24076032399331102,0.18301502518026752,14.1999998093,0.03289595447675676,0.8363278114322649,1.9196623637303016
1648638730756659834,61433,1,8,1.70650303364,0.223597034812,0.487413942814,-0.243430063128,14.1999998093,0.570736800548495,0.07478161699397992,0.16301469659331103,14.1999998093,-0.03289595447675676,0.8106005682460995,1.7887762826716846
1648638730756677072,61434,1,9,1.47736752033,0.25904533267,0.706314861774,-0.121715031564,14.1999998093,0.49410284960869566,0.08663723500668896,0.23622570627892978,14.1999998093,-0.01644797723837838,0.7041173641321956,1.657890213031897
1648638730856813377,61435,2,0,0.0272584110498,0.081803791225,0.0133779225871,0.0,12.3000001907,0.009116525434715719,0.0273591275,0.0044742216010367885,12.3000001907,0.0,0.030244733914598976,0.0872573781664891
1648638730856849599,61436,2,1,0.0697374343872,0.0272679310292,-0.0447995550931,0.0,12.3000001907,0.023323556651237455,0.00911970937431438,-0.014983128793678928,12.3000001907,0.0,0.03422200591430788,0.0872573776483223
1648638730856870691,61437,2,2,0.213070869446,-0.081803791225,-0.128193572164,0.0,12.3000001907,0.07126116034983278,-0.0273591275,-0.042874104402675584,12.3000001907,0.0,0.10442618352870325,0.2617721291685279
1648638730856874679,61438,2,3,0.363219231367,0.981645464897,0.0289529934525,0.0,12.3000001907,0.12147800380167224,0.32830952003244146,0.009683275402173912,12.3000001907,0.0,0.370541430556976,1.0470884893921535
1648638730856904970,61439,2,4,1.18698787689,0.633979380131,-0.135489523411,0.0,12.3000001907,0.39698591200334443,0.21203323750200667,-0.04531422187658863,12.3000001907,0.0,0.6001280883810027,1.3524893660466453
1648638730856963328,61440,2,5,1.52816927433,0.353119701147,0.381896913052,0.0,12.3000001907,0.5110934027859532,0.1181002344973244,0.12772472008428093,12.3000001907,0.0,0.7323800912988911,1.6142614740317234
1648638730856968271,61441,2,6,2.45875382423,1.71787965298,0.574790894985,0.0,12.3000001907,0.8223256937224079,0.5745416899598662,0.1922377575200669,12.3000001907,0.0,1.297126534542416,3.054008094823259
1648638730856972170,61442,2,7,3.83305573463,-1.00345981121,0.641604840755,0.0,12.3000001907,1.2819584396755852,-0.3356052880301003,0.21458355878093643,12.3000001907,0.0,1.8437640281404475,4.01383913842767
1648638730856979984,61443,2,8,1.762347579,0.674881279469,0.541459262371,0.243430063128,12.3000001907,0.5894139060200668,0.2257128024979933,0.18109005430468225,12.3000001907,0.03289595447675676,0.8635761543900818,1.9632910796395484
1648638730857053846,61444,2,9,1.58037674427,0.302674025297,-0.128987565637,-0.608575165272,12.3000001907,0.5285540950735785,0.10122877100234112,-0.04313965405919732,12.3000001907,-0.0822398871989189,0.7543116908259764,1.6142614445956063
1648638730857058357,61445,2,10,1.58305060863,0.252228349447,0.190189003944,-0.243430063128,12.3000001907,0.5294483640903009,0.08435730750735786,0.06360836252307692,12.3000001907,-0.03289595447675676,0.7534900767798357,1.6142615113325915
1648638730956792064,61446,3,0,0.0271891616285,0.081803791225,0.0135181089863,0.0,33.2999992371,0.009093365093143811,0.0273591275,0.00452110668438127,33.2999992371,0.0,0.030230786212000326,0.08725737813737913
1648638730956800660,61447,3,1,0.0697268545628,0.0272679310292,-0.0448160134256,0.0,33.2999992371,0.023320018248428095,0.00911970937431438,-0.01498863325270903,33.2999992371,0.0,0.03421718283678533,0.08725737429695345
1648638730956809442,61448,3,2,0.213054761291,-0.081803791225,-0.128220319748,0.0,33.2999992371,0.0712557730070234,-0.0273591275,-0.04288305008294314,33.2999992371,0.0,0.1044188308267151,0.2617721183851094
1648638730956856277,61449,3,3,0.2590944767,1.01436698437,0.0180008038878,0.0,33.2999992371,0.08665367113712374,0.3392531720301003,0.006020335748428093,33.2999992371,0.0,0.3607082369111723,1.0470885138215116
1648638730956958373,61450,3,4,0.815510213375,0.392658174038,-0.526456952095,0.0,33.2999992371,0.2727458907608695,0.13132380402608695,-0.17607255922909698,33.2999992371,0.0,0.407463597586045,1.0470884738965238
1648638730956978603,61451,3,5,1.18716466427,0.633979380131,-0.133931428194,0.0,33.2999992371,0.3970450382173913,0.21203323750200667,-0.044793119797324414,33.2999992371,0.0,0.6002063133220791,1.3524893426495728
1648638730957100072,61452,3,6,1.49210822582,0.454011052847,0.416325837374,0.0,33.2999992371,0.499032851444816,0.15184316148729096,0.13923941049297656,33.2999992371,0.0,0.721889132299928,1.6142615019048532
1648638730957109490,61453,3,7,2.45747971535,1.71787965298,0.58021479845,0.0,33.2999992371,0.8218995703511704,0.5745416899598662,0.19405177205685617,33.2999992371,0.0,1.296586272096391,3.0540082294944417
1648638730957135904,61454,3,8,3.85771250725,-1.00345981121,0.471197962761,0.0,33.2999992371,1.2902048519230769,-0.3356052880301003,0.15759129189331103,33.2999992371,0.0,1.8552326078434112,4.013839172340717
1648638730957142106,61455,3,9,1.65682947636,0.218143448234,0.502861261368,-0.121715031564,33.2999992371,0.5541235706889631,0.07295767499464882,0.16818102386889633,33.2999992371,-0.01644797723837838,0.7870379187350489,1.7451475370086587
1648638731056794113,61456,4,0,0.0271742716432,0.081803791225,0.0135480146855,0.0,14.1000003815,0.009088385164949832,0.0273591275,0.004531108590468227,14.1000003815,0.0,0.03022779097741376,0.08725737791178655
1648638731056805761,61457,4,1,0.0697543472052,0.0272679310292,-0.0447732210159,0.0,14.1000003815,0.023329213112107023,0.00911970937431438,-0.014974321409999998,14.1000003815,0.0,0.03422971615325155,0.08725737984133738
1648638731056808276,61458,4,2,0.211945518851,-0.081803791225,-0.130045697093,0.0,14.1000003815,0.07088478891337792,-0.0273591275,-0.04349354417826087,14.1000003815,0.0,0.10391260008367391,0.26177212714918163
1648638731056814340,61459,4,3,0.363147199154,0.981645464897,0.029842980206,0.0,14.1000003815,0.12145391276053512,0.32830952003244146,0.009980929834782607,14.1000003815,0.0,0.3705256358116391,1.0470884921886106
1648638731056820823,61460,4,4,1.18695735931,0.633979380131,-0.135756850243,0.0,14.1000003815,0.39697570545484945,0.21203323750200667,-0.0454036288438127,14.1000003815,0.0,0.6001145850988235,1.3524893898435417
1648638731056853293,61461,4,5,1.49528288841,0.343575924635,0.336113095284,0.0,14.1000003815,0.5000946115083612,0.11490833599832774,0.11241240644949832,14.1000003815,0.0,0.7165145962234838,1.57063278495705
1648638731056902037,61462,4,6,2.46487402916,1.71787965298,0.547952711582,0.0,14.1000003815,0.8243725850033445,0.5745416899598662,0.1832617764488294,14.1000003815,0.0,1.299722459339736,3.0540082933548502
1648638731056912861,61463,4,7,3.80317664146,-1.00345981121,0.799887239933,0.0,14.1000003815,1.2719654319264213,-0.3356052880301003,0.26752081603110367,14.1000003815,0.0,1.8298696755193529,4.013839029591023
1648638731156697685,61464,5,0,0.0271774921566,0.081803791225,0.0135415550321,0.0,15.6999998093,0.009089462259732442,0.0273591275,0.0045289481712709025,15.6999998093,0.0,0.030228438694439,0.08725737820604533
1648638731156784891,61465,5,1,0.0697203353047,0.0272679310292,-0.0448261611164,0.0,15.6999998093,0.023317837894548492,0.00911970937431438,-0.014992027129230766,15.6999998093,0.0,0.034214210895837434,0.0872573775565508
1648638731156794151,61466,5,2,0.212625741959,-0.081803791225,-0.128930523992,0.0,15.6999998093,0.071112288280602,-0.0273591275,-0.043120576585953176,15.6999998093,0.0,0.10422301543597817,0.26177212689522605
1648638731156815549,61467,5,3,0.259517729282,1.01436698437,0.0102237258106,0.0,15.6999998093,0.08679522718461538,0.3392531720301003,0.003419306291170568,15.6999998093,0.0,0.3607762986346842,1.0470885136229047
1648638731156825921,61468,5,4,0.79215246439,0.392658174038,-0.560988783836,0.0,15.6999998093,0.26493393457859526,0.13132380402608695,-0.1876216668347826,15.6999998093,0.0,0.3970213103681878,1.0470885273308081
1648638731156832212,61469,5,5,1.16848468781,0.676244676113,-0.081019744277,0.0,15.6999998093,0.39079755445150494,0.22616878799765885,-0.027096904440468226,15.6999998093,0.0,0.5971580844256267,1.3524893813188774
1648638731156847369,61470,5,6,1.51290214062,0.343575924635,0.244888454676,0.0,15.6999998093,0.505987338,0.11490833599832774,0.08190249320267558,15.6999998093,0.0,0.7247415388361268,1.5706328846407658
1648638731156851801,61471,5,7,2.46928834915,1.71787965298,0.52770370245,0.0,15.6999998093,0.8258489462040134,0.5745416899598662,0.17648953259197322,15.6999998093,0.0,1.3015956044004213,3.05400829254769
1648638731156860502,61472,5,8,3.8431596756,-1.00345981121,0.578011631966,0.0,15.6999998093,1.285337684147157,-0.3356052880301003,0.19331492707892975,15.6999998093,0.0,1.8484633710007132,4.013839225923169
1648638731256821786,61473,6,0,0.0272091813385,0.081803791225,0.0134777706116,0.0,15.3999996185,0.00910006064832776,0.0273591275,0.0045076155891638795,15.3999996185,0.0,0.030234815447886285,0.08725737853358691
1648638731256829484,61474,6,1,0.0697374343872,0.0272679310292,-0.0447995550931,0.0,15.3999996185,0.023323556651237455,0.00911970937431438,-0.014983128793678928,15.3999996185,0.0,0.03422200591430788,0.0872573776483223
1648638731256835881,61475,6,2,0.213377296925,-0.081803791225,-0.127682864666,0.0,15.3999996185,0.07136364445652173,-0.0273591275,-0.04270329921939799,15.3999996185,0.0,0.10456606217026126,0.2617721242438145
1648638731256841266,61476,6,3,0.363672196865,0.981645464897,0.0225614495575,0.0,15.3999996185,0.12162949727926421,0.32830952003244146,0.007545635303511705,15.3999996185,0.0,0.3706408101663188,1.047088489351114
1648638731256843872,61477,6,4,1.18730711937,0.633979380131,-0.132662311196,0.0,15.3999996185,0.39709268206354514,0.21203323750200667,-0.04436866595183946,15.3999996185,0.0,0.6002693479617478,1.3524893119540127
1648638731256848162,61478,6,5,1.54377222061,0.454011052847,0.128380119801,0.0,15.3999996185,0.5163117794682274,0.15184316148729096,0.042936494916722405,15.3999996185,0.0,0.745796254298552,1.6142614907116168
1648638731257006259,61479,6,6,2.46538186073,1.71787965298,0.54566270113,0.0,15.3999996185,0.8245424283377926,0.5745416899598662,0.18249588666555183,15.3999996185,0.0,1.299937916117653,3.054008186751255
1648638731257109444,61480,6,7,3.82344126701,-1.00345981121,0.696612775326,0.0,15.3999996185,1.2787428986655518,-0.3356052880301003,0.23298086131304346,15.3999996185,0.0,1.8392927203490264,4.013839069237335
1648638731356865011,61481,7,0,0.0272270906717,0.081803791225,0.0134415514767,0.0,15.1000003815,0.009106050391872908,0.0273591275,0.0044955021661204015,15.1000003815,0.0,0.030238421999831833,0.08725737809107684
1648638731356885021,61482,7,1,0.0697551965714,0.0272679310292,-0.0447718948126,0.0,15.1000003815,0.023329497181070233,0.00911970937431438,-0.014973877863745818,15.1000003815,0.0,0.03423010336699388,0.08725737834956068
1648638731356894067,61483,7,2,0.212515830994,-0.081803791225,-0.129111617804,0.0,15.1000003815,0.07107552876053512,-0.0273591275,-0.04318114307826086,15.1000003815,0.0,0.1041728536363508,0.26177213093417706
1648638731356911910,61484,7,3,0.363219231367,0.981645464897,0.0289529934525,0.0,15.1000003815,0.12147800380167224,0.32830952003244146,0.009683275402173912,15.1000003815,0.0,0.370541430556976,1.0470884893921535
1648638731357044378,61485,7,4,1.16834449768,0.676244676113,-0.0830170661211,0.0,15.1000003815,0.39075066812040127,0.22616878799765885,-0.02776490505722408,15.1000003815,0.0,0.597096717406326,1.3524893938577347
1648638731357047210,61486,7,5,1.54414284229,0.403565376997,0.242071017623,0.0,15.1000003815,0.5164357332073578,0.13497169799230768,0.08096020656287625,15.1000003815,0.0,0.7427173704214607,1.6142615985270807
1648638731357064354,61487,7,6,2.4511783123,1.71787965298,0.606284439564,0.0,15.1000003815,0.8197920776923077,0.5745416899598662,0.20277071557324414,15.1000003815,0.0,1.2939150879389576,3.054008258415487
1648638731357073353,61488,7,7,3.82803940773,-1.00345981121,0.670885682106,0.0,15.1000003815,1.2802807383712373,-0.3356052880301003,0.22437648230969898,15.1000003815,0.0,1.8414310868024815,4.013839171952744
1648638731456868607,61489,8,0,0.0272197015584,0.081803791225,0.0134565094486,0.0,14.8000001907,0.009103579116521737,0.0273591275,0.004500504832307692,14.8000001907,0.0,0.030236933756960172,0.08725737824534961
1648638731456875765,61490,8,1,0.0698003843427,0.0272679310292,-0.0447014048696,0.0,14.8000001907,0.023344610148060198,0.00911970937431438,-0.014950302631973245,14.8000001907,0.0,0.03425070429935402,0.08725737398247638
1648638731456881280,61491,8,2,0.213000357151,-0.081803791225,-0.128310695291,0.0,14.8000001907,0.0712375776424749,-0.0273591275,-0.042913276017056856,14.8000001907,0.0,0.10439399788444036,0.2617721278732646
1648638731456888845,61492,8,3,0.363992393017,0.981645464897,0.0166141483933,0.0,14.8000001907,0.12173658629331102,0.32830952003244146,0.005556571368996655,14.8000001907,0.0,0.3707111191057393,1.0470884923701167
1648638731456905305,61493,8,4,1.16853761673,0.676244676113,-0.080252841115,0.0,14.8000001907,0.39081525643143805,0.22616878799765885,-0.02684041508862876,14.8000001907,0.0,0.5971812538781432,1.3524893870900554
1648638731456974609,61494,8,5,1.46360695362,0.504456698895,0.457404196262,0.0,14.8000001907,0.48950065338461535,0.16871461501505017,0.15297799206086957,14.8000001907,0.0,0.712521158035049,1.6142615880033024
1648638731456978198,61495,8,6,2.45743536949,1.71787965298,0.580402255058,0.0,14.8000001907,0.8218847389598662,0.5745416899598662,0.19411446657458192,14.8000001907,0.0,1.2965674690397695,3.054008165512913
1648638731456994879,61496,8,7,3.84334516525,-1.00345981121,0.576777100563,0.0,14.8000001907,1.285399720819398,-0.3356052880301003,0.19290204032207356,14.8000001907,0.0,1.8485496460519903,4.013839243878362
1648638731557036849,61497,9,0,0.0272133890539,0.081803791225,0.0134692722932,0.0,15.6000003815,0.009101467911003344,0.0273591275,0.004504773342207357,15.6000003815,0.0,0.030235662616045038,0.08725737847707023
1648638731557044536,61498,9,1,0.06973811239,0.0272679310292,-0.0447984971106,0.0,15.6000003815,0.023323783408026752,0.00911970937431438,-0.014982774953377926,15.6000003815,0.0,0.034222315000611014,0.08725737633977952
1648638731557051453,61499,9,2,0.21227581799,-0.081803791225,-0.129505842924,0.0,15.6000003815,0.0709952568528428,-0.0273591275,-0.0433129909444816,15.6000003815,0.0,0.10406332134216889,0.2617721270753683
1648638731557077499,61500,9,3,0.363987922668,0.981645464897,0.0167116336524,0.0,15.6000003815,0.12173509119331104,0.32830952003244146,0.0055891751345819385,15.6000003815,0.0,0.37071013716867734,1.047088489718202
1648638731557169253,61501,9,4,0.80345505476,0.392658174038,-0.544677734375,0.0,15.6000003815,0.2687140651371237,0.13132380402608695,-0.18216646634615383,15.6000003815,0.0,0.4020701917686995,1.0470884876561932
1648638731557173178,61502,9,5,1.16867029667,0.676244676113,-0.0782969221473,0.0,15.6000003815,0.390859630993311,0.22616878799765885,-0.02618626158772575,15.6000003815,0.0,0.5972393347266943,1.352489383436211
1648638731557176857,61503,9,6,1.53600120544,0.403565376997,0.289267271757,0.0,15.6000003815,0.5137127777391304,0.13497169799230768,0.09674490694214047,15.6000003815,0.0,0.7389309814074878,1.6142615250118557
1648638731557179685,61504,9,7,3.812271595,-1.12889230251,0.550538420677,0.0,15.6000003815,1.2750072224080267,-0.3775559540167224,0.1841265620993311,15.6000003815,0.0,1.8422365029492658,4.013839196748133
1648638731557181457,61505,9,8,1.65852463245,0.218143448234,0.497242063284,0.121715031564,15.6000003815,0.5546905125250836,0.07295767499464882,0.16630169340602005,15.6000003815,0.01644797723837838,0.7878362467615365,1.74514761265337
1648638731557183607,61506,9,9,2.65656018257,-3.44257616997,-0.713145256042,0.365145087242,15.6000003815,0.8884816664113712,-1.151363267548495,-0.23851011907759195,15.6000003815,0.04934393070837838,1.7042408036889038,4.406497344362853
1648638731656882292,61507,10,0,0.0272228941321,0.081803791225,0.0134500497952,0.0,15.8000001907,0.009104646866923076,0.0273591275,0.004498344413110368,15.8000001907,0.0,0.030237576733329684,0.08725737827372693
1648638731656891624,61508,10,1,0.0697615295649,0.0272679310292,-0.0447620302439,0.0,15.8000001907,0.02333161523909699,0.00911970937431438,-0.014970578676889631,15.8000001907,0.0,0.03423299049750815,0.08725738032627064
1648638731656894553,61509,10,2,0.212901711464,-0.081803791225,-0.128474295139,0.0,15.8000001907,0.07120458577391303,-0.0273591275,-0.04296799168528428,15.8000001907,0.0,0.1043489718589998,0.26177212134707273
1648638731656899882,61510,10,3,0.259713977575,1.01436698437,0.00162019836716,0.0,15.8000001907,0.08686086206521738,0.3392531720301003,0.0005418723635986622,15.8000001907,0.0,0.3608078899496383,1.0470885130543952
1648638731656920712,61511,10,4,1.14563584328,0.718509972095,-0.0221229158342,0.0,15.8000001907,0.3831558004280936,0.240304338493311,-0.0073989685064214045,15.8000001907,0.0,0.5927587282378,1.3524893673566685
1648638731656923154,61512,10,5,1.52654290199,0.403565376997,0.335622042418,0.0,15.8000001907,0.510549465548495,0.13497169799230768,0.11224817472173912,15.8000001907,0.0,0.7345330985072317,1.6142615650766179
1648638731656930012,61513,10,6,2.45736694336,1.71787965298,0.580691695213,0.0,15.8000001907,0.8218618539665551,0.5745416899598662,0.1942112693020067,15.8000001907,0.0,1.2965384558556776,3.054008127253512
1648638731656939289,61514,10,7,3.81964874268,-1.12889230251,0.49678042531,0.0,15.8000001907,1.2774744958795985,-0.3775559540167224,0.1661472994347826,15.8000001907,0.0,1.845651828937177,4.013839201947983
1648638731657037594,61515,10,8,1.63918089867,0.16360758245,0.576071441174,0.243430063128,15.8000001907,0.5482210363444816,0.054718255,0.19266603383745817,15.8000001907,0.03289595447675676,0.7772301440445294,1.7451474908832239
1648638731756772694,61516,11,0,0.0272542387247,0.081803791225,0.0133864209056,0.0,25.5,0.00911513000826087,0.0273591275,0.0044770638480267555,25.5,0.0,0.030243892733843834,0.08725737820899852
1648638731756778477,61517,11,1,0.0697268545628,0.0272679310292,-0.0448160134256,0.0,25.5,0.023320018248428095,0.00911970937431438,-0.01498863325270903,25.5,0.0,0.03421718283678533,0.08725737429695345
1648638731756786446,61518,11,2,0.213249653578,-0.081803791225,-0.12789593637,0.0,25.5,0.07132095437391303,-0.0273591275,-0.04277456065886287,25.5,0.0,0.1045077936001561,0.26177212523467713
1648638731756867599,61519,11,3,0.258572638035,1.01436698437,0.0243756212294,0.0,25.5,0.0864791431555184,0.3392531720301003,0.008152381682073578,25.5,0.0,0.3606244572048742,1.0470885153751741
1648638731756874604,61520,11,4,1.16829526424,0.676244676113,-0.0837057083845,0.0,25.5,0.3907342020869565,0.22616878799765885,-0.02799522019548495,25.5,0.0,0.5970751661435862,1.352489309396913
1648638731756884743,61521,11,5,1.49738836288,0.39265820384,0.265584021807,0.0,25.5,0.5007987835719063,0.13132381399331103,0.08882408756086957,25.5,0.0,0.7203088138957845,1.5706327536921172
1648638731756892900,61522,11,6,2.46067476273,1.71787965298,0.566511332989,0.0,25.5,0.8229681480702341,0.5745416899598662,0.18946867324046823,25.5,0.0,1.2979411770100526,3.054008166404275
1648638731756896548,61523,11,7,3.83890247345,-1.00345981121,0.605641543865,0.0,25.5,1.2839138707190636,-0.3356052880301003,0.20255570028929765,25.5,0.0,1.8464832964864273,4.013839243545925
1648638731756903955,61524,11,8,1.62512350082,0.319034785032,0.390329152346,0.121715031564,25.5,0.5435195654916387,0.10670059700066889,0.13054486700535117,25.5,0.01644797723837838,0.776023230029062,1.7015188609442489
1648638731756911486,61525,11,9,1.69296169281,0.167697772384,0.552701413631,0.243430063128,25.5,0.5662079240167224,0.05608621149966555,0.1848499711140468,25.5,0.03289595447675676,0.8027007472022423,1.7887763104464356
1648638731856894291,61526,12,0,0.0272165797651,0.081803791225,0.0134628228843,0.0,26.3999996185,0.009102535038494982,0.0273591275,0.004502616349264214,26.3999996185,0.0,0.030236305095287585,0.08725737832932795
1648638731856908066,61527,12,1,0.0697480216622,0.0272679310292,-0.0447830706835,0.0,26.3999996185,0.023327097545886286,0.00911970937431438,-0.014977615613210702,26.3999996185,0.0,0.034226832440390174,0.0872573779588138
1648638731856920169,61528,12,2,0.21351313591,-0.081803791225,-0.127455592155,0.0,26.3999996185,0.07140907555518394,-0.0273591275,-0.04262728834615384,26.3999996185,0.0,0.10462807463034572,0.2617721288382077
1648638731857004460,61529,12,3,0.259397566319,1.01436698437,0.012918272987,0.0,26.3999996185,0.08675503890267558,0.3392531720301003,0.004320492637792642,26.3999996185,0.0,0.36075696567425325,1.0470885149637896
1648638731857011804,61530,12,4,0.787855625153,0.392658174038,-0.567007482052,0.0,26.3999996185,0.26349686459966554,0.13132380402608695,-0.1896346093819398,26.3999996185,0.0,0.395103956967772,1.0470885408727526
1648638731857017671,61531,12,5,1.1684896946,0.676244676113,-0.0809464752674,0.0,26.3999996185,0.3907992289632107,0.22616878799765885,-0.027072399754983274,26.3999996185,0.0,0.5971602761242663,1.3524893198157957
1648638731857021363,61532,12,6,1.64332747459,-2.1132645607,0.387940257788,0.0,26.3999996185,0.5496078510334448,-0.7067774450501672,0.12974590561471572,26.3999996185,0.0,1.0505579168550605,2.704978731129975
1648638731857022698,61533,12,7,2.4579501152,1.71787965298,0.578218221664,0.0,26.3999996185,0.8220568947157191,0.5745416899598662,0.19338402062341137,26.3999996185,0.0,1.2967857301039523,3.0540081176707203
1648638731857094018,61534,12,8,3.83837175369,-1.00345981121,0.608996033669,0.0,26.3999996185,1.2837363724715718,-0.3356052880301003,0.20367760323377926,26.3999996185,0.0,1.84623645759873,4.013839244571639
1648638731857102475,61535,12,9,1.51851844788,0.353119701147,0.41862654686,0.121715031564,26.3999996185,0.507865701632107,0.1181002344973244,0.14000887854849497,26.3999996185,0.01644797723837838,0.7278755437414199,1.6142614365789574
1648638731857105794,61536,12,10,1.68373668194,0.159517392516,0.186418712139,0.243430063128,26.3999996185,0.5631226361003344,0.053350298500334445,0.06234739536421404,26.3999996185,0.03289595447675676,0.798160673628596,1.7015190121949821
1648638731857107382,61537,12,11,1.76458930969,0.114525310695,0.480433493853,0.243430063128,26.3999996185,0.5901636487257524,0.03830277949665551,0.1606800982785953,26.3999996185,0.03289595447675676,0.8354958811818021,1.8324049281416532
1648638731857109014,61538,12,12,2.60879850388,-3.65117573738,0.238577082753,0.365145087242,26.3999996185,0.8725078608294314,-1.2211290091571905,0.07979166647257524,26.3999996185,0.04934393070837838,1.7359999975298166,4.493754880219196
1648638731956824701,61539,13,0,0.0272584110498,0.081803791225,0.0133779225871,0.0,14.0,0.009116525434715719,0.0273591275,0.0044742216010367885,14.0,0.0,0.030244733914598976,0.0872573781664891
1648638731956857874,61540,13,1,0.0696649476886,0.0272679310292,-0.0449121892452,0.0,14.0,0.023299313608227422,0.00911970937431438,-0.015020799078662205,14.0,0.0,0.03418896208282756,0.08725737643239821
1648638731956877085,61541,13,2,0.213054761291,-0.081803791225,-0.128220319748,0.0,14.0,0.0712557730070234,-0.0273591275,-0.04288305008294314,14.0,0.0,0.1044188308267151,0.2617721183851094
1648638731956938063,61542,13,3,0.363503932953,0.981645464897,0.0251273047179,0.0,14.0,0.12157322172341135,0.32830952003244146,0.008403780842107023,14.0,0.0,0.3706038820956299,1.0470884917080947
1648638731956941853,61543,13,4,1.16898345947,0.676244676113,-0.0734735876322,0.0,14.0,0.390964367715719,0.22616878799765885,-0.024573106231505014,14.0,0.0,0.597376425975309,1.3524893931433148
1648638731956947803,61544,13,5,2.45624661446,1.71787965298,0.585412204266,0.0,14.0,0.8214871620267558,0.5745416899598662,0.1957900348715719,14.0,0.0,1.2960634507042799,3.0540080848079745
1648638731956950385,61545,13,6,3.84877538681,-1.00345981121,0.539352655411,0.0,14.0,1.287215848431438,-0.3356052880301003,0.18038550348193977,14.0,0.0,1.85107541452527,4.013839166898316
1648638731956953317,61546,13,7,1.52550280094,0.302674025297,0.432515621185,0.121715031564,14.0,0.5102016056655518,0.10122877100234112,0.14465405390802674,14.0,0.01644797723837838,0.7286004535587793,1.6142614793875
1648638731956957225,61547,13,8,1.72628045082,0.0572626553476,0.611869692802,0.365145087242,14.0,0.5773513213444815,0.019151389748361204,0.20463869324481604,14.0,0.04934393070837838,0.8167226409532989,1.8324049027303912
1648638731957038642,61548,13,9,1.26635026932,-1.51337015629,-2.55527472496,-0.121715031564,14.0,0.42352851816722403,-0.506143864979933,-0.8546069314247491,14.0,-0.01644797723837838,0.7841775458776372,3.228523060870939
1648638731957044565,61549,13,10,2.90863800049,1.31158745289,0.492872625589,-0.121715031564,14.0,0.9727886289264213,0.43865801099999996,0.1648403430063545,14.0,-0.01644797723837838,1.4439723971570817,3.228522895927476
1648638732056982722,61550,14,0,0.0271774921566,0.081803791225,0.0135415550321,0.0,11.6000003815,0.009089462259732442,0.0273591275,0.0045289481712709025,11.6000003815,0.0,0.030228438694439,0.08725737820604533
1648638732056992718,61551,14,1,0.069647103548,0.0272679310292,-0.044939853251,0.0,11.6000003815,0.02329334566822742,0.00911970937431438,-0.015030051254515049,11.6000003815,0.0,0.034180828016755475,0.0872573750777575
1648638732056998612,61552,14,2,0.213249653578,-0.081803791225,-0.12789593637,0.0,11.6000003815,0.07132095437391303,-0.0273591275,-0.04277456065886287,11.6000003815,0.0,0.1045077936001561,0.26177212523467713
1648638732057003689,61553,14,3,0.259071171284,1.01436698437,0.0183333307505,0.0,11.6000003815,0.08664587668361202,0.3392531720301003,0.006131548745986622,11.6000003815,0.0,0.36070449210541894,1.0470885166912867
1648638732057008025,61554,14,4,1.16896808147,0.676244676113,-0.0737174451351,0.0,11.6000003815,0.39095922457190635,0.22616878799765885,-0.024654663924782605,11.6000003815,0.0,0.597369693925012,1.3524893711907962
1648638732057010841,61555,14,5,2.44178771973,1.71787965298,0.643061697483,0.0,11.6000003815,0.8166514112809364,0.5745416899598662,0.21507080183377925,11.6000003815,0.0,1.289936901013468,3.054008205148872
1648638732057193580,61556,14,6,3.8126809597,-1.12889230251,0.547696888447,0.0,11.6000003815,1.2751441336789298,-0.3775559540167224,0.18317621687190636,11.6000003815,0.0,1.8424260152649423,4.0138392858633205
1648638732057271613,61557,14,7,1.55286169052,0.252228349447,0.36172068119,0.121715031564,11.6000003815,0.5193517359598662,0.08435730750735786,0.12097681645150501,11.6000003815,0.01644797723837838,0.7393027841276834,1.614261571539739
1648638732057276803,61558,14,8,3.23296666145,-1.54609167576,-4.16856050491,0.243430063128,11.6000003815,1.081259752993311,-0.5170875169765886,-1.3941673929464884,11.6000003815,0.03289595447675676,1.614194785984432,5.497214711742396
1648638732057282796,61559,14,9,1.76486265659,0.0586260519922,0.633502066135,0.365145087242,11.6000003815,0.5902550690936454,0.019607375248227425,0.21187360071404682,11.6000003815,0.04934393070837838,0.8349769711468773,1.87603360268291
1648638732157062817,61560,15,0,0.0272122956812,0.081803791225,0.013471477665,0.0,28.3999996185,0.00910110223451505,0.0273591275,0.004505510924749163,28.3999996185,0.0,0.030235442469516566,0.08725737794308878
1648638732157068273,61561,15,1,0.0697196349502,0.0272679310292,-0.0448272526264,0.0,28.3999996185,0.02331760366227425,0.00911970937431438,-0.014992392182742474,28.3999996185,0.0,0.03421389162567989,0.08725737870365717
1648638732157074475,61562,15,2,0.213249653578,-0.081803791225,-0.12789593637,0.0,28.3999996185,0.07132095437391303,-0.0273591275,-0.04277456065886287,28.3999996185,0.0,0.1045077936001561,0.26177212523467713
1648638732157078949,61563,15,3,0.259232252836,1.01436698437,0.0158940460533,0.0,28.3999996185,0.08669975011237457,0.3392531720301003,0.005315734465986621,28.3999996185,0.0,0.36073038140913666,1.047088516119941
1648638732157083268,61564,15,4,0.809294998646,0.392658174038,-0.535962224007,0.0,28.3999996185,0.27066722362742474,0.13132380402608695,-0.1792515799354515,28.3999996185,0.0,0.4046818916090004,1.047088507259446
1648638732157220939,61565,15,5,1.14567196369,0.718509972095,-0.0201675277203,0.0,28.3999996185,0.38316788083277586,0.240304338493311,-0.006744992548595318,28.3999996185,0.0,0.5927743456851591,1.3524893927715689
1648638732157227424,61566,15,6,1.64440393448,-2.1132645607,0.383351683617,0.0,28.3999996185,0.5499678710635452,-0.7067774450501672,0.1282112654237458,28.3999996185,0.0,1.0509346674441655,2.704978727564388
1648638732157229607,61567,15,7,2.33671545982,1.8133174181,0.760662317276,0.0,28.3999996185,0.7815101872307693,0.6064606749498327,0.2544021128013378,28.3999996185,0.0,1.2606787440706497,3.0540082448923314
1648638732157235608,61568,15,8,3.8412437439,-1.00345981121,0.59060972929,0.0,28.3999996185,1.2846969043143812,-0.3356052880301003,0.19752833755518392,28.3999996185,0.0,1.8475722397956933,4.013839177781853
1648638732157500640,61569,15,9,1.61321723461,0.207236275077,0.321221351624,0.121715031564,28.3999996185,0.5395375366588628,0.06930979099565217,0.10743189017525083,28.3999996185,0.01644797723837838,0.7661627464551435,1.6578901883085244
1648638732157512493,61570,15,10,1.78513836861,0.055899258703,-0.0993820950389,0.243430063128,28.3999996185,0.5970362436822741,0.01869540424849498,-0.033238158875886284,28.3999996185,0.03289595447675676,0.844543705607054,1.7887762641038811
1648638732157812966,61571,15,11,5.98777627945,-1.5597256422,0.798559963703,-0.365145087242,28.3999996185,2.0026007623578597,-0.5216473719732442,0.26707691093745817,28.3999996185,-0.04934393070837838,2.8797457539649494,6.238902697374726
1648638732257013023,61572,16,0,0.0272468905896,0.081803791225,0.0134013686329,0.0,13.6000003815,0.00911267243799331,0.0273591275,0.004482063087926421,13.6000003815,0.0,0.03024241153555024,0.08725737783603113
1648638732257015923,61573,16,1,0.0697374343872,0.0272679310292,-0.0447995550931,0.0,13.6000003815,0.023323556651237455,0.00911970937431438,-0.014983128793678928,13.6000003815,0.0,0.03422200591430788,0.0872573776483223
1648638732257018665,61574,16,2,0.212297439575,-0.081803791225,-0.129470393062,0.0,13.6000003815,0.0710024881521739,-0.0273591275,-0.04330113480334448,13.6000003815,0.0,0.10407318821464272,0.2617721256904809
1648638732257021070,61575,16,3,0.259209185839,1.01436698437,0.016265893355,0.0,13.6000003815,0.08669203539765885,0.3392531720301003,0.005440098112040134,13.6000003815,0.0,0.36072667316856777,1.0470885159764867
1648638732257077087,61576,16,4,0.801895499229,0.392658174038,-0.546971201897,0.0,13.6000003815,0.2681924746585284,0.13132380402608695,-0.18293351234013377,13.6000003815,0.0,0.40137307885658313,1.047088501048136
1648638732257096039,61577,16,5,1.16871035099,0.676244676113,-0.0776969566941,0.0,13.6000003815,0.39087302708695654,0.22616878799765885,-0.025985604245518393,13.6000003815,0.0,0.5972568687529439,1.3524893949905374
1648638732257107349,61578,16,6,2.41621446609,1.71787965298,0.733323514462,0.0,13.6000003815,0.8080984836421404,0.5745416899598662,0.24525870048896317,13.6000003815,0.0,1.2791186309453055,3.0540082228324414
1648638732257163213,61579,16,7,3.81335878372,-1.12889230251,0.542955338955,0.0,13.6000003815,1.275370830675585,-0.3775559540167224,0.18159041436622073,13.6000003815,0.0,1.8427398106867234,4.013839003266143
1648638732257172140,61580,16,8,1.67786562443,0.212689861655,0.186270475388,0.121715031564,13.6000003815,0.5611590717157191,0.07113373299498328,0.0622978178555184,13.6000003815,0.01644797723837838,0.7967804060765404,1.7015189452063026
1648638732257176854,61581,16,9,1.77881658077,-0.0,0.188500210643,0.243430063128,13.6000003815,0.5949219333678929,-0.0,0.06304354871003344,13.6000003815,0.03289595447675676,0.8413466667220969,1.7887763296272483
1648638732356992127,61582,17,0,0.0271859541535,0.081803791225,0.0135245583951,0.0,21.2999992371,0.0090922923590301,0.0273591275,0.004523263677290969,21.2999992371,0.0,0.030230140890267293,0.08725737815108853
1648638732356996333,61583,17,1,0.0696543231606,0.0272679310292,-0.0449286662042,0.0,21.2999992371,0.023295760254381268,0.00911970937431438,-0.01502630976729097,21.2999992371,0.0,0.03418411898427657,0.08725737702030086
1648638732357002038,61584,17,2,0.212674900889,-0.081803791225,-0.128849431872,0.0,21.2999992371,0.07112872939431437,-0.0273591275,-0.043093455475585275,21.2999992371,0.0,0.10424545145022136,0.2617721333921289
1648638732357010423,61585,17,3,0.259499937296,1.01436698437,0.0106662223116,0.0,21.2999992371,0.08678927668762541,0.3392531720301003,0.003567298431973244,21.2999992371,0.0,0.3607734355913795,1.0470885180990748
1648638732357130044,61586,17,4,0.80706101656,0.392658174038,-0.539320290089,0.0,21.2999992371,0.2699200724280936,0.13132380402608695,-0.18037467895953174,21.2999992371,0.0,0.40368258880345176,1.0470884878516238
1648638732357137726,61587,17,5,1.14566731453,0.718509972095,-0.0204290412366,0.0,21.2999992371,0.38316632592976585,0.240304338493311,-0.006832455263076922,21.2999992371,0.0,0.5927723355148576,1.3524893793698294
1648638732357253140,61588,17,6,1.61874747276,0.207236275077,0.292078882456,0.0,21.2999992371,0.5413871146354514,0.06930979099565217,0.09768524496856186,21.2999992371,0.0,0.7687677561620674,1.6578903244338639
1648638732357257289,61589,17,7,3.84683656693,-1.00345981121,0.553011775017,0.0,21.2999992371,1.286567413688963,-0.3356052880301003,0.18495377090869566,21.2999992371,0.0,1.8501735943652373,4.013839208126162
