%time,field.header.seq,field.header.frame_id,field.point_id,field.x,field.y,field.z,field.velocity,field.intensity,normalized_x,normalized_y,normalized_z,normalized_intensity,normalized_velocity,normalized_range,range
1648638212250870106,15564,0,0,0.256125956774,1.01436698437,-0.0430520884693,0.0,12.8999996185,0.0856608551083612,0.3392531720301003,-0.014398691795752505,12.8999996185,0.0,0.3602336449143474,1.047088519197328
1648638212250882539,15565,0,1,0.995511889458,-0.0981645435095,-0.30937692523,0.0,12.8999996185,0.33294712022006684,-0.03283095100652174,-0.10347054355518394,12.8999996185,0.0,0.47200152655437877,1.047088478362471
1648638212250895784,15566,0,2,1.19855749607,0.698059022427,-0.159119769931,0.0,12.8999996185,0.40085534985618726,0.23346455599565216,-0.053217314358193976,12.8999996185,0.0,0.6130870426969564,1.3961180363279537
1648638212251032411,15567,0,3,2.46215724945,1.71787965298,0.560032784939,0.0,12.8999996185,0.8234639630267558,0.5745416899598662,0.18730193476220736,12.8999996185,0.0,1.298569963578936,3.054008111211954
1648638212251088489,15568,0,4,3.83295655251,-1.00345981121,0.642197132111,0.0,12.8999996185,1.2819252683979931,-0.3356052880301003,0.2147816495354515,12.8999996185,0.0,1.8437179005662174,4.013839145087225
1648638212251092354,15569,0,5,1.84218883514,0.376297414303,-0.701759696007,-0.486860126257,12.8999996185,0.616116667270903,0.1258519780277592,-0.23470223946722404,12.8999996185,-0.06579190895364864,0.8803625479037082,2.00691955973961
1648638212251111584,15570,0,6,3.00682163239,-3.13581204414,0.400413453579,-0.243430063128,12.8999996185,1.0056259640100333,-1.0487665699464883,0.13391754300301,12.8999996185,-0.03289595447675676,1.767053614698643,4.362868831283953
1648638212251161876,15571,0,7,4.18440055847,1.09071719646,0.579441487789,-0.243430063128,12.8999996185,1.399465069722408,0.36478836002006687,0.19379313972876253,12.8999996185,-0.03289595447675676,2.012479940360256,4.362868835313382
1648638212251180402,15572,0,8,1.37719392776,0.370843857527,0.407694429159,-0.121715031564,12.8999996185,0.4605999758394649,0.12402804599565216,0.13635265189264215,12.8999996185,-0.01644797723837838,0.6630894597866346,1.4833755522091514
1648638212251187650,15573,0,9,1.60254585743,0.155427202582,0.395334422588,-0.121715031564,12.8999996185,0.5359685141906354,0.05198234200066889,0.13221887043076921,12.8999996185,-0.01644797723837838,0.7597543420654528,1.6578902696353301
1648638212350579799,15574,1,0,0.253762066364,1.01436698437,-0.0553064309061,0.0,13.8999996185,0.0848702563090301,0.3392531720301003,-0.01849713408230769,13.8999996185,0.0,0.35985918849517484,1.0470885189919648
1648638212350594861,15575,1,1,1.54081189632,0.155427202582,0.591896116734,0.0,13.8999996185,0.5153217044548495,0.05198234200066889,0.1979585674695652,13.8999996185,0.0,0.7306264996866573,1.6578902038882095
1648638212350605590,15576,1,2,2.38035774231,1.8133174181,0.610526919365,0.0,13.8999996185,0.7961062683311037,0.6064606749498327,0.20418960513879597,13.8999996185,0.0,1.2788138766891595,3.0540082120762757
1648638212350608660,15577,1,3,3.83586978912,-1.00345981121,0.624560534954,0.0,13.8999996185,1.2828995950234114,-0.3356052880301003,0.20888312205819395,13.8999996185,0.0,1.8450728037603916,4.013839121541762
1648638212350628886,15578,1,4,2.72091650963,-3.40849113464,-0.115866132081,-0.365145087242,13.8999996185,0.9100055216153845,-1.139963590180602,-0.03875121474280936,13.8999996185,-0.04934393070837838,1.7192257227247456,4.362868715405036
1648638212350670059,15579,1,5,1.51649057865,0.39265820384,0.113856099546,-0.243430063128,13.8999996185,0.5071874844983277,0.13132381399331103,0.03807896305886287,13.8999996185,-0.03289595447675676,0.7291942354306106,1.5706327869941132
1648638212350721622,15580,1,6,1.37628221512,0.417199343443,0.363585621119,-0.121715031564,13.8999996185,0.46029505522408026,0.1395315529909699,0.12160054218026756,13.8999996185,-0.01644797723837838,0.665741789290375,1.483375384624328
1648638212450790579,15581,2,0,0.2558157444,1.01436698437,-0.0448585227132,0.0,27.2000007629,0.08555710515050166,0.3392531720301003,-0.015002850405752506,27.2000007629,0.0,0.36018432949804025,1.0470885163742485
1648638212450802942,15582,2,1,1.01630651951,-0.13088606298,-0.215369999409,0.0,27.2000007629,0.33990184598996653,-0.04377460300334448,-0.07203010013678929,27.2000007629,0.0,0.48268286242922925,1.0470885061571287
1648638212450925806,15583,2,2,1.55567085743,0.207236275077,0.534360706806,0.0,27.2000007629,0.5202912566655518,0.06930979099565217,0.17871595545351168,27.2000007629,0.0,0.7390600994865703,1.65789024224856
1648638212450937192,15584,2,3,3.82778406143,-1.00345981121,0.672340989113,0.0,27.2000007629,1.280195338270903,-0.3356052880301003,0.224863207061204,27.2000007629,0.0,1.8413123357037693,4.0138391621105844
1648638212450941549,15585,2,4,1.53004956245,0.343575924635,0.0882698148489,-0.243430063128,27.2000007629,0.5117222616889632,0.11490833599832774,0.029521677206989963,27.2000007629,-0.03289595447675676,0.7327504840653741,1.5706328787325479
1648638212451013878,15586,2,5,1.37042748928,0.463554829359,0.327792912722,-0.121715031564,27.2000007629,0.45833695293645477,0.1550350599862876,0.10962973669632106,27.2000007629,-0.01644797723837838,0.6664693501423,1.4833754672459392
1648638212451022488,15587,2,6,1.56349229813,0.726690351963,0.476585417986,-0.121715031564,27.2000007629,0.5229071231204012,0.24304025149264213,0.15939311638327758,27.2000007629,-0.01644797723837838,0.7784165226058062,1.7887763120594
1648638212550673561,15588,3,0,0.257166981697,1.01436698437,-0.0363196544349,0.0,13.8000001907,0.08600902397892975,0.3392531720301003,-0.01214704161702341,13.8000001907,0.0,0.36039952711414736,1.0470885123776803
1648638212550681316,15589,3,1,1.00856661797,-0.0981645435095,-0.26372602582,0.0,13.8000001907,0.3373132501571906,-0.03283095100652174,-0.08820268422073578,13.8000001907,0.0,0.47816140455625183,1.0470884953912365
1648638212550684072,15590,3,2,1.17103779316,0.676244676113,-0.0243109893054,0.0,13.8000001907,0.3916514358394649,0.22616878799765885,-0.008130765653979933,13.8000001907,0.0,0.5982758686881486,1.3524893342208753
1648638212550774770,15591,3,3,3.82849574089,-1.00345981121,0.6682767272,0.0,13.8000001907,1.2804333581571907,-0.3356052880301003,0.22350392214046821,13.8000001907,0.0,1.841643309307524,4.013839186470183
1648638212550782519,15592,3,4,1.40079402924,0.417199343443,0.253225892782,-0.121715031564,13.8000001907,0.468492986367893,0.1395315529909699,0.08469093404080266,13.8000001907,-0.01644797723837838,0.6770822777416976,1.4833753932497822
1648638212650710998,15593,4,0,0.253964275122,1.01436698437,-0.0543702617288,0.0,27.0,0.08493788465618728,0.3392531720301003,-0.018184034023010033,27.0,0.0,0.3598910991289176,1.0470885145863214
1648638212650714530,15594,4,1,0.990382611752,-0.0981645435095,-0.325423240662,0.0,27.0,0.3312316427264214,-0.03283095100652174,-0.1088372042347826,27.0,0.0,0.4695813812647175,1.0470884780313932
1648638212650717246,15595,4,2,3.84254312515,-1.00345981121,0.582096338272,0.0,27.0,1.2851314799832776,-0.3356052880301003,0.19468104958929766,27.0,0.0,1.8481766016919987,4.013839235492723
1648638212650722328,15596,4,3,1.33527779579,0.449920862913,0.295761883259,-0.121715031564,27.0,0.4465812026053511,0.1504752049876254,0.09891701781237457,27.0,-0.01644797723837838,0.6492398080501158,1.4397467368961423
1648638212650866540,15597,4,4,1.52128088474,0.343575924635,0.185869783163,-0.121715031564,27.0,0.5087895935585284,0.11490833599832774,0.062163807077926424,27.0,-0.01644797723837838,0.728654669036581,1.5706328414232185
1648638212750697770,15598,5,0,0.255371123552,1.01436698437,-0.0473240204155,0.0,17.2000007629,0.08540840252575249,0.3392531720301003,-0.0158274315770903,17.2000007629,0.0,0.36011373922205014,1.04708851231994
1648638212750702614,15599,5,1,3.82207250595,-1.12889230251,0.47777479887,0.0,17.2000007629,1.2782851190468227,-0.3775559540167224,0.15979090263210702,17.2000007629,0.0,1.846773995259457,4.013839163424527
1648638212750704643,15600,5,2,1.36525285244,0.404928773642,0.212104141712,-0.121715031564,17.2000007629,0.45660630516387957,0.13542768349230766,0.07093784003745819,17.2000007629,-0.01644797723837838,0.6597873091284133,1.4397467936238493
1648638212750718050,15601,5,3,1.54208683968,0.25904533267,0.550875484943,-0.121715031564,17.2000007629,0.515748106916388,0.08663723500668896,0.1842392926230769,17.2000007629,-0.01644797723837838,0.7345054322911984,1.6578902573462295
1648638212850739715,15602,6,0,0.255069106817,1.01436698437,-0.0489257462323,0.0,15.8999996185,0.08530739358428094,0.3392531720301003,-0.016363125830200668,15.8999996185,0.0,0.3600658516615699,1.0470885143466608
1648638212850744996,15603,6,1,1.02155935764,-0.13088606298,-0.188890069723,0.0,15.8999996185,0.34165864804013374,-0.04377460300334448,-0.06317393636220735,15.8999996185,0.0,0.4851571698216201,1.0470884113121555
1648638212850746978,15604,6,2,3.83784174919,-1.00345981121,0.61232739687,0.0,15.8999996185,1.2835591134414714,-0.3356052880301003,0.2047917715284281,15.8999996185,0.0,1.8459899525054515,4.013839274995569
1648638212850828344,15605,6,3,1.54394567013,0.252228349447,0.398061364889,-0.243430063128,15.8999996185,0.5163697893411371,0.08435730750735786,0.13313089126722408,15.8999996185,-0.03289595447675676,0.735113374941792,1.614261510039568
1648638212850831282,15606,6,4,1.33731222153,0.404928773642,0.34713023901,-0.121715031564,15.8999996185,0.44726161255183944,0.13542768349230766,0.11609706990301003,15.8999996185,-0.01644797723837838,0.6468589935844102,1.4397467459285531
1648638212950817673,15607,7,0,0.252384781837,1.01436698437,-0.0612854361534,0.0,28.2000007629,0.08440962603244148,0.3392531720301003,-0.02049680138909699,28.2000007629,0.0,0.3596424400239189,1.0470885166819996
1648638212950826088,15608,7,1,1.01082539558,-0.0981645435095,-0.254931479692,0.0,28.2000007629,0.338068694173913,-0.03283095100652174,-0.08526136444548493,28.2000007629,0.0,0.4792272480826837,1.0470884954433626
1648638212950835051,15609,7,2,3.81931686401,-1.12889230251,0.499324142933,0.0,28.2000007629,1.2773634996688963,-0.3775559540167224,0.1669980411147157,28.2000007629,0.0,1.8454981763703313,4.013839027426646
1648638212950839194,15610,7,3,1.47900092602,0.252228349447,0.595631957054,-0.243430063128,28.2000007629,0.4946491391371238,0.08435730750735786,0.1992080123926421,28.2000007629,-0.03289595447675676,0.7046074772723365,1.6142615363368955
1648638212950975284,15611,7,4,1.26742601395,0.494912952185,0.470704883337,-0.121715031564,28.2000007629,0.4238882989799331,0.16552272648327757,0.1574263823869565,28.2000007629,-0.01644797723837838,0.6219005973679879,1.4397467201820453
1648638213050765016,15612,8,0,0.0176095087081,0.0845305845141,0.0125831346959,0.0,27.3999996185,0.005889467795351171,0.028271098499698995,0.004208406252809364,27.3999996185,0.0,0.029472473126709947,0.08725737673120373
1648638213050770102,15613,8,1,0.0695104897022,0.0272679310292,-0.0451508760452,0.0,27.3999996185,0.023247655418795986,0.00911970937431438,-0.01510062743986622,27.3999996185,0.0,0.034118558938122025,0.0872573770457368
1648638213050775179,15614,8,2,0.253327339888,1.01436698437,-0.0572646483779,0.0,27.3999996185,0.08472486283879598,0.3392531720301003,-0.019152056313678927,27.3999996185,0.0,0.35979066066059917,1.0470885158707752
1648638213050780788,15615,8,3,1.02436375618,-0.0981645435095,-0.193486154079,0.0,27.3999996185,0.34259657397324417,-0.03283095100652174,-0.06471108832073579,27.3999996185,0.0,0.48561579086805007,1.047088474961839
1648638213050923303,15616,8,4,3.83660674095,-1.00345981121,0.620018064976,0.0,27.3999996185,1.2831460672073578,-0.3356052880301003,0.20736390132976587,27.3999996185,0.0,1.845415554538648,4.013839219290325
1648638213050927162,15617,8,5,1.27493345737,0.479915589094,0.305566966534,-0.243430063128,27.3999996185,0.42639914962207354,0.16050688598461538,0.10219630987759197,27.3999996185,-0.03289595447675676,0.624015168121203,1.3961179980265468
1648638213050929122,15618,8,6,1.41541004181,0.531724631786,0.780416667461,-0.243430063128,27.3999996185,0.47338128488628756,0.17783432501204013,0.2610089188832776,27.3999996185,-0.03289595447675676,0.692679383924246,1.701518981779362
1648638213150824197,15619,9,0,0.254348427057,1.01436698437,-0.0525438562036,0.0,14.6000003815,0.08506636356421404,0.3392531720301003,-0.017573196054715717,14.6000003815,0.0,0.35995178448309284,1.04708851495516
1648638213150963659,15620,9,1,1.0356361866,-0.0981645435095,-0.119229130447,0.0,14.6000003815,0.3463666175919732,-0.03283095100652174,-0.03987596336020066,14.6000003815,0.0,0.49093537141685056,1.0470884270895968
1648638213150969091,15621,9,2,1.20456731319,0.698059022427,-0.104292221367,0.0,14.6000003815,0.4028653221371237,0.23346455599565216,-0.03488034159431438,14.6000003815,0.0,0.6157163587785726,1.3961180746037127
1648638213151000095,15622,9,3,3.8402132988,-1.00345981121,0.597272932529,0.0,14.6000003815,1.284352273846154,-0.3356052880301003,0.19975683362173913,14.6000003815,0.0,1.8470929689707927,4.013839150853679
1648638213151028157,15623,9,4,1.24073004723,0.464918226004,0.271417230368,-0.365145087242,14.6000003815,0.4149598820167224,0.15549104548628762,0.0907749934341137,14.6000003815,-0.04934393070837838,0.6070921450596137,1.3524893049154587
1648638213151033377,15624,9,5,1.4594026804,0.286313265562,0.346280664206,-0.365145087242,14.6000003815,0.4880945419397993,0.09575694500401337,0.11581293117257524,14.6000003815,-0.04934393070837838,0.6968801591804337,1.5270041807403245
1648638213151066132,15625,9,6,1.40899336338,0.605348050594,0.504114568233,-0.243430063128,14.6000003815,0.47123523858862876,0.20245754200468224,0.1686001900444816,14.6000003815,-0.03289595447675676,0.6965015121950141,1.6142614590925428
1648638213250814723,15626,10,0,0.253835827112,1.01436698437,-0.0549669153988,0.0,11.3000001907,0.08489492545551838,0.3392531720301003,-0.01838358374541806,11.3000001907,0.0,0.359870826087196,1.0470885196075737
1648638213250818432,15627,10,1,1.03804945946,-0.0981645435095,-0.0959753245115,0.0,11.3000001907,0.34717373226086956,-0.03283095100652174,-0.032098770739632104,11.3000001907,0.0,0.4920742546484997,1.0470884493693522
1648638213250821478,15628,10,2,1.17226743698,0.741687715054,-0.157587662339,0.0,11.3000001907,0.3920626879531772,0.24805609199130432,-0.052704903792307696,11.3000001907,0.0,0.6074192352437806,1.3961180042486208
1648638213250836774,15629,10,3,3.83420205116,-1.00345981121,0.634718596935,0.0,11.3000001907,1.2823418231304347,-0.3356052880301003,0.21228046720234112,11.3000001907,0.0,1.8442971593679638,4.013839142159075
1648638213250839244,15630,10,4,1.25379049778,0.422652930021,0.280359506607,-0.365145087242,11.3000001907,0.41932792567892974,0.141355494990301,0.09376572127324413,11.3000001907,-0.04934393070837838,0.6096336559544109,1.3524893953461066
1648638213251000785,15631,10,5,1.4634295702,0.238594397902,0.364949733019,-0.365145087242,11.3000001907,0.4894413278260869,0.07979745749230768,0.12205676689598662,11.3000001907,-0.04934393070837838,0.6967591125995861,1.5270041588930312
1648638213350711931,15632,11,0,0.0176186226308,0.0845305845141,0.0125703718513,0.0,20.0,0.0058925159300334444,0.028271098499698995,0.004204137742909698,20.0,0.0,0.02947369163086088,0.08725737693846805
1648638213350728318,15633,11,1,0.0694896057248,0.0272679310292,-0.0451830103993,0.0,20.0,0.023240670810969897,0.00911970937431438,-0.015111374715484948,20.0,0.0,0.03410904071591129,0.08725737673769832
1648638213350848012,15634,11,2,0.253040730953,1.01436698437,-0.0585181191564,0.0,20.0,0.0846290070076923,0.3392531720301003,-0.019571277309832772,20.0,0.0,0.35974553838331463,1.0470885162061128
1648638213350854195,15635,11,3,1.03443205357,-0.0981645435095,-0.129260212183,0.0,20.0,0.34596389751505013,-0.03283095100652174,-0.04323084019498327,20.0,0.0,0.4903671156507141,1.0470884172356556
1648638213350862322,15636,11,4,1.17180120945,0.741687715054,-0.161018267274,0.0,20.0,0.39190675901337796,0.24805609199130432,-0.053852263302341136,20.0,0.0,0.607217951228995,1.3961180550105452
1648638213350994800,15637,11,5,2.38366603851,1.8133174181,0.597480237484,0.0,20.0,0.7972127219096989,0.6064606749498327,0.1998261663826087,20.0,0.0,1.2801917036951727,3.0540082639237807
1648638213351005895,15638,11,6,3.83727073669,-1.00345981121,0.615894973278,0.0,20.0,1.283368139361204,-0.3356052880301003,0.20598494089565217,20.0,0.0,1.84572437585048,4.013839174341709
1648638213351020891,15639,11,7,1.19314134121,0.449920862913,0.295129179955,-0.365145087242,20.0,0.3990439268260869,0.1504752049876254,0.09870541135618728,20.0,-0.04934393070837838,0.5840504245265427,1.3088606785482124
1648638213351024401,15640,11,8,1.38692641258,0.23177741468,0.47235289216,-0.365145087242,20.0,0.4638549874849498,0.07751752999331103,0.1579775559063545,20.0,-0.04934393070837838,0.6605542114660914,1.4833755082917102
1648638213450789016,15641,12,0,0.249281987548,1.01436698437,-0.0728867053986,0.0,24.0,0.08337190218996654,0.3392531720301003,-0.024376824548026754,24.0,0.0,0.35915799153301814,1.047088515895209
1648638213450797145,15642,12,1,1.03900361061,-0.0981645435095,-0.0850262641907,0.0,24.0,0.3474928463578595,-0.03283095100652174,-0.028436877655752507,24.0,0.0,0.49252454546323526,1.0470884614325915
1648638213450807082,15643,12,2,1.16952240467,0.741687715054,-0.176811531186,0.0,24.0,0.3911446169464882,0.24805609199130432,-0.059134291366555174,24.0,0.0,0.6062343173282327,1.3961180606408115
1648638213450812026,15644,12,3,2.38524031639,1.8133174181,0.591163694859,0.0,24.0,0.7977392362508361,0.6064606749498327,0.19771361032073578,24.0,0.0,1.2808475039475782,3.0540081761246913
1648638213450822963,15645,12,4,3.82285714149,-1.00345981121,0.699812352657,0.0,24.0,1.2785475389598662,-0.3356052880301003,0.23405095406588627,24.0,0.0,1.8390210787575076,4.013839265078515
1648638213450827667,15646,12,5,1.29562807083,0.179968342185,0.601522982121,-0.365145087242,24.0,0.43332042502675583,0.060190080998327754,0.20117825488996652,24.0,-0.04934393070837838,0.6157564675594742,1.4397467138810305
1648638213450955703,15647,12,6,1.21134269238,0.674881279469,-0.387369066477,-0.365145087242,24.0,0.40513133524414713,0.2257128024979933,-0.12955487173143812,24.0,-0.04934393070837838,0.6157995345929624,1.4397467323885142
1648638213450959883,15648,12,7,1.17342066765,0.395384997129,0.259936034679,-0.243430063128,24.0,0.3924483838294314,0.13223578499297658,0.08693512865518394,24.0,-0.03289595447675676,0.5705416468351581,1.2652320345879302
1648638213550845934,15649,13,0,0.0125930011272,0.0409018956125,0.00848019775003,0.0,39.4000015259,0.004211706062608695,0.01367956375,0.0028361865384715717,39.4000015259,0.0,0.01492003352227949,0.0436286889095366
1648638213550854471,15650,13,1,0.0319907628,0.0136339655146,-0.0263470765203,0.0,39.4000015259,0.01069925177257525,0.00455985468715719,-0.008811731277692308,39.4000015259,0.0,0.015803172205411754,0.04362868736675113
1648638213550945959,15651,13,2,0.251913487911,1.01436698437,-0.0631947219372,0.0,39.4000015259,0.08425200264581939,0.3392531720301003,-0.021135358507424745,39.4000015259,0.0,0.3595685117361463,1.047088514525918
1648638213550948922,15652,13,3,1.03490865231,-0.0981645435095,-0.125387951732,0.0,39.4000015259,0.3461232950869565,-0.03283095100652174,-0.04193576981003345,39.4000015259,0.0,0.4905920322912892,1.0470885037417206
1648638213550950707,15653,13,4,1.17727780342,0.741687715054,-0.114287815988,0.0,39.4000015259,0.3937383957926421,0.24805609199130432,-0.03822334982876254,39.4000015259,0.0,0.6095831964684763,1.3961179742309568
1648638213550954449,15654,13,5,2.39030742645,1.8133174181,0.570329666138,0.0,39.4000015259,0.7994339218896321,0.6064606749498327,0.1907457077384615,39.4000015259,0.0,1.2829589787659945,3.0540081171804303
1648638213550956767,15655,13,6,3.82008624077,-1.12889230251,0.493404388428,0.0,39.4000015259,1.2776208163110367,-0.3775559540167224,0.16501819010969898,39.4000015259,0.0,1.8458543818394877,4.013839135803353
1648638213550965255,15656,13,7,4.25161886215,1.00209641457,1.3802946806,-0.365145087242,39.4000015259,1.4219461077424749,0.33514930253177255,0.4616370169230769,39.4000015259,-0.04934393070837838,2.0386727352950698,4.581012287516414
1648638213551197583,15657,13,8,1.37413823605,0.224960431457,0.366070538759,-0.243430063128,39.4000015259,0.45957800536789295,0.07523760249397993,0.12243161831404681,39.4000015259,-0.03289595447675676,0.6542817304991055,1.4397467578859937
1648638213551202766,15658,13,9,1.16470277309,0.395384997129,0.296564131975,-0.121715031564,39.4000015259,0.38953270003010027,0.13223578499297658,0.09918532841973243,39.4000015259,-0.01644797723837838,0.5665313333066309,1.2652320459000082
1648638213650741673,15659,14,0,0.0126458154991,0.0409018956125,0.00840123742819,0.0,32.7999992371,0.004229369732140468,0.01367956375,0.0028097784040769227,32.7999992371,0.0,0.014930023477965664,0.04362868900915939
1648638213650769770,15660,14,1,0.0319489240646,0.0136339655146,-0.0263977963477,0.0,32.7999992371,0.010685258884481606,0.00455985468715719,-0.008828694430668894,32.7999992371,0.0,0.015784225974838792,0.04362868799945195
1648638213650774561,15661,14,2,0.253785818815,1.01436698437,-0.0551973357797,0.0,32.7999992371,0.08487820027257524,0.3392531720301003,-0.018460647417959865,32.7999992371,0.0,0.35986293570678773,1.047088519032018
1648638213650795611,15662,14,3,1.04162752628,-0.0981645435095,-0.0420724749565,0.0,32.7999992371,0.3483704101270903,-0.03283095100652174,-0.014071061858361204,32.7999992371,0.0,0.4937628546663133,1.0470884748938774
1648638213650807164,15663,14,4,1.20817542076,0.698059022427,-0.0465980917215,0.0,32.7999992371,0.404072047076923,0.23346455599565216,-0.01558464606070234,32.7999992371,0.0,0.617295826459338,1.396118056710258
1648638213650812214,15664,14,5,2.38802671432,1.8133174181,0.579805552959,0.0,32.7999992371,0.7986711419130434,0.6064606749498327,0.19391490065518394,32.7999992371,0.0,1.2820084773939586,3.054008206657755
1648638213650903119,15665,14,6,3.84615898132,-1.12889230251,0.208731740713,0.0,32.7999992371,1.2863407964280935,-0.3775559540167224,0.06980994672675585,32.7999992371,0.0,1.8579272826254534,4.013839269307618
1648638213650909826,15666,14,7,1.07177042961,0.458101212978,0.365740418434,-0.121715031564,32.7999992371,0.3584516486989966,0.15321110801939797,0.12232121017859532,32.7999992371,-0.01644797723837838,0.5295741803851368,1.2216033025473516
1648638213750817738,15667,15,0,0.251410663128,1.01436698437,-0.0651664212346,0.0,33.7000007629,0.08408383382207356,0.3392531720301003,-0.021794789710568557,33.7000007629,0.0,0.3594897730853007,1.0470885172567188
1648638213750824350,15668,15,1,1.04066550732,-0.0981645435095,-0.06142757833,0.0,33.7000007629,0.34804866465551837,-0.03283095100652174,-0.02054434057859532,33.7000007629,0.0,0.49330884573558137,1.0470884982213824
1648638213750848499,15669,15,2,1.2466596365,0.197692498565,-0.0870024114847,0.0,33.7000007629,0.41694302224080265,0.06611789249665552,-0.029097796483177257,33.7000007629,0.0,0.5933418435428166,1.2652319917198338
1648638213750852318,15670,15,3,0.378946214914,0.593077480793,1.05141377449,0.0,33.7000007629,0.12673786451973243,0.19835367250602007,0.3516434028394649,33.7000007629,0.0,0.26733715043493217,1.2652320171449691
1648638213750978351,15671,15,4,1.15992760658,0.591714084148,0.365609019995,0.0,33.7000007629,0.3879356543745819,0.19789768700602003,0.12227726421237457,33.7000007629,0.0,0.5832252038384511,1.3524893956653479
1648638213750985609,15672,15,5,1.2965631485,0.0845305845141,0.375507771969,0.0,33.7000007629,0.43363316003344476,0.028271098499698995,0.12558788360167222,33.7000007629,0.0,0.6139012053837017,1.3524893731840006
1648638213751113473,15673,15,6,1.64182829857,-2.1132645607,0.394236594439,0.0,33.7000007629,0.5491064543712374,-0.7067774450501672,0.1318517038257525,33.7000007629,0.0,1.0500334057999992,2.7049786982323325
1648638213751116970,15674,15,7,2.38283801079,1.8133174181,0.600773215294,0.0,33.7000007629,0.7969357895618728,0.6064606749498327,0.20092749675384614,33.7000007629,0.0,1.2798468094384647,3.054008104223888
1648638213751163665,15675,15,8,3.83363437653,-1.12889230251,0.373836904764,0.0,33.7000007629,1.2821519653946487,-0.3775559540167224,0.12502906513846154,33.7000007629,0.0,1.8521273776779497,4.013839109249699
1648638213751182311,15676,15,9,1.0104572773,0.496276319027,0.474342077971,-0.121715031564,33.7000007629,0.33794557769230765,0.16597870201571904,0.158642835441806,33.7000007629,-0.01644797723837838,0.5059282127796373,1.2216032502450884
1648638213751322785,15677,15,10,1.15228414536,0.0763502046466,-0.398405075073,-0.121715031564,33.7000007629,0.3853793128294314,0.025535185500535115,-0.13324584450602006,33.7000007629,-0.01644797723837838,0.5456065205001825,1.2216033354741325
1648638213850906659,15678,16,0,0.253496527672,1.01436698437,-0.0565109699965,0.0,28.2000007629,0.08478144738193978,0.3392531720301003,-0.018899989965384615,28.2000007629,0.0,0.3598173180557574,1.047088515003194
1648638213850913987,15679,16,1,1.03295350075,-0.0981645435095,-0.140588000417,0.0,28.2000007629,0.34546939824414713,-0.03283095100652174,-0.04701939813277592,28.2000007629,0.0,0.48966935945629564,1.0470884385644599
1648638213850920126,15680,16,2,1.25346672535,0.158153995872,0.0679738372564,0.0,28.2000007629,0.41921964058528427,0.05289431300066889,0.022733724834916383,28.2000007629,0.0,0.5952209862334514,1.2652319789355992
1648638213850942023,15681,16,3,1.21397721767,0.6544303298,-0.217084795237,0.0,28.2000007629,0.4060124473812709,0.21887302,-0.07260361044715719,28.2000007629,0.0,0.6144897181735256,1.3961180286447927
1648638213850945508,15682,16,4,2.38281178474,1.8133174181,0.600878059864,0.0,28.2000007629,0.7969270183076922,0.6064606749498327,0.20096256182742472,28.2000007629,0.0,1.2798358860721886,3.054008268342867
1648638213850948659,15683,16,5,3.81071066856,-1.00345981121,0.763189136982,0.0,28.2000007629,1.274485173431438,-0.3356052880301003,0.2552472030040133,28.2000007629,0.0,1.8333728000455587,4.013839190973891
