%time,field.header.seq,field.header.frame_id,field.point_id,field.x,field.y,field.z,field.velocity,field.intensity,normalized_x,normalized_y,normalized_z,normalized_intensity,normalized_velocity,normalized_range,range
1648638660156002115,54629,0,0,0.0271964687854,0.081803791225,0.0135034006089,0.0,17.3999996185,0.009095808958327758,0.0273591275,0.004516187494615385,17.3999996185,0.0,0.030232256594142082,0.08725737791833459
1648638660156012320,54630,0,1,0.0696649476886,0.0272679310292,-0.0449121892452,0.0,17.3999996185,0.023299313608227422,0.00911970937431438,-0.015020799078662205,17.3999996185,0.0,0.03418896208282756,0.08725737643239821
1648638660156035620,54631,0,2,0.213207185268,-0.081803791225,-0.127966716886,0.0,17.3999996185,0.0713067509257525,-0.0273591275,-0.0427982330722408,17.3999996185,0.0,0.10448840755191874,0.26177212368636266
1648638660156050484,54632,0,3,1.14573407173,0.718509972095,-0.0162590071559,0.0,17.3999996185,0.3831886527525083,0.240304338493311,-0.00543779503541806,17.3999996185,0.0,0.5928011996405478,1.3524893709144845
1648638660156109138,54633,0,4,1.57686781883,0.466281622648,0.211350560188,0.0,17.3999996185,0.5273805414147157,0.15594703098595317,0.07068580608294314,17.3999996185,0.0,0.7619579695751539,1.6578901438191602
1648638660156118286,54634,0,5,2.43889474869,1.71787965298,0.653948009014,0.0,17.3999996185,0.8156838624381271,0.5745416899598662,0.21871170870033443,17.3999996185,0.0,1.2887119462416345,3.054008201659537
1648638660156141341,54635,0,6,3.81968069077,-1.12889230251,0.496535092592,0.0,17.3999996185,1.2774851808595316,-0.3775559540167224,0.16606524835852843,17.3999996185,0.0,1.8456666202337024,4.013839247937423
1648638660156265348,54636,0,7,1.78422284126,-0.0,0.127552092075,-0.365145087242,17.3999996185,0.5967300472441471,-0.0,0.04265956256688963,17.3999996185,-0.04934393070837838,0.8439037258882106,1.7887763089516298
1648638660156270751,54637,0,8,1.55535101891,0.201782688498,0.38210901618,-0.243430063128,17.3999996185,0.5201842872608695,0.06748584899598661,0.12779565758528427,17.3999996185,-0.03289595447675676,0.7387406346214527,1.6142615480918523
1648638660156275383,54638,0,9,1.66321277618,0.234504207969,0.835603535175,-0.243430063128,17.3999996185,0.5562584535719063,0.07842950099297659,0.2794660652759197,17.3999996185,-0.03289595447675676,0.790568226636022,1.8760336431952673
1648638660156277741,54639,0,10,2.60126256943,-3.65117573738,0.310130178928,-0.243430063128,17.3999996185,0.8699874814147156,-1.2211290091571905,0.10372246786889631,17.3999996185,-0.03289595447675676,1.7334683419785497,4.493754771706158
1648638660156285763,54640,0,11,3.95328235626,-1.71787965298,-3.41171765327,-0.243430063128,17.3999996185,1.3221680121270902,-0.5745416899598662,-1.1410426934013378,17.3999996185,-0.03289595447675676,1.9561070160106635,5.497214679824089
1648638660156292068,54641,0,12,3.74832201004,1.0307277441,-3.88677930832,-0.243430063128,17.3999996185,1.2536194013511703,0.3447249980267558,-1.2999261900735786,17.3999996185,-0.03289595447675676,1.806089292131671,5.497214837078161
1648638660156416109,54642,0,13,3.92060256004,-2.28641605377,-3.32816720009,-0.243430063128,17.3999996185,1.3112383143946487,-0.7646876434013378,-1.1130993980234114,17.3999996185,-0.03289595447675676,2.0058511974330826,5.628100897859268
1648638660156425101,54643,0,14,3.19283151627,0.879390776157,-4.55060625076,-0.243430063128,17.3999996185,1.0678366275150502,0.2941106274772575,-1.5219418898862873,17.3999996185,-0.03289595447675676,1.5385224039059353,5.628100787826474
1648638660255915989,54644,1,0,0.0272279679775,0.081803791225,0.0134397726506,0.0,12.0,0.009106343805183945,0.0273591275,0.004494907241003344,12.0,0.0,0.03023859872014046,0.08725737784203104
1648638660255922704,54645,1,1,0.0696543231606,0.0272679310292,-0.0449286662042,0.0,12.0,0.023295760254381268,0.00911970937431438,-0.01502630976729097,12.0,0.0,0.03418411898427657,0.08725737702030086
1648638660255944043,54646,1,2,0.213160321116,-0.081803791225,-0.128044784069,0.0,12.0,0.07129107729632106,-0.0273591275,-0.04282434249799331,12.0,0.0,0.10446701518518324,0.2617721327497189
1648638660255954771,54647,1,3,0.25894549489,1.01436698437,0.0200300458819,0.0,12.0,0.08660384444481606,0.3392531720301003,0.006699012000635452,12.0,0.0,0.36068430306533805,1.0470885115603867
1648638660256010150,54648,1,4,1.1688555479,0.676244676113,-0.0754809379578,0.0,12.0,0.3909215879264214,0.22616878799765885,-0.025244460855451505,12.0,0.0,0.5973204303204098,1.3524893810388217
1648638660256113429,54649,1,5,2.45243024826,1.71787965298,0.601200282574,0.0,12.0,0.8202107853712374,0.5745416899598662,0.20107032862006688,12.0,0.0,1.29444567996519,3.0540082521942122
1648638660256116523,54650,1,6,3.80767321587,-1.12889230251,0.581491053104,0.0,12.0,1.2734693029665551,-0.3775559540167224,0.19447861307826084,12.0,0.0,1.8401077766287834,4.013839183918573
1648638660256118618,54651,1,7,6.07598781586,-1.61426150799,1.47308456898,0.608575165272,12.0,2.03210294844816,-0.5398867919698996,0.4926704244080267,12.0,0.0822398871989189,2.924100294847453,6.457046252120571
1648638660256125892,54652,1,8,1.86082029343,0.117252103984,0.20761077106,-0.486860126257,12.0,0.6223479242240803,0.03921475049632107,0.06943504048829431,12.0,-0.06579190895364864,0.8810060579976348,1.876033702413076
1648638660256136995,54653,1,9,2.2444562912,-3.5448307991,1.19633376598,-0.365145087242,12.0,0.750654277993311,-1.185562140167224,0.40011162741806017,12.0,-0.04934393070837838,1.5913897317556145,4.3628687714597945
1648638660256153713,54654,1,10,4.05158233643,-1.69061172009,-3.16135311127,-0.365145087242,12.0,1.3550442596755852,-0.5654219799632106,-1.0573087328662207,12.0,-0.04934393070837838,1.9979969736676348,5.409957570176846
1648638660256189511,54655,1,11,4.61537027359,2.53591752052,1.23899877071,-0.365145087242,12.0,1.5436020981906353,0.8481329500066889,0.4143808597692308,12.0,-0.04934393070837838,2.341953111393162,5.409957336896422
1648638660256207549,54656,1,12,3.96736502647,-1.74514758587,-3.52147746086,-0.365145087242,12.0,1.3268779352742475,-0.5836613999565218,-1.1777516591505015,12.0,-0.04934393070837838,1.9651643035722246,5.584472119822086
1648638660256211611,54657,1,13,2.96650886536,1.04708850384,-4.61408281326,-0.365145087242,12.0,0.9921434332307691,0.35019682402675584,-1.5431715094515048,12.0,-0.04934393070837838,1.4461448750952657,5.584472167604981
1648638660256217690,54658,1,14,1.49773812294,0.245411381125,0.404278934002,-0.243430063128,12.0,0.5009157601806019,0.08207738499163879,0.13521034582006689,12.0,-0.03289595447675676,0.7131408659736772,1.5706328938906469
1648638660256291738,54659,1,15,2.02297925949,0.334032148123,-0.605137109756,-0.243430063128,12.0,0.6765816921371237,0.11171643749933109,-0.20238699322943143,12.0,-0.03289595447675676,0.9633307504060115,2.1378057633728607
1648638660355958386,54660,2,0,0.0271433442831,0.081803791225,0.0136098740622,0.0,13.1999998093,0.009078041566254181,0.0273591275,0.004551797345217391,13.1999998093,0.0,0.030221573998032162,0.08725737831062327
1648638660355972046,54661,2,1,0.0697365626693,0.0272679310292,-0.0448009185493,0.0,13.1999998093,0.0233232651067893,0.00911970937431438,-0.01498358479909699,13.1999998093,0.0,0.034221608517939484,0.08725738099670095
1648638660355976982,54662,2,2,0.212804406881,-0.081803791225,-0.128635421395,0.0,13.1999998093,0.07117204243511704,-0.0273591275,-0.04302188006521739,13.1999998093,0.0,0.10430455937461919,0.2617721289293931
1648638660355979776,54663,2,3,0.259144216776,1.01436698437,0.0172700919211,0.0,13.1999998093,0.08667030661404683,0.3392531720301003,0.00577595047528428,13.1999998093,0.0,0.36071623033851774,1.04708851590651
1648638660355991682,54664,2,4,1.14569854736,0.718509972095,-0.0185961872339,0.0,13.1999998093,0.3831767716923077,0.240304338493311,-0.0062194606133444815,13.1999998093,0.0,0.5927858397665936,1.3524893935267701
1648638660356033916,54665,2,5,1.64168894291,-2.1132645607,0.394816368818,0.0,13.1999998093,0.5490598471270902,-0.7067774450501672,0.13204560830033443,13.1999998093,0.0,1.0499846609765733,2.704978679004725
1648638660356086105,54666,2,6,2.46520519257,1.71787965298,0.546460390091,0.0,13.1999998093,0.8244833419966555,0.5745416899598662,0.18276267227123744,13.1999998093,0.0,1.2998629604546346,3.054008202597888
1648638660356093679,54667,2,7,3.81469464302,-1.12889230251,0.533490300179,0.0,13.1999998093,1.275817606361204,-0.3775559540167224,0.17842484955819396,13.1999998093,0.0,1.8433582472802028,4.013839178459557
1648638660356099809,54668,2,8,1.7352437973,0.114525310695,0.577512681484,-0.365145087242,13.1999998093,0.5803490960869564,0.03830277949665551,0.19314805400802676,13.1999998093,-0.04934393070837838,0.8216308475069958,1.832404971651395
1648638660356108767,54669,2,9,3.57619166374,-1.31976783276,-3.65207600594,-0.365145087242,13.1999998093,1.196050723658863,-0.44139392399999994,-1.2214301023210703,13.1999998093,-0.04934393070837838,1.7481142020113836,5.279071234730041
1648638660356117748,54670,2,10,1.48722982407,0.343575924635,0.370122462511,-0.243430063128,13.1999998093,0.4974012789531772,0.11490833599832774,0.12378677675953177,13.1999998093,-0.03289595447675676,0.7127552106371566,1.5706328669830147
1648638660356121797,54671,2,11,1.58462107182,0.414472550154,0.256492972374,-0.243430063128,13.1999998093,0.5299736026153846,0.13861958199130434,0.08578360280066888,13.1999998093,-0.03289595447675676,0.7622069452909119,1.6578902499756656
1648638660356128045,54672,2,12,4.66104412079,2.6177213192,1.61509501934,-0.243430063128,13.1999998093,1.5588776323712372,0.87549208,0.5401655583076923,13.1999998093,-0.03289595447675676,2.37206351676287,5.584472143581888
1648638660356152242,54673,2,13,3.04440307617,0.698059022427,-4.62932538986,-0.243430063128,13.1999998093,1.0181950087525082,0.23346455599565216,-1.5482693611571905,13.1999998093,-0.03289595447675676,1.4587487277126543,5.584472227004763
1648638660455901849,54674,3,0,0.0271836668253,0.081803791225,0.0135291554034,0.0,12.6999998093,0.00909152736632107,0.0273591275,0.004524801138260869,12.6999998093,0.0,0.030229680733781926,0.08725737817962244
1648638660455917515,54675,3,1,0.0697268545628,0.0272679310292,-0.0448160134256,0.0,12.6999998093,0.023320018248428095,0.00911970937431438,-0.01498863325270903,12.6999998093,0.0,0.03421718283678533,0.08725737429695345
1648638660456095674,54676,3,2,0.212974220514,-0.081803791225,-0.128354072571,0.0,12.6999998093,0.07122883629230768,-0.0273591275,-0.042927783468561874,12.6999998093,0.0,0.10438206788847398,0.26177212763755203
1648638660456099577,54677,3,3,0.25965359807,1.01436698437,0.00583046721295,0.0,12.6999998093,0.08684066825083611,0.3392531720301003,0.001949989034431438,12.6999998093,0.0,0.36079816803441284,1.047088517900233
1648638660456101678,54678,3,4,1.16887307167,0.676244676113,-0.0752078220248,0.0,12.6999998093,0.3909274487190635,0.22616878799765885,-0.025153117734046822,12.6999998093,0.0,0.59732810162282,1.352489310915303
1648638660456106124,54679,3,5,1.53237473965,0.6544303298,0.518737673759,0.0,12.6999998093,0.5124999129264214,0.21887302,0.17349086078896322,12.6999998093,0.0,0.7571114319458526,1.7451476079278914
1648638660456213655,54680,3,6,1.64091014862,-2.1132645607,0.398040950298,0.0,12.6999998093,0.5487993808093645,-0.7067774450501672,0.13312406364481605,12.6999998093,0.0,1.0497122832400914,2.7049787092450117
1648638660456224806,54681,3,7,3.8142926693,-1.12889230251,0.536356806755,0.0,12.6999998093,1.2756831669899664,-0.3775559540167224,0.17938354740969897,12.6999998093,0.0,1.8431721524308518,4.0138391873485
1648638660456229841,54682,3,8,1.48787093163,0.441740483046,0.240817472339,-0.243430063128,12.6999998093,0.4976156961973244,0.14773929198862876,0.08054096064849497,12.6999998093,-0.03289595447675676,0.719075559730128,1.570632871977084
1648638660456233951,54683,3,9,1.74130284786,0.171787962317,0.544115066528,-0.243430063128,12.6999998093,0.5823755344013377,0.05745416799899665,0.18197828311973244,12.6999998093,-0.03289595447675676,0.8256049343111658,1.8324049545843142
1648638660555874653,54684,4,0,0.0272345431149,0.081803791225,0.0134264472872,0.0,21.0,0.00910854284779264,0.0273591275,0.004490450597725752,21.0,0.0,0.030239923332928693,0.08725737839413178
1648638660555887149,54685,4,1,0.0696437135339,0.0272679310292,-0.0449451059103,0.0,21.0,0.02329221188424749,0.00911970937431438,-0.015031807996755853,21.0,0.0,0.03417928273081982,0.08725737471809027
1648638660555890779,54686,4,2,0.212820261717,-0.081803791225,-0.128609165549,0.0,21.0,0.07117734505585284,-0.0273591275,-0.0430130988458194,21.0,0.0,0.10431179586202671,0.26177211753600854
1648638660555969030,54687,4,3,0.259185284376,1.01436698437,0.0166426077485,0.0,21.0,0.08668404159732442,0.3392531720301003,0.00556608954799331,21.0,0.0,0.360722831087496,1.047088519185282
1648638660555975721,54688,4,4,1.16835379601,0.676244676113,-0.0828859806061,0.0,21.0,0.39075377792976584,0.22616878799765885,-0.027721063747859532,21.0,0.0,0.5971007876373129,1.352489386429035
1648638660555979674,54689,4,5,1.52130055428,0.708966195583,0.478070676327,0.0,21.0,0.5087961719999999,0.23711243999431436,0.15988985830334448,21.0,0.0,0.7576076811145491,1.7451475623842883
1648638660555986565,54690,4,6,3.82940649986,-1.00345981121,0.663037598133,0.0,21.0,1.280737959819398,-0.3356052880301003,0.221751705061204,21.0,0.0,1.8420668697955767,4.013839133600349
1648638660556185507,54691,4,7,1.62846767902,0.310854405165,-0.00789690110832,-0.365145087242,21.0,0.5446380197391304,0.10396468400167223,-0.002641104049605351,21.0,-0.04934393070837838,0.7772192744716837,1.657890166407409
1648638660556193371,54692,4,8,1.42170846462,0.429469913244,0.355024188757,-0.121715031564,21.0,0.4754877808093645,0.1436354224896321,0.11873718687525082,21.0,-0.01644797723837838,0.6876106412729545,1.5270041058741568
1648638660556198986,54693,4,9,1.6577488184,0.167697772384,0.650743305683,-0.121715031564,21.0,0.5544310429431437,0.05608621149966555,0.2176399015662207,21.0,-0.01644797723837838,0.786087288968871,1.7887762681957713
1648638660556203161,54694,4,10,1.43576586246,0.83848887682,-0.659722208977,-0.121715031564,21.0,0.48018925165886284,0.2804310624816053,-0.2206428792565217,21.0,-0.01644797723837838,0.7347142407915879,1.7887762860050065
1648638660655848815,54695,5,0,0.0272163935006,0.081803791225,0.013463197276,0.0,14.8000001907,0.009102472742675585,0.0273591275,0.004502741563879599,14.8000001907,0.0,0.030236267587510867,0.08725737799667936
1648638660655857951,54696,5,1,0.0696649476886,0.0272679310292,-0.0449121892452,0.0,14.8000001907,0.023299313608227422,0.00911970937431438,-0.015020799078662205,14.8000001907,0.0,0.03418896208282756,0.08725737643239821
1648638660655863222,54697,5,2,0.212751924992,-0.081803791225,-0.128722205758,0.0,14.8000001907,0.07115448996387959,-0.0273591275,-0.04305090493578595,14.8000001907,0.0,0.10428060577883569,0.2617721301089745
1648638660655879639,54698,5,3,0.259490579367,1.01436698437,0.0108911525458,0.0,14.8000001907,0.08678614694548493,0.3392531720301003,0.003642525935050167,14.8000001907,0.0,0.36077192980575895,1.0470885143882942
1648638660655910641,54699,5,4,1.18766188622,0.633979380131,-0.129447892308,0.0,14.8000001907,0.3972113331839464,0.21203323750200667,-0.04329360946755852,14.8000001907,0.0,0.6004263320550811,1.352489322410317
1648638660655984012,54700,5,5,1.61770176888,-2.07917976379,0.377936989069,0.0,14.8000001907,0.541037380896321,-0.6953778474214046,0.12640033079230767,14.8000001907,0.0,1.0339212957177775,2.661350009092728
1648638660655990130,54701,5,6,3.82439470291,-1.12889230251,0.458814710379,0.0,14.8000001907,1.2790617735484948,-0.3775559540167224,0.15344973591270902,14.8000001907,0.0,1.8478491657923597,4.013839011815566
1648638660656119516,54702,5,7,1.46082949638,0.708966195583,0.63944041729,0.121715031564,14.8000001907,0.4885717379197324,0.23711243999431436,0.21385967133444814,14.8000001907,0.01644797723837838,0.7304977723360098,1.7451475385299908
1648638660656123613,54703,5,8,1.57473635674,0.353119701147,0.0367685444653,-0.243430063128,14.8000001907,0.5266676778394648,0.1181002344973244,0.012297172061973243,14.8000001907,-0.03289595447675676,0.754125553969597,1.6142614541761853
1648638660656125693,54704,5,9,1.43867969513,0.477188795805,0.185022130609,-0.121715031564,14.8000001907,0.4811637776354515,0.15959491498494982,0.06188031124046822,14.8000001907,-0.01644797723837838,0.698933257690525,1.527004126004992
1648638660755812075,54705,6,0,0.0272006709129,0.081803791225,0.0134949339554,0.0,21.0,0.009097214352140467,0.0273591275,0.004513355837926421,21.0,0.0,0.030233102313504602,0.0872573779078645
1648638660755819211,54706,6,1,0.0697543472052,0.0272679310292,-0.0447732210159,0.0,21.0,0.023329213112107023,0.00911970937431438,-0.014974321409999998,21.0,0.0,0.03422971615325155,0.08725737984133738
1648638660755823874,54707,6,2,0.213287591934,-0.081803791225,-0.127832651138,0.0,21.0,0.07133364278729096,-0.0273591275,-0.04275339502943143,21.0,0.0,0.10452511202658867,0.2617721219472339
1648638660755830323,54708,6,3,0.259417325258,1.01436698437,0.0125150959939,0.0,21.0,0.08676164724347825,0.3392531720301003,0.004185650834080267,21.0,0.0,0.36076014413636154,1.047088513570672
1648638660755938255,54709,6,4,1.18718528748,0.633979380131,-0.133747860789,0.0,21.0,0.3970519356120401,0.21203323750200667,-0.04473172601638796,21.0,0.0,0.6002154387818741,1.3524892796269739
1648638660755942712,54710,6,5,1.39832520485,0.477188795805,0.385641217232,0.0,21.0,0.46766729259197315,0.15959491498494982,0.12897699572976587,21.0,0.0,0.6803645566971179,1.5270041498924614
1648638660755950449,54711,6,6,1.61930608749,-2.07917976379,0.371002346277,0.0,21.0,0.5415739423043479,-0.6953778474214046,0.12408105226655518,21.0,0.0,1.0344829726247662,2.6613499274013277
1648638660755974602,54712,6,7,3.84054207802,-1.00345981121,0.595155477524,0.0,21.0,1.2844622334515048,-0.3356052880301003,0.199048654690301,21.0,0.0,1.8472458871737196,4.013839195605948
1648638660755977780,54713,6,8,1.52401781082,0.343575924635,-0.161903887987,-0.365145087242,21.0,0.509704953451505,0.11490833599832774,-0.054148457520735785,21.0,-0.04934393070837838,0.7299330139320364,1.5706328573637722
1648638660755981778,54714,6,9,1.56273782253,0.403565376997,0.0287351086736,-0.243430063128,21.0,0.5226547901438127,0.13497169799230768,0.009610404238662208,21.0,-0.03289595447675676,0.7513676986532443,1.6142615097768453
1648638660756000350,54715,6,10,1.73304402828,0.223597034812,0.38247025013,-0.121715031564,21.0,0.5796133873846153,0.07478161699397992,0.1279164716153846,21.0,-0.01644797723837838,0.8231012379477817,1.788776322005687
1648638660756076702,54716,6,11,0.374286621809,0.83848887682,-1.53511118889,-0.121715031564,21.0,0.12517947217692307,0.2804310624816053,-0.5134151133411371,21.0,-0.01644797723837838,0.33163440912177394,1.7887762392404836
1648638660855910586,54717,7,0,0.0271890312433,0.081803791225,0.0135183688253,0.0,12.1999998093,0.009093321486053511,0.0273591275,0.004521193587056856,12.1999998093,0.0,0.030230759978186143,0.08725737776503127
1648638660856044116,54718,7,1,0.0697720870376,0.0272679310292,-0.0447455607355,0.0,12.1999998093,0.023335146166421405,0.00911970937431438,-0.014965070480100333,12.1999998093,0.0,0.03423780355525834,0.08725737446044292
1648638660856073035,54719,7,2,0.213221669197,-0.081803791225,-0.127942591906,0.0,12.1999998093,0.07131159504916387,-0.0273591275,-0.04279016451705685,12.1999998093,0.0,0.10449501918499811,0.2617721285728554
1648638660856077956,54720,7,3,0.259449660778,1.01436698437,0.0118255754933,0.0,12.1999998093,0.08677246179866221,0.3392531720301003,0.003955041971003344,12.1999998093,0.0,0.36076534615409694,1.047088510916558
1648638660856087870,54721,7,4,1.16831147671,0.676244676113,-0.0834805071354,0.0,12.1999998093,0.39073962431772574,0.22616878799765885,-0.027919902051973245,12.1999998093,0.0,0.5970822629154586,1.352489395024989
1648638660856091679,54722,7,5,3.80539727211,-1.00345981121,0.789255917072,0.0,12.1999998093,1.2727081177625417,-0.3356052880301003,0.26396518965618726,12.1999998093,0.0,1.8309021861888497,4.013839171407968
1648638660856101792,54723,7,6,1.47953343391,0.708966195583,0.594884753227,0.121715031564,12.1999998093,0.4948272354214046,0.23711243999431436,0.19895811144715717,12.1999998093,0.01644797723837838,0.7388709596605064,1.745147592084663
1648638660856138031,54724,7,7,1.43713867664,0.429469913244,0.286233216524,-0.121715031564,12.1999998093,0.4806483868361204,0.1436354224896321,0.09573017275050168,12.1999998093,-0.01644797723837838,0.6947495074702139,1.5270040722008746
1648638660856229467,54725,7,8,1.63107657433,0.218143448234,0.58098423481,-0.121715031564,12.1999998093,0.5455105599765886,0.07295767499464882,0.19430910863210704,12.1999998093,-0.01644797723837838,0.7749105525365927,1.745147568669558
1648638660955999405,54726,8,0,0.0271826926619,0.081803791225,0.0135311111808,0.0,13.3000001907,0.00909120155916388,0.0273591275,0.004525455244414715,13.3000001907,0.0,0.030229484764711816,0.0872573779626793
1648638660956005064,54727,8,1,0.0696364864707,0.0272679310292,-0.0449563078582,0.0,13.3000001907,0.02328979480625418,0.00911970937431438,-0.015035554467625417,13.3000001907,0.0,0.03417598840277785,0.08725737749232695
1648638660956008738,54728,8,2,0.213849455118,-0.081803791225,-0.12689049542,0.0,13.3000001907,0.07152155689565216,-0.0273591275,-0.042438292782608696,13.3000001907,0.0,0.10478162080783669,0.2617721290377987
1648638660956018570,54729,8,3,0.259207189083,1.01436698437,0.0162979718298,0.0,13.3000001907,0.08669136758628762,0.3392531720301003,0.005450826698929765,13.3000001907,0.0,0.36072635218465327,1.0470885204881022
1648638660956127492,54730,8,4,1.16858994961,0.676244676113,-0.0794863402843,0.0,13.3000001907,0.39083275906688963,0.22616878799765885,-0.02658406029575251,13.3000001907,0.0,0.5972041625641977,1.352489338439483
1648638660956254688,54731,8,5,1.24559533596,0.556265771389,0.582634806633,0.0,13.3000001907,0.4165870688829431,0.186042064009699,0.19486113934214047,13.3000001907,0.0,0.6178197322050769,1.483375430322539
1648638660956258976,54732,8,6,3.81351947784,-1.12889230251,0.541826307774,0.0,13.3000001907,1.275424574528428,-0.3775559540167224,0.18121281196454847,13.3000001907,0.0,1.8428142036123774,4.013839108176535
1648638660956260290,54733,8,7,1.55208468437,0.726690351963,0.512518048286,0.121715031564,13.3000001907,0.5190918676822742,0.24304025149264213,0.17141071849030098,13.3000001907,0.01644797723837838,0.7732925048345872,1.7887762534512028
1648638660956262716,54734,8,8,1.63123142719,0.3272151649,0.52683454752,-0.243430063128,13.3000001907,0.5455623502307692,0.10943651,0.1761988453244147,13.3000001907,-0.03289595447675676,0.7792643362169355,1.7451476652860813
1648638661055981747,54735,9,0,0.0272205770016,0.081803791225,0.013454740867,0.0,24.3999996185,0.009103871906889632,0.0273591275,0.0044999133334448155,24.3999996185,0.0,0.03023711006289068,0.0872573786156881
1648638661055989716,54736,9,1,0.0696543231606,0.0272679310292,-0.0449286662042,0.0,24.3999996185,0.023295760254381268,0.00911970937431438,-0.01502630976729097,24.3999996185,0.0,0.03418411898427657,0.08725737702030086
1648638661056146292,54737,9,2,0.213922157884,-0.081803791225,-0.126767888665,0.0,24.3999996185,0.07154587220200669,-0.0273591275,-0.04239728717892976,24.3999996185,0.0,0.10481481534522208,0.2617721289387246
1648638661056154447,54738,9,3,0.259356290102,1.01436698437,0.0137218814343,0.0,24.3999996185,0.08674123414782609,0.3392531720301003,0.004589258004782609,24.3999996185,0.0,0.36075032659092743,1.0470885130806553
1648638661056157537,54739,9,4,1.16877877712,0.676244676113,-0.0766603946686,0.0,24.3999996185,0.3908959120802675,0.22616878799765885,-0.025638927982809364,24.3999996185,0.0,0.5972868229137978,1.3524893744233424
1648638661056163632,54740,9,5,1.35656380653,0.509910285473,0.316431462765,0.0,24.3999996185,0.4537002697424749,0.17053855701438125,0.10582992065719063,24.3999996185,0.0,0.6639060693782942,1.4833754518145152
1648638661056190074,54741,9,6,3.81541323662,-1.12889230251,0.528325378895,0.0,24.3999996185,1.2760579386688962,-0.3775559540167224,0.1766974511354515,24.3999996185,0.0,1.8436909242314186,4.013839023033432
1648638661056193683,54742,9,7,1.43034040928,0.777136027813,0.314302355051,0.243430063128,24.3999996185,0.47837471882274246,0.2599117149876254,0.10511784449866221,24.3999996185,0.03289595447675676,0.7247336357623292,1.65789024441754
1648638661056201133,54743,9,8,1.62574756145,0.265862315893,0.425944715738,-0.365145087242,24.3999996185,0.5437282814214047,0.08891716250602007,0.14245642666822741,24.3999996185,-0.04934393070837838,0.7740717988811313,1.7015189700493312
1648638661156114850,54744,10,0,0.0272534471005,0.081803791225,0.013388033025,0.0,25.5,0.009114865251003345,0.0273591275,0.004477603018394648,25.5,0.0,0.030243733146705826,0.08725737828929786
1648638661156123245,54745,10,1,0.0696717426181,0.0272679310292,-0.0449016466737,0.0,25.5,0.023301586159899662,0.00911970937431438,-0.015017273135016721,25.5,0.0,0.034192059519812676,0.08725737594075227
1648638661156127379,54746,10,2,0.213540151715,-0.081803791225,-0.127410337329,0.0,25.5,0.07141811094147156,-0.0273591275,-0.042612152952842805,25.5,0.0,0.10464040805758518,0.2617721350937456
1648638661156134762,54747,10,3,0.25941324234,1.01436698437,0.0125994766131,0.0,25.5,0.08676028171906354,0.3392531720301003,0.004213871776956521,25.5,0.0,0.36075948733252655,1.0470885139720345
1648638661156156980,54748,10,4,1.16842269897,0.676244676113,-0.0819074884057,0.0,25.5,0.3907768223979933,0.22616878799765885,-0.027393808831337792,25.5,0.0,0.5971309492157273,1.3524892983297299
1648638661156327843,54749,10,5,1.40511572361,0.524907648563,0.286117643118,0.0,25.5,0.46993836910033443,0.17555439751270902,0.09569151943745818,25.5,0.0,0.6873888913791193,1.5270041067264328
1648638661156335248,54750,10,6,3.81292033195,-1.12889230251,0.5460267663,0.0,25.5,1.2752241912876254,-0.3775559540167224,0.18261764759197324,25.5,0.0,1.8425368312475694,4.013839124576378
1648638661156342989,54751,10,7,1.43851566315,0.850759446621,0.319448977709,0.243430063128,25.5,0.48110891744147155,0.2845349319802675,0.10683912297959865,25.5,0.03289595447675676,0.7374901412225284,1.7015189092402352
1648638661156392664,54752,10,8,1.5708540678,0.319034785032,0.570789694786,-0.121715031564,25.5,0.525369253444816,0.10670059700066889,0.19089956347357856,25.5,-0.01644797723837838,0.7506069026665194,1.7015189014695418
1648638661256085647,54753,11,0,0.0272279679775,0.081803791225,0.0134397726506,0.0,16.2000007629,0.009106343805183945,0.0273591275,0.004494907241003344,16.2000007629,0.0,0.03023859872014046,0.08725737784203104
1648638661256092332,54754,11,1,0.0697437748313,0.0272679310292,-0.0447896793485,0.0,16.2000007629,0.023325677201103675,0.00911970937431438,-0.014979825869063544,16.2000007629,0.0,0.034224896389209614,0.08725737542737422
1648638661256103568,54755,11,2,0.212618291378,-0.081803791225,-0.12894281745,0.0,16.2000007629,0.07110979644749163,-0.0273591275,-0.04312468811036789,16.2000007629,0.0,0.10421961504039746,0.26177213040968955
1648638661256107382,54756,11,3,0.259517729282,1.01436698437,0.0102237258106,0.0,16.2000007629,0.08679522718461538,0.3392531720301003,0.003419306291170568,16.2000007629,0.0,0.3607762986346842,1.0470885136229047
1648638661256109627,54757,11,4,1.16858696938,0.676244676113,-0.0795305073261,0.0,16.2000007629,0.3908317623344481,0.22616878799765885,-0.026598831881638793,16.2000007629,0.0,0.5972028579663957,1.3524893598736576
1648638661256112303,54758,11,5,1.44159901142,0.477188795805,0.160701021552,0.0,16.2000007629,0.48214013759866214,0.15959491498494982,0.0537461610541806,16.2000007629,0.0,0.7002776316978625,1.527004150255265
1648638661256214338,54759,11,6,3.8257894516,-1.00345981121,0.683600187302,0.0,16.2000007629,1.2795282446822742,-0.3356052880301003,0.22862882518461536,16.2000007629,0.0,1.84038473348188,4.013839276399438
1648638661256218424,54760,11,7,1.57481360435,0.310854405165,0.414646267891,-0.121715031564,16.2000007629,0.5266935131605351,0.10396468400167223,0.13867768156889632,16.2000007629,-0.01644797723837838,0.7520776350419823,1.6578901885023203
1648638661355774670,54761,12,0,0.0272427201271,0.081803791225,0.0134098464623,0.0,12.6999998093,0.009111277634481604,0.0273591275,0.0044848984823745814,12.6999998093,0.0,0.03024157102113688,0.08725737814562931
1648638661355779424,54762,12,1,0.0696645304561,0.0272679310292,-0.0449128374457,0.0,12.6999998093,0.02329917406558528,0.00911970937431438,-0.01502101586812709,12.6999998093,0.0,0.03418877189003491,0.08725737695866158
1648638661355787243,54763,12,2,0.213160321116,-0.081803791225,-0.128044784069,0.0,12.6999998093,0.07129107729632106,-0.0273591275,-0.04282434249799331,12.6999998093,0.0,0.10446701518518324,0.2617721327497189
1648638661355800810,54764,12,3,0.259503424168,1.01436698437,0.0105812186375,0.0,12.6999998093,0.08679044286555183,0.3392531720301003,0.0035388691095317726,12.6999998093,0.0,0.3607739966767035,1.0470885198122741
1648638661356050354,54765,12,4,1.3674710989,0.463554829359,0.33991548419,0.0,12.6999998093,0.4573481936120401,0.1550350599862876,0.11368410842474916,12.6999998093,0.0,0.665109472361764,1.4833754826546608
1648638661356055012,54766,12,5,3.82998347282,-1.00345981121,0.659696400166,0.0,12.6999998093,1.2809309273645484,-0.3356052880301003,0.22063424754715716,12.6999998093,0.0,1.8423352004214029,4.013839101805146
1648638661356074733,54767,12,6,1.46865451336,0.381751030684,-0.170475006104,0.243430063128,12.6999998093,0.4911888004548495,0.12767592999464883,-0.05701505220869564,12.6999998093,0.03289595447675676,0.7062818265285794,1.52700414431237
1648638661456087011,54768,13,0,0.0272558871657,0.081803791225,0.0133830616251,0.0,29.2999992371,0.00911568132632107,0.0273591275,0.004475940342842809,29.2999992371,0.0,0.0302442250627675,0.08725737781089907
1648638661456096030,54769,13,1,0.0696721225977,0.0272679310292,-0.0449010543525,0.0,29.2999992371,0.023301713243377927,0.00911970937431438,-0.015017075034280935,29.2999992371,0.0,0.03419223273237924,0.08725737454134352
1648638661456123489,54770,13,2,0.213355302811,-0.081803791225,-0.127719625831,0.0,29.2999992371,0.07135628856555185,-0.0273591275,-0.042715593923411364,29.2999992371,0.0,0.10455602179339966,0.26177213052341447
1648638661456128242,54771,13,3,0.363812088966,0.981645464897,0.0201804563403,0.0,29.2999992371,0.12167628393511704,0.32830952003244146,0.006749316501772575,29.2999992371,0.0,0.3706715218201292,1.0470884898845727
1648638661456141417,54772,13,4,1.18719756603,0.633979380131,-0.133639231324,0.0,29.2999992371,0.39705604215050166,0.21203323750200667,-0.04469539509163879,29.2999992371,0.0,0.6002208718647031,1.3524893195022698
1648638661456147898,54773,13,5,1.37259232998,0.463554829359,0.318606108427,0.0,29.2999992371,0.45906097992642136,0.1550350599862876,0.10655722689866219,29.2999992371,0.0,0.6674652323581838,1.4833754199355516
1648638661456225993,54774,13,6,1.64148771763,-2.1132645607,0.39565217495,0.0,29.2999992371,0.5489925477023411,-0.7067774450501672,0.1323251421237458,29.2999992371,0.0,1.0499142782613524,2.7049786827595104
1648638661456230934,54775,13,7,3.83302879333,-1.00345981121,0.641765475273,0.0,29.2999992371,1.2819494292073579,-0.3356052880301003,0.2146372827,29.2999992371,0.0,1.8437514982892644,4.01383909100288
1648638661456233869,54776,13,8,1.46999490261,0.381751030684,-0.15850096941,-0.243430063128,29.2999992371,0.491637091173913,0.12767592999464883,-0.05301035766220735,29.2999992371,-0.03289595447675676,0.7069053698592842,1.5270040669335463
1648638661555758237,54777,14,0,0.0271688047796,0.081803791225,0.0135589782149,0.0,34.7999992371,0.009086556782474916,0.0273591275,0.00453477532270903,34.7999992371,0.0,0.030226691613266875,0.08725737849699323
1648638661555768486,54778,14,1,0.0697437748313,0.0272679310292,-0.0447896793485,0.0,34.7999992371,0.023325677201103675,0.00911970937431438,-0.014979825869063544,34.7999992371,0.0,0.034224896389209614,0.08725737542737422
1648638661555779368,54779,14,2,0.212435573339,-0.081803791225,-0.129243612289,0.0,34.7999992371,0.0710486867354515,-0.0273591275,-0.043225288390969896,34.7999992371,0.0,0.10413622631546575,0.2617721230310103
1648638661555791546,54780,14,3,0.363397777081,0.981645464897,0.0266184359789,0.0,34.7999992371,0.12153771808729097,0.32830952003244146,0.008902486949464881,34.7999992371,0.0,0.37058059147729755,1.0470884892282133
1648638661555800144,54781,14,4,1.16846013069,0.676244676113,-0.0813732147217,0.0,34.7999992371,0.39078934136789295,0.22616878799765885,-0.02721512198050167,34.7999992371,0.0,0.5971473346820139,1.352489385931517
1648638661555804021,54782,14,5,1.36773002148,0.463554829359,0.338872045279,0.0,34.7999992371,0.45743478979264207,0.1550350599862876,0.11333513220033443,34.7999992371,0.0,0.6652285649686347,1.4833754597374549
1648638661555809488,54783,14,6,1.64021193981,-2.1132645607,0.400908261538,0.0,34.7999992371,0.5485658661571906,-0.7067774450501672,0.13408303061471571,34.7999992371,0.0,1.0494681395150687,2.7049786958819597
1648638661555852047,54784,14,7,3.83474469185,-1.00345981121,0.631432414055,0.0,34.7999992371,1.2825233083110368,-0.3356052880301003,0.2111814093829431,34.7999992371,0.0,1.8445495336466136,4.013839226713582
1648638661555859211,54785,14,8,1.52122592926,0.343575924635,0.186318665743,0.121715031564,34.7999992371,0.5087712137993311,0.11490833599832774,0.06231393503110367,34.7999992371,0.01644797723837838,0.728629001387945,1.5706327989208675
1648638661555879607,54786,14,9,1.61108493805,0.265862315893,0.478423684835,0.121715031564,34.7999992371,0.5388243939966555,0.08891716250602007,0.16000792134949832,34.7999992371,0.01644797723837838,0.767182974863134,1.7015189304955327
1648638661555895124,54787,14,10,1.59875535965,0.726690351963,0.340033710003,-0.243430063128,34.7999992371,0.5347007891806019,0.24304025149264213,0.11372364883043477,34.7999992371,-0.03289595447675676,0.794278560548076,1.788776255316498
1648638661655863545,54788,15,0,0.0272006709129,0.081803791225,0.0134949339554,0.0,25.0,0.009097214352140467,0.0273591275,0.004513355837926421,25.0,0.0,0.030233102313504602,0.0872573779078645
1648638661655871297,54789,15,1,0.0697196349502,0.0272679310292,-0.0448272526264,0.0,25.0,0.02331760366227425,0.00911970937431438,-0.014992392182742474,25.0,0.0,0.03421389162567989,0.08725737870365717
1648638661655874630,54790,15,2,0.218084037304,-0.0736234113574,-0.12467391789,0.0,25.0,0.07293780511839465,-0.024623214500802675,-0.04169696250501672,25.0,0.0,0.10604786430348502,0.26177211430699765
1648638661655882445,54791,15,3,0.258866399527,1.01436698437,0.0210278779268,0.0,25.0,0.08657739114615384,0.3392531720301003,0.007032735092575251,25.0,0.0,0.36067160138806753,1.0470885174778992
1648638661655912425,54792,15,4,1.18689739704,0.633979380131,-0.136279881001,0.0,25.0,0.3969556511839465,0.21203323750200667,-0.045578555518729094,25.0,0.0,0.600088053388271,1.3524893683490682
1648638661655924047,54793,15,5,1.39142775536,0.417199343443,0.300460189581,0.0,25.0,0.46536045329765885,0.1395315529909699,0.10048835771939799,25.0,0.0,0.6727479150966407,1.483375480476366
1648638661655968978,54794,15,6,1.62044990063,-2.07917976379,0.365974456072,0.0,25.0,0.5419564885050167,-0.6953778474214046,0.1223994836361204,25.0,0.0,1.0348835787419775,2.661349971932067
1648638661656063475,54795,15,7,3.84939980507,-1.00345981121,0.534876942635,0.0,25.0,1.2874246839698995,-0.3356052880301003,0.17888860957692304,25.0,0.0,1.8513658588036448,4.013839034608778
1648638661656067210,54796,15,8,1.59518194199,0.265862315893,0.529035627842,0.121715031564,25.0,0.5335056662173913,0.08891716250602007,0.17693499258929765,25.0,0.01644797723837838,0.7597123492218926,1.7015189962469288
1648638661656254333,54797,15,9,2.14625144005,-2.32050085068,0.657450973988,-0.121715031564,25.0,0.7178098461705685,-0.7760872410301002,0.2198832688923077,25.0,-0.01644797723837838,1.2778158537944908,3.228523071796308
1648638661656262921,54798,15,10,3.04972052574,0.908022105694,0.54595053196,-0.121715031564,25.0,1.019973419979933,0.3036863229745819,0.18259215115719063,25.0,-0.01644797723837838,1.474081726938145,3.2285231008769686
1648638661755996567,54799,16,0,0.0272205770016,0.081803791225,0.013454740867,0.0,14.3000001907,0.009103871906889632,0.0273591275,0.0044999133334448155,14.3000001907,0.0,0.03023711006289068,0.0872573786156881
1648638661756002812,54800,16,1,0.0697446167469,0.0272679310292,-0.0447883680463,0.0,14.3000001907,0.02332595877822742,0.00911970937431438,-0.014979387306454848,14.3000001907,0.0,0.03422528020219977,0.0872573752758814
1648638661756010094,54801,16,2,0.213387429714,-0.081803791225,-0.127665922046,0.0,14.3000001907,0.07136703334916387,-0.0273591275,-0.04269763279130434,14.3000001907,0.0,0.10457068784168246,0.2617721204990822
1648638661756015066,54802,16,3,0.362609356642,0.981645464897,0.0357901565731,0.0,14.3000001907,0.12127403232173913,0.32830952003244146,0.011969952031137123,14.3000001907,0.0,0.3704077790423421,1.047088486988898
1648638661756018124,54803,16,4,1.18794858456,0.633979380131,-0.126790270209,0.0,14.3000001907,0.3973072189163879,0.21203323750200667,-0.042404772645150496,14.3000001907,0.0,0.6005532001511037,1.3524893591481841
1648638661756122399,54804,16,5,1.38374078274,0.417199343443,0.334079146385,0.0,14.3000001907,0.462789559444816,0.1395315529909699,0.11173215598160535,14.3000001907,0.0,0.6691916070471339,1.483375448777722
1648638661756133694,54805,16,6,2.38648438454,1.8133174181,0.586121737957,0.0,14.3000001907,0.7981553125551839,0.6064606749498327,0.1960273371093645,14.3000001907,0.0,1.2813658166896498,3.054008262618791
1648638661756136774,54806,16,7,3.84333300591,-1.00345981121,0.576857447624,0.0,14.3000001907,1.2853956541505016,-0.3356052880301003,0.19292891224882944,14.3000001907,0.0,1.8485439904886654,4.013839147488359
1648638661756141720,54807,16,8,1.64449954033,0.159517392516,0.406622737646,0.121715031564,14.3000001907,0.549999846264214,0.053350298500334445,0.1359942266374582,14.3000001907,0.01644797723837838,0.779644737128003,1.7015189059870632
1648638661756145678,54808,16,9,1.5307341814,0.343575924635,-0.0754704400897,0.365145087242,14.3000001907,0.5119512312374581,0.11490833599832774,-0.025240949862775915,14.3000001907,0.04934393070837838,0.733070291317963,1.5706327824868727
