%time,field.header.seq,field.header.frame_id,field.point_id,field.x,field.y,field.z,field.velocity,field.intensity,normalized_x,normalized_y,normalized_z,normalized_intensity,normalized_velocity,normalized_range,range
1648638473853613793,36596,0,0,0.0177006740123,0.0845305845141,0.0124545674771,0.0,14.1999998093,0.005919957863645485,0.028271098499698995,0.004165407182976588,14.1999998093,0.0,0.029484687764912126,0.08725737693643303
1648638473853622378,36597,0,1,0.0696783810854,0.0272679310292,-0.0448913425207,0.0,14.1999998093,0.023303806383076924,0.00911970937431438,-0.015013826929999998,14.1999998093,0.0,0.03419508565498603,0.08725737496971957
1648638473853628303,36598,0,2,0.213205784559,-0.081803791225,-0.127969056368,0.0,14.1999998093,0.071306282461204,-0.0273591275,-0.0427990155076923,14.1999998093,0.0,0.10448776815702054,0.2617721265068504
1648638473853654243,36599,0,3,1.20068383217,0.698059022427,-0.142187878489,0.0,14.1999998093,0.40156649905351166,0.23346455599565216,-0.04755447441103679,14.1999998093,0.0,0.6140171049982525,1.3961179951620772
1648638473853686321,36600,0,4,1.61521863937,-2.07917976379,0.388412177563,0.0,14.1999998093,0.5402069027993311,-0.6953778474214046,0.1299037383153846,14.1999998093,0.0,1.0330524412383517,2.6613499887841408
1648638473853824564,36601,0,5,2.46950626373,1.71787965298,0.526682853699,0.0,14.1999998093,0.8259218273344481,0.5745416899598662,0.17614811160501673,14.1999998093,0.0,1.301688089842143,3.054008270634661
1648638473853829006,36602,0,6,3.83150196075,-1.00345981121,0.650819540024,0.0,14.1999998093,1.2814387828595317,-0.3356052880301003,0.21766539800133777,14.1999998093,0.0,1.8430414042518966,4.013839177349007
1648638473853834065,36603,0,7,1.40985798836,0.429469913244,0.399496525526,0.121715031564,14.1999998093,0.47152441082274243,0.1436354224896321,0.13361087810234112,14.1999998093,0.01644797723837838,0.6821302475313963,1.5270040692911269
1648638473853836580,36604,0,8,1.58559334278,0.466281622648,0.130671277642,0.121715031564,14.1999998093,0.5302987768494983,0.15594703098595317,0.043702768442140466,14.1999998093,0.01644797723837838,0.7659980821969999,1.6578901601397178
1648638473853844082,36605,0,9,1.28017115593,0.725326955318,0.763978242874,-0.243430063128,14.1999998093,0.428150888270903,0.2425842659926421,0.25551111801806015,14.1999998093,-0.03289595447675676,0.6522832914934396,1.6578902666252904
1648638473953576422,36606,1,0,0.0272015035152,0.081803791225,0.0134932585061,0.0,18.5,0.00909749281444816,0.0273591275,0.004512795486989966,18.5,0.0,0.030233269895582386,0.08725737835497505
1648638473953604042,36607,1,1,0.0695782229304,0.0272679310292,-0.0450464300811,0.0,18.5,0.02327030867237458,0.00911970937431438,-0.015065695679297659,18.5,0.0,0.03414943089550894,0.08725737809387284
1648638473953682772,36608,1,2,0.212355300784,-0.081803791225,-0.129375457764,0.0,18.5,0.0710218397270903,-0.0273591275,-0.04326938386755853,18.5,0.0,0.10409959315003234,0.2617721205581126
1648638473953692356,36609,1,3,1.20037901402,0.698059022427,-0.144738942385,0.0,18.5,0.4014645531839464,0.23346455599565216,-0.04840767303846154,18.5,0.0,0.6138837624767562,1.3961180242136029
1648638473953792448,36610,1,4,3.83639025688,-1.00345981121,0.621355175972,0.0,18.5,1.2830736645083611,-0.3356052880301003,0.20781109564280933,18.5,0.0,1.8453148691926795,4.013839066343418
1648638473953812969,36611,1,5,1.46335947514,0.441740483046,0.361014783382,0.121715031564,18.5,0.48941788466220737,0.14773929198862876,0.12074073022809363,18.5,0.01644797723837838,0.7077334456218392,1.570632764736583
1648638474053709245,36612,2,0,0.0272544175386,0.081803791225,0.0133860567585,0.0,21.7999992371,0.009115189812240802,0.0273591275,0.004476942059698996,21.7999992371,0.0,0.030243928782279814,0.08725737819630795
1648638474053722728,36613,2,1,0.0695676133037,0.0272679310292,-0.0450628064573,0.0,21.7999992371,0.0232667603022408,0.00911970937431438,-0.01507117272819398,21.7999992371,0.0,0.03414459501877002,0.08725737452613633
1648638474053727561,36614,2,2,0.21257533133,-0.081803791225,-0.129013627768,0.0,21.7999992371,0.07109542853846154,-0.0273591275,-0.043148370490969895,21.7999992371,0.0,0.104200008520615,0.2617721297210662
1648638474053733289,36615,2,3,1.19962561131,0.698059022427,-0.150855883956,0.0,21.7999992371,0.40121257903344476,0.23346455599565216,-0.050453472894983274,21.7999992371,0.0,0.6135542079193845,1.3961180121418015
1648638474053750778,36616,2,4,1.47967946529,0.441740483046,0.286882162094,0.0,21.7999992371,0.49487607534782607,0.14773929198862876,0.09594721140267559,21.7999992371,0.0,0.7152842500017987,1.5706327862649316
1648638474053760789,36617,2,5,2.46277570724,1.71787965298,0.557307362556,0.0,21.7999992371,0.82367080509699,0.5745416899598662,0.18639042225953176,21.7999992371,0.0,1.2988323001219928,3.054008215878486
1648638474053884732,36618,2,6,3.82555508614,-1.00345981121,0.684909403324,0.0,21.7999992371,1.2794498615852843,-0.3356052880301003,0.22906669007491637,21.7999992371,0.0,1.8402757418319062,4.013839085036528
1648638474053888314,36619,2,7,1.69786179066,0.3272151649,0.236083954573,0.243430063128,21.7999992371,0.5678467527290969,0.10943651,0.07895784433879598,21.7999992371,0.03289595447675676,0.8104790058298489,1.745147574828714
1648638474153644424,36620,3,0,0.0272461697459,0.081803791225,0.013402835466,0.0,23.6000003815,0.009112431353143812,0.0273591275,0.004482553667558529,23.6000003815,0.0,0.030242266249287157,0.08725737804411987
1648638474153653644,36621,3,1,0.0696399956942,0.0272679310292,-0.0449508726597,0.0,23.6000003815,0.02329096845959866,0.00911970937431438,-0.015033736675484948,23.6000003815,0.0,0.03417758801676907,0.08725737800192009
1648638474153656898,36622,3,2,0.212902337313,-0.081803791225,-0.128473266959,0.0,23.6000003815,0.07120479508795986,-0.0273591275,-0.042967647812374575,23.6000003815,0.0,0.10434925751819206,0.26177212574153175
1648638474153672460,36623,3,3,1.20005524158,0.698059022427,-0.147399604321,0.0,23.6000003815,0.4013562680869565,0.23346455599565216,-0.049297526528762535,23.6000003815,0.0,0.6137421337757616,1.3961180555344732
1648638474153688636,36624,3,4,2.46632862091,1.71787965298,0.541367471218,0.0,23.6000003815,0.8248590705384615,0.5745416899598662,0.18105935492240802,23.6000003815,0.0,1.3003396194844976,3.0540082035475082
1648638474153783465,36625,3,5,3.83241605759,-1.00345981121,0.645415663719,0.0,23.6000003815,1.2817445008662207,-0.3356052880301003,0.21585808151137123,23.6000003815,0.0,1.843466528135339,4.013839285542102
1648638474253655941,36626,4,0,0.0272429101169,0.081803791225,0.0134094608948,0.0,15.1000003815,0.009111341176220734,0.0273591275,0.004484769530033445,15.1000003815,0.0,0.030241609309364592,0.08725737820900907
1648638474253664038,36627,4,1,0.0697033107281,0.0272679310292,-0.0448526330292,0.0,15.1000003815,0.023312144056220736,0.00911970937431438,-0.015000880611772575,15.1000003815,0.0,0.03420644997756904,0.08725737950868884
1648638474253673334,36628,4,2,0.213365465403,-0.081803791225,-0.127702653408,0.0,15.1000003815,0.07135968742575251,-0.0273591275,-0.04270991752775919,15.1000003815,0.0,0.10456066103733018,0.26177213330082705
1648638474253823117,36629,4,3,1.19998645782,0.698059022427,-0.147958949208,0.0,15.1000003815,0.4013332634849498,0.23346455599565216,-0.049484598397324414,15.1000003815,0.0,0.6137120462115823,1.3961180997300568
1648638474253835450,36630,4,4,2.47125530243,1.71787965298,0.518413841724,0.0,15.1000003815,0.8265067901103678,0.5745416899598662,0.1733825557605351,15.1000003815,0.0,1.3024304594484213,3.0540082159683384
1648638474253841697,36631,4,5,3.81322288513,-1.12889230251,0.543908953667,0.0,15.1000003815,1.2753253796421404,-0.3775559540167224,0.18190934905250833,15.1000003815,0.0,1.8426768968900156,4.013839004273168
1648638474253940753,36632,4,6,1.45425212383,0.441740483046,0.396110653877,0.121715031564,15.1000003815,0.4863719477692307,0.14773929198862876,0.13247847955752506,15.1000003815,0.01644797723837838,0.7035213156336998,1.5706328482941654
1648638474353635372,36633,5,0,0.0271931793541,0.081803791225,0.013510026969,0.0,23.3999996185,0.009094708814080267,0.0273591275,0.004518403668561872,23.3999996185,0.0,0.030231594638508153,0.08725737843226065
1648638474353643008,36634,5,1,0.0696611404419,0.0272679310292,-0.0449180901051,0.0,23.3999996185,0.023298040281571904,0.00911970937431438,-0.015022772610401336,23.3999996185,0.0,0.03418722657653662,0.08725737429563879
1648638474353653458,36635,5,2,0.213033929467,-0.081803791225,-0.128254950047,0.0,23.3999996185,0.07124880584180601,-0.0273591275,-0.04289463212274247,23.3999996185,0.0,0.10440932202312204,0.261772129101806
1648638474353867999,36636,5,3,1.20018601418,0.698059022427,-0.146330818534,0.0,23.3999996185,0.4014000047424749,0.23346455599565216,-0.04894007308829432,23.3999996185,0.0,0.6137993373414188,1.3961180379458766
1648638474353871799,36637,5,4,2.46338748932,1.71787965298,0.55459690094,0.0,23.3999996185,0.8238754144882943,0.5745416899598662,0.18548391335785952,23.3999996185,0.0,1.2990918176551094,3.05400821007299
1648638474353874505,36638,5,5,3.83733940125,-1.00345981121,0.615467727184,0.0,23.3999996185,1.2833911040969899,-0.3356052880301003,0.20584204922541804,23.3999996185,0.0,1.8457563115168667,4.013839283815978
1648638474453661888,36639,6,0,0.027197336778,0.081803791225,0.0135016534477,0.0,13.8000001907,0.009096099256856187,0.0273591275,0.004515603159765885,13.8000001907,0.0,0.03023243127739507,0.08725737809733415
1648638474453686985,36640,6,1,0.0696572512388,0.0272679310292,-0.0449241288006,0.0,13.8000001907,0.023296739544749163,0.00911970937431438,-0.015024792241003343,13.8000001907,0.0,0.03418545371797362,0.08725737826253668
1648638474453691022,36641,6,2,0.21220728755,-0.081803791225,-0.129618108273,0.0,13.8000001907,0.07097233697324415,-0.0273591275,-0.04335053788394648,13.8000001907,0.0,0.10403204837187767,0.2617721282726313
1648638474453697904,36642,6,3,1.19956493378,0.698059022427,-0.151338472962,0.0,13.8000001907,0.4011922855451505,0.23346455599565216,-0.05061487390033445,13.8000001907,0.0,0.6135276675653105,1.3961181047980233
1648638474453703993,36643,6,4,1.4626070261,0.39265820384,0.416518419981,0.0,13.8000001907,0.48916622946488286,0.13132381399331103,0.13930381939163877,13.8000001907,0.0,0.7041400032802643,1.5706327935018451
1648638474453795534,36644,6,5,3.81141424179,-1.00345981121,0.759667754173,0.0,13.8000001907,1.2747204822040132,-0.3356052880301003,0.25406948300100335,13.8000001907,0.0,1.8336999549693593,4.013839211025212
1648638474553650657,36645,7,0,0.0271931793541,0.081803791225,0.013510026969,0.0,13.8000001907,0.009094708814080267,0.0273591275,0.004518403668561872,13.8000001907,0.0,0.030231594638508153,0.08725737843226065
1648638474553657608,36646,7,1,0.0696683451533,0.0272679310292,-0.0449069216847,0.0,13.8000001907,0.023300449884046823,0.00911970937431438,-0.015019037352742475,13.8000001907,0.0,0.034190510798610664,0.08725737787836813
1648638474553660782,36647,7,2,0.212826654315,-0.081803791225,-0.128598600626,0.0,13.8000001907,0.07117948304849497,-0.0273591275,-0.04300956542675585,13.8000001907,0.0,0.10431471359143553,0.2617721244301336
1648638474553676712,36648,7,3,1.19992661476,0.698059022427,-0.148442685604,0.0,13.8000001907,0.40131324908361204,0.23346455599565216,-0.0496463831451505,13.8000001907,0.0,0.6136858697137628,1.396118014535469
1648638474553685084,36649,7,4,1.50537133217,0.454011052847,0.365474134684,0.0,13.8000001907,0.5034686729665552,0.15184316148729096,0.1222321520682274,13.8000001907,0.0,0.7280231830153926,1.614261511326322
1648638474553687727,36650,7,5,3.81558918953,-1.00345981121,0.738412022591,0.0,13.8000001907,1.2761167857959865,-0.3356052880301003,0.24696054267257525,13.8000001907,0.0,1.8356413079178422,4.013839156104631
1648638474653674855,36651,8,0,0.0176325812936,0.0845305845141,0.0125507852063,0.0,14.8999996185,0.005897184379130434,0.028271098499698995,0.004197587025518394,14.8999996185,0.0,0.029475558986770765,0.08725737705584265
1648638474653681504,36652,8,1,0.0696855783463,0.0272679310292,-0.0448801778257,0.0,14.8999996185,0.023306213493745818,0.00911970937431438,-0.015010092918294313,14.8999996185,0.0,0.034198366538536265,0.08725737936551829
1648638474653704839,36653,8,2,0.213205784559,-0.081803791225,-0.127969056368,0.0,14.8999996185,0.071306282461204,-0.0273591275,-0.0427990155076923,14.8999996185,0.0,0.10448776815702054,0.2617721265068504
1648638474653709341,36654,8,3,1.2007856369,0.698059022427,-0.141326442361,0.0,14.8999996185,0.40160054745819396,0.23346455599565216,-0.047266368682608695,14.8999996185,0.0,0.6140616405082548,1.3961180852232717
1648638474653714488,36655,8,4,1.52442109585,0.454011052847,0.275416970253,0.0,14.8999996185,0.5098398313879599,0.15184316148729096,0.0921126990812709,14.8999996185,0.0,0.736837602888087,1.614261509509255
1648638474653851219,36656,8,5,3.81000781059,-1.00345981121,0.766690194607,0.0,14.8999996185,1.2742501038762541,-0.3356052880301003,0.25641812528662206,14.8999996185,0.0,1.8330459797318386,4.01383918013377
1648638474753647507,36657,9,0,0.0272387824953,0.081803791225,0.0134178455919,0.0,14.3999996185,0.00910996070076923,0.0273591275,0.004487573776555184,14.3999996185,0.0,0.030240777528039452,0.08725737854724791
1648638474753664642,36658,9,1,0.0696399956942,0.0272679310292,-0.0449508726597,0.0,14.3999996185,0.02329096845959866,0.00911970937431438,-0.015033736675484948,14.3999996185,0.0,0.03417758801676907,0.08725737800192009
1648638474753669644,36659,9,2,0.212729543447,-0.081803791225,-0.128759175539,0.0,14.3999996185,0.07114700449732442,-0.0273591275,-0.04306326941103678,14.3999996185,0.0,0.10427039059793465,0.2617721226552504
1648638474753676153,36660,9,3,1.20031797886,0.698059022427,-0.145244240761,0.0,14.3999996185,0.4014441400869565,0.23346455599565216,-0.04857666915083612,14.3999996185,0.0,0.6138570632700734,1.3961180246098586
1648638474753678432,36661,9,4,1.51529014111,0.403565376997,0.383237659931,0.0,14.3999996185,0.5067860003712374,0.13497169799230768,0.12817313041170567,14.3999996185,0.0,0.7293020359244025,1.6142615430113185
1648638474753687033,36662,9,5,2.45623230934,1.71787965298,0.585472643375,0.0,14.3999996185,0.8214823777056856,0.5745416899598662,0.19581024862040133,14.3999996185,0.0,1.2960573857911972,3.054008165625774
1648638474753689529,36663,9,6,3.84044837952,-1.00345981121,0.595759034157,0.0,14.3999996185,1.284430896160535,-0.3356052880301003,0.19925051309598663,14.3999996185,0.0,1.8472023071058776,4.013839081882965
1648638474853760015,36664,10,0,0.0272590443492,0.081803791225,0.0133766327053,0.0,13.8000001907,0.009116737240535116,0.0273591275,0.004473790202441472,13.8000001907,0.0,0.030244861603042194,0.08725737825621133
1648638474853772839,36665,10,1,0.0696678087115,0.0272679310292,-0.0449077524245,0.0,13.8000001907,0.023300270472073576,0.00911970937431438,-0.015019315192140467,13.8000001907,0.0,0.03419026626418,0.08725737711560867
1648638474853791811,36666,10,2,0.21220728755,-0.081803791225,-0.129618108273,0.0,13.8000001907,0.07097233697324415,-0.0273591275,-0.04335053788394648,13.8000001907,0.0,0.10403204837187767,0.2617721282726313
1648638474853957102,36667,10,3,1.20022463799,0.698059022427,-0.146013885736,0.0,13.8000001907,0.40141292240468224,0.23346455599565216,-0.04883407549698996,13.8000001907,0.0,0.6138162326406673,1.3961180592119318
1648638474853962894,36668,10,4,1.44287788868,0.39265820384,0.480427205563,0.0,13.8000001907,0.48256785574581934,0.13132381399331103,0.16067799517157189,13.8000001907,0.0,0.6949743987514833,1.5706327917529237
1648638474853964960,36669,10,5,3.82078003883,-1.12889230251,0.488002359867,0.0,13.8000001907,1.2778528557959865,-0.3775559540167224,0.1632114915943144,13.8000001907,0.0,1.8461755985131518,4.013839089827078
1648638474853972239,36670,10,6,0.901577174664,0.324488371611,-1.13237297535,-0.973720252514,13.8000001907,0.3015308276468227,0.10852453900033444,-0.3787200586454849,13.8000001907,-0.13158381790729728,0.4400218808286594,1.4833754280319231
1648638474853975499,36671,10,7,1.14550566673,0.880754172802,0.335397690535,-0.973720252514,13.8000001907,0.38311226312040136,0.2945666129772575,0.1121731406471572,13.8000001907,-0.13158381790729728,0.616700496016798,1.4833754603049387
1648638474853982792,36672,10,8,0.898630201817,0.218143448234,-1.04595541954,-0.730290174484,13.8000001907,0.30054521799899664,0.07295767499464882,-0.34981786606688964,13.8000001907,-0.09868786141675676,0.43125129387023714,1.3961180262750637
1648638474853986002,36673,10,9,1.13973069191,0.741687715054,0.31632065773,-0.730290174484,13.8000001907,0.3811808334147157,0.24805609199130432,0.10579286211705685,13.8000001907,-0.09868786141675676,0.5934049884349414,1.396118001907579
1648638474953709022,36674,11,0,0.0176676232368,0.0845305845141,0.0125014074147,0.0,29.8999996185,0.005908904092575251,0.028271098499698995,0.004181072713946488,29.8999996185,0.0,0.02948025280641582,0.08725737685996086
1648638474953715227,36675,11,1,0.0696225464344,0.0272679310292,-0.0449778921902,0.0,29.8999996185,0.02328513258675585,0.00911970937431438,-0.015042773307759195,29.8999996185,0.0,0.03416963415428318,0.08725737688296988
1648638474953725320,36676,11,2,0.212493479252,-0.081803791225,-0.129148408771,0.0,29.8999996185,0.07106805326153845,-0.0273591275,-0.04319344774949833,29.8999996185,0.0,0.10416265283839016,0.26177213463522975
1648638474953727591,36677,11,3,1.20059621334,0.698059022427,-0.142926648259,0.0,29.8999996185,0.40153719509699,0.23346455599565216,-0.047801554601672236,29.8999996185,0.0,0.6139787756909545,1.396118079913242
1648638474953736414,36678,11,4,1.47157168388,0.343575924635,0.428159028292,0.0,29.8999996185,0.4921644427692307,0.11490833599832774,0.14319699942876252,29.8999996185,0.0,0.7054470944972411,1.570632926655418
1648638474953799823,36679,11,5,3.81542301178,-1.12889230251,0.528255999088,0.0,29.8999996185,1.2760612079531772,-0.3775559540167224,0.17667424718662206,29.8999996185,0.0,1.8436954497148712,4.013839183382807
1648638475053597220,36680,12,0,0.0272696707398,0.081803791225,0.0133549552411,0.0,14.5,0.009120291217324413,0.0273591275,0.004466540214414715,14.5,0.0,0.030247004501914993,0.0872573780865107
1648638475053602962,36681,12,1,0.0695425719023,0.0272679310292,-0.0451014526188,0.0,14.5,0.023258385251605347,0.00911970937431438,-0.015084097865819397,14.5,0.0,0.034133181335705344,0.08725738019059268
1648638475053605874,36682,12,2,0.213205784559,-0.081803791225,-0.127969056368,0.0,14.5,0.071306282461204,-0.0273591275,-0.0427990155076923,14.5,0.0,0.10448776815702054,0.2617721265068504
1648638475053609758,36683,12,3,1.20044124126,0.698059022427,-0.144222542644,0.0,14.5,0.40148536496989967,0.23346455599565216,-0.048234964094983276,14.5,0.0,0.6139109833487866,1.3961180875256538
1648638475053617466,36684,12,4,1.47117185593,0.343575924635,0.429530471563,0.0,14.5,0.4920307210468227,0.11490833599832774,0.14365567610802674,14.5,0.0,0.7052605097335432,1.5706328252237851
1648638475053913303,36685,12,5,2.46211075783,1.71787965298,0.56023812294,0.0,14.5,0.8234484139899665,0.5745416899598662,0.18737060967892974,14.5,0.0,1.2985502433510694,3.054008290810658
1648638475053916604,36686,12,6,3.83500790596,-1.00345981121,0.62983161211,0.0,14.5,1.282611339785953,-0.3356052880301003,0.21064602411705685,14.5,0.0,1.844671951119982,4.0138391959696635
1648638475053917695,36687,12,7,3.17042517662,1.19297194481,-4.27397060394,0.243430063128,14.5,1.0603428684347824,0.3989872725117057,-1.429421606668896,14.5,0.03289595447675676,1.5517231843686987,5.453586213217221
1648638475053918860,36688,12,8,3.86492109299,-1.53382110596,-3.52865123749,0.243430063128,14.5,1.2926157501638795,-0.5129836474782609,-1.1801509155484948,14.5,0.03289595447675676,1.8986477234399115,5.453586140877128
1648638475053919822,36689,12,9,3.9953584671,3.32668757439,1.14078676701,0.365145087242,14.5,1.3362402899999999,1.112604539929766,0.3815340357892976,14.5,0.04934393070837838,2.1929352675149563,5.322699873749563
1648638475053920989,36690,12,10,3.30925869942,1.16434061527,-4.00303030014,0.365145087242,14.5,1.1067754847558529,0.3894115770133779,-1.3388061204481603,14.5,0.04934393070837838,1.6129306629936553,5.32269985927191
1648638475053924707,36691,12,11,1.55655550957,0.670791089535,0.571747243404,0.852005243301,14.5,0.5205871269464883,0.22434484599832774,0.19121981384749162,14.5,0.11513584368932432,0.7696444136163217,1.7887762997402297
1648638475053925770,36692,12,12,1.9466483593,0.71987336874,-1.99595224857,-0.973720252514,14.5,0.6510529629765885,0.24076032399331102,-0.6675425580501672,14.5,-0.13158381790729728,0.951685586110536,2.8794935110810886
1648638475054089294,36693,12,13,2.02437233925,1.79968345165,0.977005362511,-0.973720252514,14.5,0.6770476051003345,0.6019008199498327,0.32675764632474913,14.5,-0.13158381790729728,1.130960439715058,2.879493596526762
1648638475054094363,36694,12,14,1.82255339622,0.179968342185,0.575338304043,-0.243430063128,14.5,0.6095496308428093,0.060190080998327754,0.19242083747257524,14.5,-0.03289595447675676,0.864132137333056,1.919662379263851
1648638475153674505,36695,13,0,0.0272047892213,0.081803791225,0.0134866330773,0.0,27.2000007629,0.009098591712809363,0.0273591275,0.00451057962451505,27.2000007629,0.0,0.03023393126727093,0.08725737841077093
1648638475153689285,36696,13,1,0.0696505606174,0.0272679310292,-0.0449345000088,0.0,27.2000007629,0.0232945018787291,0.00911970937431438,-0.015028260872508359,27.2000007629,0.0,0.03418240387433547,0.08725737761342686
1648638475153696358,36697,13,2,0.213205784559,-0.081803791225,-0.127969056368,0.0,27.2000007629,0.071306282461204,-0.0273591275,-0.0427990155076923,27.2000007629,0.0,0.10448776815702054,0.2617721265068504
1648638475153719765,36698,13,3,1.20090305805,0.698059022427,-0.140324905515,0.0,27.2000007629,0.40163981874581933,0.23346455599565216,-0.04693140652675584,27.2000007629,0.0,0.6141130082571091,1.3961180583078834
1648638475153859114,36699,13,4,2.45506930351,1.71787965298,0.590331077576,0.0,27.2000007629,0.8210934125451506,0.5745416899598662,0.19743514300200668,27.2000007629,0.0,1.2955643317689867,3.0540082790182157
1648638475153867874,36700,13,5,3.81560230255,-1.00345981121,0.738344192505,0.0,27.2000007629,1.2761211714214045,-0.3356052880301003,0.2469378570250836,27.2000007629,0.0,1.8356474055911831,4.013839143581159
1648638475154064404,36701,13,6,1.46451926231,0.343575924635,0.451692759991,0.121715031564,27.2000007629,0.4898057733478261,0.11490833599832774,0.15106781270602004,27.2000007629,0.01644797723837838,0.7021561912364147,1.5706328135799625
1648638475154071903,36702,13,7,1.64501976967,0.42537972331,0.0901589393616,0.121715031564,27.2000007629,0.5501738360100334,0.14226746598996656,0.030153491425284278,27.2000007629,0.01644797723837838,0.7909630405645998,1.7015189055532824
1648638475154138081,36703,13,8,1.66525065899,0.572626531124,0.506702184677,0.243430063128,27.2000007629,0.5569400197290969,0.19151389000802674,0.1694656136043478,27.2000007629,0.03289595447675676,0.81058123665534,1.8324049785378174
1648638475154148223,36704,13,9,4.07925224304,-1.40702521801,-3.61323976517,0.243430063128,27.2000007629,1.3642984090434782,-0.47057699598996655,-1.2084413930334448,27.2000007629,0.03289595447675676,1.9859665170873533,5.628100960987527
1648638475154152101,36705,13,10,4.19846582413,3.06764221191,1.6444016695,0.365145087242,27.2000007629,1.4041691719498328,1.025967294953177,0.5499671135451505,27.2000007629,0.04934393070837838,2.23517136193673,5.4535860557374605
1648638475154154945,36706,13,11,4.20441436768,0.852122843266,-3.36725234985,0.365145087242,27.2000007629,1.4061586513979933,0.2849909174802675,-1.126171354464883,27.2000007629,0.04934393070837838,2.0089261133374445,5.453586150666375
1648638475253776598,36707,14,0,0.0271931793541,0.081803791225,0.013510026969,0.0,11.8000001907,0.009094708814080267,0.0273591275,0.004518403668561872,11.8000001907,0.0,0.030231594638508153,0.08725737843226065
1648638475253792825,36708,14,1,0.0696961507201,0.0272679310292,-0.0448637530208,0.0,11.8000001907,0.02330974940471572,0.00911970937431438,-0.01500459967250836,11.8000001907,0.0,0.03420318601670387,0.08725737689687586
1648638475253817340,36709,14,2,1.20078873634,0.698059022427,-0.141299918294,0.0,11.8000001907,0.40160158406020063,0.23346455599565216,-0.047257497757190625,11.8000001907,0.0,0.6140629963982294,1.396118066290471
1648638475253819722,36710,14,3,1.64391767979,-2.1132645607,0.385431528091,0.0,11.8000001907,0.549805244076923,-0.7067774450501672,0.12890686558227424,11.8000001907,0.0,1.0507644691654796,2.7049787252921718
1648638475253845467,36711,14,4,2.45869255066,1.71787965298,0.575053751469,0.0,11.8000001907,0.822305200889632,0.5745416899598662,0.19232566938762538,11.8000001907,0.0,1.297100551353755,3.054008247839588
1648638475253946981,36712,14,5,3.83604931831,-1.00345981121,0.623456954956,0.0,11.8000001907,1.2829596382307693,-0.3356052880301003,0.2085140317578595,11.8000001907,0.0,1.8451563012417727,4.0138391273073255
1648638475254057824,36713,14,6,1.55848348141,0.302674025297,0.292160540819,0.121715031564,11.8000001907,0.5212319335819398,0.10122877100234112,0.09771255545785952,11.8000001907,0.01644797723837838,0.7440515581932341,1.6142614748017041
1648638475254062214,36714,14,7,4.16066408157,0.68715184927,-3.52648091316,0.243430063128,11.8000001907,1.3915264486856187,0.22981667199665548,-1.1794250545685618,11.8000001907,0.03289595447675676,1.981289332104435,5.497214830666862
1648638475254064115,36715,14,8,4.53471231461,2.74860739708,1.44945311546,0.243430063128,11.8000001907,1.5166261921772575,0.9192666879866219,0.4847669282474916,11.8000001907,0.03289595447675676,2.333529784947702,5.4972149979307865
1648638475353689050,36716,15,0,0.0272006299347,0.081803791225,0.0134950168431,0.0,12.6000003815,0.009097200647056856,0.0273591275,0.004513383559565217,12.6000003815,0.0,0.030233094065723404,0.08725737795294698
1648638475353698253,36717,15,1,0.0696116238832,0.0272679310292,-0.0449947938323,0.0,12.6000003815,0.02328147955959866,0.00911970937431438,-0.015048426030869564,12.6000003815,0.0,0.034164655421063124,0.08725737627433276
1648638475353715245,36718,15,2,0.212355300784,-0.081803791225,-0.129375457764,0.0,12.6000003815,0.0710218397270903,-0.0273591275,-0.04326938386755853,12.6000003815,0.0,0.10409959315003234,0.2617721205581126
1648638475353734416,36719,15,3,1.20051705837,0.698059022427,-0.143589392304,0.0,12.6000003815,0.40151072186287623,0.23346455599565216,-0.04802320812842809,12.6000003815,0.0,0.6139441492904244,1.396118017866444
1648638475353860079,36720,15,4,1.61799442768,-2.07917976379,0.376681894064,0.0,12.6000003815,0.5411352600936454,-0.6953778474214046,0.12598056657658863,12.6000003815,0.0,1.0340237376954462,2.661349978389354
1648638475353865666,36721,15,5,2.43415141106,1.71787965298,0.671387851238,0.0,12.6000003815,0.8140974618929766,0.5745416899598662,0.2245444318521739,12.6000003815,0.0,1.2867041262167118,3.054008061691726
1648638475353868847,36722,15,6,3.8412797451,-1.00345981121,0.590375542641,0.0,12.6000003815,1.2847089448494982,-0.3356052880301003,0.197450014261204,12.6000003815,0.0,1.8475889844081632,4.013839178913099
1648638475353871554,36723,15,7,1.56509637833,0.252228349447,0.304457604885,0.121715031564,12.6000003815,0.5234436047926421,0.08435730750735786,0.10182528591471572,12.6000003815,0.01644797723837838,0.7450520586687365,1.6142615175053736
1648638475353875769,36724,15,8,1.79495215416,0.0586260519922,0.542413115501,-0.121715031564,12.6000003815,0.6003184462073579,0.019607375248227425,0.18140906872943144,12.6000003815,-0.01644797723837838,0.8492048768570266,1.8760336451042976
1648638475454004289,36725,16,0,0.0272502936423,0.081803791225,0.0133944517002,0.0,15.3000001907,0.009113810582709029,0.0273591275,0.004479749732508361,15.3000001907,0.0,0.030243097464318275,0.0872573784772609
1648638475454024572,36726,16,1,0.0697404295206,0.0272679310292,-0.0447948873043,0.0,15.3000001907,0.023324558368093645,0.00911970937431438,-0.014981567660301003,15.3000001907,0.0,0.03422337133020609,0.08725737505183112
1648638475454049025,36727,16,2,0.213114976883,-0.081803791225,-0.128120213747,0.0,15.3000001907,0.07127591200100333,-0.0273591275,-0.04284956981505016,15.3000001907,0.0,0.1044463169322442,0.261772119984543
1648638475454072401,36728,16,3,1.20055186749,0.698059022427,-0.143298625946,0.0,15.3000001907,0.40152236370903005,0.23346455599565216,-0.0479259618548495,15.3000001907,0.0,0.6139593765252065,1.3961180757813707
1648638475454176454,36729,16,4,1.85981035233,-1.59244716167,-2.03685283661,0.0,15.3000001907,0.6220101512809364,-0.5325910239698997,-0.6812216844849498,15.3000001907,0.0,1.0283221554582849,3.184894344770464
1648638475454230605,36730,16,5,1.50310063362,0.0995279476047,2.80612444878,0.0,15.3000001907,0.5027092420133779,0.033286938998227426,0.9385031601270902,15.3000001907,0.0,0.7117170676042562,3.1848943073804046
1648638475454244332,36731,16,6,3.84076952934,-1.00345981121,0.593685388565,0.0,15.3000001907,1.2845383041270904,-0.3356052880301003,0.19855698614214046,15.3000001907,0.0,1.847351677102432,4.0138391236839315
1648638475454298867,36732,16,7,1.56206142902,0.252228349447,0.319663852453,0.121715031564,15.3000001907,0.5224285715785952,0.08435730750735786,0.1069109874424749,15.3000001907,0.01644797723837838,0.7436258334224234,1.6142614493513296
1648638475454553813,36733,16,8,1.66030359268,0.372207254171,0.00453185103834,0.121715031564,15.3000001907,0.5552854825016722,0.12448403149531771,0.0015156692435919733,15.3000001907,0.01644797723837838,0.7950976092603707,1.7015189677454272
1648638475454943455,36734,16,9,1.7668864727,0.469008415937,0.421480298042,0.243430063128,15.3000001907,0.5909319306688963,0.15685900198561872,0.1409633103819398,15.3000001907,0.03289595447675676,0.8502975008031383,1.8760336732765632
1648638475454966784,36735,16,10,2.46545886993,0.858939826488,-4.83767557144,0.243430063128,15.3000001907,0.8245681839230768,0.2872708449792642,-1.6179516961337792,15.3000001907,0.03289595447675676,1.200978733471789,5.497214749248121
1648638475454976015,36736,16,11,4.51226234436,2.9203953743,1.15332090855,0.243430063128,15.3000001907,1.5091178409230768,0.9767208609698996,0.3857260563712374,15.3000001907,0.03289595447675676,2.3470954296403117,5.49721472426361
1648638475455038465,36737,16,12,5.93783044815,-1.76696193218,1.04413425922,-0.243430063128,15.3000001907,1.985896470953177,-0.5909571679531772,0.3492087823478261,15.3000001907,-0.03289595447675676,2.8699825715575007,6.282531436612746
