%time,field.header.seq,field.header.frame_id,field.point_id,field.x,field.y,field.z,field.velocity,field.intensity,normalized_x,normalized_y,normalized_z,normalized_intensity,normalized_velocity,normalized_range,range
1648638759557254252,64399,0,0,0.0272249858826,0.081803791225,0.0134458160028,0.0,25.8999996185,0.0091053464490301,0.0273591275,0.0044969284290300995,25.8999996185,0.0,0.030237998040131334,0.08725737838757425
1648638759557269643,64400,0,1,0.069647103548,0.0272679310292,-0.044939853251,0.0,25.8999996185,0.02329334566822742,0.00911970937431438,-0.015030051254515049,25.8999996185,0.0,0.034180828016755475,0.0872573750777575
1648638759557281692,64401,0,2,0.212325274944,-0.081803791225,-0.129424735904,0.0,25.8999996185,0.07101179764013377,-0.0273591275,-0.04328586485083612,25.8999996185,0.0,0.10408589081007988,0.2617721239984287
1648638759557288068,64402,0,3,0.259071171284,1.01436698437,0.0183333307505,0.0,25.8999996185,0.08664587668361202,0.3392531720301003,0.006131548745986622,25.8999996185,0.0,0.36070449210541894,1.0470885166912867
1648638759557297919,64403,0,4,0.788132309914,0.392658174038,-0.56662273407,0.0,25.8999996185,0.2635894013090301,0.13132380402608695,-0.18950593112709027,25.8999996185,0.0,0.39522738577784294,1.0470884883018223
1648638759557308598,64404,0,5,1.16870820522,0.676244676113,-0.0777284875512,0.0,25.8999996185,0.39087230943812706,0.22616878799765885,-0.025996149682675582,25.8999996185,0.0,0.5972559294266737,1.3524893525261952
1648638759557455371,64405,0,6,1.57275032997,0.353119701147,0.0871953964233,0.0,25.8999996185,0.5260034548394649,0.1181002344973244,0.029162339940903007,25.8999996185,0.0,0.7531978056224201,1.6142614908732436
1648638759557458430,64406,0,7,1.64406716824,-2.1132645607,0.384793072939,0.0,25.8999996185,0.5498552402140469,-0.7067774450501672,0.12869333543110367,25.8999996185,0.0,1.050816790507906,2.7049786812795946
1648638759557460274,64407,0,8,2.43878054619,1.71787965298,0.65437322855,0.0,25.8999996185,0.8156456676220735,0.5745416899598662,0.21885392259197323,25.8999996185,0.0,1.2886635960262303,3.0540080839513886
1648638759557463224,64408,0,9,3.802983284,-1.12889230251,0.611411452293,0.0,25.8999996185,1.2719007638795987,-0.3775559540167224,0.2044854355494983,25.8999996185,0.0,1.837936779306756,4.013839016832239
1648638759557543381,64409,0,10,1.60057997704,0.436286896467,0.541606426239,-0.243430063128,25.8999996185,0.5353110291103679,0.1459153499889632,0.1811392729896321,25.8999996185,-0.03289595447675676,0.7709780056115763,1.7451475696552299
1648638759557547238,64410,0,11,1.79478573799,0.0586260519922,0.542963445187,-0.121715031564,25.8999996185,0.600262788625418,0.019607375248227425,0.181593125480602,25.8999996185,-0.01644797723837838,0.8491261861354008,1.876033624984861
1648638759657290173,64411,1,0,0.0272344648838,0.081803791225,0.0134266037494,0.0,13.8999996185,0.00910851668354515,0.0273591275,0.004490502926220735,13.8999996185,0.0,0.030239907571123575,0.08725737805213794
1648638759657302350,64412,1,1,0.0697374343872,0.0272679310292,-0.0447995550931,0.0,13.8999996185,0.023323556651237455,0.00911970937431438,-0.014983128793678928,13.8999996185,0.0,0.03422200591430788,0.0872573776483223
1648638759657327586,64413,1,2,0.212871074677,-0.081803791225,-0.128525048494,0.0,13.8999996185,0.07119433935685618,-0.0273591275,-0.042984966051505015,13.8999996185,0.0,0.1043349882373102,0.26177211995036703
1648638759657334792,64414,1,3,0.362922400236,0.981645464897,0.0324623845518,0.0,13.8999996185,0.12137872917591971,0.32830952003244146,0.01085698479993311,13.8999996185,0.0,0.3704763592142616,1.0470884842059414
1648638759657346754,64415,1,4,1.16833424568,0.676244676113,-0.0831604897976,0.0,13.8999996185,0.39074723935785954,0.22616878799765885,-0.02781287284200669,13.8999996185,0.0,0.5970922297232704,1.352489348816917
1648638759657355776,64416,1,5,2.44381737709,1.71787965298,0.635304927826,0.0,13.8999996185,0.8173302264515049,0.5745416899598662,0.212476564490301,13.8999996185,0.0,1.2907964795599947,3.0540082229767704
1648638759657365221,64417,1,6,3.84177851677,-1.00345981121,0.587121367455,0.0,13.8999996185,1.2848757581170567,-0.3356052880301003,0.19636166135618727,13.8999996185,0.0,1.8478209699393306,4.013839217600942
1648638759657378191,64418,1,7,1.54012513161,0.490822762251,0.657759606838,-0.243430063128,13.8999996185,0.5150920172608695,0.16415476998361203,0.2199864905812709,13.8999996185,-0.03289595447675676,0.7467170555170923,1.7451475884142584
1648638759657489658,64419,1,8,3.1144554615,0.872573792934,-4.55248403549,-0.243430063128,13.8999996185,1.041623900167224,0.2918306999779264,-1.522569911535117,13.8999996185,-0.03289595447675676,1.5017076467304695,5.584472109266347
1648638759657498096,64420,1,9,1.49958324432,0.19632910192,0.423783481121,-0.121715031564,13.8999996185,0.501532857632107,0.06566190699665551,0.14173360572608695,13.8999996185,-0.01644797723837838,0.7123074480866335,1.5706328220742884
1648638759657571678,64421,1,10,1.79824388027,0.117252103984,0.521606206894,-0.121715031564,13.8999996185,0.6014193579498327,0.03921475049632107,0.17445023641939797,13.8999996185,-0.01644797723837838,0.8514389495965443,1.87603362013785
1648638759757374976,64422,2,0,0.0272344648838,0.081803791225,0.0134266037494,0.0,11.3000001907,0.00910851668354515,0.0273591275,0.004490502926220735,11.3000001907,0.0,0.030239907571123575,0.08725737805213794
1648638759757381499,64423,2,1,0.0697720870376,0.0272679310292,-0.0447455607355,0.0,11.3000001907,0.023335146166421405,0.00911970937431438,-0.014965070480100333,11.3000001907,0.0,0.03423780355525834,0.08725737446044292
1648638759757393316,64424,2,2,0.212674900889,-0.081803791225,-0.128849431872,0.0,11.3000001907,0.07112872939431437,-0.0273591275,-0.043093455475585275,11.3000001907,0.0,0.10424545145022136,0.2617721333921289
1648638759757407555,64425,2,3,0.259511262178,1.01436698437,0.0103868693113,0.0,11.3000001907,0.0867930642735786,0.3392531720301003,0.0034738693348829426,11.3000001907,0.0,0.36077525794388937,1.0470885164259975
1648638759757474024,64426,2,4,1.16853570938,0.676244676113,-0.0802806615829,0.0,11.3000001907,0.3908146185217391,0.22616878799765885,-0.02684971959294314,11.3000001907,0.0,0.5971804189396325,1.3524893902325386
1648638759757492927,64427,2,5,1.64293301105,-2.1132645607,0.3896073699,0.0,11.3000001907,0.5494759234280936,-0.7067774450501672,0.13030346819397992,11.3000001907,0.0,1.05041988637209,2.7049787217256958
1648638759757504450,64428,2,6,2.47468757629,1.71787965298,0.501773834229,0.0,11.3000001907,0.8276547077892976,0.5745416899598662,0.1678173358625418,11.3000001907,0.0,1.3038875657638256,3.0540081995770136
1648638759757526908,64429,2,7,3.83787107468,-1.00345981121,0.612143576145,0.0,11.3000001907,1.2835689212976589,-0.3356052880301003,0.2047302930250836,11.3000001907,0.0,1.8460035917614672,4.013839276353081
1648638759757662557,64430,2,8,1.46459078789,0.238594397902,0.360261172056,-0.243430063128,11.3000001907,0.48982969494648826,0.07979745749230768,0.12048868630635451,11.3000001907,-0.03289595447675676,0.6973047356249462,1.52700411747108
1648638759757667869,64431,2,9,1.53601026535,0.454011052847,0.200964480639,-0.243430063128,11.3000001907,0.5137158078093645,0.15184316148729096,0.0672122008826087,11.3000001907,-0.03289595447675676,0.7422022689785525,1.6142615320468745
1648638759757673240,64432,2,10,1.80187129974,0.0586260519922,0.518965601921,-0.243430063128,11.3000001907,0.6026325417190634,0.019607375248227425,0.17356709094347827,11.3000001907,-0.03289595447675676,0.8524766330179862,1.8760337125905107
1648638759757675342,64433,2,11,3.93046069145,0.852122843266,-3.68333625793,-0.243430063128,11.3000001907,1.3145353483110367,0.2849909174802675,-1.23188503609699,11.3000001907,-0.03289595447675676,1.880751495271154,5.453586029029992
1648638759757982660,64434,2,12,4.2160153389,2.89721751213,1.89022433758,-0.243430063128,11.3000001907,1.4100385748829432,0.9689690676020066,0.6321820527023411,11.3000001907,-0.03289595447675676,2.217051785431577,5.453586223469157
1648638759857273952,64435,3,0,0.02722815983,0.081803791225,0.0134393870831,0.0,12.1999998093,0.009106407969899664,0.0273591275,0.004494778288662207,12.1999998093,0.0,0.030238637366616913,0.08725737832229896
1648638759857284064,64436,3,1,0.0697480216622,0.0272679310292,-0.0447830706835,0.0,12.1999998093,0.023327097545886286,0.00911970937431438,-0.014977615613210702,12.1999998093,0.0,0.034226832440390174,0.0872573779588138
1648638759857288520,64437,3,2,0.212625741959,-0.081803791225,-0.128930523992,0.0,12.1999998093,0.071112288280602,-0.0273591275,-0.043120576585953176,12.1999998093,0.0,0.10422301543597817,0.26177212689522605
1648638759857304992,64438,3,3,0.259005278349,1.01436698437,0.0192416645586,0.0,12.1999998093,0.08662383891270903,0.3392531720301003,0.006435339317257525,12.1999998093,0.0,0.36069390578222243,1.0470885133776975
1648638759857309725,64439,3,4,1.18666160107,0.633979380131,-0.138318091631,0.0,12.1999998093,0.39687678965551837,0.21203323750200667,-0.04626023131471572,12.1999998093,0.0,0.5999837215626134,1.352489373103443
1648638759857506093,64440,3,5,2.45265197754,1.71787965298,0.600294828415,0.0,12.1999998093,0.8202849423210702,0.5745416899598662,0.20076750114214045,12.1999998093,0.0,1.2945396582180484,3.0540082033412013
1648638759857511284,64441,3,6,3.84706735611,-1.00345981121,0.551404058933,0.0,12.1999998093,1.2866446007056855,-0.3356052880301003,0.18441607322173914,12.1999998093,0.0,1.8502809425608728,4.013839218425245
1648638759857516629,64442,3,7,2.61571359634,0.785316407681,0.581294119358,-0.730290174484,12.1999998093,0.8748206007826086,0.2626476279869565,0.19441274894916388,12.1999998093,-0.09868786141675676,1.264755290004538,2.792236080894866
1648638759857641229,64443,3,8,1.42234504223,0.23177741468,0.351591527462,-0.365145087242,12.1999998093,0.47570068302006685,0.07751752999331103,0.11758913961939799,12.1999998093,-0.04934393070837838,0.6771936555430655,1.4833754721226406
1648638759857702841,64444,3,9,1.56243801117,0.353119701147,0.199835330248,-0.365145087242,12.1999998093,0.5225545187859532,0.1181002344973244,0.06683455861137123,12.1999998093,-0.04934393070837838,0.7483809962816809,1.6142615095771624
1648638759857707076,64445,3,10,1.71381378174,0.114525310695,0.638305723667,-0.365145087242,12.1999998093,0.5731818668026756,0.03830277949665551,0.21348017513946488,12.1999998093,-0.04934393070837838,0.8115060121650176,1.8324049558265771
1648638759857709922,64446,3,11,1.56272983551,0.47855219245,0.47331777215,-0.243430063128,12.1999998093,0.5226521188996656,0.16005090048494983,0.15830025824414715,12.1999998093,-0.03289595447675676,0.756271621526726,1.701518866520396
1648638759857712874,64447,3,12,1.84241521358,0.38447779417,-0.813898921013,-0.243430063128,12.1999998093,0.6161923791237458,0.12858789102675583,-0.27220699699431433,12.1999998093,-0.03289595447675676,0.8808637476358492,2.050548328390968
1648638759857740832,64448,3,13,3.34101676941,1.1834281683,-4.08714389801,-0.243430063128,12.1999998093,1.1173969128461538,0.39579537401337794,-1.3669377585317724,12.1999998093,-0.03289595447675676,1.629050551630188,5.409957534587966
1648638759857750793,64449,3,14,4.1688747406,3.04310107231,1.6210051775,-0.243430063128,12.1999998093,1.394272488494983,1.0177595559565216,0.5421421998327759,12.1999998093,-0.03289595447675676,2.21896959377293,5.409957349609033
1648638759957356517,64450,4,0,0.0272207818925,0.081803791225,0.0134543245658,0.0,13.1000003815,0.009103940432274247,0.0273591275,0.004499774102274247,13.1000003815,0.0,0.030237151326638755,0.08725737834214556
1648638759957375292,64451,4,1,0.0697374343872,0.0272679310292,-0.0447995550931,0.0,13.1000003815,0.023323556651237455,0.00911970937431438,-0.014983128793678928,13.1000003815,0.0,0.03422200591430788,0.0872573776483223
1648638759957378995,64452,4,2,0.211820021272,-0.081803791225,-0.130249992013,0.0,13.1000003815,0.07084281647892976,-0.0273591275,-0.04356187023846154,13.1000003815,0.0,0.10385533761389397,0.26177211862580113
1648638759957521237,64453,4,3,0.259517729282,1.01436698437,0.0102237258106,0.0,13.1000003815,0.08679522718461538,0.3392531720301003,0.003419306291170568,13.1000003815,0.0,0.3607762986346842,1.0470885136229047
1648638759957529481,64454,4,4,1.18694245815,0.633979380131,-0.135886654258,0.0,13.1000003815,0.39697072178929765,0.21203323750200667,-0.04544704155785953,13.1000003815,0.0,0.6001079917160029,1.3524893479047755
1648638759957534250,64455,4,5,2.46050739288,1.71787965298,0.567237615585,0.0,13.1000003815,0.8229121715317724,0.5745416899598662,0.18971157711872907,13.1000003815,0.0,1.2978701928976617,3.054008127866456
1648638759957539130,64456,4,6,3.84630346298,-1.00345981121,0.556706666946,0.0,13.1000003815,1.2863891180535116,-0.3356052880301003,0.18618952071772574,13.1000003815,0.0,1.8499256297069755,4.013839089334259
1648638759957546854,64457,4,7,1.4103512764,0.324488371611,0.325606167316,-0.365145087242,13.1000003815,0.4716893901003344,0.10852453900033444,0.10889838371772574,13.1000003815,-0.04934393070837838,0.675839727325707,1.4833754758482705
1648638759957549005,64458,4,8,1.70166885853,0.111798517406,0.539948761463,-0.365145087242,13.1000003815,0.5691200195752508,0.03739080849698996,0.18058487005451504,13.1000003815,-0.04934393070837838,0.8057253042586701,1.7887762514049654
1648638759957552956,64459,4,9,1.46017110348,0.466281622648,0.631729185581,-0.243430063128,13.1000003815,0.48835153962541805,0.15594703098595317,0.21128066407391302,13.1000003815,-0.03289595447675676,0.7080211359714951,1.6578902155969455
1648638760057504509,64460,5,0,0.0272795893252,0.081803791225,0.0133346822113,0.0,25.7999992371,0.009123608469966554,0.0273591275,0.004459759936889632,25.7999992371,0.0,0.030249005282616273,0.08725737792422664
1648638760057518214,64461,5,1,0.0698439329863,0.0272679310292,-0.0446333438158,0.0,25.7999992371,0.023359174911806016,0.00911970937431438,-0.014927539737725752,25.7999992371,0.0,0.03427055885439648,0.08725738030555
1648638760057523287,64462,5,2,0.212502330542,-0.081803791225,-0.129133835435,0.0,25.7999992371,0.07107101355919732,-0.0273591275,-0.04318857372408027,25.7999992371,0.0,0.10416669234560764,0.2617721302941138
1648638760057528708,64463,5,3,0.258778691292,1.01436698437,0.0220808815211,0.0,25.7999992371,0.0865480572882943,0.3392531720301003,0.007384910207725752,25.7999992371,0.0,0.3606575206109538,1.0470885136297872
1648638760057533831,64464,5,4,1.18555951118,0.633979380131,-0.147466182709,0.0,25.7999992371,0.3965081977190635,0.21203323750200667,-0.04931979354816053,25.7999992371,0.0,0.5994961180211448,1.3524893655860706
1648638760057537089,64465,5,5,0.821196258068,0.97210174799,0.458129167557,0.0,25.7999992371,0.27464757794916383,0.3251176414682274,0.15322045737692308,25.7999992371,0.0,0.5065215345279477,1.3524893481564164
1648638760057540207,64466,5,6,2.46095991135,1.71787965298,0.565270960331,0.0,25.7999992371,0.8230635155016721,0.5745416899598662,0.18905383288662206,25.7999992371,0.0,1.2980621150784277,3.054008095272181
1648638760057549412,64467,5,7,3.81878066063,-1.12889230251,0.503410339355,0.0,25.7999992371,1.2771841674347826,-0.3775559540167224,0.1683646619916388,25.7999992371,0.0,1.8452499271116731,4.013839251195487
1648638760057559292,64468,5,8,1.60042846203,0.201782688498,0.061260227114,-0.486860126257,25.7999992371,0.5352603551939799,0.06748584899598661,0.0204883702722408,25.7999992371,-0.06579190895364864,0.7599747597779021,1.6142615435174223
1648638760057564031,64469,5,9,1.66624259949,0.109071724117,0.507227003574,-0.486860126257,25.7999992371,0.5572717724046823,0.03647883749732441,0.16964113831906352,25.7999992371,-0.06579190895364864,0.7889450945555516,1.7451476368811054
1648638760057566940,64470,5,10,1.35190534592,0.314944595098,0.382142186165,-0.365145087242,25.7999992371,0.45214225616053505,0.10533264050100333,0.1278067512257525,25.7999992371,-0.04934393070837838,0.6480433664244943,1.4397467877218837
1648638760157399007,64471,6,0,0.0271849352866,0.081803791225,0.0135266073048,0.0,39.2999992371,0.009091951600869565,0.0273591275,0.004523948931371238,39.2999992371,0.0,0.030229935914360878,0.0872573783155229
1648638760157414963,64472,6,1,0.0697615295649,0.0272679310292,-0.0447620302439,0.0,39.2999992371,0.02333161523909699,0.00911970937431438,-0.014970578676889631,39.2999992371,0.0,0.03423299049750815,0.08725738032627064
1648638760157418192,64473,6,2,0.212871074677,-0.081803791225,-0.128525048494,0.0,39.2999992371,0.07119433935685618,-0.0273591275,-0.042984966051505015,39.2999992371,0.0,0.1043349882373102,0.26177211995036703
1648638760157428569,64474,6,3,0.362609356642,0.981645464897,0.0357901565731,0.0,39.2999992371,0.12127403232173913,0.32830952003244146,0.011969952031137123,39.2999992371,0.0,0.3704077790423421,1.047088486988898
1648638760157534814,64475,6,4,1.64051568508,-2.1132645607,0.399663567543,0.0,39.2999992371,0.5486674532040133,-0.7067774450501672,0.13366674499765885,39.2999992371,0.0,1.0495743447904957,2.704978703007708
1648638760157540639,64476,6,5,2.38177871704,1.8133174181,0.604959249496,0.0,39.2999992371,0.796581510715719,0.6064606749498327,0.2023275081926421,39.2999992371,0.0,1.2794056263315716,3.05400812200628
1648638760157544797,64477,6,6,3.83954119682,-1.00345981121,0.601579070091,0.0,39.2999992371,1.2841274905752507,-0.3356052880301003,0.20119701340836119,39.2999992371,0.0,1.846780369577267,4.013839255919838
1648638760157550957,64478,6,7,1.55389916897,0.147246822715,0.174937665462,-0.486860126257,39.2999992371,0.5196987187190635,0.04924642900167224,0.05850758042207358,39.2999992371,-0.06579190895364864,0.7366130105054411,1.570632815435426
1648638760157591135,64479,6,8,1.61128079891,0.159517392516,0.522967755795,-0.365145087242,39.2999992371,0.5388898993010033,0.053350298500334445,0.17490560394481602,39.2999992371,-0.04934393070837838,0.7639704846964742,1.7015189934445076
1648638760157608923,64480,6,9,1.36829984188,0.404928773642,0.191465511918,-0.243430063128,39.2999992371,0.45762536517725755,0.13542768349230766,0.06403528826688962,39.2999992371,-0.03289595447675676,0.6611978578030402,1.4397467872046352
1648638760257642988,64481,7,0,0.0271859541535,0.081803791225,0.0135245583951,0.0,40.7999992371,0.0090922923590301,0.0273591275,0.004523263677290969,40.7999992371,0.0,0.030230140890267293,0.08725737815108853
1648638760257683190,64482,7,1,0.069647103548,0.0272679310292,-0.044939853251,0.0,40.7999992371,0.02329334566822742,0.00911970937431438,-0.015030051254515049,40.7999992371,0.0,0.034180828016755475,0.0872573750777575
1648638760257704373,64483,7,2,0.212342604995,-0.081803791225,-0.129396304488,0.0,40.7999992371,0.0710175936438127,-0.0273591275,-0.04327635601605351,40.7999992371,0.0,0.1040937993901494,0.26177212565511476
1648638760257724814,64484,7,3,0.258609890938,1.01436698437,0.0239771883935,0.0,40.7999992371,0.08649160232040135,0.3392531720301003,0.008019126553010033,40.7999992371,0.0,0.3606304330979095,1.047088515949874
1648638760257744438,64485,7,4,2.39078903198,1.8133174181,0.568307995796,0.0,40.7999992371,0.7995949939732441,0.6064606749498327,0.19006956381137122,40.7999992371,0.0,1.28315971688436,3.054008224007654
1648638760257774999,64486,7,5,3.84724330902,-1.00345981121,0.550174415112,0.0,40.7999992371,1.286703447832776,-0.3356052880301003,0.1840048211076923,40.7999992371,0.0,1.850362784613675,4.013839129630957
1648638760257989296,64487,7,6,1.49978137016,0.286313265562,0.0205506198108,-0.365145087242,40.7999992371,0.5015991204548494,0.09575694500401337,0.006873116993578595,40.7999992371,-0.04934393070837838,0.7158021708535527,1.5270041821456781
1648638760258011890,64488,7,7,2.26618480682,0.854849636555,0.56390440464,-0.365145087242,40.7999992371,0.7579213400735786,0.2859028884799331,0.18859679084949832,40.7999992371,-0.04934393070837838,1.1093376299031001,2.4868352694443616
1648638760258042359,64489,7,8,1.51492595673,0.310854405165,0.597468674183,-0.243430063128,40.7999992371,0.5066641995752508,0.10396468400167223,0.1998222990578595,40.7999992371,-0.03289595447675676,0.7240344451626778,1.6578902051145556
1648638760258288257,64490,7,9,1.30582952499,0.436286896467,0.231535091996,-0.121715031564,40.7999992371,0.43673228260535113,0.1459153499889632,0.0774364856173913,40.7999992371,-0.01644797723837838,0.6346349050452254,1.3961180119137537
1648638760357649414,64491,8,0,0.0272730570287,0.081803791225,0.0133480383083,0.0,24.6000003815,0.00912142375541806,0.0273591275,0.00446422685896321,24.6000003815,0.0,0.030247687518437937,0.08725737805569198
1648638760357675045,64492,8,1,0.0697551965714,0.0272679310292,-0.0447718948126,0.0,24.6000003815,0.023329497181070233,0.00911970937431438,-0.014973877863745818,24.6000003815,0.0,0.03423010336699388,0.08725737834956068
1648638760357708382,64493,8,2,0.21325828135,-0.081803791225,-0.127881556749,0.0,24.6000003815,0.07132383991638795,-0.0273591275,-0.042769751421070236,24.6000003815,0.0,0.10451173206103861,0.2617721287297157
1648638760357728497,64494,8,3,0.363871723413,0.981645464897,0.0190750267357,0.0,24.6000003815,0.12169622856622073,0.32830952003244146,0.006379607603913043,24.6000003815,0.0,0.37068461667354874,1.0470884902897948
1648638760357764420,64495,8,4,1.61679852009,-2.07917976379,0.381782144308,0.0,24.6000003815,0.540735291,-0.6953778474214046,0.1276863358889632,24.6000003815,0.0,1.0336051763367555,2.6613499488852397
1648638760357784958,64496,8,5,3.84988427162,-1.00345981121,0.531379520893,0.0,24.6000003815,1.2875867129163878,-0.3356052880301003,0.17771890330869564,24.6000003815,0.0,1.8515912064792877,4.013839146354166
1648638760357794731,64497,8,6,1.50514960289,0.238594397902,0.0966386646032,-0.243430063128,24.6000003815,0.5033945160167224,0.07979745749230768,0.03232062361311037,24.6000003815,-0.03289595447675676,0.7163656271302086,1.5270041405596884
1648638760357807572,64498,8,7,2.82654762268,-3.20670843124,-0.0922079756856,-0.243430063128,24.6000003815,0.9453336530702341,-1.0724777362006688,-0.030838787854715718,24.6000003815,-0.03289595447675676,1.7139194630729702,4.275611387514504
1648638760357817390,64499,8,8,1.25151801109,0.464918226004,0.216289460659,-0.121715031564,24.6000003815,0.41856789668561867,0.15549104548628762,0.07233761226053512,24.6000003815,-0.01644797723837838,0.6120258438154914,1.352489341823268
1648638760457761987,64500,9,0,0.0272386595607,0.081803791225,0.0134180951864,0.0,27.1000003815,0.009109919585518393,0.0273591275,0.004487657252976588,27.1000003815,0.0,0.03024075275634652,0.08725737855263813
1648638760457801972,64501,9,1,0.0697365626693,0.0272679310292,-0.0448009185493,0.0,27.1000003815,0.0233232651067893,0.00911970937431438,-0.01498358479909699,27.1000003815,0.0,0.034221608517939484,0.08725738099670095
1648638760457828238,64502,9,2,0.212342604995,-0.081803791225,-0.129396304488,0.0,27.1000003815,0.0710175936438127,-0.0273591275,-0.04327635601605351,27.1000003815,0.0,0.1040937993901494,0.26177212565511476
1648638760457842415,64503,9,3,0.259225189686,1.01436698437,0.016008881852,0.0,27.1000003815,0.0866973878548495,0.3392531720301003,0.005354141087625418,27.1000003815,0.0,0.36072924590916283,1.0470885169104769
1648638760457927093,64504,9,4,1.30470979214,0.479915589094,0.128682017326,0.0,27.1000003815,0.4363577900133779,0.16050688598461538,0.04303746398862875,27.1000003815,0.0,0.6376352423283994,1.3961180737833503
1648638760457961507,64505,9,5,3.84936690331,-1.00345981121,0.535114526749,0.0,27.1000003815,1.2874136800367892,-0.3356052880301003,0.1789680691468227,27.1000003815,0.0,1.8513505547155307,4.0138391479666735
1648638760458014089,64506,9,6,1.39379715919,0.35993668437,0.0254130214453,-0.121715031564,27.1000003815,0.4661528960501672,0.12038016199665551,0.008499338276020067,27.1000003815,-0.01644797723837838,0.6701406034514376,1.4397467691855963
1648638760458042232,64507,9,7,1.50019526482,0.310854405165,0.633548378944,-0.121715031564,27.1000003815,0.5017375467625418,0.10396468400167223,0.21188908994782607,27.1000003815,-0.01644797723837838,0.7171400052863842,1.657890177985685
1648638760557676389,64508,10,0,0.0272428523749,0.081803791225,0.0134095754474,0.0,13.1000003815,0.00911132186451505,0.0273591275,0.0044848078419397995,13.1000003815,0.0,0.03024159767272285,0.08725737778539701
1648638760557760214,64509,10,1,0.069647103548,0.0272679310292,-0.044939853251,0.0,13.1000003815,0.02329334566822742,0.00911970937431438,-0.015030051254515049,13.1000003815,0.0,0.034180828016755475,0.0872573750777575
1648638760557777255,64510,10,2,0.212342604995,-0.081803791225,-0.129396304488,0.0,13.1000003815,0.0710175936438127,-0.0273591275,-0.04327635601605351,13.1000003815,0.0,0.1040937993901494,0.26177212565511476
1648638760557837304,64511,10,3,0.258567720652,1.01436698437,0.0244277976453,0.0,13.1000003815,0.08647749854581939,0.3392531720301003,0.008169831988394648,13.1000003815,0.0,0.36062366844394617,1.0470885170036286
1648638760557897795,64512,10,4,1.25387024879,0.464918226004,0.202207416296,0.0,13.1000003815,0.419354598257525,0.15549104548628762,0.06762789842675584,13.1000003815,0.0,0.6131019681797467,1.3524893333688464
1648638760557913670,64513,10,5,3.83657598495,-1.00345981121,0.620208501816,0.0,13.1000003815,1.2831357809197323,-0.3356052880301003,0.20742759258060198,13.1000003815,0.0,1.8454012501097827,4.013839242761662
1648638760557923490,64514,10,6,1.56267094612,0.201782688498,0.350975394249,-0.243430063128,13.1000003815,0.522632423451505,0.06748584899598661,0.11738307499966553,13.1000003815,-0.03289595447675676,0.7421884126691116,1.6142615855533753
1648638760557936329,64515,10,7,1.46084618568,0.23177741468,0.112296439707,-0.121715031564,13.1000003815,0.488577319625418,0.07751752999331103,0.03755733769464883,13.1000003815,-0.01644797723837838,0.6952873952265923,1.4833754880482612
1648638760557959148,64516,10,8,0.783763885498,0.741687715054,-1.0178488493,-0.121715031564,13.1000003815,0.2621283897986622,0.24805609199130432,-0.3404176753511705,13.1000003815,-0.01644797723837838,0.44604305874083194,1.4833754665944425
1648638760657509004,64517,11,0,0.027193389833,0.081803791225,0.0135096004233,0.0,20.3999996185,0.009094779208361204,0.0273591275,0.004518261011137123,20.3999996185,0.0,0.030231636992709057,0.08725737798599109
1648638760657535654,64518,11,1,0.0697543472052,0.0272679310292,-0.0447732210159,0.0,20.3999996185,0.023329213112107023,0.00911970937431438,-0.014974321409999998,20.3999996185,0.0,0.03422971615325155,0.08725737984133738
1648638760657558332,64519,11,2,0.213249653578,-0.081803791225,-0.12789593637,0.0,20.3999996185,0.07132095437391303,-0.0273591275,-0.04277456065886287,20.3999996185,0.0,0.1045077936001561,0.26177212523467713
1648638760657570461,64520,11,3,0.257696986198,1.01436698437,0.032345674932,0.0,20.3999996185,0.08618628300936455,0.3392531720301003,0.010817951482274248,20.3999996185,0.0,0.36048420976573353,1.0470885150560227
1648638760657577039,64521,11,4,1.29646134377,0.479915589094,0.194973260164,0.0,20.3999996185,0.4335991116287625,0.16050688598461538,0.0652084482153846,20.3999996185,0.0,0.6338602682444944,1.3961180325188607
1648638760657597969,64522,11,5,2.46455311775,1.71787965298,0.549394011497,0.0,20.3999996185,0.8242652567725752,0.5745416899598662,0.18374381655418057,20.3999996185,0.0,1.2995863113108947,3.0540082436369906
1648638760657626692,64523,11,6,3.82460594177,-1.00345981121,0.690190792084,0.0,20.3999996185,1.2791324219966553,-0.3356052880301003,0.23083304083076922,20.3999996185,0.0,1.8398343445429608,4.01383925089353
1648638760657658128,64524,11,7,1.35427379608,0.706239402294,0.522502303123,0.121715031564,20.3999996185,0.4529343799598662,0.2362004689946488,0.17474993415484946,20.3999996185,0.01644797723837838,0.6827076729117295,1.614261523071884
1648638760657672516,64525,11,8,1.39386105537,0.35993668437,-0.0216238629073,-0.121715031564,20.3999996185,0.46617426601003337,0.12038016199665551,-0.007232061173010033,20.3999996185,-0.01644797723837838,0.6701703335588108,1.439746731157766
1648638760757625289,64526,12,0,0.0272657424212,0.081803791225,0.0133629748598,0.0,25.2999992371,0.00911897739839465,0.0273591275,0.004469222361137124,25.2999992371,0.0,0.03024621224461207,0.08725737828783454
1648638760757654406,64527,12,1,0.0697649270296,0.0272679310292,-0.0447567328811,0.0,25.2999992371,0.023332751514916383,0.00911970937431438,-0.014968806983645484,25.2999992371,0.0,0.034234539365757835,0.08725737931114341
1648638760757689246,64528,12,2,0.211820021272,-0.081803791225,-0.130249992013,0.0,25.2999992371,0.07084281647892976,-0.0273591275,-0.04356187023846154,25.2999992371,0.0,0.10385533761389397,0.26177211862580113
1648638760757699709,64529,12,3,0.362943321466,0.981645464897,0.0322279669344,0.0,25.2999992371,0.12138572624280936,0.32830952003244146,0.010778584258996655,25.2999992371,0.0,0.3704809441994562,1.0470884944465508
1648638760757718459,64530,12,4,3.84121084213,-1.00345981121,0.590824007988,0.0,25.2999992371,1.2846859003779263,-0.3356052880301003,0.1976000026715719,25.2999992371,0.0,1.847556936771761,4.013839226330033
1648638760757737623,64531,12,5,1.29097890854,0.436286896467,0.303599685431,0.121715031564,25.2999992371,0.4317655212508361,0.1459153499889632,0.10153835633143812,25.2999992371,0.01644797723837838,0.6278010991105495,1.3961180348801954
1648638760757772749,64532,12,6,1.51063024998,0.252228349447,0.510114789009,-0.121715031564,25.2999992371,0.505227508354515,0.08435730750735786,0.1706069528458194,25.2999992371,-0.01644797723837838,0.7194621781067536,1.6142614380530471
1648638760857660104,64533,13,0,0.0272239632905,0.081803791225,0.0134478863329,0.0,15.3000001907,0.009105004444983278,0.0273591275,0.004497620847123745,15.3000001907,0.0,0.0302377920729604,0.08725737838629166
1648638760857702519,64534,13,1,0.069647103548,0.0272679310292,-0.044939853251,0.0,15.3000001907,0.02329334566822742,0.00911970937431438,-0.015030051254515049,15.3000001907,0.0,0.034180828016755475,0.0872573750777575
1648638760857711703,64535,13,2,0.213195428252,-0.081803791225,-0.127986311913,0.0,15.3000001907,0.07130281881337792,-0.0273591275,-0.04280478659297659,15.3000001907,0.0,0.10448304072445469,0.2617721278582362
1648638760857731960,64536,13,3,0.259382873774,1.01436698437,0.0132098589092,0.0,15.3000001907,0.08675012500802674,0.3392531720301003,0.004418013013110367,15.3000001907,0.0,0.36075460234112244,1.0470885132401881
1648638760857762180,64537,13,4,2.46546292305,1.71787965298,0.54529607296,0.0,15.3000001907,0.8245695394816053,0.5745416899598662,0.18237326854849498,15.3000001907,0.0,1.299972309083448,3.054008142465002
1648638760857781239,64538,13,5,3.83562397957,-1.00345981121,0.626068532467,0.0,15.3000001907,1.2828173844715718,-0.3356052880301003,0.20938746905250835,15.3000001907,0.0,1.8449584800636398,4.013839148833868
1648638760857818048,64539,13,6,1.29200875759,0.436286896467,0.299186587334,0.121715031564,15.3000001907,0.4321099523712374,0.1459153499889632,0.10006240379063544,15.3000001907,0.01644797723837838,0.6282748691766588,1.3961180106848514
1648638760957693376,64540,14,0,0.0272133890539,0.081803791225,0.0134692722932,0.0,26.8999996185,0.009101467911003344,0.0273591275,0.004504773342207357,26.8999996185,0.0,0.030235662616045038,0.08725737847707023
1648638760957706051,64541,14,1,0.0697365626693,0.0272679310292,-0.0448009185493,0.0,26.8999996185,0.0233232651067893,0.00911970937431438,-0.01498358479909699,26.8999996185,0.0,0.034221608517939484,0.08725738099670095
1648638760957724346,64542,14,2,0.211264133453,-0.081803791225,-0.131149724126,0.0,26.8999996185,0.07065690082040132,-0.0273591275,-0.043862783988628765,26.8999996185,0.0,0.10360172356022518,0.2617721231925895
1648638760957749069,64543,14,3,0.363170564175,0.981645464897,0.0295571368188,0.0,26.8999996185,0.12146172714882941,0.32830952003244146,0.00988533003973244,26.8999996185,0.0,0.37053075886879544,1.0470884880338243
1648638760957792078,64544,14,4,1.64254307747,-2.1132645607,0.391248047352,0.0,26.8999996185,0.5493455108595318,-0.7067774450501672,0.13085218974983276,26.8999996185,0.0,1.0502834557559602,2.7049787243917343
1648638760957835339,64545,14,5,3.80865550041,-1.12889230251,0.575021088123,0.0,26.8999996185,1.27379782622408,-0.3775559540167224,0.1923147451916388,26.8999996185,0.0,1.8405624962494103,4.0138390355438816
1648638760957854459,64546,14,6,1.25825130939,0.422652930021,0.259606689215,0.121715031564,26.8999996185,0.42081983591638794,0.141355494990301,0.08682497967056856,26.8999996185,0.01644797723837838,0.6116862304853236,1.3524893677667709
1648638760957866807,64547,14,7,1.4348025322,0.370843857527,-0.0649553909898,0.121715031564,26.8999996185,0.47986706762541803,0.12402804599565216,-0.021724211033377922,26.8999996185,0.01644797723837838,0.6898751781129211,1.4833754332237257
1648638761057448980,64548,15,0,0.0272165797651,0.081803791225,0.0134628228843,0.0,25.7000007629,0.009102535038494982,0.0273591275,0.004502616349264214,25.7000007629,0.0,0.030236305095287585,0.08725737832932795
1648638761057456568,64549,15,1,0.069765791297,0.0272679310292,-0.044755384326,0.0,25.7000007629,0.023333040567558527,0.00911970937431438,-0.014968355961872909,25.7000007629,0.0,0.03423493337698529,0.0872573786225425
1648638761057464689,64550,15,2,0.213571086526,-0.081803791225,-0.127358451486,0.0,25.7000007629,0.07142845703210701,-0.0273591275,-0.042594799828093645,25.7000007629,0.0,0.10465453074538326,0.26177212308340125
1648638761057472167,64551,15,3,0.259081274271,1.01436698437,0.0181899089366,0.0,25.7000007629,0.08664925560903008,0.3392531720301003,0.006083581584147157,25.7000007629,0.0,0.3607061154564515,1.0470885150954978
1648638761057480345,64552,15,4,1.64328849316,-2.1132645607,0.388105362654,0.0,25.7000007629,0.5495948137658863,-0.7067774450501672,0.1298011246334448,25.7000007629,0.0,1.0505442758248509,2.7049787333329296
1648638761057594141,64553,15,5,3.83942651749,-1.00345981121,0.602309823036,0.0,25.7000007629,1.284089136284281,-0.3356052880301003,0.20144141238662205,25.7000007629,0.0,1.8467270315886937,4.013839147106503
1648638761057605692,64554,15,6,1.29155433178,0.479915589094,0.225197821856,0.121715031564,25.7000007629,0.43195797049498325,0.16050688598461538,0.07531699727625418,25.7000007629,0.01644797723837838,0.6316152602627394,1.3961180550239332
1648638761057610643,64555,15,7,1.50487935543,0.252228349447,0.526838958263,0.121715031564,25.7000007629,0.503304132250836,0.08435730750735786,0.17620032048929765,25.7000007629,0.01644797723837838,0.7167609464887335,1.6142615347606513
1648638761157656624,64556,16,0,0.0271817240864,0.081803791225,0.0135330567136,0.0,17.6000003815,0.009090877620869565,0.0273591275,0.004526105924280936,17.6000003815,0.0,0.030229289925443343,0.08725737795227449
1648638761157724000,64557,16,1,0.069647103548,0.0272679310292,-0.044939853251,0.0,17.6000003815,0.02329334566822742,0.00911970937431438,-0.015030051254515049,17.6000003815,0.0,0.034180828016755475,0.0872573750777575
1648638761157751866,64558,16,2,0.212342604995,-0.081803791225,-0.129396304488,0.0,17.6000003815,0.0710175936438127,-0.0273591275,-0.04327635601605351,17.6000003815,0.0,0.1040937993901494,0.26177212565511476
1648638761157802648,64559,16,3,0.363342940807,0.981645464897,0.027356762439,0.0,17.6000003815,0.12151937819632107,0.32830952003244146,0.009149418875919732,17.6000003815,0.0,0.3705685624798373,1.0470884890200398
1648638761157842325,64560,16,4,1.61411774158,-2.07917976379,0.392961651087,0.0,17.6000003815,0.5398387095585284,-0.6953778474214046,0.13142530136688962,17.6000003815,0.0,1.0326674272775629,2.6613499268345344
1648638761157912455,64561,16,5,3.8091006279,-1.12889230251,0.572065770626,0.0,17.6000003815,1.2739466982943142,-0.3775559540167224,0.19132634469096987,17.6000003815,0.0,1.8407685565011822,4.01383914352038
1648638761157935400,64562,16,6,1.34196913242,0.449920862913,0.263743847609,0.121715031564,17.6000003815,0.4488191078327759,0.1504752049876254,0.08820864468528428,17.6000003815,0.01644797723837838,0.652318917729423,1.439746766762845
1648638761157942543,64563,16,7,1.42250871658,0.621708810329,0.581848025322,0.121715031564,17.6000003815,0.47575542360535117,0.20792936800301004,0.19459800177993308,17.6000003815,0.01644797723837838,0.7042166344655212,1.657890231033976
