%time,field.header.seq,field.header.frame_id,field.point_id,field.x,field.y,field.z,field.velocity,field.intensity,normalized_x,normalized_y,normalized_z,normalized_intensity,normalized_velocity,normalized_range,range
1648638769157436137,65346,0,0,0.0271965842694,0.081803791225,0.0135031715035,0.0,13.5,0.00909584758173913,0.0273591275,0.004516110870735786,13.5,0.0,0.030232279834999466,0.08725737845797855
1648638769157442913,65347,0,1,0.0697365626693,0.0272679310292,-0.0448009185493,0.0,13.5,0.0233232651067893,0.00911970937431438,-0.01498358479909699,13.5,0.0,0.034221608517939484,0.08725738099670095
1648638769157564687,65348,0,2,0.212871074677,-0.081803791225,-0.128525048494,0.0,13.5,0.07119433935685618,-0.0273591275,-0.042984966051505015,13.5,0.0,0.1043349882373102,0.26177211995036703
1648638769157569753,65349,0,3,0.363315105438,0.981645464897,0.0277238655835,0.0,13.5,0.12151006870836119,0.32830952003244146,0.009272195847324414,13.5,0.0,0.37056245700145257,1.047088485905162
1648638769157571966,65350,0,4,0.80706101656,0.392658174038,-0.539320290089,0.0,13.5,0.2699200724280936,0.13132380402608695,-0.18037467895953174,13.5,0.0,0.40368258880345176,1.0470884878516238
1648638769157576543,65351,0,5,1.14566671848,0.718509972095,-0.0204651560634,0.0,13.5,0.38316612658193977,0.240304338493311,-0.006844533800468226,13.5,0.0,0.5927720777991503,1.3524894204559934
1648638769157581544,65352,0,6,1.62105679512,-2.07917976379,0.36327713728,0.0,13.5,0.5421594632508361,-0.6953778474214046,0.12149737032775919,13.5,0.0,1.035096187737785,2.661350014866312
1648638769157675909,65353,0,7,2.46955919266,1.71787965298,0.526434183121,0.0,13.5,0.8259395293177256,0.5745416899598662,0.1760649441876254,13.5,0.0,1.3017105537257934,3.054008195361052
1648638769157688256,65354,0,8,3.84739518166,-1.00345981121,0.549111485481,0.0,13.5,1.2867542413578594,-0.3356052880301003,0.18364932624782607,13.5,0.0,1.8504334261622728,4.013839147258064
1648638769157693185,65355,0,9,1.46351659298,0.245411381125,0.514567613602,-0.121715031564,13.5,0.4894704324347826,0.08207738499163879,0.17209619184013375,13.5,-0.01644797723837838,0.6970647786130438,1.5706328001418806
1648638769157695322,65356,0,10,1.68234276772,0.3272151649,0.328927278519,-0.121715031564,13.5,0.5626564440535117,0.10943651,0.11000912325050166,13.5,-0.01644797723837838,0.8032066345535656,1.7451475888285897
1648638769157700545,65357,0,11,1.63076007366,0.515363872051,0.657821714878,-0.121715031564,13.5,0.545404706909699,0.17236249901371237,0.22000726250100333,13.5,-0.01644797723837838,0.7903425964129488,1.8324049080440712
1648638769157708719,65358,0,12,2.73623275757,-3.47666096687,0.479042470455,-0.121715031564,13.5,0.9151280125652173,-1.162762865173913,0.1602148730618729,13.5,-0.01644797723837838,1.7398091962599165,4.450126163453818
1648638769257355862,65359,1,0,0.0272039901465,0.081803791225,0.0134882451966,0.0,11.8000001907,0.009098324463712374,0.0273591275,0.004511118794849498,11.8000001907,0.0,0.030233770417452573,0.0872573784682869
1648638769257360462,65360,1,1,0.0697374343872,0.0272679310292,-0.0447995550931,0.0,11.8000001907,0.023323556651237455,0.00911970937431438,-0.014983128793678928,11.8000001907,0.0,0.03422200591430788,0.0872573776483223
1648638769257373318,65361,1,2,0.212871074677,-0.081803791225,-0.128525048494,0.0,11.8000001907,0.07119433935685618,-0.0273591275,-0.042984966051505015,11.8000001907,0.0,0.1043349882373102,0.26177211995036703
1648638769257383524,65362,1,3,0.36379379034,0.981645464897,0.0205073673278,0.0,11.8000001907,0.12167016399331101,0.32830952003244146,0.0068586512802006686,11.8000001907,0.0,0.3706675040467541,1.0470884837288148
1648638769257393786,65363,1,4,1.16890120506,0.676244676113,-0.0747695565224,0.0,11.8000001907,0.39093685787959864,0.22616878799765885,-0.02500654064294314,11.8000001907,0.0,0.5973404174856051,1.3524893255565653
1648638769257404269,65364,1,5,2.45589089394,1.71787965298,0.586903035641,0.0,11.8000001907,0.8213681919531772,0.5745416899598662,0.19628864068260868,11.8000001907,0.0,1.2959126386476836,3.0540081464044455
1648638769257411449,65365,1,6,3.8396589756,-1.00345981121,0.600826382637,0.0,11.8000001907,1.2841668814715719,-0.3356052880301003,0.200945278473913,11.8000001907,0.0,1.8468351491918846,4.013839182589646
1648638769257416459,65366,1,7,1.55925130844,0.252228349447,0.333101332188,-0.243430063128,11.8000001907,0.5214887319197323,0.08435730750735786,0.11140512782207357,11.8000001907,-0.03289595447675676,0.7423052945846418,1.6142615279569883
1648638769257433762,65367,1,8,1.68618440628,0.515363872051,0.498888909817,-0.243430063128,11.8000001907,0.5639412730033444,0.17236249901371237,0.16685247819966553,11.8000001907,-0.03289595447675676,0.81594629103852,1.8324049544070848
1648638769257439958,65368,1,9,3.61725068092,-1.58290338516,-4.01066493988,-0.243430063128,11.8000001907,1.2097828364280936,-0.5293991254715719,-1.3413595116655517,11.8000001907,-0.03289595447675676,1.7909250282136526,5.628100823132954
1648638769257445998,65369,1,10,3.0543949604,1.58290338516,4.4542798996,-0.243430063128,11.8000001907,1.0215367760535117,0.5293991254715719,1.489725718929766,11.8000001907,-0.03289595447675676,1.5386156777147664,5.62810102297822
1648638769357433013,65370,2,0,0.027242872864,0.081803791225,0.0134095344692,0.0,11.8000001907,0.009111328717056857,0.0273591275,0.004484794136856187,11.8000001907,0.0,0.030241601801852133,0.08725737788489933
1648638769357451340,65371,2,1,0.069725997746,0.0272679310292,-0.0448173545301,0.0,11.8000001907,0.023319731687625415,0.00911970937431438,-0.01498908178264214,11.8000001907,0.0,0.034216792237695796,0.08725737843509326
1648638769357460186,65372,2,2,0.213457360864,-0.081803791225,-0.127548962831,0.0,11.8000001907,0.07139042169364548,-0.0273591275,-0.042658515996989964,11.8000001907,0.0,0.10460261218896166,0.26177212052674964
1648638769357484553,65373,2,3,0.259176284075,1.01436698437,0.0167817845941,0.0,11.8000001907,0.0866810314632107,0.3392531720301003,0.00561263698799331,11.8000001907,0.0,0.36072138440011714,1.0470885127347047
1648638769357489622,65374,2,4,1.168659091,0.676244676113,-0.0784639194608,0.0,11.8000001907,0.39085588327759196,0.22616878799765885,-0.02624211353204013,11.8000001907,0.0,0.5972344293907905,1.3524893787402819
1648638769357501821,65375,2,5,1.64312636852,-2.1132645607,0.388790905476,0.0,11.8000001907,0.5495405914782608,-0.7067774450501672,0.13003040316923076,11.8000001907,0.0,1.0504875440461898,2.7049786939303484
1648638769357507983,65376,2,6,2.4553771019,1.71787965298,0.589049220085,0.0,11.8000001907,0.8211963551505016,0.5745416899598662,0.19700642812207358,11.8000001907,0.0,1.2956948178204915,3.054008218446747
1648638769357512478,65377,2,7,3.84959602356,-1.00345981121,0.533463895321,0.0,11.8000001907,1.287490308882943,-0.3356052880301003,0.1784160185020067,11.8000001907,0.0,1.8514571289362223,4.013839167796043
1648638769357515055,65378,2,8,1.42453384399,0.286313265562,0.469541996717,-0.243430063128,11.8000001907,0.47643272374247486,0.09575694500401337,0.1570374570959866,11.8000001907,-0.03289595447675676,0.6805480681199885,1.527004140593826
1648638769357532045,65379,2,9,1.60296690464,0.414472550154,-0.0854948163033,-0.243430063128,11.8000001907,0.5361093326555183,0.13861958199130434,-0.028593584047926418,11.8000001907,-0.03289595447675676,0.7707410859894095,1.6578901519150893
1648638769357535378,65380,2,10,1.66774213314,0.572626531124,0.498440772295,-0.243430063128,11.8000001907,0.5577732886755853,0.19151389000802674,0.16670259942976587,11.8000001907,-0.03289595447675676,0.811726341315817,1.832405023536963
1648638769357624754,65381,2,11,3.63415002823,-1.57063281536,-3.93857765198,-0.243430063128,11.8000001907,1.2154347920501671,-0.5252952559732441,-1.3172500508294314,11.8000001907,-0.03289595447675676,1.7973587770392594,5.584472024197639
1648638769457371113,65382,3,0,0.0272239632905,0.081803791225,0.0134478863329,0.0,13.0,0.009105004444983278,0.0273591275,0.004497620847123745,13.0,0.0,0.0302377920729604,0.08725737838629166
1648638769457393176,65383,3,1,0.0697374343872,0.0272679310292,-0.0447995550931,0.0,13.0,0.023323556651237455,0.00911970937431438,-0.014983128793678928,13.0,0.0,0.03422200591430788,0.0872573776483223
1648638769457403576,65384,3,2,0.21274086833,-0.081803791225,-0.128740459681,0.0,13.0,0.07115079208361204,-0.0273591275,-0.04305700992675585,13.0,0.0,0.1042755593886316,0.26177212089040536
1648638769457411089,65385,3,3,0.259383410215,1.01436698437,0.0131994988769,0.0,13.0,0.08675030441973243,0.3392531720301003,0.004414548119364548,13.0,0.0,0.36075468862693566,1.0470885154776801
1648638769457445394,65386,3,4,0.812236607075,0.392658174038,-0.531493782997,0.0,13.0,0.27165103915551836,0.13132380402608695,-0.1777571180591973,13.0,0.0,0.40599817198163346,1.047088529626806
1648638769457505988,65387,3,5,1.18693363667,0.633979380131,-0.13596367836,0.0,13.0,0.39696777146153844,0.21203323750200667,-0.0454728021270903,13.0,0.0,0.600104088441216,1.3524893471385053
1648638769457511288,65388,3,6,1.64232420921,-2.1132645607,0.392165750265,0.0,13.0,0.5492723107725752,-0.7067774450501672,0.13115911380100334,13.0,0.0,1.0502068841873637,2.7049787221619184
1648638769457527455,65389,3,7,2.45582103729,1.71787965298,0.587196111679,0.0,13.0,0.8213448285250835,0.5745416899598662,0.1963866594244147,13.0,0.0,1.2958830225725377,3.0540083075999895
1648638769457591868,65390,3,8,3.8325586319,-1.00345981121,0.644568443298,0.0,13.0,1.2817921845819398,-0.3356052880301003,0.21557473019999998,13.0,0.0,1.8435328362316874,4.013839276523216
1648638769457597526,65391,3,9,2.88411808014,-3.27215147018,-0.0975312367082,-0.365145087242,13.0,0.9645879866688962,-1.0943650401939797,-0.032619142711772575,13.0,-0.04934393070837838,1.7488552853940431,4.362868859606647
1648638769457602116,65392,3,10,4.18090772629,1.22705686092,0.221281901002,-0.365145087242,13.0,1.398296898424749,0.410386910006689,0.07400732474983276,13.0,-0.04934393070837838,2.0196251751732013,4.362868739189081
1648638769457606714,65393,3,11,1.43084073067,0.334032148123,0.415762990713,-0.243430063128,13.0,0.4785420503913043,0.11171643749933109,0.13905116746254179,13.0,-0.03289595447675676,0.6859194926468917,1.5270041050928918
1648638769457621763,65394,3,12,1.59259068966,0.362663477659,0.284130811691,-0.243430063128,13.0,0.5326390266421405,0.12129213299632105,0.09502702732140468,13.0,-0.03289595447675676,0.7629681821225385,1.6578902922001868
1648638769457627271,65395,3,13,1.59846580029,0.447194069624,0.666817069054,-0.243430063128,13.0,0.5346039465852843,0.14956323398795984,0.2230157421585284,13.0,-0.03289595447675676,0.7706957378694009,1.788776244862781
1648638769457729641,65396,3,14,3.66490650177,-1.36339652538,-3.80147480965,-0.243430063128,13.0,1.2257212380501672,-0.455985459993311,-1.2713962574080266,13.0,-0.03289595447675676,1.7924028136944499,5.453586020274896
1648638769557413208,65397,4,0,0.02722815983,0.081803791225,0.0134393870831,0.0,13.5,0.009106407969899664,0.0273591275,0.004494778288662207,13.5,0.0,0.030238637366616913,0.08725737832229896
1648638769557419865,65398,4,1,0.0697374343872,0.0272679310292,-0.0447995550931,0.0,13.5,0.023323556651237455,0.00911970937431438,-0.014983128793678928,13.5,0.0,0.03422200591430788,0.0872573776483223
1648638769557425763,65399,4,2,0.213407501578,-0.081803791225,-0.127632379532,0.0,13.5,0.0713737463471572,-0.0273591275,-0.04268641455919732,13.5,0.0,0.1045798507974549,0.2617721266551272
1648638769557428250,65400,4,3,0.364182859659,0.981645464897,0.0117188524455,0.0,13.5,0.12180028751137123,0.32830952003244146,0.003919348643979933,13.5,0.0,0.3707529649505685,1.0470884898254271
1648638769557434703,65401,4,4,0.805156767368,0.392658174038,-0.54215914011,0.0,13.5,0.26928319978862875,0.13132380402608695,-0.18132412712709028,13.5,0.0,0.4028310128089534,1.0470885324948214
1648638769557476411,65402,4,5,1.18709135056,0.633979380131,-0.134579449892,0.0,13.5,0.39702051858193976,0.21203323750200667,-0.04500984946220735,13.5,0.0,0.6001738732698443,1.352489318752235
1648638769557490306,65403,4,6,2.4567091465,1.71787965298,0.583468794823,0.0,13.5,0.8216418550167224,0.5745416899598662,0.19514006515819396,13.5,0.0,1.2962595532271228,3.0540082133405684
1648638769557494903,65404,4,7,3.83762097359,-1.00345981121,0.613708734512,0.0,13.5,1.2834852754481605,-0.3356052880301003,0.2052537573618729,13.5,0.0,1.845887270105693,4.013839152291455
1648638769557558163,65405,4,8,1.40045428276,0.370843857527,0.318755805492,-0.243430063128,13.5,0.46837935878260867,0.12402804599565216,0.10660729280668896,13.5,-0.03289595447675676,0.673900143686522,1.4833754171824425
1648638769557598651,65406,4,9,1.56370151043,0.490822762251,0.599558949471,-0.243430063128,13.5,0.5229770937892977,0.16415476998361203,0.20052138778294312,13.5,-0.03289595447675676,0.7575994124634551,1.7451476532246588
1648638769657432454,65407,5,0,0.027261575684,0.081803791225,0.0133714731783,0.0,16.1000003815,0.009117583840802674,0.0273591275,0.00447206460812709,16.1000003815,0.0,0.030245372005471984,0.08725737826978211
1648638769657436375,65408,5,1,0.0698452144861,0.0272679310292,-0.044631332159,0.0,16.1000003815,0.023359603507056854,0.00911970937431438,-0.014926866942809364,16.1000003815,0.0,0.034271143124876405,0.08725737710652039
1648638769657439895,65409,5,2,0.211962327361,-0.081803791225,-0.130018293858,0.0,16.1000003815,0.07089041048862876,-0.0273591275,-0.04348437921672241,16.1000003815,0.0,0.10392026970737629,0.26177212459851484
1648638769657448837,65410,5,3,0.259162187576,1.01436698437,0.0169983524829,0.0,16.1000003815,0.08667631691505016,0.3392531720301003,0.005685067720033444,16.1000003815,0.0,0.3607191186510652,1.0470885170014037
1648638769657655353,65411,5,4,1.2330186367,0.6544303298,-0.0230572670698,0.0,16.1000003815,0.41238081494983275,0.21887302,-0.007711460558461537,16.1000003815,0.0,0.6229135348997458,1.39611806541438
1648638769657661422,65412,5,5,1.64017963409,-2.1132645607,0.40104046464,0.0,16.1000003815,0.5485550615685618,-0.7067774450501672,0.13412724569899664,16.1000003815,0.0,1.049456844265937,2.7049787041440525
1648638769657666102,65413,5,6,3.82174634933,-1.00345981121,0.705853641033,0.0,16.1000003815,1.2781760365652173,-0.3356052880301003,0.23607145185050166,16.1000003815,0.0,1.8385045200523447,4.013839323377349
1648638769657723906,65414,5,7,1.39434933662,0.370843857527,0.344481855631,-0.121715031564,16.1000003815,0.4663375707759197,0.12402804599565216,0.11521132295351169,16.1000003815,-0.01644797723837838,0.671062155115211,1.4833755384450413
1648638769657740989,65415,5,8,1.47422981262,0.599894464016,0.715760529041,-0.121715031564,16.1000003815,0.49305344903678927,0.20063360000535116,0.23938479232140464,16.1000003815,-0.01644797723837838,0.725573737579617,1.745147570639141
1648638769757312753,65416,6,0,0.0271965842694,0.081803791225,0.0135031715035,0.0,17.6000003815,0.00909584758173913,0.0273591275,0.004516110870735786,17.6000003815,0.0,0.030232279834999466,0.08725737845797855
1648638769757322556,65417,6,1,0.0697374343872,0.0272679310292,-0.0447995550931,0.0,17.6000003815,0.023323556651237455,0.00911970937431438,-0.014983128793678928,17.6000003815,0.0,0.03422200591430788,0.0872573776483223
1648638769757349412,65418,6,2,0.213079467416,-0.081803791225,-0.128179252148,0.0,17.6000003815,0.07126403592508361,-0.0273591275,-0.042869315099665545,17.6000003815,0.0,0.10443010815959386,0.26177211534899997
1648638769757389346,65419,6,3,0.363503932953,0.981645464897,0.0251273047179,0.0,17.6000003815,0.12157322172341135,0.32830952003244146,0.008403780842107023,17.6000003815,0.0,0.3706038820956299,1.0470884917080947
1648638769757426123,65420,6,4,2.39012384415,1.8133174181,0.571099281311,0.0,17.6000003815,0.7993725231270903,0.6064606749498327,0.19100310411739127,17.6000003815,0.0,1.282882462161576,3.054008257728385
1648638769757434263,65421,6,5,3.8082280159,-1.00345981121,0.775482594967,0.0,17.6000003815,1.2736548548160536,-0.3356052880301003,0.25935872741371235,17.6000003815,0.0,1.832218406125965,4.013839243031042
1648638769757443553,65422,6,6,1.53240561485,0.343575924635,0.0240018274635,-0.365145087242,17.6000003815,0.5125102390802675,0.11490833599832774,0.008027367044648829,17.6000003815,-0.04934393070837838,0.7338510857157128,1.5706328253714137
1648638769757447550,65423,6,7,2.69452571869,-3.37440633774,0.0935262963176,-0.365145087242,17.6000003815,0.9011791701304347,-1.1285639925551838,0.03127969776508361,17.6000003815,-0.04934393070837838,1.7023232591508743,4.319239996685138
1648638769757502100,65424,6,8,1.38688397408,0.417199343443,0.320780724287,-0.121715031564,17.6000003815,0.463840794006689,0.1395315529909699,0.1072845231729097,17.6000003815,-0.01644797723837838,0.6706456729522552,1.4833754490361828
1648638769857374335,65425,7,0,0.0272313263267,0.081803791225,0.0134329693392,0.0,24.0,0.009107466998896321,0.0273591275,0.004492631886020066,24.0,0.0,0.030239275253107958,0.08725737824139858
1648638769857399127,65426,7,1,0.0697543472052,0.0272679310292,-0.0447732210159,0.0,24.0,0.023329213112107023,0.00911970937431438,-0.014974321409999998,24.0,0.0,0.03422971615325155,0.08725737984133738
1648638769857405452,65427,7,2,0.211620211601,-0.081803791225,-0.130574375391,0.0,24.0,0.07077599050200668,-0.0273591275,-0.043670359662541805,24.0,0.0,0.10376417262543723,0.2617721179300523
1648638769857409342,65428,7,3,0.258609890938,1.01436698437,0.0239771883935,0.0,24.0,0.08649160232040135,0.3392531720301003,0.008019126553010033,24.0,0.0,0.3606304330979095,1.047088515949874
1648638769857554392,65429,7,4,1.1848359108,0.633979380131,-0.153171896935,0.0,24.0,0.39626619090300996,0.21203323750200667,-0.05122805917558528,24.0,0.0,0.5991760024493169,1.3524894158414766
1648638769857561367,65430,7,5,1.61724936962,-2.07917976379,0.37986779213,0.0,24.0,0.5408860767959867,-0.6953778474214046,0.1270460843244147,24.0,0.0,1.0337629548537395,2.661349949403094
1648638769857564950,65431,7,6,3.86507129669,-1.00345981121,0.406444311142,0.0,24.0,1.2926659855150502,-0.3356052880301003,0.1359345522214047,24.0,0.0,1.8586558609836727,4.013839147159515
1648638769857567697,65432,7,7,1.48494970798,0.334032148123,-0.122835621238,-0.365145087242,24.0,0.4966386983210702,0.11171643749933109,-0.04108214757123745,24.0,-0.04934393070837838,0.7111825052316993,1.5270041588202956
1648638769857572738,65433,7,8,1.33269870281,0.449920862913,0.307174474001,-0.121715031564,24.0,0.44571862970234105,0.1504752049876254,0.10273393779297658,24.0,-0.01644797723837838,0.6480532239280452,1.43974677385769
1648638769957305617,65434,8,0,0.0272039901465,0.081803791225,0.0134882451966,0.0,26.0,0.009098324463712374,0.0273591275,0.004511118794849498,26.0,0.0,0.030233770417452573,0.0872573784682869
1648638769957313491,65435,8,1,0.0697543472052,0.0272679310292,-0.0447732210159,0.0,26.0,0.023329213112107023,0.00911970937431438,-0.014974321409999998,26.0,0.0,0.03422971615325155,0.08725737984133738
1648638769957328062,65436,8,2,0.212871074677,-0.081803791225,-0.128525048494,0.0,26.0,0.07119433935685618,-0.0273591275,-0.042984966051505015,26.0,0.0,0.1043349882373102,0.26177211995036703
1648638769957331499,65437,8,3,0.258273422718,1.01436698437,0.0273646265268,0.0,26.0,0.08637907114314382,0.3392531720301003,0.009152049005618728,26.0,0.0,0.3605764864707479,1.0470885171022122
1648638769957482864,65438,8,4,1.32296597958,0.449920862913,0.346702903509,0.0,26.0,0.44246353832107016,0.1504752049876254,0.11595414833076922,26.0,0.0,0.6435765322036456,1.4397467379063646
1648638769957491638,65439,8,5,1.61745989323,-2.07917976379,0.378970593214,0.0,26.0,0.5409564860301003,-0.6953778474214046,0.12674601779732442,26.0,0.0,1.0338366361473628,2.661349978278395
1648638769957497218,65440,8,6,3.84609532356,-1.00345981121,0.558143496513,0.0,26.0,1.2863195062073578,-0.3356052880301003,0.18667006572341135,26.0,0.0,1.8498288173376605,4.013839183789439
1648638769957503067,65441,8,7,1.46179282665,0.429469913244,0.102267891169,-0.121715031564,26.0,0.4888939219565217,0.1436354224896321,0.03420330808327759,26.0,-0.01644797723837838,0.706162635974061,1.5270040589308727
1648638770057326596,65442,9,0,0.0271543841809,0.081803791225,0.0135878324509,0.0,21.7000007629,0.009081733839765885,0.0273591275,0.0045444255688628764,21.7000007629,0.0,0.03022379255874342,0.08725737808197671
1648638770057343368,65443,9,1,0.0697162970901,0.0272679310292,-0.0448324382305,0.0,21.7000007629,0.023316487321103675,0.00911970937431438,-0.014994126498494983,21.7000007629,0.0,0.034212370000664,0.08725737596478529
1648638770057353525,65444,9,2,0.212704077363,-0.081803791225,-0.128801241517,0.0,21.7000007629,0.07113848741237458,-0.0273591275,-0.0430773383,21.7000007629,0.0,0.10425876768983225,0.2617721234240748
1648638770057365809,65445,9,3,0.259252548218,1.01436698437,0.0155595215037,0.0,21.7000007629,0.08670653786555182,0.3392531720301003,0.005203853345719063,21.7000007629,0.0,0.3607336443274256,1.0470885165289696
1648638770057441167,65446,9,4,1.6161532402,-2.07917976379,0.384504854679,0.0,21.7000007629,0.5405194783277592,-0.6953778474214046,0.12859694136421404,21.7000007629,0.0,1.033379389956976,2.6613499899927704
1648638770057449394,65447,9,5,3.84654068947,-1.00345981121,0.555066585541,0.0,21.7000007629,1.2864684580167223,-0.3356052880301003,0.18564099850869561,21.7000007629,0.0,1.8500359716226096,4.013839282139495
1648638770057468470,65448,9,6,1.36986911297,0.404928773642,0.179894611239,-0.121715031564,21.7000007629,0.45815020500668896,0.13542768349230766,0.06016542181906354,21.7000007629,-0.01644797723837838,0.6619243749488569,1.4397467727156952
1648638770157355115,65449,10,0,0.0271788537502,0.081803791225,0.0135388188064,0.0,28.2999992371,0.009089917642207356,0.0273591275,0.004528033045618729,28.2999992371,0.0,0.030228712560171685,0.08725737770888305
1648638770157362857,65450,10,1,0.0697437748313,0.0272679310292,-0.0447896793485,0.0,28.2999992371,0.023325677201103675,0.00911970937431438,-0.014979825869063544,28.2999992371,0.0,0.034224896389209614,0.08725737542737422
1648638770157372204,65451,10,2,0.212297439575,-0.081803791225,-0.129470393062,0.0,28.2999992371,0.0710024881521739,-0.0273591275,-0.04330113480334448,28.2999992371,0.0,0.10407318821464272,0.2617721256904809
1648638770157494727,65452,10,3,0.259511262178,1.01436698437,0.0103868693113,0.0,28.2999992371,0.0867930642735786,0.3392531720301003,0.0034738693348829426,28.2999992371,0.0,0.36077525794388937,1.0470885164259975
1648638770157499125,65453,10,4,1.32892930508,0.449920862913,0.323092579842,0.0,28.2999992371,0.44445796156521733,0.1504752049876254,0.10805771901070234,28.2999992371,0.0,0.6463192295711805,1.4397467471516472
1648638770157502722,65454,10,5,3.84416747093,-1.00345981121,0.571270942688,0.0,28.2999992371,1.2856747394414714,-0.3356052880301003,0.19106051594916387,28.2999992371,0.0,1.848932118989109,4.013839262754502
1648638770257486260,65455,11,0,0.0272907651961,0.081803791225,0.013311797753,0.0,15.3000001907,0.009127346219431436,0.0273591275,0.004452106271906354,15.3000001907,0.0,0.03025126039655199,0.08725737838824191
1648638770257493389,65456,11,1,0.0698334053159,0.0272679310292,-0.0446498021483,0.0,15.3000001907,0.02335565395180602,0.00911970937431438,-0.014933044196755852,15.3000001907,0.0,0.03426575903296149,0.08725737443053345
1648638770257500145,65457,11,2,0.21216095984,-0.081803791225,-0.12969391048,0.0,15.3000001907,0.07095684275585283,-0.0273591275,-0.04337588979264214,15.3000001907,0.0,0.10401090772279081,0.2617721214235919
1648638770257506018,65458,11,3,0.363672196865,0.981645464897,0.0225614495575,0.0,15.3000001907,0.12162949727926421,0.32830952003244146,0.007545635303511705,15.3000001907,0.0,0.3706408101663188,1.047088489351114
1648638770257510588,65459,11,4,3.82598495483,-1.00345981121,0.682504892349,0.0,15.3000001907,1.2795936303779263,-0.3356052880301003,0.22826250580234114,15.3000001907,0.0,1.8404756524228427,4.013839233873156
1648638770257513484,65460,11,5,1.49082577229,0.763502061367,0.489942133427,0.121715031564,15.3000001907,0.49860393722073576,0.2553518599889632,0.16386024529331103,15.3000001907,0.01644797723837838,0.749944227808883,1.7451476084110287
1648638770257517311,65461,11,6,1.33469641209,0.449920862913,0.298374891281,-0.121715031564,15.3000001907,0.44638675989632104,0.1504752049876254,0.09979093353879598,15.3000001907,-0.01644797723837838,0.6489723153860567,1.4397468079760574
1648638770357268833,65462,12,0,0.0272155664861,0.081803791225,0.013464871794,0.0,25.2999992371,0.009102196149197325,0.0273591275,0.004503301603344481,25.2999992371,0.0,0.03023610105549625,0.0872573784294003
1648638770357463982,65463,12,1,0.0696364864707,0.0272679310292,-0.0449563078582,0.0,25.2999992371,0.02328979480625418,0.00911970937431438,-0.015035554467625417,25.2999992371,0.0,0.03417598840277785,0.08725737749232695
1648638770357535502,65464,12,2,0.212502330542,-0.081803791225,-0.129133835435,0.0,25.2999992371,0.07107101355919732,-0.0273591275,-0.04318857372408027,25.2999992371,0.0,0.10416669234560764,0.2617721302941138
1648638770357553812,65465,12,3,0.363734394312,0.981645464897,0.0215352810919,0.0,25.2999992371,0.12165029910100333,0.32830952003244146,0.007202435147792642,25.2999992371,0.0,0.3706544637349714,1.0470884856066711
1648638770357565128,65466,12,4,1.36218047142,0.449920862913,0.122090905905,0.0,25.2999992371,0.4555787529832776,0.1504752049876254,0.04083307889799331,25.2999992371,0.0,0.6616243553978832,1.439746716928744
1648638770357632862,65467,12,5,3.8003077507,-1.00345981121,0.81340867281,0.0,25.2999992371,1.2710059366889632,-0.3356052880301003,0.27204303438461536,25.2999992371,0.0,1.8285357780341471,4.01383909265763
1648638770357711246,65468,12,6,1.53365755081,0.726690351963,0.565275251865,0.121715031564,25.2999992371,0.5129289467591973,0.24304025149264213,0.18905526818227425,25.2999992371,0.01644797723837838,0.7650233804875545,1.788776246813356
1648638770457318798,65469,13,0,0.0271862857044,0.081803791225,0.0135238924995,0.0,12.6999998093,0.009092403245618729,0.0273591275,0.004523040969732441,12.6999998093,0.0,0.030230207593120034,0.08725737824117044
1648638770457324158,65470,13,1,0.0696539133787,0.0272679310292,-0.0449292957783,0.0,12.6999998093,0.023295623203578593,0.00911970937431438,-0.015026520327190636,12.6999998093,0.0,0.03418393218981947,0.08725737407643332
1648638770457328500,65471,13,2,0.213034898043,-0.081803791225,-0.128253340721,0.0,12.6999998093,0.07124912978026755,-0.0273591275,-0.04289409388662207,12.6999998093,0.0,0.10440976413368663,0.2617721288622448
1648638770457337841,65472,13,3,0.259065628052,1.01436698437,0.0184115953743,0.0,12.6999998093,0.08664402275986621,0.3392531720301003,0.006157724205451505,12.6999998093,0.0,0.36070360144100205,1.0470885184463117
1648638770457352836,65473,13,4,1.64252567291,-2.1132645607,0.39132091403,0.0,12.6999998093,0.5493396899364548,-0.7067774450501672,0.13087655987625418,12.6999998093,0.0,1.0502773665611398,2.704978696299896
1648638770457420141,65474,13,5,3.82068610191,-1.00345981121,0.711568832397,0.0,12.6999998093,1.2778214387658862,-0.3356052880301003,0.23798288708929763,12.6999998093,0.0,1.8380114711538678,4.013839070675438
1648638770457426076,65475,13,6,1.33559501171,0.449920862913,0.29432618618,0.121715031564,12.6999998093,0.44668729488628756,0.1504752049876254,0.09843685156521739,12.6999998093,0.01644797723837838,0.649385760655195,1.4397467562249542
1648638770557313633,65476,14,0,0.0271618440747,0.081803791225,0.0135729163885,0.0,27.8999996185,0.009084228787525083,0.0273591275,0.004539436919230769,27.8999996185,0.0,0.030225292105940934,0.08725737843650194
1648638770557318965,65477,14,1,0.0697374343872,0.0272679310292,-0.0447995550931,0.0,27.8999996185,0.023323556651237455,0.00911970937431438,-0.014983128793678928,27.8999996185,0.0,0.03422200591430788,0.0872573776483223
1648638770557325723,65478,14,2,0.211964040995,-0.081803791225,-0.130015522242,0.0,27.8999996185,0.07089098361036789,-0.0273591275,-0.043483452254849495,27.8999996185,0.0,0.10392105163080363,0.26177213556368717
1648638770557331986,65479,14,3,0.36324608326,0.981645464897,0.0286138504744,0.0,27.8999996185,0.12148698436789297,0.32830952003244146,0.009569849656989966,27.8999996185,0.0,0.37054731909101896,1.047088481550413
1648638770557363328,65480,14,4,1.64005959034,-2.1132645607,0.401531249285,0.0,27.8999996185,0.5485149131571906,-0.7067774450501672,0.1342913877207358,27.8999996185,0.0,1.0494148735096729,2.7049787258921545
1648638770557369111,65481,14,5,3.86131048203,-1.00345981121,0.440743714571,0.0,27.8999996185,1.2914081879698995,-0.3356052880301003,0.1474059246056856,27.8999996185,0.0,1.8569063318501462,4.013839216172243
1648638770557439198,65482,14,6,1.2642583847,0.523544251919,0.276943415403,0.121715031564,27.8999996185,0.42282889120401335,0.17509841201304346,0.09262321585384614,27.8999996185,0.01644797723837838,0.6230794462691899,1.3961180116081724
1648638770557498329,65483,14,7,1.43010783195,0.381751030684,0.375232309103,0.121715031564,27.8999996185,0.4782969337625418,0.12767592999464883,0.12549575555284279,27.8999996185,0.01644797723837838,0.6883582328942518,1.527004108124073
1648638770657380620,65484,15,0,0.0272803585976,0.081803791225,0.0133331110701,0.0,17.7000007629,0.009123865751705684,0.0273591275,0.0044592344716053505,17.7000007629,0.0,0.030249160485401112,0.08725737834019917
1648638770657387573,65485,15,1,0.0697638690472,0.0272679310292,-0.0447583757341,0.0,17.7000007629,0.023332397674648828,0.00911970937431438,-0.014969356432809363,17.7000007629,0.0,0.03423405704218934,0.08725737610885942
1648638770657417015,65486,15,2,0.213283479214,-0.081803791225,-0.127839520574,0.0,17.7000007629,0.07133226729565217,-0.0273591275,-0.04275569249966555,17.7000007629,0.0,0.10452323460665573,0.26177212568377545
1648638770657421456,65487,15,3,0.362696111202,0.981645464897,0.0349001698196,0.0,17.7000007629,0.12130304722474916,0.32830952003244146,0.011672297598528428,17.7000007629,0.0,0.37042678018192954,1.047088491813055
1648638770657430279,65488,15,4,1.64219725132,-2.1132645607,0.392697155476,0.0,17.7000007629,0.5492298499397993,-0.7067774450501672,0.13133684129632106,17.7000007629,0.0,1.0501624697928558,2.704978737748685
1648638770657438956,65489,15,5,3.85594987869,-1.00345981121,0.485410928726,0.0,17.7000007629,1.2896153440434783,-0.3356052880301003,0.1623447922160535,17.7000007629,0.0,1.8544126780569972,4.013839163370858
1648638770657532534,65490,15,6,1.27472770214,0.494912952185,0.450556576252,0.121715031564,17.7000007629,0.4263303351638796,0.16552272648327757,0.1506878181444816,17.7000007629,0.01644797723837838,0.6252302634584715,1.4397467740014287
1648638770757323303,65491,16,0,0.0272113848478,0.081803791225,0.0134733188897,0.0,26.6000003815,0.009100797607959865,0.0273591275,0.00450612671896321,26.6000003815,0.0,0.03023525908212715,0.08725737817526959
1648638770757349352,65492,16,1,0.0697365626693,0.0272679310292,-0.0448009185493,0.0,26.6000003815,0.0233232651067893,0.00911970937431438,-0.01498358479909699,26.6000003815,0.0,0.034221608517939484,0.08725738099670095
1648638770757352845,65493,16,2,0.212331175804,-0.081803791225,-0.12941506505,0.0,26.6000003815,0.07101377117190634,-0.0273591275,-0.043282630451505016,26.6000003815,0.0,0.10408858366638009,0.26177212903399066
1648638770757357083,65494,16,3,0.361279129982,0.981645464897,0.0473695807159,0.0,26.6000003815,0.12082914046220736,0.32830952003244146,0.015842669135752507,26.6000003815,0.0,0.3701168779096729,1.0470884899045536
1648638770757361156,65495,16,4,1.33144640923,0.449920862913,0.312557846308,0.0,26.6000003815,0.44529980241806016,0.1504752049876254,0.10453439675852842,26.6000003815,0.0,0.6474771157216251,1.4397467592686342
1648638770757370306,65496,16,5,3.83092904091,-1.00345981121,0.654183030128,0.0,26.6000003815,1.2812471708729096,-0.3356052880301003,0.21879031107959868,26.6000003815,0.0,1.842774955086333,4.013839103166528
1648638770757513522,65497,16,6,1.42828059196,0.39265820384,0.522227466106,0.121715031564,26.6000003815,0.47768581670903004,0.13132381399331103,0.17465801542006687,26.6000003815,0.01644797723837838,0.6881957738112723,1.5706328153861921
